\relax 
\catcode`:\active
\catcode`;\active
\catcode`!\active
\catcode`?\active
\select@language{french}
\@writefile{toc}{\select@language{french}}
\@writefile{lof}{\select@language{french}}
\@writefile{lot}{\select@language{french}}
\@writefile{toc}{\contentsline {chapter}{\numberline {1}Optique classique}{15}}
\@writefile{lof}{\addvspace {10\p@ }}
\@writefile{lot}{\addvspace {10\p@ }}
\@writefile{toc}{\contentsline {section}{\numberline {1.1}Introduction}{15}}
\@writefile{toc}{\contentsline {section}{\numberline {1.2}Historique}{15}}
\@writefile{toc}{\contentsline {section}{\numberline {1.3}La r\IeC {\'e}flexion}{15}}
\@writefile{toc}{\contentsline {subsection}{\numberline {1.3.1}Loi de la r\IeC {\'e}flexion}{15}}
\@writefile{lof}{\contentsline {figure}{\numberline {1.1}{\ignorespaces La r\IeC {\'e}flexion\relax }}{16}}
\providecommand*\caption@xref[2]{\@setref\relax\@undefined{#1}}
\newlabel{r\IeC {\'e}flexion}{{1.1}{16}}
\@writefile{lof}{\contentsline {figure}{\numberline {1.2}{\ignorespaces La nature de la surface\relax }}{16}}
\newlabel{surfreflechissante}{{1.2}{16}}
\@writefile{toc}{\contentsline {subsection}{\numberline {1.3.2}Le miroir plat}{16}}
\@writefile{lof}{\contentsline {figure}{\numberline {1.3}{\ignorespaces Le miroir plat\relax }}{16}}
\newlabel{miroir}{{1.3}{16}}
\@writefile{toc}{\contentsline {subsection}{\numberline {1.3.3}Le miroir sph\IeC {\'e}rique}{16}}
\@writefile{toc}{\contentsline {subsection}{\numberline {1.3.4}Le miroir parabolique}{16}}
\@writefile{lof}{\contentsline {figure}{\numberline {1.4}{\ignorespaces Le miroir sph\IeC {\'e}rique}}{17}}
\newlabel{sph\IeC {\'e}rique}{{1.4}{17}}
\@writefile{lof}{\contentsline {figure}{\numberline {1.5}{\ignorespaces Le miroir parabolique}}{17}}
\newlabel{parabolique}{{1.5}{17}}
\@writefile{toc}{\contentsline {subsection}{\numberline {1.3.5}Le t\IeC {\'e}lescope}{17}}
\newlabel{part\IeC {\'e}lescope}{{1.3.5}{17}}
\@writefile{lof}{\contentsline {figure}{\numberline {1.6}{\ignorespaces Le t\IeC {\'e}lescope\relax }}{17}}
\newlabel{t\IeC {\'e}lescope}{{1.6}{17}}
\@writefile{toc}{\contentsline {subsubsection}{Le phare de voiture}{17}}
\@writefile{toc}{\contentsline {subsubsection}{La lampe de poche}{17}}
\@writefile{toc}{\contentsline {subsubsection}{Le four solaire}{17}}
\@writefile{lof}{\contentsline {figure}{\numberline {1.7}{\ignorespaces Le four solaire d'Odeillo}}{18}}
\newlabel{foursolaireodeillo}{{1.7}{18}}
\@writefile{lof}{\contentsline {figure}{\numberline {1.8}{\ignorespaces Le four solaire\relax }}{18}}
\newlabel{foursolaire}{{1.8}{18}}
\@writefile{toc}{\contentsline {subsubsection}{L'antenne parabolique de t\IeC {\'e}l\IeC {\'e}vision}{18}}
\@writefile{lof}{\contentsline {figure}{\numberline {1.9}{\ignorespaces L'antenne parabolique\relax }}{18}}
\newlabel{antenneparabole}{{1.9}{18}}
\@writefile{toc}{\contentsline {subsubsection}{Le r\IeC {\'e}troviseur}{18}}
\@writefile{toc}{\contentsline {section}{\numberline {1.4}La r\IeC {\'e}fraction}{18}}
\citation{Des91}
\newlabel{r\IeC {\'e}troviseurjour}{{1.10(a)}{19}}
\newlabel{sub@r\IeC {\'e}troviseurjour}{{(a)}{19}}
\newlabel{r\IeC {\'e}troviseurnuit}{{1.10(b)}{19}}
\newlabel{sub@r\IeC {\'e}troviseurnuit}{{(b)}{19}}
\@writefile{lof}{\contentsline {figure}{\numberline {1.10}{\ignorespaces Le r\IeC {\'e}troviseur central\relax }}{19}}
\@writefile{lof}{\contentsline {subfigure}{\numberline{(a)}{\ignorespaces {R\IeC {\'e}troviseur en position jour}}}{19}}
\@writefile{lof}{\contentsline {subfigure}{\numberline{(b)}{\ignorespaces {R\IeC {\'e}troviseur en position nuit}}}{19}}
\@writefile{lof}{\contentsline {figure}{\numberline {1.11}{\ignorespaces Le ph\IeC {\'e}nom\IeC {\`e}ne de r\IeC {\'e}fraction\relax }}{19}}
\newlabel{refraction}{{1.11}{19}}
\@writefile{toc}{\contentsline {subsection}{\numberline {1.4.1}La loi de la r\IeC {\'e}fraction}{19}}
\newlabel{sectionloir\IeC {\'e}fraction}{{1.4.1}{19}}
\@writefile{lof}{\contentsline {figure}{\numberline {1.12}{\ignorespaces La loi de la r\IeC {\'e}fraction\relax }}{19}}
\newlabel{Descartes}{{1.12}{19}}
\@writefile{lof}{\contentsline {figure}{\numberline {1.13}{\ignorespaces La loi de la r\IeC {\'e}fraction\relax }}{20}}
\newlabel{loir\IeC {\'e}fraction}{{1.13}{20}}
\newlabel{eqloirefact}{{1.2}{20}}
\newlabel{indicevitesse}{{1.3}{20}}
\@writefile{lof}{\contentsline {figure}{\numberline {1.14}{\ignorespaces Le b\IeC {\^a}ton bris\IeC {\'e}\relax }}{20}}
\newlabel{batonbrise}{{1.14}{20}}
\@writefile{toc}{\contentsline {subsection}{\numberline {1.4.2}Le b\IeC {\^a}ton bris\IeC {\'e}}{20}}
\@writefile{lof}{\contentsline {figure}{\numberline {1.15}{\ignorespaces Le b\IeC {\^a}ton bris\IeC {\'e}\relax }}{21}}
\newlabel{baton}{{1.15}{21}}
\@writefile{lof}{\contentsline {figure}{\numberline {1.16}{\ignorespaces L'arc-en-ciel}}{21}}
\newlabel{photoarcenciel}{{1.16}{21}}
\@writefile{toc}{\contentsline {subsection}{\numberline {1.4.3}L'arc-en-ciel}{21}}
\@writefile{lof}{\contentsline {figure}{\numberline {1.17}{\ignorespaces La goutte d'arc-en-ciel\relax }}{21}}
\newlabel{goutte}{{1.17}{21}}
\@writefile{lof}{\contentsline {figure}{\numberline {1.18}{\ignorespaces La dispersion\relax }}{22}}
\newlabel{dispersion}{{1.18}{22}}
\@writefile{lof}{\contentsline {figure}{\numberline {1.19}{\ignorespaces La dispersion dans la goutte\relax }}{22}}
\newlabel{gouttecoloree}{{1.19}{22}}
\@writefile{lof}{\contentsline {figure}{\numberline {1.20}{\ignorespaces Le second arc-en-ciel\relax }}{22}}
\newlabel{goutte2reflexions}{{1.20}{22}}
\@writefile{toc}{\contentsline {subsection}{\numberline {1.4.4}Le prisme}{22}}
\@writefile{lof}{\contentsline {figure}{\numberline {1.21}{\ignorespaces Le prisme\relax }}{23}}
\newlabel{prismedispersion}{{1.21}{23}}
\@writefile{toc}{\contentsline {subsection}{\numberline {1.4.5}Les lunettes}{23}}
\@writefile{lof}{\contentsline {figure}{\numberline {1.22}{\ignorespaces Lentille convergente\relax }}{23}}
\newlabel{convergente}{{1.22}{23}}
\@writefile{lof}{\contentsline {figure}{\numberline {1.23}{\ignorespaces Lentille divergente\relax }}{23}}
\newlabel{divergente}{{1.23}{23}}
\@writefile{lof}{\contentsline {figure}{\numberline {1.24}{\ignorespaces Lentille mince\relax }}{24}}
\newlabel{mince}{{1.24}{24}}
\@writefile{lof}{\contentsline {figure}{\numberline {1.25}{\ignorespaces R\IeC {\'e}flexion totale\relax }}{24}}
\newlabel{totale}{{1.25}{24}}
\@writefile{toc}{\contentsline {subsection}{\numberline {1.4.6}La r\IeC {\'e}flexion totale}{24}}
\@writefile{lof}{\contentsline {figure}{\numberline {1.26}{\ignorespaces R\IeC {\'e}flexion totale\relax }}{24}}
\newlabel{reftotbac}{{1.26}{24}}
\@writefile{lof}{\contentsline {figure}{\numberline {1.27}{\ignorespaces Ensemble de fibres optiques\relax }}{24}}
\newlabel{fibreoptique}{{1.27}{24}}
\@writefile{toc}{\contentsline {subsubsection}{La fibre optique}{24}}
\@writefile{lof}{\contentsline {figure}{\numberline {1.28}{\ignorespaces Fibre optique\relax }}{25}}
\newlabel{fibre}{{1.28}{25}}
\@writefile{toc}{\contentsline {subsubsection}{L'endoscope}{25}}
\@writefile{toc}{\contentsline {section}{\numberline {1.5}Optique g\IeC {\'e}om\IeC {\'e}trique}{25}}
\@writefile{toc}{\contentsline {subsection}{\numberline {1.5.1}Rayons principaux}{25}}
\@writefile{lof}{\contentsline {figure}{\numberline {1.29}{\ignorespaces Rayons principaux\relax }}{25}}
\newlabel{rayonsprincipaux}{{1.29}{25}}
\@writefile{lof}{\contentsline {figure}{\numberline {1.30}{\ignorespaces Loi des lentilles minces\relax }}{25}}
\newlabel{lentillemince}{{1.30}{25}}
\@writefile{toc}{\contentsline {subsection}{\numberline {1.5.2}Loi des lentilles minces}{25}}
\@writefile{lof}{\contentsline {figure}{\numberline {1.31}{\ignorespaces Triangles semblables\relax }}{26}}
\newlabel{trianglessemblables}{{1.31}{26}}
\@writefile{toc}{\contentsline {subsection}{\numberline {1.5.3}Grandissement}{26}}
\@writefile{toc}{\contentsline {subsection}{\numberline {1.5.4}Grossissement}{26}}
\@writefile{toc}{\contentsline {subsection}{\numberline {1.5.5}La puissance d'une lentille}{26}}
\@writefile{toc}{\contentsline {subsection}{\numberline {1.5.6}Lentille convergente, divergente et loi des lentilles minces}{27}}
\newlabel{lentillemincegeneral}{{1.5.6}{27}}
\@writefile{toc}{\contentsline {subsection}{\numberline {1.5.7}Applications}{27}}
\@writefile{lof}{\contentsline {figure}{\numberline {1.32}{\ignorespaces La loupe\relax }}{27}}
\newlabel{loupe}{{1.32}{27}}
\@writefile{toc}{\contentsline {subsubsection}{La loupe}{27}}
\@writefile{lof}{\contentsline {figure}{\numberline {1.33}{\ignorespaces La lunette astronomique\relax }}{28}}
\newlabel{lunette}{{1.33}{28}}
\@writefile{toc}{\contentsline {subsubsection}{La lunette astronomique}{28}}
\newlabel{parlunetteastronomique}{{1.5.7}{28}}
\@writefile{toc}{\contentsline {subsubsection}{Le microscope}{28}}
\newlabel{parmicroscope}{{1.5.7}{28}}
\@writefile{toc}{\contentsline {section}{\numberline {1.6}L'\oe il}{28}}
\@writefile{lof}{\contentsline {figure}{\numberline {1.34}{\ignorespaces Le microscope\relax }}{29}}
\newlabel{microscope}{{1.34}{29}}
\@writefile{toc}{\contentsline {subsection}{\numberline {1.6.1}L'\oe il normal}{29}}
\@writefile{toc}{\contentsline {subsubsection}{Anatomie}{29}}
\@writefile{lof}{\contentsline {figure}{\numberline {1.35}{\ignorespaces Anatomie de l'\oe il}}{29}}
\newlabel{oeil}{{1.35}{29}}
\@writefile{lof}{\contentsline {figure}{\numberline {1.36}{\ignorespaces Fonctionnement de l'\oe il\relax }}{29}}
\newlabel{fonctoeil}{{1.36}{29}}
\@writefile{toc}{\contentsline {subsubsection}{Fonctionnement}{29}}
\newlabel{subsubsectionfonctionnementoeil}{{1.6.1}{29}}
\@writefile{lof}{\contentsline {figure}{\numberline {1.37}{\ignorespaces La vision lointaine\relax }}{30}}
\newlabel{lointain}{{1.37}{30}}
\@writefile{lof}{\contentsline {figure}{\numberline {1.38}{\ignorespaces La vision rapproch\IeC {\'e}e\relax }}{30}}
\newlabel{rapproche}{{1.38}{30}}
\@writefile{lof}{\contentsline {figure}{\numberline {1.39}{\ignorespaces Image floue - nette\relax }}{30}}
\newlabel{troublenet}{{1.39}{30}}
\@writefile{lof}{\contentsline {figure}{\numberline {1.40}{\ignorespaces L'\oe il myope\relax }}{30}}
\newlabel{myopie}{{1.40}{30}}
\@writefile{toc}{\contentsline {subsection}{\numberline {1.6.2}Les affections}{30}}
\@writefile{toc}{\contentsline {subsubsection}{Myopie}{30}}
\@writefile{lof}{\contentsline {figure}{\numberline {1.41}{\ignorespaces L'\oe il hyperm\IeC {\'e}trope\relax }}{31}}
\newlabel{hypermetropie}{{1.41}{31}}
\@writefile{toc}{\contentsline {subsubsection}{Hyperm\IeC {\'e}tropie}{31}}
\newlabel{subsubsectionhypermetropie}{{1.6.2}{31}}
\@writefile{toc}{\contentsline {subsubsection}{Presbytie}{31}}
\@writefile{toc}{\contentsline {subsubsection}{Astigmatisme}{31}}
\@writefile{toc}{\contentsline {subsection}{\numberline {1.6.3}Les corrections}{32}}
\newlabel{lunettes}{{1.6.3}{32}}
\@writefile{toc}{\contentsline {subsubsection}{Myopie}{32}}
\@writefile{toc}{\contentsline {subsubsection}{Hyperm\IeC {\'e}tropie}{33}}
\@writefile{lof}{\contentsline {figure}{\numberline {1.42}{\ignorespaces Les lunettes doubles foyers\relax }}{33}}
\newlabel{doublefoyers}{{1.42}{33}}
\@writefile{toc}{\contentsline {subsubsection}{Presbytie}{33}}
\@writefile{toc}{\contentsline {subsubsection}{Astigmatisme}{34}}
\@writefile{toc}{\contentsline {chapter}{\numberline {2}Ondes}{35}}
\@writefile{lof}{\addvspace {10\p@ }}
\@writefile{lot}{\addvspace {10\p@ }}
\@writefile{toc}{\contentsline {section}{\numberline {2.1}Introduction}{35}}
\@writefile{toc}{\contentsline {section}{\numberline {2.2}Le principe de Huygens}{35}}
\@writefile{toc}{\contentsline {section}{\numberline {2.3}D\IeC {\'e}finitions}{35}}
\@writefile{toc}{\contentsline {subsection}{\numberline {2.3.1}L'onde aquatique}{35}}
\@writefile{toc}{\contentsline {subsection}{\numberline {2.3.2}L'\IeC {\'e}nergie}{35}}
\@writefile{toc}{\contentsline {subsection}{\numberline {2.3.3}Onde circulaire, plane et front d'onde}{36}}
\@writefile{toc}{\contentsline {subsection}{\numberline {2.3.4}Onde transversale et longitudinale}{36}}
\@writefile{toc}{\contentsline {section}{\numberline {2.4}Le principe de Fourier}{36}}
\newlabel{Fourier}{{2.4}{36}}
\@writefile{toc}{\contentsline {subsection}{\numberline {2.4.1}Onde sinuso\IeC {\"\i }dale}{36}}
\newlabel{defondesinus}{{2.4.1}{36}}
\newlabel{sinusspatial}{{2.1(a)}{37}}
\newlabel{sub@sinusspatial}{{(a)}{37}}
\newlabel{sinustemporel}{{2.1(b)}{37}}
\newlabel{sub@sinustemporel}{{(b)}{37}}
\@writefile{lof}{\contentsline {figure}{\numberline {2.1}{\ignorespaces L'onde sinuso\IeC {\"\i }dale\relax }}{37}}
\@writefile{lof}{\contentsline {subfigure}{\numberline{(a)}{\ignorespaces {Extension spatiale}}}{37}}
\@writefile{lof}{\contentsline {subfigure}{\numberline{(b)}{\ignorespaces {Extension temporelle}}}{37}}
\@writefile{toc}{\contentsline {subsection}{\numberline {2.4.2}D\IeC {\'e}finitions attach\IeC {\'e}es}{37}}
\newlabel{frequence}{{2.4.2}{37}}
\newlabel{defattachee}{{2.4.2}{37}}
\newlabel{longfr\IeC {\'e}qvit}{{2.5}{38}}
\@writefile{toc}{\contentsline {subsection}{\numberline {2.4.3}Le spectre des ondes lumineuses}{38}}
\@writefile{lof}{\contentsline {figure}{\numberline {2.2}{\ignorespaces Le spectre des ondes \IeC {\'e}lectromagn\IeC {\'e}tiques\relax }}{38}}
\newlabel{ondesem}{{2.2}{38}}
\@writefile{toc}{\contentsline {section}{\numberline {2.5}Le principe de superposition}{38}}
\newlabel{principedesuperposition}{{2.5}{38}}
\newlabel{interferenceconstructive}{{2.3(a)}{39}}
\newlabel{sub@interferenceconstructive}{{(a)}{39}}
\newlabel{interferencedestructive}{{2.3(b)}{39}}
\newlabel{sub@interferencedestructive}{{(b)}{39}}
\@writefile{lof}{\contentsline {figure}{\numberline {2.3}{\ignorespaces Interf\IeC {\'e}rence\relax }}{39}}
\@writefile{lof}{\contentsline {subfigure}{\numberline{(a)}{\ignorespaces {Constructive}}}{39}}
\@writefile{lof}{\contentsline {subfigure}{\numberline{(b)}{\ignorespaces {Destructive}}}{39}}
\@writefile{toc}{\contentsline {subsubsection}{Exp\IeC {\'e}rience : la cuve \IeC {\`a} onde}{39}}
\@writefile{toc}{\contentsline {section}{\numberline {2.6}Ondes simples}{39}}
\@writefile{toc}{\contentsline {subsection}{\numberline {2.6.1}L'onde progressive}{39}}
\newlabel{onde progressive}{{2.6.1}{39}}
\newlabel{eqondeprogressive}{{2.7}{39}}
\@writefile{toc}{\contentsline {subsection}{\numberline {2.6.2}L'onde r\IeC {\'e}trograde}{39}}
\newlabel{onde r\IeC {\'e}trograde}{{2.6.2}{39}}
\@writefile{lof}{\contentsline {figure}{\numberline {2.4}{\ignorespaces L'\IeC {\'e}volution d'une onde plane\relax }}{40}}
\newlabel{ondeplane}{{2.4}{40}}
\newlabel{eqonderetrograde}{{2.8}{40}}
\@writefile{toc}{\contentsline {section}{\numberline {2.7}Le principe de Huygens}{40}}
\newlabel{huygens}{{2.7}{40}}
\@writefile{lof}{\contentsline {figure}{\numberline {2.5}{\ignorespaces La propagation en ligne droite}}{40}}
\newlabel{lignedroite}{{2.5}{40}}
\@writefile{toc}{\contentsline {subsection}{\numberline {2.7.1}La propagation en ligne droite}{40}}
\@writefile{toc}{\contentsline {subsection}{\numberline {2.7.2}La r\IeC {\'e}flexion}{40}}
\newlabel{reflexiononde}{{2.6(a)}{41}}
\newlabel{sub@reflexiononde}{{(a)}{41}}
\newlabel{demoreflexiononde}{{2.6(b)}{41}}
\newlabel{sub@demoreflexiononde}{{(b)}{41}}
\@writefile{lof}{\contentsline {figure}{\numberline {2.6}{\ignorespaces Th\IeC {\'e}orie ondulatoire de la r\IeC {\'e}flexion\relax }}{41}}
\@writefile{lof}{\contentsline {subfigure}{\numberline{(a)}{\ignorespaces {Principe}}}{41}}
\@writefile{lof}{\contentsline {subfigure}{\numberline{(b)}{\ignorespaces {D\IeC {\'e}monstration}}}{41}}
\@writefile{toc}{\contentsline {subsection}{\numberline {2.7.3}La r\IeC {\'e}fraction}{41}}
\@writefile{toc}{\contentsline {subsection}{\numberline {2.7.4}La diffraction}{42}}
\@writefile{toc}{\contentsline {subsection}{\numberline {2.7.5}L'interf\IeC {\'e}rence}{42}}
\newlabel{soldats}{{2.7(a)}{43}}
\newlabel{sub@soldats}{{(a)}{43}}
\newlabel{demorefractiononde}{{2.7(b)}{43}}
\newlabel{sub@demorefractiononde}{{(b)}{43}}
\@writefile{lof}{\contentsline {figure}{\numberline {2.7}{\ignorespaces Th\IeC {\'e}orie ondulatoire de la r\IeC {\'e}fraction\relax }}{43}}
\@writefile{lof}{\contentsline {subfigure}{\numberline{(a)}{\ignorespaces {Principe}}}{43}}
\@writefile{lof}{\contentsline {subfigure}{\numberline{(b)}{\ignorespaces {D\IeC {\'e}monstration}}}{43}}
\@writefile{lof}{\contentsline {figure}{\numberline {2.9}{\ignorespaces L'exp\IeC {\'e}rience de Young}}{43}}
\newlabel{younginterference}{{2.9}{43}}
\newlabel{peudiffraction}{{2.8(a)}{44}}
\newlabel{sub@peudiffraction}{{(a)}{44}}
\newlabel{fortdiffraction}{{2.8(b)}{44}}
\newlabel{sub@fortdiffraction}{{(b)}{44}}
\@writefile{lof}{\contentsline {figure}{\numberline {2.8}{\ignorespaces La diffraction\relax }}{44}}
\@writefile{lof}{\contentsline {subfigure}{\numberline{(a)}{\ignorespaces {a >> $\lambda $}}}{44}}
\@writefile{lof}{\contentsline {subfigure}{\numberline{(b)}{\ignorespaces {a = $\lambda $}}}{44}}
\@writefile{lof}{\contentsline {figure}{\numberline {2.10}{\ignorespaces L'exp\IeC {\'e}rience de Young}}{44}}
\newlabel{youngth}{{2.10}{44}}
\newlabel{inter}{{2.9}{44}}
\newlabel{tri}{{2.10}{44}}
\newlabel{deltad}{{2.11}{44}}
\newlabel{tand}{{2.12}{44}}
\newlabel{interdest}{{2.14}{44}}
\newlabel{deltaddest}{{2.15}{44}}
\newlabel{eqondeyoung}{{2.18}{45}}
\newlabel{eqintensiteondeyoung}{{2.19}{45}}
\@writefile{lof}{\contentsline {figure}{\numberline {2.11}{\ignorespaces L'intensit\IeC {\'e} des franges}}{45}}
\newlabel{intensiteyoung}{{2.11}{45}}
\newlabel{eqintensiteondeyoungx}{{2.21}{45}}
\@writefile{toc}{\contentsline {section}{\numberline {2.8}Ph\IeC {\'e}nom\IeC {\`e}nes ondulatoires}{45}}
\@writefile{toc}{\contentsline {subsection}{\numberline {2.8.1}Le battement}{45}}
\@writefile{lof}{\contentsline {figure}{\numberline {2.12}{\ignorespaces Le battement\relax }}{46}}
\newlabel{battement}{{2.12}{46}}
\newlabel{battementfrequence}{{2.22}{46}}
\@writefile{toc}{\contentsline {subsubsection}{Exp\IeC {\'e}rience : battement et effet Doppler}{46}}
\@writefile{toc}{\contentsline {subsubsection}{Exp\IeC {\'e}rience : corde de guitare}{46}}
\@writefile{lof}{\contentsline {figure}{\numberline {2.13}{\ignorespaces Battement de deux diapasons de $435$ et $394\tmspace  +\thinmuskip {.1667em}Hz$\relax }}{47}}
\newlabel{battementtemps}{{2.13}{47}}
\@writefile{toc}{\contentsline {subsection}{\numberline {2.8.2}Les ondes stationnaires}{47}}
\@writefile{toc}{\contentsline {subsubsection}{L'onde stationnaire}{47}}
\newlabel{sectionstationnaire}{{2.8.2}{47}}
\@writefile{lof}{\contentsline {figure}{\numberline {2.14}{\ignorespaces L'onde stationnaire\relax }}{47}}
\newlabel{ondestationnaire}{{2.14}{47}}
\newlabel{ondestationnaireequation}{{2.24}{47}}
\@writefile{toc}{\contentsline {subsubsection}{L'onde stationnaire en milieu ferm\IeC {\'e}}{47}}
\newlabel{ondestatmilieuferme}{{2.8.2}{47}}
\@writefile{lof}{\contentsline {figure}{\numberline {2.15}{\ignorespaces Onde stationnaire sur une corde\relax }}{48}}
\newlabel{cordestationnaire}{{2.15}{48}}
\newlabel{tensioncordeonde}{{2.27}{48}}
\@writefile{toc}{\contentsline {subsubsection}{Exp\IeC {\'e}rience : corde verticale}{49}}
\@writefile{toc}{\contentsline {subsubsection}{Exp\IeC {\'e}rience : corde horizontale}{49}}
\@writefile{toc}{\contentsline {subsubsection}{Exp\IeC {\'e}rience : figures de Chladni}{49}}
\@writefile{toc}{\contentsline {section}{\numberline {2.9}Analyse spectrale}{49}}
\newlabel{analysespectrale}{{2.9}{49}}
\@writefile{toc}{\contentsline {subsection}{\numberline {2.9.1}Onde stationnaire et spectre}{49}}
\@writefile{lof}{\contentsline {figure}{\numberline {2.16}{\ignorespaces Spectre d'un diapason donnant le $la_3$ ($440\tmspace  +\thinmuskip {.1667em}Hz$)\relax }}{49}}
\newlabel{diapason440Hz}{{2.16}{49}}
\@writefile{lof}{\contentsline {figure}{\numberline {2.17}{\ignorespaces Spectre du $la_3$ d'un piano ($440\tmspace  +\thinmuskip {.1667em}Hz$)\relax }}{49}}
\newlabel{la_3piano}{{2.17}{49}}
\@writefile{lof}{\contentsline {figure}{\numberline {2.18}{\ignorespaces Spectre de la seconde corde grave libre d'une guitare ($la_1$, $110\tmspace  +\thinmuskip {.1667em}Hz$)\relax }}{50}}
\newlabel{la1_2ecordeavide}{{2.18}{50}}
\@writefile{toc}{\contentsline {subsection}{\numberline {2.9.2}Battement et spectre}{50}}
\@writefile{lof}{\contentsline {figure}{\numberline {2.19}{\ignorespaces Spectre du battement de deux diapasons de $435$ et $394\tmspace  +\thinmuskip {.1667em}Hz$\relax }}{50}}
\newlabel{battementspectre}{{2.19}{50}}
\@writefile{toc}{\contentsline {section}{\numberline {2.10}L'effet Doppler}{50}}
\@writefile{toc}{\contentsline {subsection}{\numberline {2.10.1}L'effet Doppler sonore}{50}}
\@writefile{toc}{\contentsline {subsection}{\numberline {2.10.2}Source en mouvement et observateur au repos}{51}}
\@writefile{toc}{\contentsline {subsubsection}{Source en approche}{51}}
\newlabel{paragraphesourceapproche}{{2.10.2}{51}}
\@writefile{toc}{\contentsline {subsubsection}{Source en \IeC {\'e}loignement}{51}}
\@writefile{toc}{\contentsline {subsection}{\numberline {2.10.3}Observateur en mouvement et source au repos}{51}}
\@writefile{toc}{\contentsline {subsubsection}{Observateur en approche}{51}}
\newlabel{paragrapheobservateurapproche}{{2.10.3}{51}}
\newlabel{sourceapproche}{{2.20(a)}{52}}
\newlabel{sub@sourceapproche}{{(a)}{52}}
\newlabel{sourceeloigne}{{2.20(b)}{52}}
\newlabel{sub@sourceeloigne}{{(b)}{52}}
\@writefile{lof}{\contentsline {figure}{\numberline {2.20}{\ignorespaces Effet Doppler\relax }}{52}}
\@writefile{lof}{\contentsline {subfigure}{\numberline{(a)}{\ignorespaces {Source en approche vers l'observateur}}}{52}}
\@writefile{lof}{\contentsline {subfigure}{\numberline{(b)}{\ignorespaces {Source s'\IeC {\'e}loignant de l'observateur}}}{52}}
\@writefile{toc}{\contentsline {subsubsection}{Observateur en \IeC {\'e}loignement}{52}}
\@writefile{toc}{\contentsline {subsection}{\numberline {2.10.4}Cas g\IeC {\'e}n\IeC {\'e}ral}{52}}
\@writefile{toc}{\contentsline {subsection}{\numberline {2.10.5}L'effet Doppler lumineux}{52}}
\newlabel{dopplerlumineux}{{2.10.5}{52}}
\@writefile{toc}{\contentsline {subsubsection}{Exp\IeC {\'e}rience : battement et effet Doppler}{53}}
\@writefile{toc}{\contentsline {chapter}{\numberline {A}Syst\IeC {\`e}me international (SI)}{55}}
\@writefile{lof}{\addvspace {10\p@ }}
\@writefile{lot}{\addvspace {10\p@ }}
\@writefile{toc}{\contentsline {section}{\numberline {A.1}Introduction}{55}}
\newlabel{SI}{{A.1}{55}}
\@writefile{toc}{\contentsline {section}{\numberline {A.2}Les unit\IeC {\'e}s choisies}{55}}
\@writefile{lot}{\contentsline {table}{\numberline {A.1}{\ignorespaces unit\IeC {\'e}s SI}}{55}}
\newlabel{AL}{{A.2}{55}}
\@writefile{toc}{\contentsline {section}{\numberline {A.3}Exemple}{56}}
\@writefile{toc}{\contentsline {section}{\numberline {A.4}Conversions}{56}}
\@writefile{lot}{\contentsline {table}{\numberline {A.2}{\ignorespaces Conversions}}{56}}
\newlabel{grandeurs}{{A.2}{56}}
\@writefile{lof}{\contentsline {figure}{\numberline {A.1}{\ignorespaces Relation d'arc}}{56}}
\newlabel{arc}{{A.1}{56}}
\@writefile{lot}{\contentsline {table}{\numberline {A.3}{\ignorespaces \IeC {\'E}quivalents}}{56}}
\@writefile{toc}{\contentsline {section}{\numberline {A.5}Multiples et sous-multiples}{56}}
\@writefile{toc}{\contentsline {section}{\numberline {A.6}Notation scientifique}{56}}
\@writefile{lot}{\contentsline {table}{\numberline {A.4}{\ignorespaces Multiples}}{57}}
\newlabel{prefixes}{{A.4}{57}}
\@writefile{toc}{\contentsline {section}{\numberline {A.7}Indices de r\IeC {\'e}fraction}{57}}
\@writefile{lot}{\contentsline {table}{\numberline {A.5}{\ignorespaces Indices de r\IeC {\'e}fraction}}{57}}
\newlabel{nsolide}{{A.5}{57}}
\@writefile{lot}{\contentsline {table}{\numberline {A.6}{\ignorespaces Indices de r\IeC {\'e}fraction}}{57}}
\newlabel{nliquide}{{A.6}{57}}
\@writefile{lot}{\contentsline {table}{\numberline {A.7}{\ignorespaces Indices de r\IeC {\'e}fraction}}{57}}
\newlabel{ngaz}{{A.7}{57}}
\@writefile{lot}{\contentsline {table}{\numberline {A.8}{\ignorespaces Indices de r\IeC {\'e}fraction}}{57}}
\newlabel{noeil}{{A.8}{57}}
\@writefile{lot}{\contentsline {table}{\numberline {A.9}{\ignorespaces Indices de r\IeC {\'e}fraction}}{57}}
\newlabel{ncouleur}{{A.9}{57}}
\@writefile{toc}{\contentsline {section}{\numberline {A.8}Vitesse des ondes}{57}}
\@writefile{toc}{\contentsline {section}{\numberline {A.9}Fr\IeC {\'e}quences de la gamme}{57}}
\@writefile{lot}{\contentsline {table}{\numberline {A.10}{\ignorespaces Vitesse du son dans diff\IeC {\'e}rents milieux\relax }}{58}}
\newlabel{vitesse}{{A.10}{58}}
\@writefile{lot}{\contentsline {table}{\numberline {A.11}{\ignorespaces Notes et fr\IeC {\'e}quences}}{58}}
\newlabel{gamme}{{A.11}{58}}
\@writefile{toc}{\contentsline {subsection}{\numberline {A.9.1}Audible et visible}{58}}
\@writefile{toc}{\contentsline {chapter}{\numberline {B}Le point aveugle}{59}}
\@writefile{lof}{\addvspace {10\p@ }}
\@writefile{lot}{\addvspace {10\p@ }}
\newlabel{pointaveugle}{{B}{59}}
\@writefile{lof}{\contentsline {figure}{\numberline {B.1}{\ignorespaces Le point aveugle\relax }}{59}}
\newlabel{figpointaveugle}{{B.1}{59}}
\@writefile{toc}{\contentsline {chapter}{\numberline {C}Travaux pratiques}{61}}
\@writefile{lof}{\addvspace {10\p@ }}
\@writefile{lot}{\addvspace {10\p@ }}
\@writefile{toc}{\contentsline {section}{\numberline {C.1}La r\IeC {\'e}flexion}{62}}
\@writefile{lof}{\contentsline {figure}{\numberline {C.1}{\ignorespaces R\IeC {\'e}flexion par un miroir parabolique\relax }}{62}}
\newlabel{reflexionmiroirparabolique}{{C.1}{62}}
\@writefile{toc}{\contentsline {section}{\numberline {C.2}La r\IeC {\'e}fraction}{63}}
\@writefile{lof}{\contentsline {figure}{\numberline {C.2}{\ignorespaces R\IeC {\'e}fraction et r\IeC {\'e}flexion presque totale\relax }}{63}}
\newlabel{reflexionpresquetotale}{{C.2}{63}}
\@writefile{toc}{\contentsline {section}{\numberline {C.3}Lentilles minces}{64}}
\@writefile{lof}{\contentsline {figure}{\numberline {C.3}{\ignorespaces Lentille mince\relax }}{64}}
\newlabel{lentillepresquemince}{{C.3}{64}}
\@writefile{toc}{\contentsline {section}{\numberline {C.4}Instruments d'optique}{65}}
\@writefile{lof}{\contentsline {figure}{\numberline {C.4}{\ignorespaces T\IeC {\'e}lescope\relax }}{65}}
\newlabel{teles}{{C.4}{65}}
\@writefile{lof}{\contentsline {figure}{\numberline {C.5}{\ignorespaces Microscope\relax }}{65}}
\newlabel{micros}{{C.5}{65}}
\@writefile{toc}{\contentsline {section}{\numberline {C.5}La cuve \IeC {\`a} onde}{66}}
\newlabel{cuveaonde}{{C.5}{66}}
\@writefile{lof}{\contentsline {figure}{\numberline {C.6}{\ignorespaces Ondes et r\IeC {\'e}fraction\relax }}{66}}
\newlabel{refraccuveonde}{{C.6}{66}}
\@writefile{toc}{\contentsline {section}{\numberline {C.6}Le battement \IeC {\`a} travers Doppler}{67}}
\newlabel{battementdoppler}{{C.6}{67}}
\@writefile{toc}{\contentsline {section}{\numberline {C.7}Le battement pour accorder une guitare}{68}}
\newlabel{battementguitare}{{C.7}{68}}
\@writefile{toc}{\contentsline {section}{\numberline {C.8}La corde verticale}{69}}
\newlabel{cordeverticale}{{C.8}{69}}
\@writefile{lof}{\contentsline {figure}{\numberline {C.7}{\ignorespaces Corde verticale\relax }}{69}}
\newlabel{cordeverticalefig}{{C.7}{69}}
\@writefile{lot}{\contentsline {table}{\numberline {C.1}{\ignorespaces Corde verticale\relax }}{69}}
\newlabel{tabcordeverticale}{{C.1}{69}}
\@writefile{toc}{\contentsline {section}{\numberline {C.9}Les plaquettes harmoniques}{70}}
\newlabel{plaquettesharmoniques}{{C.9}{70}}
\@writefile{lof}{\contentsline {figure}{\numberline {C.8}{\ignorespaces Plaquettes harmoniques\relax }}{70}}
\newlabel{figplaquettesharmoniques}{{C.8}{70}}
\@writefile{lot}{\contentsline {table}{\numberline {C.2}{\ignorespaces Plaquettes harmoniques\relax }}{70}}
\newlabel{tabplaquettesharmoniques}{{C.2}{70}}
\@writefile{toc}{\contentsline {section}{\numberline {C.10}Les tuyaux harmoniques}{71}}
\newlabel{tuyauxharmoniques}{{C.10}{71}}
\@writefile{lof}{\contentsline {figure}{\numberline {C.9}{\ignorespaces Fl\IeC {\^u}te \IeC {\`a} piston\relax }}{71}}
\newlabel{fluteapiston}{{C.9}{71}}
\@writefile{lof}{\contentsline {figure}{\numberline {C.10}{\ignorespaces Spectre fl\IeC {\^u}te \IeC {\`a} piston\relax }}{71}}
\newlabel{spectrefluteapiston}{{C.10}{71}}
\@writefile{toc}{\contentsline {section}{\numberline {C.11}La corde horizontale}{72}}
\newlabel{cordehorizontale}{{C.11}{72}}
\@writefile{lof}{\contentsline {figure}{\numberline {C.11}{\ignorespaces Corde horizontale\relax }}{72}}
\newlabel{figcordehorizontale}{{C.11}{72}}
\@writefile{toc}{\contentsline {section}{\numberline {C.12}Les figures de Chladni}{73}}
\newlabel{figureschladni}{{C.12}{73}}
\@writefile{toc}{\contentsline {chapter}{\numberline {D}Exercices}{75}}
\@writefile{lof}{\addvspace {10\p@ }}
\@writefile{lot}{\addvspace {10\p@ }}
\@writefile{toc}{\contentsline {section}{\numberline {D.1}Probl\IeC {\`e}mes}{75}}
\@writefile{toc}{\contentsline {subsection}{\numberline {D.1.1}R\IeC {\'e}flexion}{75}}
\@writefile{toc}{\contentsline {subsection}{\numberline {D.1.2}R\IeC {\'e}fraction}{75}}
\@writefile{toc}{\contentsline {subsection}{\numberline {D.1.3}Lentille mince}{76}}
\@writefile{toc}{\contentsline {subsection}{\numberline {D.1.4}Instruments d'optique}{76}}
\@writefile{toc}{\contentsline {subsection}{\numberline {D.1.5}L'\oe il}{77}}
\@writefile{toc}{\contentsline {subsection}{\numberline {D.1.6}Ondes : d\IeC {\'e}finitions}{77}}
\@writefile{toc}{\contentsline {subsection}{\numberline {D.1.7}Le battement}{78}}
\@writefile{toc}{\contentsline {subsection}{\numberline {D.1.8}Les ondes stationnaires}{78}}
\@writefile{toc}{\contentsline {subsection}{\numberline {D.1.9}Effet Doppler}{79}}
\newlabel{ex_globule}{{62}{79}}
\@writefile{toc}{\contentsline {section}{\numberline {D.2}Solutions}{80}}
\@writefile{lof}{\contentsline {figure}{\numberline {D.1}{\ignorespaces Deux miroirs\relax }}{80}}
\newlabel{deuxmiroirs}{{D.1}{80}}
\@writefile{lof}{\contentsline {figure}{\numberline {D.2}{\ignorespaces Deux miroirs\relax }}{80}}
\newlabel{deuxmiroirs2}{{D.2}{80}}
\@writefile{lof}{\contentsline {figure}{\numberline {D.3}{\ignorespaces R\IeC {\'e}troviseur\relax }}{80}}
\newlabel{retro}{{D.3}{80}}
\@writefile{lof}{\contentsline {figure}{\numberline {D.4}{\ignorespaces Miroir sph\IeC {\'e}rique\relax }}{80}}
\newlabel{miroirsph}{{D.4}{80}}
\@writefile{lof}{\contentsline {figure}{\numberline {D.5}{\ignorespaces Prisme\relax }}{81}}
\newlabel{prisme}{{D.5}{81}}
\@writefile{lof}{\contentsline {figure}{\numberline {D.6}{\ignorespaces R\IeC {\'e}fraction sur de la glace\relax }}{81}}
\newlabel{airglace}{{D.6}{81}}
\@writefile{lof}{\contentsline {figure}{\numberline {D.7}{\ignorespaces R\IeC {\'e}fraction sur du verre\relax }}{81}}
\newlabel{airverre}{{D.7}{81}}
\@writefile{lof}{\contentsline {figure}{\numberline {D.8}{\ignorespaces R\IeC {\'e}fraction sur de l'eau\relax }}{81}}
\newlabel{aireau}{{D.8}{81}}
\@writefile{lof}{\contentsline {figure}{\numberline {D.9}{\ignorespaces Le plongeur\relax }}{82}}
\newlabel{plongeur}{{D.9}{82}}
\@writefile{lof}{\contentsline {figure}{\numberline {D.10}{\ignorespaces Perpendiculaires\relax }}{82}}
\newlabel{perpendiculaires}{{D.10}{82}}
\@writefile{lof}{\contentsline {figure}{\numberline {D.11}{\ignorespaces Dauphin\relax }}{82}}
\newlabel{dauphin}{{D.11}{82}}
\@writefile{lof}{\contentsline {figure}{\numberline {D.12}{\ignorespaces Plongeur\relax }}{82}}
\newlabel{plongeurtotal}{{D.12}{82}}
\@writefile{lof}{\contentsline {figure}{\numberline {D.13}{\ignorespaces Fibre optique\relax }}{83}}
\newlabel{fibreOptique}{{D.13}{83}}
\@writefile{lof}{\contentsline {figure}{\numberline {D.14}{\ignorespaces Lames \IeC {\`a} face parall\IeC {\`e}les\relax }}{83}}
\newlabel{lammesparalleles}{{D.14}{83}}
\@writefile{lof}{\contentsline {figure}{\numberline {D.15}{\ignorespaces Air et vitesse de la lumi\IeC {\`e}re\relax }}{83}}
\newlabel{milieuair}{{D.15}{83}}
\@writefile{lof}{\contentsline {figure}{\numberline {D.16}{\ignorespaces Eau et vitesse de la lumi\IeC {\`e}re\relax }}{84}}
\newlabel{milieueau}{{D.16}{84}}
\@writefile{lof}{\contentsline {figure}{\numberline {D.17}{\ignorespaces Lentille simple\relax }}{84}}
\newlabel{lentillesimple}{{D.17}{84}}
\@writefile{lof}{\contentsline {figure}{\numberline {D.18}{\ignorespaces Lentille simple\relax }}{84}}
\newlabel{lentillesimple2}{{D.18}{84}}
\@writefile{lof}{\contentsline {figure}{\numberline {D.19}{\ignorespaces La lune\relax }}{84}}
\newlabel{lune}{{D.19}{84}}
\@writefile{lof}{\contentsline {figure}{\numberline {D.20}{\ignorespaces Le papillon\relax }}{85}}
\newlabel{papillon}{{D.20}{85}}
\@writefile{lof}{\contentsline {figure}{\numberline {D.21}{\ignorespaces Le papillon\relax }}{85}}
\newlabel{papillon2}{{D.21}{85}}
\@writefile{lof}{\contentsline {figure}{\numberline {D.22}{\ignorespaces Le projecteur\relax }}{85}}
\newlabel{projecteur}{{D.22}{85}}
\@writefile{lof}{\contentsline {figure}{\numberline {D.23}{\ignorespaces Demi-focale\relax }}{86}}
\newlabel{demifoyer}{{D.23}{86}}
\@writefile{lof}{\contentsline {figure}{\numberline {D.24}{\ignorespaces Oculaire de t\IeC {\'e}lescope\relax }}{86}}
\newlabel{occtelescope}{{D.24}{86}}
\@writefile{lof}{\contentsline {figure}{\numberline {D.25}{\ignorespaces Lentille divergente\relax }}{86}}
\newlabel{unobjet}{{D.25}{86}}
\@writefile{lof}{\contentsline {figure}{\numberline {D.26}{\ignorespaces Lentille convergente\relax }}{86}}
\newlabel{diminuerconvergente}{{D.26}{86}}
\@writefile{lof}{\contentsline {figure}{\numberline {D.27}{\ignorespaces Lentille divergente\relax }}{87}}
\newlabel{diminuerdivergente}{{D.27}{87}}
\@writefile{lof}{\contentsline {figure}{\numberline {D.28}{\ignorespaces Deux lentilles convergentes\relax }}{87}}
\newlabel{double4010}{{D.28}{87}}
\@writefile{lof}{\contentsline {figure}{\numberline {D.29}{\ignorespaces Rayon pas d\IeC {\'e}vi\IeC {\'e}\relax }}{87}}
\newlabel{pasdevie}{{D.29}{87}}
\@writefile{lof}{\contentsline {figure}{\numberline {D.30}{\ignorespaces Image r\IeC {\'e}elle\relax }}{87}}
\newlabel{multiple1}{{D.30}{87}}
\@writefile{lof}{\contentsline {figure}{\numberline {D.31}{\ignorespaces Image virtuelle\relax }}{88}}
\newlabel{multiple2}{{D.31}{88}}
\@writefile{lof}{\contentsline {figure}{\numberline {D.32}{\ignorespaces Image virtuelle\relax }}{88}}
\newlabel{multiple3}{{D.32}{88}}
\@writefile{lof}{\contentsline {figure}{\numberline {D.33}{\ignorespaces Image virtuelle\relax }}{88}}
\newlabel{multiple4}{{D.33}{88}}
\@writefile{lof}{\contentsline {figure}{\numberline {D.34}{\ignorespaces Deux lentilles\relax }}{88}}
\newlabel{convdiv20-50}{{D.34}{88}}
\@writefile{lof}{\contentsline {figure}{\numberline {D.35}{\ignorespaces Un petit objet\relax }}{89}}
\newlabel{petitobjet}{{D.35}{89}}
\@writefile{lof}{\contentsline {figure}{\numberline {D.36}{\ignorespaces Lire\relax }}{89}}
\newlabel{lire}{{D.36}{89}}
\@writefile{lof}{\contentsline {figure}{\numberline {D.37}{\ignorespaces Lentilles de contact\relax }}{90}}
\newlabel{lentillescontact}{{D.37}{90}}
\@writefile{lof}{\contentsline {figure}{\numberline {D.38}{\ignorespaces Lunette double foyer\relax }}{90}}
\newlabel{doublefoyer}{{D.38}{90}}
\@writefile{lof}{\contentsline {figure}{\numberline {D.39}{\ignorespaces lentille double foyer\relax }}{90}}
\newlabel{lentilledoublefoyer}{{D.39}{90}}
\citation{CG06}
\citation{HB99-a}
\citation{MB46}
\bibstyle{apalike}
\bibdata{BiblioCoursOS}
\bibcite{CG06}{{1}{2006}{{Christian~Grosset\^ete}}{{}}}
\bibcite{Des91}{{2}{1991}{{Descartes}}{{}}}
\bibcite{HB99-a}{{3}{1999}{{Harris~Benson}}{{}}}
\bibcite{MB46}{{4}{1946}{{Marc Bruhat}}{{}}}
