%!PS-Adobe-2.0
%%Creator: inkscape 0.41.1
%%Pages: 1
%%Orientation: Portrait
%%BoundingBox: -25 0 137 114
%%HiResBoundingBox: -25.449927 0.99324103 136.17683 113.34431
%%EndComments
%%Page: 1 1
0 116 translate
0.80000000 -0.80000000 scale
gsave [0.073548387 0.0000000 0.0000000 0.073548387 -23.388387 -22.656774] concat
0.0000000 0.0000000 0.0000000 setrgbcolor
[] 0 setdash
4.8176546 setlinewidth
0 setlinejoin
0 setlinecap
newpath
1948.0000 342.00000 moveto
1930.5984 509.14624 2004.3441 672.75298 2141.1057 770.41027 curveto
2277.8673 868.06757 2456.5527 884.71416 2609.0000 814.00000 curveto
stroke
gsave [1.1951260 0.0000000 0.0000000 1.0000000 -499.29340 -6.8456350e-13] concat
0.0000000 0.0000000 0.0000000 setrgbcolor
[] 0 setdash
17.627420 setlinewidth
0 setlinejoin
0 setlinecap
newpath
330.00000 1275.0000 moveto
2551.0000 1275.0000 lineto
stroke
grestore
0.0000000 0.0000000 0.0000000 setrgbcolor
[] 0 setdash
4.8176546 setlinewidth
0 setlinejoin
0 setlinecap
newpath
1880.0000 347.00000 moveto
2428.0000 347.00000 lineto
2630.0000 861.00000 lineto
stroke
0.0000000 0.0000000 0.0000000 setrgbcolor
[4.8176544 19.270617] 0.0000000 setdash
4.8176546 setlinewidth
0 setlinejoin
0 setlinecap
newpath
1961.0000 594.00000 moveto
1180.0000 1571.0000 lineto
stroke
0.0000000 0.0000000 0.0000000 setrgbcolor
[4.8176544 19.270617] 0.0000000 setdash
4.8176546 setlinewidth
0 setlinejoin
0 setlinecap
newpath
2348.0000 857.00000 moveto
1167.0000 1566.0000 lineto
stroke
gsave [0.98477400 0.0000000 0.0000000 0.99249700 17.884010 16.472220] concat
0.0000000 0.0000000 0.0000000 setrgbcolor
[] 0 setdash
4.8176546 setlinewidth
0 setlinejoin
0 setlinecap
newpath
1177.0000 2193.0000 moveto
1417.0000 1275.0000 lineto
1964.0000 591.00000 lineto
stroke
gsave [-3.3097835 4.1387421 -4.1387421 -3.3097835 1980.5489 570.30629] concat
0.0000000 0.0000000 0.0000000 setrgbcolor
newpath
8.7185878 4.0337352 moveto
-2.2072895 0.016013256 lineto
8.7185884 -4.0017078 lineto
6.9730900 -1.6296469 6.9831476 1.6157441 8.7185878 4.0337352 curveto
closepath
eofill
grestore
grestore
gsave [0.97498800 0.0000000 0.0000000 0.98916200 29.504020 23.827090] concat
0.0000000 0.0000000 0.0000000 setrgbcolor
[] 0 setdash
4.8176546 setlinewidth
0 setlinejoin
0 setlinecap
newpath
1182.0000 2196.0000 moveto
1653.0000 1275.0000 lineto
2334.0000 866.00000 lineto
stroke
gsave [-4.5430375 2.7284910 -2.7284910 -4.5430375 2356.7152 852.35755] concat
0.0000000 0.0000000 0.0000000 setrgbcolor
newpath
8.7185878 4.0337352 moveto
-2.2072895 0.016013256 lineto
8.7185884 -4.0017078 lineto
6.9730900 -1.6296469 6.9831476 1.6157441 8.7185878 4.0337352 curveto
closepath
eofill
grestore
grestore
0.0000000 0.0000000 0.0000000 setrgbcolor
[9.6353092 4.8176546] 0.0000000 setdash
4.8176546 setlinewidth
0 setlinejoin
0 setlinecap
newpath
438.56002 1270.1216 moveto
1132.9857 1634.2129 lineto
1164.3313 1566.6992 lineto
573.58724 1272.5328 lineto
573.58724 1272.5328 lineto
573.58724 1272.5328 lineto
stroke
0.0000000 0.0000000 0.0000000 setrgbcolor
[] 0 setdash
4.8176546 setlinewidth
0 setlinejoin
0 setlinecap
newpath
-38.857657 520.23827 moveto
1099.2289 2246.6578 lineto
1181.2097 2193.6114 lineto
62.412753 457.54706 lineto
-38.857657 520.23827 lineto
closepath
stroke
0.0000000 0.0000000 0.0000000 setrgbcolor
newpath
735.05632 1224.3087 moveto
704.58372 1224.3087 lineto
704.31816 1223.7776 lineto
704.71650 1221.7195 lineto
707.85891 1221.7195 710.09400 1221.2769 711.42180 1220.3918 curveto
713.05938 1219.2853 713.87818 1217.1608 713.87819 1214.0184 curveto
713.87819 1174.3841 lineto
713.87818 1171.1532 712.28484 1169.5378 709.09818 1169.5377 curveto
707.90317 1169.5378 706.50900 1169.7369 704.91566 1170.1352 curveto
703.25593 1167.4796 lineto
711.66521 1165.1339 717.97217 1162.6333 722.17683 1159.9777 curveto
724.63323 1161.7702 lineto
724.63323 1214.2176 lineto
724.63321 1218.5550 728.01905 1220.9229 734.79076 1221.3212 curveto
735.05632 1224.3087 lineto
725.42990 1139.3307 moveto
725.42987 1141.2339 724.76598 1142.8715 723.43823 1144.2434 curveto
722.11042 1145.5713 720.49496 1146.2352 718.59182 1146.2351 curveto
716.68865 1146.2352 715.07318 1145.5713 713.74541 1144.2434 curveto
712.41762 1142.8715 711.75373 1141.2339 711.75374 1139.3307 curveto
711.75373 1137.4276 712.41762 1135.8121 713.74541 1134.4842 curveto
715.07318 1133.1566 716.68865 1132.4927 718.59182 1132.4926 curveto
720.49496 1132.4927 722.11042 1133.1566 723.43823 1134.4842 curveto
724.76598 1135.8121 725.42987 1137.4276 725.42990 1139.3307 curveto
fill
0.0000000 0.0000000 0.0000000 setrgbcolor
newpath
849.24560 1224.3087 moveto
819.83522 1224.3087 lineto
819.83522 1221.3212 lineto
825.85441 1221.3212 828.86405 1218.3337 828.86414 1212.3587 curveto
828.86414 1182.1516 lineto
828.86405 1178.3896 827.95673 1175.0923 826.14218 1172.2597 curveto
824.01765 1168.9845 821.16292 1167.3469 817.57799 1167.3469 curveto
812.08975 1167.3469 805.56149 1170.1131 797.99320 1175.6455 curveto
797.99320 1215.6117 lineto
797.99314 1219.2410 801.53389 1221.0557 808.61546 1221.0556 curveto
808.94740 1224.3087 lineto
779.60342 1224.3087 lineto
779.60342 1221.3212 lineto
785.57839 1221.3212 788.56590 1218.3337 788.56595 1212.3587 curveto
788.56595 1182.1516 lineto
788.56590 1178.3454 787.79136 1175.0702 786.24233 1172.3260 curveto
784.33913 1169.0066 781.61718 1167.3469 778.07647 1167.3469 curveto
772.49975 1167.3469 765.66167 1170.3344 757.56223 1176.3094 curveto
757.56223 1214.2176 lineto
757.56221 1218.5550 760.90379 1220.9229 767.58699 1221.3212 curveto
767.18865 1224.3087 lineto
739.10606 1224.3087 lineto
738.84050 1223.7776 lineto
739.23883 1221.7195 lineto
741.98291 1221.7195 744.19588 1220.5909 745.87775 1218.3337 curveto
747.42682 1216.2535 748.20135 1213.7971 748.20136 1210.9645 curveto
748.20136 1174.3841 lineto
748.20135 1172.7908 746.82931 1171.5294 744.08524 1170.5999 curveto
743.73116 1170.4672 741.65097 1169.9803 737.84466 1169.1394 curveto
737.84466 1167.4796 lineto
738.28726 1166.9928 738.84050 1166.6388 739.50439 1166.4174 curveto
743.00088 1165.2225 748.22348 1163.0759 755.17222 1159.9777 curveto
757.56223 1161.7702 lineto
757.56223 1173.7202 lineto
770.35317 1165.4880 779.18291 1161.3719 784.05149 1161.3718 curveto
787.01682 1161.3719 789.78303 1162.7439 792.35013 1165.4880 curveto
794.51878 1167.8338 796.08999 1170.5778 797.06375 1173.7202 curveto
809.85465 1165.4880 818.68439 1161.3719 823.55301 1161.3718 curveto
828.28868 1161.3719 832.07285 1163.5627 834.90555 1167.9444 curveto
837.38397 1171.7507 838.62324 1176.1324 838.62334 1181.0894 curveto
838.62334 1215.6117 lineto
838.62324 1219.2410 842.03121 1221.0557 848.84726 1221.0556 curveto
849.24560 1224.3087 lineto
fill
0.0000000 0.0000000 0.0000000 setrgbcolor
newpath
912.84637 1217.6698 moveto
908.42037 1220.9007 906.16314 1222.5605 906.07468 1222.6490 curveto
903.19776 1224.4194 900.54220 1225.3046 898.10798 1225.3046 curveto
894.30163 1225.3046 891.69033 1222.4056 890.27407 1216.6076 curveto
884.91865 1220.5024 881.95327 1222.6047 881.37793 1222.9145 curveto
878.45678 1224.5521 875.09307 1225.3709 871.28678 1225.3709 curveto
867.52472 1225.3709 864.33804 1224.0874 861.72675 1221.5204 curveto
859.15970 1218.9091 857.87617 1215.7445 857.87618 1212.0267 curveto
857.87617 1207.3795 859.71294 1203.5732 863.38648 1200.6078 curveto
865.55517 1198.8817 869.42787 1196.8679 875.00457 1194.5664 curveto
890.00851 1188.3922 lineto
890.00851 1178.5002 lineto
890.00847 1175.0038 888.74708 1172.0605 886.22433 1169.6705 curveto
883.74577 1167.2805 880.73614 1166.0855 877.19541 1166.0855 curveto
871.57445 1166.0855 868.76398 1169.0730 868.76399 1175.0480 curveto
868.76398 1175.4464 868.85250 1175.9775 869.02955 1176.6413 curveto
869.20657 1177.3053 869.29509 1177.8143 869.29511 1178.1683 curveto
869.29509 1179.8059 868.05583 1181.2665 865.57732 1182.5500 curveto
863.40860 1183.7007 861.41692 1184.2761 859.60230 1184.2761 curveto
858.84988 1184.2761 858.47368 1183.6565 858.47368 1182.4172 curveto
858.47368 1176.5307 860.95220 1171.7065 865.90926 1167.9444 curveto
870.42370 1164.4922 875.73483 1162.7661 881.84265 1162.7660 curveto
887.95041 1162.7661 892.42061 1163.8947 895.25325 1166.1519 curveto
898.39562 1168.6304 899.96683 1172.8351 899.96688 1178.7658 curveto
899.96688 1212.9562 lineto
899.96683 1216.7625 901.27248 1218.6656 903.88384 1218.6656 curveto
905.52138 1218.6656 908.46463 1217.4264 912.71359 1214.9479 curveto
912.84637 1217.6698 lineto
890.07490 1212.1595 moveto
890.00851 1192.2428 lineto
876.53152 1198.1514 lineto
870.46796 1200.8070 867.43620 1205.0780 867.43621 1210.9645 curveto
867.43620 1213.4873 868.25500 1215.5011 869.89261 1217.0059 curveto
871.53019 1218.5107 873.61038 1219.2631 876.13319 1219.2631 curveto
878.74447 1219.2631 881.26725 1218.5329 883.70155 1217.0723 curveto
884.76374 1216.4084 886.88819 1214.7708 890.07490 1212.1595 curveto
fill
0.0000000 0.0000000 0.0000000 setrgbcolor
newpath
977.17742 1174.3177 moveto
961.11125 1172.5916 lineto
963.54547 1176.2652 964.76260 1180.4034 964.76265 1185.0064 curveto
964.76260 1190.9814 961.90787 1195.7614 956.19846 1199.3464 curveto
951.32988 1202.4003 945.70894 1203.9273 939.33562 1203.9273 curveto
936.50300 1203.9273 933.51549 1203.6175 930.37309 1202.9978 curveto
924.44232 1206.1402 921.47694 1208.9507 921.47695 1211.4292 curveto
921.47694 1214.2618 926.23482 1215.9880 935.75061 1216.6076 curveto
949.47099 1217.5370 958.30073 1218.5550 962.23987 1219.6615 curveto
971.75558 1222.3170 976.51346 1227.5618 976.51353 1235.3957 curveto
976.51346 1242.1674 971.68919 1247.8104 962.04070 1252.3249 curveto
954.07396 1256.0869 946.24006 1257.9680 938.53895 1257.9680 curveto
932.56391 1257.9680 927.29705 1257.1934 922.73834 1255.6444 curveto
916.23221 1253.3871 912.97914 1249.8906 912.97914 1245.1549 curveto
912.97914 1238.4717 917.80341 1231.6779 927.45197 1224.7734 curveto
927.27492 1224.3751 925.94714 1223.8440 923.46862 1223.1801 curveto
920.50324 1222.4277 918.33453 1221.5868 916.96249 1220.6573 curveto
914.66100 1219.1082 913.51026 1217.0059 913.51026 1214.3503 curveto
913.51026 1211.6505 914.35118 1209.5925 916.03304 1208.1762 curveto
916.96249 1207.3795 918.86564 1206.4501 921.74251 1205.3878 curveto
924.44232 1204.3699 926.38973 1203.3076 927.58475 1202.2011 curveto
918.77712 1199.3243 914.37331 1193.3272 914.37332 1184.2097 curveto
914.37331 1177.8364 916.80758 1172.4810 921.67612 1168.1435 curveto
926.36760 1163.9832 931.94428 1161.9030 938.40618 1161.9029 curveto
946.10728 1161.9030 952.17081 1163.9389 956.59679 1168.0107 curveto
976.77908 1166.6830 lineto
976.82328 1168.1878 976.95606 1170.7328 977.17742 1174.3177 curveto
954.80429 1184.7408 moveto
954.80424 1179.9166 953.29943 1175.5792 950.28983 1171.7285 curveto
947.01460 1167.5682 943.03125 1165.4880 938.33979 1165.4880 curveto
933.55975 1165.4880 929.90835 1167.6567 927.38558 1171.9941 curveto
925.30538 1175.5792 924.26528 1179.9387 924.26529 1185.0727 curveto
924.26528 1195.2967 929.37724 1200.4087 939.60118 1200.4086 curveto
949.73655 1200.4087 954.80424 1195.1861 954.80429 1184.7408 curveto
967.55100 1236.7899 moveto
967.55094 1232.1869 964.51917 1228.9781 958.45569 1227.1634 curveto
955.26897 1226.2340 950.35618 1225.6144 943.71730 1225.3046 curveto
940.79615 1225.0390 936.39235 1224.7734 930.50587 1224.5079 curveto
924.26528 1229.4649 921.14500 1235.4842 921.14501 1242.5657 curveto
921.14500 1249.1603 928.80187 1252.4577 944.11564 1252.4577 curveto
948.71858 1252.4577 953.60924 1250.9971 958.78763 1248.0760 curveto
964.62982 1244.7565 967.55094 1240.9945 967.55100 1236.7899 curveto
fill
0.0000000 0.0000000 0.0000000 setrgbcolor
newpath
1036.2637 1207.9770 moveto
1030.7755 1219.6615 1022.0785 1225.5037 1010.1728 1225.5037 curveto
1002.5159 1225.5037 996.05404 1222.1621 990.78719 1215.4790 curveto
985.87439 1209.2384 983.41799 1202.2012 983.41799 1194.3672 curveto
983.41799 1185.4711 985.94078 1177.9913 990.98635 1171.9277 curveto
996.38599 1165.4659 1003.4454 1162.2350 1012.1645 1162.2349 curveto
1019.1132 1162.2350 1024.7341 1164.3373 1029.0273 1168.5419 curveto
1033.3647 1172.7466 1035.5334 1178.3454 1035.5334 1185.3383 curveto
992.64608 1185.3383 lineto
992.42477 1187.1972 992.31413 1189.1004 992.31414 1191.0478 curveto
992.31413 1197.6424 994.32793 1203.7060 998.35554 1209.2384 curveto
1002.7815 1215.3905 1008.1811 1218.4665 1014.5545 1218.4665 curveto
1022.8752 1218.4665 1029.2043 1214.7266 1033.5418 1207.2467 curveto
1034.0729 1207.2467 lineto
1035.0465 1207.2025 1035.7768 1207.4459 1036.2637 1207.9770 curveto
1025.3759 1181.5541 moveto
1025.1988 1177.0397 1023.6276 1173.3662 1020.6623 1170.5335 curveto
1017.6969 1167.6567 1013.9348 1166.2183 1009.3761 1166.2182 curveto
1005.6141 1166.2183 1002.2725 1167.8780 999.35138 1171.1974 curveto
996.78432 1174.1186 995.03608 1177.5708 994.10664 1181.5541 curveto
1025.3759 1181.5541 lineto
fill
0.0000000 0.0000000 0.0000000 setrgbcolor
newpath
fill
0.0000000 0.0000000 0.0000000 setrgbcolor
newpath
1143.6149 1192.6411 moveto
1143.6149 1202.7765 1140.2069 1210.8096 1133.3910 1216.7404 curveto
1126.9291 1222.3170 1118.5419 1225.1054 1108.2295 1225.1054 curveto
1101.6791 1225.1054 1094.4427 1224.1095 1086.5203 1222.1179 curveto
1086.5203 1140.7912 lineto
1086.5203 1138.7996 1085.3695 1137.2284 1083.0681 1136.0776 curveto
1081.0321 1135.0597 1078.5757 1134.5950 1075.6989 1134.6834 curveto
1075.5218 1134.6835 1075.3448 1134.3737 1075.1677 1133.7540 curveto
1074.9465 1133.1344 1074.6809 1132.7140 1074.3711 1132.4926 curveto
1081.7181 1131.7403 1088.9545 1129.7043 1096.0803 1126.3848 curveto
1096.0803 1172.0605 lineto
1102.4537 1168.2985 1106.2157 1166.1298 1107.3665 1165.5544 curveto
1111.7481 1163.4742 1115.9085 1162.4341 1119.8476 1162.4341 curveto
1127.3717 1162.4341 1133.3688 1165.7093 1137.8391 1172.2597 curveto
1141.6896 1177.9692 1143.6149 1184.7630 1143.6149 1192.6411 curveto
1132.9263 1195.6950 moveto
1132.9262 1189.3217 1131.3771 1183.4795 1128.2790 1178.1683 curveto
1124.6055 1171.9278 1119.8255 1168.8075 1113.9390 1168.8074 curveto
1111.5047 1168.8075 1108.3180 1169.5820 1104.3790 1171.1310 curveto
1100.2186 1172.7687 1097.4523 1174.4505 1096.0803 1176.1766 curveto
1096.0803 1210.9645 lineto
1096.0803 1213.8414 1098.4039 1216.2978 1103.0512 1218.3337 curveto
1106.8132 1220.0156 1110.3982 1220.8565 1113.8062 1220.8565 curveto
1119.9582 1220.8565 1124.8046 1218.0903 1128.3454 1212.5578 curveto
1131.3993 1207.8221 1132.9262 1202.2012 1132.9263 1195.6950 curveto
fill
0.0000000 0.0000000 0.0000000 setrgbcolor
newpath
1203.0996 1165.0232 moveto
1202.9667 1167.5461 1201.5947 1170.9541 1198.9834 1175.2472 curveto
1193.4952 1172.4146 1189.7111 1170.9983 1187.6309 1170.9983 curveto
1184.9753 1170.9983 1182.6296 1172.2818 1180.5937 1174.8488 curveto
1179.0446 1177.1946 1177.5176 1179.5404 1176.0128 1181.8861 curveto
1176.0128 1214.8151 lineto
1176.0128 1219.5951 1179.0003 1221.9851 1184.9753 1221.9851 curveto
1185.5507 1221.9851 1186.3695 1221.9630 1187.4317 1221.9187 curveto
1188.4939 1221.8745 1189.2463 1221.8523 1189.6890 1221.8523 curveto
1189.9545 1224.3087 lineto
1157.0919 1224.3087 lineto
1157.0919 1222.3834 lineto
1163.3325 1222.2064 1166.4528 1219.6836 1166.4528 1214.8151 curveto
1166.4528 1175.9111 lineto
1166.4528 1173.2998 1163.2661 1171.3081 1156.8927 1169.9360 curveto
1156.8927 1167.4796 lineto
1160.7876 1167.0371 1166.2979 1164.7799 1173.4236 1160.7079 curveto
1176.0128 1161.2391 lineto
1176.0128 1176.9069 lineto
1181.3239 1166.9928 1186.0597 1162.0358 1190.2201 1162.0357 curveto
1192.3445 1162.0358 1196.6377 1163.0316 1203.0996 1165.0232 curveto
fill
0.0000000 0.0000000 0.0000000 setrgbcolor
newpath
1239.8791 1224.3087 moveto
1209.4065 1224.3087 lineto
1209.1410 1223.7776 lineto
1209.5393 1221.7195 lineto
1212.6817 1221.7195 1214.9168 1221.2769 1216.2446 1220.3918 curveto
1217.8822 1219.2853 1218.7010 1217.1608 1218.7010 1214.0184 curveto
1218.7010 1174.3841 lineto
1218.7010 1171.1532 1217.1077 1169.5378 1213.9210 1169.5377 curveto
1212.7260 1169.5378 1211.3318 1169.7369 1209.7385 1170.1352 curveto
1208.0788 1167.4796 lineto
1216.4880 1165.1339 1222.7950 1162.6333 1226.9997 1159.9777 curveto
1229.4560 1161.7702 lineto
1229.4560 1214.2176 lineto
1229.4560 1218.5550 1232.8419 1220.9229 1239.6136 1221.3212 curveto
1239.8791 1224.3087 lineto
1230.2527 1139.3307 moveto
1230.2527 1141.2339 1229.5888 1142.8715 1228.2610 1144.2434 curveto
1226.9332 1145.5713 1225.3178 1146.2352 1223.4146 1146.2351 curveto
1221.5115 1146.2352 1219.8960 1145.5713 1218.5682 1144.2434 curveto
1217.2404 1142.8715 1216.5766 1141.2339 1216.5766 1139.3307 curveto
1216.5766 1137.4276 1217.2404 1135.8121 1218.5682 1134.4842 curveto
1219.8960 1133.1566 1221.5115 1132.4927 1223.4146 1132.4926 curveto
1225.3178 1132.4927 1226.9332 1133.1566 1228.2610 1134.4842 curveto
1229.5888 1135.8121 1230.2527 1137.4276 1230.2527 1139.3307 curveto
fill
0.0000000 0.0000000 0.0000000 setrgbcolor
newpath
1289.6710 1207.7778 moveto
1289.6709 1212.4251 1287.5465 1216.3863 1283.2976 1219.6615 curveto
1279.4028 1222.7596 1275.0653 1224.3087 1270.2854 1224.3087 curveto
1268.6920 1224.3087 1266.3241 1224.0210 1263.1817 1223.4457 curveto
1260.0393 1222.8260 1257.6714 1222.5162 1256.0781 1222.5162 curveto
1254.3962 1222.5162 1253.2676 1223.3793 1252.6922 1225.1054 curveto
1250.1031 1224.5743 lineto
1249.4392 1207.4459 lineto
1250.9661 1207.1803 lineto
1254.9052 1216.6961 1260.5704 1221.4540 1267.9617 1221.4540 curveto
1276.5480 1221.4540 1280.8412 1217.5813 1280.8412 1209.8359 curveto
1280.8412 1205.3657 1278.1635 1201.8913 1272.8081 1199.4128 curveto
1267.8511 1197.2884 1262.8719 1195.1639 1257.8706 1193.0394 curveto
1252.5152 1189.7643 1249.8375 1184.9400 1249.8375 1178.5666 curveto
1249.8375 1173.9637 1252.0947 1170.1131 1256.6092 1167.0149 curveto
1260.5925 1164.2266 1264.9742 1162.8325 1269.7542 1162.8324 curveto
1277.0570 1162.8325 1282.5673 1163.9389 1286.2851 1166.1519 curveto
1287.1482 1181.0894 lineto
1285.6212 1181.3550 lineto
1282.7886 1175.3357 1280.9076 1171.7728 1279.9782 1170.6663 curveto
1277.4996 1167.6567 1273.9146 1166.1519 1269.2231 1166.1519 curveto
1266.2135 1166.1519 1263.5358 1167.0814 1261.1900 1168.9402 curveto
1258.6230 1170.8877 1257.3395 1173.3219 1257.3395 1176.2430 curveto
1257.3395 1179.8281 1260.1278 1182.9262 1265.7045 1185.5375 curveto
1275.8841 1190.2733 1281.0625 1192.7075 1281.2396 1192.8403 curveto
1286.8605 1196.5581 1289.6709 1201.5373 1289.6710 1207.7778 curveto
fill
0.0000000 0.0000000 0.0000000 setrgbcolor
newpath
1353.0726 1207.9770 moveto
1347.5844 1219.6615 1338.8874 1225.5037 1326.9817 1225.5037 curveto
1319.3248 1225.5037 1312.8629 1222.1621 1307.5960 1215.4790 curveto
1302.6832 1209.2384 1300.2268 1202.2012 1300.2268 1194.3672 curveto
1300.2268 1185.4711 1302.7496 1177.9913 1307.7952 1171.9277 curveto
1313.1948 1165.4659 1320.2542 1162.2350 1328.9733 1162.2349 curveto
1335.9220 1162.2350 1341.5430 1164.3373 1345.8362 1168.5419 curveto
1350.1735 1172.7466 1352.3422 1178.3454 1352.3423 1185.3383 curveto
1309.4549 1185.3383 lineto
1309.2336 1187.1972 1309.1230 1189.1004 1309.1230 1191.0478 curveto
1309.1230 1197.6424 1311.1368 1203.7060 1315.1644 1209.2384 curveto
1319.5903 1215.3905 1324.9900 1218.4665 1331.3633 1218.4665 curveto
1339.6841 1218.4665 1346.0132 1214.7266 1350.3506 1207.2467 curveto
1350.8817 1207.2467 lineto
1351.8554 1207.2025 1352.5857 1207.4459 1353.0726 1207.9770 curveto
1342.1848 1181.5541 moveto
1342.0077 1177.0397 1340.4365 1173.3662 1337.4711 1170.5335 curveto
1334.5057 1167.6567 1330.7437 1166.2183 1326.1850 1166.2182 curveto
1322.4229 1166.2183 1319.0813 1167.8780 1316.1602 1171.1974 curveto
1313.5932 1174.1186 1311.8449 1177.5708 1310.9155 1181.5541 curveto
1342.1848 1181.5541 lineto
1344.1100 1132.4926 moveto
1323.9278 1157.1893 lineto
1322.3344 1155.1976 lineto
1332.5583 1128.5756 lineto
1344.1100 1132.4926 lineto
fill
0.0000000 0.0000000 0.0000000 setrgbcolor
newpath
1409.6361 1207.9770 moveto
1404.1479 1219.6615 1395.4509 1225.5037 1383.5452 1225.5037 curveto
1375.8883 1225.5037 1369.4264 1222.1621 1364.1596 1215.4790 curveto
1359.2468 1209.2384 1356.7904 1202.2012 1356.7904 1194.3672 curveto
1356.7904 1185.4711 1359.3132 1177.9913 1364.3587 1171.9277 curveto
1369.7584 1165.4659 1376.8177 1162.2350 1385.5369 1162.2349 curveto
1392.4855 1162.2350 1398.1065 1164.3373 1402.3997 1168.5419 curveto
1406.7371 1172.7466 1408.9058 1178.3454 1408.9058 1185.3383 curveto
1366.0185 1185.3383 lineto
1365.7971 1187.1972 1365.6865 1189.1004 1365.6865 1191.0478 curveto
1365.6865 1197.6424 1367.7003 1203.7060 1371.7279 1209.2384 curveto
1376.1538 1215.3905 1381.5535 1218.4665 1387.9269 1218.4665 curveto
1396.2476 1218.4665 1402.5767 1214.7266 1406.9142 1207.2467 curveto
1407.4453 1207.2467 lineto
1408.4189 1207.2025 1409.1492 1207.4459 1409.6361 1207.9770 curveto
1398.7483 1181.5541 moveto
1398.5712 1177.0397 1397.0000 1173.3662 1394.0347 1170.5335 curveto
1391.0692 1167.6567 1387.3072 1166.2183 1382.7485 1166.2182 curveto
1378.9864 1166.2183 1375.6449 1167.8780 1372.7238 1171.1974 curveto
1370.1567 1174.1186 1368.4085 1177.5708 1367.4790 1181.5541 curveto
1398.7483 1181.5541 lineto
fill
0.0000000 0.0000000 0.0000000 setrgbcolor
newpath
870.02539 1380.9604 moveto
866.92716 1382.0227 863.80688 1383.1070 860.66452 1384.2135 curveto
857.07945 1385.5855 854.11408 1386.9797 851.76838 1388.3960 curveto
851.37000 1388.6616 850.94953 1388.7943 850.50699 1388.7943 curveto
849.71027 1388.7943 849.20129 1387.9534 848.98004 1386.2715 curveto
848.80295 1385.0765 848.75869 1383.4168 848.84726 1381.2924 curveto
849.02425 1378.3713 849.11277 1377.1763 849.11282 1377.7074 curveto
845.39498 1380.0088 841.67720 1382.3325 837.95945 1384.6782 curveto
833.88755 1386.9797 829.59439 1388.1304 825.07996 1388.1304 curveto
818.04269 1388.1304 812.22259 1384.8110 807.61962 1378.1721 curveto
803.50349 1372.2413 801.44543 1365.6246 801.44543 1358.3217 curveto
801.44543 1348.8060 804.23377 1341.1491 809.81046 1335.3511 curveto
816.36084 1328.5795 823.86280 1325.1936 832.31637 1325.1936 curveto
839.30932 1325.1936 844.90813 1326.3886 849.11282 1328.7786 curveto
849.11282 1302.4221 lineto
849.11277 1299.0585 846.65637 1297.3766 841.74363 1297.3765 curveto
841.69933 1297.3766 840.26090 1297.4430 837.42833 1297.5757 curveto
837.42833 1295.2521 lineto
844.28850 1294.3670 851.19296 1292.0876 858.14174 1288.4140 curveto
858.14174 1374.6535 lineto
858.14168 1375.7600 858.58427 1376.8000 859.46952 1377.7737 curveto
860.35465 1378.7032 861.32835 1379.1679 862.39064 1379.1679 curveto
863.27577 1379.1679 864.55929 1379.0794 866.24121 1378.9024 curveto
867.92300 1378.7253 869.18439 1378.6368 870.02539 1378.6368 curveto
870.02539 1380.9604 lineto
849.11282 1375.1182 moveto
849.11282 1340.9278 lineto
846.05887 1336.5904 843.22627 1333.6472 840.61501 1332.0980 curveto
837.69385 1330.4162 833.71051 1329.5753 828.66497 1329.5752 curveto
822.33585 1329.5753 817.71075 1332.9611 814.78965 1339.7328 curveto
812.70944 1344.6014 811.66935 1350.6428 811.66936 1357.8570 curveto
811.66935 1363.5222 813.41759 1368.8112 816.91410 1373.7240 curveto
820.76465 1379.0794 825.41188 1381.7571 830.85581 1381.7571 curveto
834.61783 1381.7571 840.70349 1379.5441 849.11282 1375.1182 curveto
fill
0.0000000 0.0000000 0.0000000 setrgbcolor
newpath
942.19035 1379.3007 moveto
942.05758 1382.0226 lineto
921.94168 1387.7321 lineto
921.94168 1375.7821 lineto
913.66512 1384.0143 904.65834 1388.1304 894.92131 1388.1304 curveto
885.27274 1388.1304 880.44847 1381.5579 880.44848 1368.4129 curveto
880.44848 1339.0689 lineto
880.44847 1336.3691 879.51902 1334.2447 877.66014 1332.6955 curveto
875.80124 1331.1465 873.49975 1330.3720 870.75567 1330.3719 curveto
870.49011 1327.6500 lineto
890.27407 1324.1313 lineto
890.27407 1367.3507 lineto
890.27405 1371.1570 891.49118 1374.3879 893.92547 1377.0435 curveto
896.40397 1379.8318 899.52426 1381.2260 903.28633 1381.2260 curveto
907.04835 1381.2260 913.26679 1378.0836 921.94168 1371.7987 curveto
921.94168 1335.2847 lineto
921.94162 1331.9653 917.67060 1330.0622 909.12858 1329.5752 curveto
909.12858 1327.3844 lineto
931.43532 1323.2683 lineto
931.43532 1375.1182 lineto
931.43526 1378.4376 933.29415 1380.0974 937.01200 1380.0974 curveto
937.98564 1380.0974 939.71176 1379.8318 942.19035 1379.3007 curveto
fill
0.0000000 0.0000000 0.0000000 setrgbcolor
newpath
fill
0.0000000 0.0000000 0.0000000 setrgbcolor
newpath
1050.6702 1355.7989 moveto
1050.6701 1365.9344 1047.2621 1373.9674 1040.4462 1379.8982 curveto
1033.9843 1385.4749 1025.5972 1388.2632 1015.2848 1388.2632 curveto
1008.7344 1388.2632 1001.4980 1387.2674 993.57553 1385.2757 curveto
993.57553 1303.9490 lineto
993.57552 1301.9575 992.42478 1300.3863 990.12329 1299.2354 curveto
988.08736 1298.2175 985.63097 1297.7528 982.75410 1297.8412 curveto
982.57707 1297.8413 982.40003 1297.5315 982.22299 1296.9118 curveto
982.00170 1296.2923 981.73614 1295.8718 981.42632 1295.6504 curveto
988.77338 1294.8981 996.00979 1292.8622 1003.1356 1289.5426 curveto
1003.1356 1335.2183 lineto
1009.5089 1331.4563 1013.2709 1329.2876 1014.4217 1328.7122 curveto
1018.8034 1326.6321 1022.9637 1325.5920 1026.9029 1325.5919 curveto
1034.4269 1325.5920 1040.4241 1328.8672 1044.8943 1335.4175 curveto
1048.7448 1341.1270 1050.6701 1347.9208 1050.6702 1355.7989 curveto
1039.9815 1358.8528 moveto
1039.9815 1352.4795 1038.4324 1346.6373 1035.3343 1341.3261 curveto
1031.6607 1335.0856 1026.8807 1331.9653 1020.9942 1331.9653 curveto
1018.5599 1331.9653 1015.3733 1332.7398 1011.4342 1334.2889 curveto
1007.2738 1335.9265 1004.5076 1337.6084 1003.1356 1339.3344 curveto
1003.1356 1374.1223 lineto
1003.1355 1376.9992 1005.4592 1379.4556 1010.1064 1381.4915 curveto
1013.8684 1383.1734 1017.4535 1384.0143 1020.8615 1384.0143 curveto
1027.0135 1384.0143 1031.8599 1381.2481 1035.4007 1375.7157 curveto
1038.4545 1370.9799 1039.9815 1365.3590 1039.9815 1358.8528 curveto
fill
0.0000000 0.0000000 0.0000000 setrgbcolor
newpath
1123.4326 1380.8276 moveto
1119.0066 1384.0586 1116.7494 1385.7183 1116.6609 1385.8068 curveto
1113.7840 1387.5772 1111.1285 1388.4624 1108.6943 1388.4624 curveto
1104.8879 1388.4624 1102.2766 1385.5634 1100.8603 1379.7654 curveto
1095.5049 1383.6602 1092.5395 1385.7626 1091.9642 1386.0724 curveto
1089.0430 1387.7100 1085.6793 1388.5288 1081.8730 1388.5288 curveto
1078.1110 1388.5288 1074.9243 1387.2453 1072.3130 1384.6782 curveto
1069.7460 1382.0669 1068.4624 1378.9024 1068.4624 1375.1846 curveto
1068.4624 1370.5373 1070.2992 1366.7310 1073.9727 1363.7656 curveto
1076.1414 1362.0395 1080.0141 1360.0257 1085.5908 1357.7242 curveto
1100.5948 1351.5500 lineto
1100.5948 1341.6581 lineto
1100.5947 1338.1616 1099.3334 1335.2184 1096.8106 1332.8283 curveto
1094.3320 1330.4384 1091.3224 1329.2434 1087.7817 1329.2433 curveto
1082.1607 1329.2434 1079.3502 1332.2309 1079.3503 1338.2058 curveto
1079.3502 1338.6042 1079.4388 1339.1353 1079.6158 1339.7992 curveto
1079.7928 1340.4631 1079.8814 1340.9721 1079.8814 1341.3261 curveto
1079.8814 1342.9638 1078.6421 1344.4243 1076.1636 1345.7078 curveto
1073.9949 1346.8586 1072.0032 1347.4340 1070.1886 1347.4339 curveto
1069.4361 1347.4340 1069.0599 1346.8143 1069.0600 1345.5750 curveto
1069.0599 1339.6886 1071.5385 1334.8643 1076.4955 1331.1022 curveto
1081.0100 1327.6500 1086.3211 1325.9239 1092.4289 1325.9238 curveto
1098.5367 1325.9239 1103.0069 1327.0525 1105.8395 1329.3097 curveto
1108.9819 1331.7883 1110.5531 1335.9929 1110.5531 1341.9236 curveto
1110.5531 1376.1140 lineto
1110.5531 1379.9203 1111.8588 1381.8235 1114.4701 1381.8235 curveto
1116.1076 1381.8235 1119.0509 1380.5842 1123.2999 1378.1057 curveto
1123.4326 1380.8276 lineto
1100.6612 1375.3173 moveto
1100.5948 1355.4006 lineto
1087.1178 1361.3092 lineto
1081.0542 1363.9648 1078.0225 1368.2359 1078.0225 1374.1223 curveto
1078.0225 1376.6451 1078.8413 1378.6589 1080.4789 1380.1638 curveto
1082.1165 1381.6686 1084.1966 1382.4210 1086.7195 1382.4210 curveto
1089.3307 1382.4210 1091.8535 1381.6907 1094.2878 1380.2301 curveto
1095.3500 1379.5663 1097.4745 1377.9287 1100.6612 1375.3173 curveto
1108.3623 1316.0319 moveto
1105.1756 1316.8285 lineto
1088.3128 1303.8827 lineto
1074.6366 1317.6252 lineto
1071.8483 1316.4302 lineto
1087.5825 1294.0571 lineto
1092.2298 1294.8537 lineto
1108.3623 1316.0319 lineto
fill
0.0000000 0.0000000 0.0000000 setrgbcolor
newpath
1166.3864 1375.7821 moveto
1162.4473 1383.5717 1157.0255 1387.4666 1150.1211 1387.4666 curveto
1146.0049 1387.4666 1142.5527 1386.2052 1139.7644 1383.6824 curveto
1136.8432 1381.0268 1135.3827 1377.6631 1135.3827 1373.5912 curveto
1135.3827 1331.9653 lineto
1128.9429 1331.9653 lineto
1127.9471 1328.7122 lineto
1132.7714 1326.8976 1136.2900 1324.1757 1138.5030 1320.5463 curveto
1140.1405 1317.8908 1141.6011 1313.5977 1142.8846 1307.6668 curveto
1145.2083 1307.6668 lineto
1145.2083 1326.7205 lineto
1166.3864 1326.7205 lineto
1163.5980 1331.9653 lineto
1145.2083 1331.9653 lineto
1145.2083 1369.5415 lineto
1145.2082 1371.8430 1146.4032 1374.3215 1148.7933 1376.9771 curveto
1151.1833 1379.6326 1153.5290 1380.9604 1155.8305 1380.9604 curveto
1157.3796 1380.9604 1159.3049 1379.7433 1161.6064 1377.3090 curveto
1163.9521 1374.8305 1165.1250 1373.5912 1165.1250 1373.5912 curveto
1166.0101 1373.5912 1166.4306 1374.3215 1166.3864 1375.7821 curveto
fill
0.0000000 0.0000000 0.0000000 setrgbcolor
newpath
1237.1572 1357.1931 moveto
1237.1571 1366.3991 1234.2139 1373.8789 1228.3274 1379.6326 curveto
1222.4851 1385.3864 1214.9389 1388.2632 1205.6887 1388.2632 curveto
1197.3237 1388.2632 1190.0873 1385.3200 1183.9795 1379.4335 curveto
1177.9160 1373.5027 1174.8842 1366.3770 1174.8842 1358.0562 curveto
1174.8842 1348.5404 1177.6725 1340.7951 1183.2492 1334.8200 curveto
1188.8702 1328.8450 1196.4164 1325.8575 1205.8879 1325.8575 curveto
1214.9168 1325.8575 1222.3745 1328.8229 1228.2610 1334.7536 curveto
1234.1917 1340.6844 1237.1571 1348.1642 1237.1572 1357.1931 curveto
1225.1408 1363.0354 moveto
1225.1407 1354.2720 1223.7687 1346.9471 1221.0246 1341.0606 curveto
1217.3511 1333.1824 1211.6416 1329.2434 1203.8962 1329.2433 curveto
1196.9475 1329.2434 1192.1453 1332.0317 1189.4898 1337.6083 curveto
1187.6309 1341.5032 1186.7014 1347.3676 1186.7015 1355.2014 curveto
1186.7014 1362.3715 1188.4497 1368.8334 1191.9462 1374.5871 curveto
1196.0180 1381.2702 1201.4177 1384.6118 1208.1451 1384.6118 curveto
1219.4755 1384.6118 1225.1407 1377.4197 1225.1408 1363.0354 curveto
fill
0.0000000 0.0000000 0.0000000 setrgbcolor
newpath
1314.1686 1387.4666 moveto
1284.2271 1387.4666 lineto
1284.2271 1384.4790 lineto
1290.3348 1384.4790 1293.3887 1381.4915 1293.3888 1375.5165 curveto
1293.3888 1345.3095 lineto
1293.3887 1341.4589 1292.5920 1338.1616 1290.9988 1335.4175 curveto
1289.0513 1332.1423 1286.2851 1330.5048 1282.7001 1330.5047 curveto
1276.9906 1330.5048 1269.9976 1333.4923 1261.7212 1339.4672 curveto
1261.7212 1377.3754 lineto
1261.7211 1381.7128 1265.1291 1384.0807 1271.9451 1384.4790 curveto
1271.5467 1387.4666 lineto
1242.8667 1387.4666 lineto
1242.6011 1386.9354 lineto
1242.9994 1384.8774 lineto
1245.7878 1384.8774 1248.0450 1383.7488 1249.7711 1381.4915 curveto
1251.3644 1379.4556 1252.1611 1376.9992 1252.1611 1374.1223 curveto
1252.1611 1337.5419 lineto
1252.1611 1335.9487 1250.7669 1334.6873 1247.9786 1333.7578 curveto
1247.6245 1333.6250 1245.5001 1333.1382 1241.6053 1332.2972 curveto
1241.6053 1330.6375 lineto
1243.5969 1330.3720 1246.7615 1329.3097 1251.0989 1327.4508 curveto
1255.1708 1325.6805 1257.8927 1324.2421 1259.2648 1323.1355 curveto
1261.7212 1324.9280 lineto
1261.7212 1336.8780 lineto
1274.7777 1328.6459 1283.7844 1324.5297 1288.7415 1324.5297 curveto
1293.5658 1324.5297 1297.3057 1326.7206 1299.9613 1331.1022 curveto
1302.2185 1334.7758 1303.3471 1339.1575 1303.3471 1344.2472 curveto
1303.3471 1378.7696 lineto
1303.3471 1382.3989 1306.8214 1384.2135 1313.7702 1384.2135 curveto
1314.1686 1387.4666 lineto
fill
0.0000000 0.0000000 0.0000000 setrgbcolor
newpath
463.73554 2154.7101 moveto
463.73548 2164.8455 460.32751 2172.8786 453.51162 2178.8093 curveto
447.04970 2184.3860 438.66255 2187.1744 428.35014 2187.1744 curveto
421.79973 2187.1744 414.56332 2186.1785 406.64090 2184.1868 curveto
406.64090 2102.8602 lineto
406.64090 2100.8686 405.49015 2099.2974 403.18867 2098.1466 curveto
401.15274 2097.1287 398.69634 2096.6640 395.81948 2096.7524 curveto
395.64245 2096.7525 395.46541 2096.4427 395.28836 2095.8229 curveto
395.06707 2095.2034 394.80152 2094.7829 394.49169 2094.5615 curveto
401.83876 2093.8092 409.07516 2091.7733 416.20093 2088.4537 curveto
416.20093 2134.1295 lineto
422.57427 2130.3675 426.33631 2128.1988 427.48708 2127.6233 curveto
431.86874 2125.5432 436.02912 2124.5031 439.96824 2124.5030 curveto
447.49229 2124.5031 453.48944 2127.7783 457.95969 2134.3286 curveto
461.81020 2140.0381 463.73548 2146.8319 463.73554 2154.7101 curveto
453.04689 2157.7640 moveto
453.04684 2151.3907 451.49776 2145.5484 448.39965 2140.2373 curveto
444.72608 2133.9967 439.94607 2130.8764 434.05961 2130.8764 curveto
431.62531 2130.8764 428.43863 2131.6510 424.49957 2133.2000 curveto
420.33917 2134.8377 417.57296 2136.5195 416.20093 2138.2456 curveto
416.20093 2173.0335 lineto
416.20092 2175.9103 418.52454 2178.3667 423.17179 2180.4027 curveto
426.93382 2182.0845 430.51882 2182.9255 433.92683 2182.9255 curveto
440.07885 2182.9255 444.92525 2180.1592 448.46604 2174.6268 curveto
451.51989 2169.8911 453.04684 2164.2701 453.04689 2157.7640 curveto
fill
0.0000000 0.0000000 0.0000000 setrgbcolor
newpath
536.49801 2179.7388 moveto
532.07201 2182.9697 529.81478 2184.6294 529.72632 2184.7180 curveto
526.84941 2186.4883 524.19384 2187.3735 521.75962 2187.3735 curveto
517.95327 2187.3735 515.34197 2184.4745 513.92571 2178.6765 curveto
508.57029 2182.5714 505.60491 2184.6737 505.02957 2184.9835 curveto
502.10842 2186.6211 498.74471 2187.4399 494.93842 2187.4399 curveto
491.17636 2187.4399 487.98968 2186.1564 485.37839 2183.5893 curveto
482.81134 2180.9780 481.52782 2177.8135 481.52782 2174.0957 curveto
481.52782 2169.4485 483.36458 2165.6422 487.03812 2162.6768 curveto
489.20682 2160.9507 493.07951 2158.9369 498.65621 2156.6354 curveto
513.66015 2150.4612 lineto
513.66015 2140.5692 lineto
513.66012 2137.0728 512.39872 2134.1295 509.87597 2131.7394 curveto
507.39741 2129.3495 504.38778 2128.1545 500.84705 2128.1544 curveto
495.22609 2128.1545 492.41562 2131.1420 492.41564 2137.1170 curveto
492.41562 2137.5153 492.50414 2138.0465 492.68119 2138.7103 curveto
492.85821 2139.3742 492.94673 2139.8832 492.94675 2140.2373 curveto
492.94673 2141.8749 491.70747 2143.3355 489.22896 2144.6189 curveto
487.06024 2145.7697 485.06857 2146.3451 483.25394 2146.3451 curveto
482.50152 2146.3451 482.12532 2145.7255 482.12532 2144.4862 curveto
482.12532 2138.5997 484.60384 2133.7754 489.56090 2130.0133 curveto
494.07535 2126.5612 499.38647 2124.8350 505.49429 2124.8350 curveto
511.60205 2124.8350 516.07225 2125.9637 518.90489 2128.2208 curveto
522.04726 2130.6994 523.61847 2134.9040 523.61852 2140.8348 curveto
523.61852 2175.0251 lineto
523.61847 2178.8315 524.92412 2180.7346 527.53548 2180.7346 curveto
529.17302 2180.7346 532.11627 2179.4954 536.36523 2177.0168 curveto
536.49801 2179.7388 lineto
513.72654 2174.2285 moveto
513.66015 2154.3117 lineto
500.18316 2160.2204 lineto
494.11961 2162.8760 491.08784 2167.1470 491.08785 2173.0335 curveto
491.08784 2175.5563 491.90664 2177.5701 493.54425 2179.0749 curveto
495.18183 2180.5797 497.26202 2181.3321 499.78483 2181.3321 curveto
502.39611 2181.3321 504.91889 2180.6018 507.35319 2179.1413 curveto
508.41538 2178.4774 510.53983 2176.8398 513.72654 2174.2285 curveto
fill
0.0000000 0.0000000 0.0000000 setrgbcolor
newpath
575.46842 2174.6932 moveto
571.52929 2182.4829 566.10752 2186.3777 559.20308 2186.3777 curveto
555.08694 2186.3777 551.63471 2185.1163 548.84638 2182.5935 curveto
545.92525 2179.9379 544.46469 2176.5742 544.46470 2172.5024 curveto
544.46470 2130.8764 lineto
538.02496 2130.8764 lineto
537.02912 2127.6233 lineto
541.85339 2125.8087 545.37201 2123.0868 547.58499 2119.4575 curveto
549.22257 2116.8020 550.68313 2112.5088 551.96667 2106.5780 curveto
554.29029 2106.5780 lineto
554.29029 2125.6316 lineto
575.46842 2125.6316 lineto
572.68007 2130.8764 lineto
554.29029 2130.8764 lineto
554.29029 2168.4526 lineto
554.29027 2170.7541 555.48527 2173.2327 557.87530 2175.8882 curveto
560.26529 2178.5438 562.61103 2179.8716 564.91255 2179.8716 curveto
566.46160 2179.8716 568.38688 2178.6544 570.68840 2176.2202 curveto
573.03411 2173.7416 574.20699 2172.5024 574.20702 2172.5024 curveto
575.09217 2172.5024 575.51264 2173.2327 575.46842 2174.6932 curveto
fill
0.0000000 0.0000000 0.0000000 setrgbcolor
newpath
646.23921 2156.1042 moveto
646.23915 2165.3102 643.29590 2172.7901 637.40946 2178.5438 curveto
631.56717 2184.2975 624.02095 2187.1744 614.77077 2187.1744 curveto
606.40572 2187.1744 599.16932 2184.2311 593.06153 2178.3446 curveto
586.99799 2172.4139 583.96622 2165.2881 583.96622 2156.9673 curveto
583.96622 2147.4516 586.75456 2139.7062 592.33125 2133.7311 curveto
597.95218 2127.7562 605.49840 2124.7686 614.96994 2124.7686 curveto
623.99882 2124.7686 631.45652 2127.7340 637.34307 2133.6647 curveto
643.27377 2139.5955 646.23915 2147.0754 646.23921 2156.1042 curveto
634.22278 2161.9465 moveto
634.22273 2153.1832 632.85069 2145.8582 630.10666 2139.9717 curveto
626.43308 2132.0936 620.72363 2128.1545 612.97827 2128.1544 curveto
606.02952 2128.1545 601.22738 2130.9428 598.57183 2136.5195 curveto
596.71292 2140.4143 595.78347 2146.2787 595.78349 2154.1126 curveto
595.78347 2161.2826 597.53172 2167.7445 601.02823 2173.4982 curveto
605.10007 2180.1814 610.49971 2183.5230 617.22717 2183.5230 curveto
628.55753 2183.5230 634.22273 2176.3308 634.22278 2161.9465 curveto
fill
0.0000000 0.0000000 0.0000000 setrgbcolor
newpath
723.25058 2186.3777 moveto
693.30909 2186.3777 lineto
693.30909 2183.3902 lineto
699.41684 2183.3902 702.47074 2180.4027 702.47079 2174.4276 curveto
702.47079 2144.2206 lineto
702.47074 2140.3701 701.67407 2137.0728 700.08078 2134.3286 curveto
698.13332 2131.0535 695.36711 2129.4159 691.78214 2129.4158 curveto
686.07265 2129.4159 679.07967 2132.4034 670.80318 2138.3784 curveto
670.80318 2176.2865 lineto
670.80316 2180.6240 674.21114 2182.9918 681.02711 2183.3902 curveto
680.62877 2186.3777 lineto
651.94868 2186.3777 lineto
651.68312 2185.8466 lineto
652.08145 2183.7885 lineto
654.86979 2183.7885 657.12702 2182.6599 658.85314 2180.4027 curveto
660.44647 2178.3667 661.24314 2175.9103 661.24315 2173.0335 curveto
661.24315 2136.4531 lineto
661.24314 2134.8598 659.84897 2133.5984 657.06064 2132.6689 curveto
656.70656 2132.5362 654.58211 2132.0493 650.68728 2131.2083 curveto
650.68728 2129.5486 lineto
652.67895 2129.2831 655.84350 2128.2209 660.18093 2126.3619 curveto
664.25278 2124.5916 666.97473 2123.1532 668.34679 2122.0466 curveto
670.80318 2123.8391 lineto
670.80318 2135.7892 lineto
683.85968 2127.5570 692.86646 2123.4409 697.82355 2123.4408 curveto
702.64778 2123.4409 706.38769 2125.6317 709.04331 2130.0133 curveto
711.30048 2133.6869 712.42910 2138.0686 712.42916 2143.1584 curveto
712.42916 2177.6807 lineto
712.42910 2181.3100 715.90346 2183.1246 722.85225 2183.1246 curveto
723.25058 2186.3777 lineto
fill
0.0000000 0.0000000 0.0000000 setrgbcolor
newpath
fill
0.0000000 0.0000000 0.0000000 setrgbcolor
newpath
813.20783 2127.0922 moveto
813.07501 2129.6151 811.70297 2133.0230 809.09171 2137.3161 curveto
803.60350 2134.4836 799.81933 2133.0673 797.73917 2133.0672 curveto
795.08358 2133.0673 792.73783 2134.3508 790.70192 2136.9178 curveto
789.15282 2139.2636 787.62587 2141.6093 786.12108 2143.9550 curveto
786.12108 2176.8840 lineto
786.12106 2181.6641 789.10856 2184.0541 795.08361 2184.0541 curveto
795.65895 2184.0541 796.47775 2184.0319 797.54000 2183.9877 curveto
798.60220 2183.9434 799.35461 2183.9213 799.79723 2183.9213 curveto
800.06279 2186.3777 lineto
767.20018 2186.3777 lineto
767.20018 2184.4524 lineto
773.44075 2184.2754 776.56103 2181.7526 776.56104 2176.8840 curveto
776.56104 2137.9800 lineto
776.56103 2135.3688 773.37436 2133.3771 767.00101 2132.0050 curveto
767.00101 2129.5486 lineto
770.89583 2129.1061 776.40612 2126.8488 783.53190 2122.7769 curveto
786.12108 2123.3080 lineto
786.12108 2138.9759 lineto
791.43218 2129.0618 796.16793 2124.1048 800.32835 2124.1047 curveto
802.45276 2124.1048 806.74592 2125.1006 813.20783 2127.0922 curveto
fill
0.0000000 0.0000000 0.0000000 setrgbcolor
newpath
870.50164 2170.0460 moveto
865.01342 2181.7305 856.31646 2187.5727 844.41072 2187.5727 curveto
836.75382 2187.5727 830.29195 2184.2311 825.02510 2177.5479 curveto
820.11230 2171.3074 817.65590 2164.2701 817.65590 2156.4362 curveto
817.65590 2147.5401 820.17869 2140.0603 825.22426 2133.9967 curveto
830.62390 2127.5349 837.68327 2124.3039 846.40239 2124.3039 curveto
853.35108 2124.3039 858.97202 2126.4062 863.26523 2130.6108 curveto
867.60260 2134.8155 869.77131 2140.4143 869.77136 2147.4073 curveto
826.88399 2147.4073 lineto
826.66268 2149.2662 826.55204 2151.1694 826.55205 2153.1167 curveto
826.55204 2159.7114 828.56584 2165.7750 832.59345 2171.3074 curveto
837.01938 2177.4594 842.41902 2180.5354 848.79240 2180.5354 curveto
857.11313 2180.5354 863.44222 2176.7955 867.77969 2169.3157 curveto
868.31080 2169.3157 lineto
869.28445 2169.2714 870.01473 2169.5149 870.50164 2170.0460 curveto
859.61382 2143.6231 moveto
859.43674 2139.1087 857.86554 2135.4352 854.90020 2132.6025 curveto
851.93478 2129.7257 848.17274 2128.2873 843.61405 2128.2872 curveto
839.85197 2128.2873 836.51039 2129.9470 833.58929 2133.2664 curveto
831.02223 2136.1876 829.27399 2139.6398 828.34455 2143.6231 curveto
859.61382 2143.6231 lineto
861.53911 2094.5615 moveto
841.35682 2119.2583 lineto
839.76348 2117.2666 lineto
849.98740 2090.6446 lineto
861.53911 2094.5615 lineto
fill
0.0000000 0.0000000 0.0000000 setrgbcolor
newpath
927.06516 2170.0460 moveto
921.57695 2181.7305 912.87998 2187.5727 900.97424 2187.5727 curveto
893.31734 2187.5727 886.85548 2184.2311 881.58862 2177.5479 curveto
876.67582 2171.3074 874.21943 2164.2701 874.21943 2156.4362 curveto
874.21943 2147.5401 876.74221 2140.0603 881.78779 2133.9967 curveto
887.18742 2127.5349 894.24679 2124.3039 902.96592 2124.3039 curveto
909.91461 2124.3039 915.53555 2126.4062 919.82875 2130.6108 curveto
924.16612 2134.8155 926.33483 2140.4143 926.33488 2147.4073 curveto
883.44752 2147.4073 lineto
883.22621 2149.2662 883.11556 2151.1694 883.11557 2153.1167 curveto
883.11556 2159.7114 885.12936 2165.7750 889.15698 2171.3074 curveto
893.58290 2177.4594 898.98254 2180.5354 905.35592 2180.5354 curveto
913.67665 2180.5354 920.00574 2176.7955 924.34321 2169.3157 curveto
924.87432 2169.3157 lineto
925.84798 2169.2714 926.57826 2169.5149 927.06516 2170.0460 curveto
916.17735 2143.6231 moveto
916.00027 2139.1087 914.42906 2135.4352 911.46372 2132.6025 curveto
908.49831 2129.7257 904.73626 2128.2873 900.17757 2128.2872 curveto
896.41550 2128.2873 893.07392 2129.9470 890.15282 2133.2664 curveto
887.58576 2136.1876 885.83751 2139.6398 884.90808 2143.6231 curveto
916.17735 2143.6231 lineto
fill
0.0000000 0.0000000 0.0000000 setrgbcolor
newpath
964.84057 2183.3902 moveto
964.44223 2186.3777 lineto
935.76214 2186.3777 lineto
935.49658 2185.8466 lineto
935.89492 2183.7885 lineto
938.68325 2183.7885 940.91835 2182.6599 942.60022 2180.4027 curveto
944.14928 2178.3667 944.92382 2175.9103 944.92384 2173.0335 curveto
944.92384 2102.1963 lineto
944.92382 2100.6030 944.08289 2099.2753 942.40105 2098.2129 curveto
940.98474 2097.3278 939.41353 2096.8852 937.68742 2096.8852 curveto
937.68742 2096.8852 936.58093 2097.1065 934.36797 2097.5491 curveto
934.36796 2097.3278 934.39009 2096.9959 934.43436 2096.5532 curveto
934.47861 2096.1107 934.50074 2095.7566 934.50074 2095.4910 curveto
934.50074 2094.8714 935.14250 2094.3403 936.42603 2093.8977 curveto
939.87825 2092.8355 944.96808 2090.8438 951.69552 2087.9226 curveto
954.61665 2087.9226 lineto
954.61665 2176.2865 lineto
954.61662 2180.6240 958.02459 2182.9918 964.84057 2183.3902 curveto
fill
0.0000000 0.0000000 0.0000000 setrgbcolor
newpath
1426.1973 1871.5050 moveto
1426.0644 1874.0279 1424.6924 1877.4359 1422.0811 1881.7290 curveto
1416.5929 1878.8964 1412.8088 1877.4801 1410.7286 1877.4801 curveto
1408.0730 1877.4801 1405.7273 1878.7636 1403.6914 1881.3306 curveto
1402.1423 1883.6764 1400.6153 1886.0222 1399.1105 1888.3679 curveto
1399.1105 1921.2969 lineto
1399.1105 1926.0769 1402.0980 1928.4669 1408.0730 1928.4669 curveto
1408.6484 1928.4669 1409.4672 1928.4448 1410.5294 1928.4005 curveto
1411.5916 1928.3563 1412.3440 1928.3341 1412.7867 1928.3341 curveto
1413.0522 1930.7905 lineto
1380.1896 1930.7905 lineto
1380.1896 1928.8652 lineto
1386.4302 1928.6882 1389.5505 1926.1654 1389.5505 1921.2969 curveto
1389.5505 1882.3929 lineto
1389.5505 1879.7816 1386.3638 1877.7899 1379.9904 1876.4178 curveto
1379.9904 1873.9614 lineto
1383.8853 1873.5189 1389.3956 1871.2617 1396.5213 1867.1898 curveto
1399.1105 1867.7209 lineto
1399.1105 1883.3887 lineto
1404.4216 1873.4746 1409.1574 1868.5176 1413.3178 1868.5175 curveto
1415.4422 1868.5176 1419.7354 1869.5134 1426.1973 1871.5050 curveto
fill
0.0000000 0.0000000 0.0000000 setrgbcolor
newpath
1490.1964 1924.1516 moveto
1485.7704 1927.3826 1483.5132 1929.0423 1483.4247 1929.1308 curveto
1480.5478 1930.9012 1477.8922 1931.7864 1475.4580 1931.7864 curveto
1471.6516 1931.7864 1469.0403 1928.8874 1467.6241 1923.0894 curveto
1462.2687 1926.9842 1459.3033 1929.0865 1458.7279 1929.3964 curveto
1455.8068 1931.0340 1452.4431 1931.8528 1448.6368 1931.8528 curveto
1444.8747 1931.8528 1441.6881 1930.5692 1439.0768 1928.0022 curveto
1436.5097 1925.3909 1435.2262 1922.2263 1435.2262 1918.5085 curveto
1435.2262 1913.8613 1437.0629 1910.0550 1440.7365 1907.0896 curveto
1442.9052 1905.3635 1446.7779 1903.3497 1452.3546 1901.0482 curveto
1467.3585 1894.8740 lineto
1467.3585 1884.9820 lineto
1467.3585 1881.4856 1466.0971 1878.5423 1463.5743 1876.1523 curveto
1461.0958 1873.7623 1458.0861 1872.5673 1454.5454 1872.5673 curveto
1448.9245 1872.5673 1446.1140 1875.5548 1446.1140 1881.5298 curveto
1446.1140 1881.9282 1446.2025 1882.4593 1446.3796 1883.1231 curveto
1446.5566 1883.7871 1446.6451 1884.2961 1446.6451 1884.6501 curveto
1446.6451 1886.2877 1445.4058 1887.7483 1442.9273 1889.0318 curveto
1440.7586 1890.1826 1438.7669 1890.7579 1436.9523 1890.7579 curveto
1436.1999 1890.7579 1435.8237 1890.1383 1435.8237 1888.8990 curveto
1435.8237 1883.0125 1438.3022 1878.1883 1443.2593 1874.4262 curveto
1447.7737 1870.9740 1453.0848 1869.2479 1459.1927 1869.2478 curveto
1465.3004 1869.2479 1469.7706 1870.3765 1472.6033 1872.6337 curveto
1475.7456 1875.1122 1477.3168 1879.3169 1477.3169 1885.2476 curveto
1477.3169 1919.4380 lineto
1477.3168 1923.2443 1478.6225 1925.1475 1481.2338 1925.1475 curveto
1482.8714 1925.1475 1485.8146 1923.9082 1490.0636 1921.4297 curveto
1490.1964 1924.1516 lineto
1467.4249 1918.6413 moveto
1467.3585 1898.7246 lineto
1453.8815 1904.6332 lineto
1447.8180 1907.2888 1444.7862 1911.5598 1444.7862 1917.4463 curveto
1444.7862 1919.9691 1445.6050 1921.9829 1447.2426 1923.4877 curveto
1448.8802 1924.9926 1450.9604 1925.7450 1453.4832 1925.7450 curveto
1456.0945 1925.7450 1458.6173 1925.0147 1461.0516 1923.5541 curveto
1462.1137 1922.8902 1464.2382 1921.2526 1467.4249 1918.6413 curveto
fill
0.0000000 0.0000000 0.0000000 setrgbcolor
newpath
1561.7638 1872.0362 moveto
1556.8510 1872.0362 1552.6242 1875.3999 1549.0835 1882.1273 curveto
1548.0655 1884.0305 1545.3435 1890.4702 1540.9177 1901.4465 curveto
1536.4032 1913.3966 1529.3217 1931.1667 1519.6731 1954.7570 curveto
1516.7077 1961.4844 1513.1670 1964.8481 1509.0509 1964.8481 curveto
1503.5184 1964.8481 1500.7522 1963.4097 1500.7522 1960.5329 curveto
1500.7522 1956.3282 1503.8061 1953.4735 1509.9139 1951.9687 curveto
1513.7645 1950.9949 1517.0397 1948.1402 1519.7395 1943.4045 curveto
1520.6689 1941.7226 1522.4393 1937.5180 1525.0507 1930.7905 curveto
1502.3456 1882.1273 lineto
1500.8850 1878.9849 1499.4687 1876.7941 1498.0967 1875.5548 curveto
1496.5033 1874.1385 1494.1355 1873.0542 1490.9930 1872.3017 curveto
1490.6611 1869.9117 lineto
1520.4698 1869.9117 lineto
1520.1379 1872.5673 lineto
1514.7382 1872.5673 1512.0384 1874.1164 1512.0384 1877.2145 curveto
1512.0384 1878.0112 1518.1019 1891.5546 1530.2290 1917.8447 curveto
1533.1058 1910.8517 1535.9606 1903.8587 1538.7932 1896.8657 curveto
1543.4404 1885.4025 1545.7640 1879.1177 1545.7641 1878.0112 curveto
1545.7640 1874.0279 1542.9093 1872.1247 1537.1999 1872.3017 curveto
1537.2663 1869.9117 lineto
1561.6311 1869.9117 lineto
1561.7638 1872.0362 lineto
fill
0.0000000 0.0000000 0.0000000 setrgbcolor
newpath
1624.6343 1900.5171 moveto
1624.6343 1909.7231 1621.6910 1917.2029 1615.8046 1922.9566 curveto
1609.9623 1928.7103 1602.4161 1931.5872 1593.1659 1931.5872 curveto
1584.8008 1931.5872 1577.5644 1928.6439 1571.4567 1922.7574 curveto
1565.3931 1916.8267 1562.3613 1909.7009 1562.3613 1901.3801 curveto
1562.3613 1891.8644 1565.1497 1884.1190 1570.7264 1878.1440 curveto
1576.3473 1872.1690 1583.8935 1869.1815 1593.3651 1869.1814 curveto
1602.3939 1869.1815 1609.8516 1872.1469 1615.7382 1878.0776 curveto
1621.6689 1884.0084 1624.6343 1891.4882 1624.6343 1900.5171 curveto
1612.6179 1906.3593 moveto
1612.6179 1897.5960 1611.2458 1890.2711 1608.5018 1884.3845 curveto
1604.8282 1876.5064 1599.1187 1872.5673 1591.3734 1872.5673 curveto
1584.4246 1872.5673 1579.6225 1875.3557 1576.9669 1880.9323 curveto
1575.1080 1884.8272 1574.1786 1890.6915 1574.1786 1898.5254 curveto
1574.1786 1905.6955 1575.9268 1912.1573 1579.4233 1917.9110 curveto
1583.4952 1924.5942 1588.8948 1927.9358 1595.6223 1927.9358 curveto
1606.9527 1927.9358 1612.6179 1920.7437 1612.6179 1906.3593 curveto
fill
0.0000000 0.0000000 0.0000000 setrgbcolor
newpath
1701.6457 1930.7905 moveto
1671.7042 1930.7905 lineto
1671.7042 1927.8030 lineto
1677.8120 1927.8030 1680.8659 1924.8155 1680.8659 1918.8405 curveto
1680.8659 1888.6334 lineto
1680.8659 1884.7829 1680.0692 1881.4856 1678.4759 1878.7415 curveto
1676.5284 1875.4663 1673.7622 1873.8287 1670.1773 1873.8287 curveto
1664.4678 1873.8287 1657.4748 1876.8162 1649.1983 1882.7912 curveto
1649.1983 1920.6994 lineto
1649.1983 1925.0368 1652.6063 1927.4047 1659.4222 1927.8030 curveto
1659.0239 1930.7905 lineto
1630.3438 1930.7905 lineto
1630.0782 1930.2594 lineto
1630.4766 1928.2014 lineto
1633.2649 1928.2014 1635.5221 1927.0727 1637.2483 1924.8155 curveto
1638.8416 1922.7796 1639.6383 1920.3232 1639.6383 1917.4463 curveto
1639.6383 1880.8659 lineto
1639.6383 1879.2726 1638.2441 1878.0112 1635.4558 1877.0817 curveto
1635.1017 1876.9490 1632.9772 1876.4622 1629.0824 1875.6212 curveto
1629.0824 1873.9614 lineto
1631.0741 1873.6959 1634.2386 1872.6337 1638.5760 1870.7748 curveto
1642.6479 1869.0045 1645.3698 1867.5660 1646.7419 1866.4595 curveto
1649.1983 1868.2520 lineto
1649.1983 1880.2020 lineto
1662.2548 1871.9698 1671.2616 1867.8537 1676.2187 1867.8536 curveto
1681.0429 1867.8537 1684.7828 1870.0445 1687.4384 1874.4262 curveto
1689.6956 1878.0998 1690.8242 1882.4814 1690.8243 1887.5712 curveto
1690.8243 1922.0936 lineto
1690.8242 1925.7228 1694.2986 1927.5375 1701.2474 1927.5375 curveto
1701.6457 1930.7905 lineto
fill
0.0000000 0.0000000 0.0000000 setrgbcolor
newpath
1749.9106 1914.2596 moveto
1749.9105 1918.9069 1747.7861 1922.8681 1743.5372 1926.1433 curveto
1739.6424 1929.2414 1735.3050 1930.7905 1730.5250 1930.7905 curveto
1728.9316 1930.7905 1726.5637 1930.5028 1723.4213 1929.9275 curveto
1720.2789 1929.3078 1717.9110 1928.9980 1716.3177 1928.9980 curveto
1714.6358 1928.9980 1713.5072 1929.8611 1712.9319 1931.5872 curveto
1710.3427 1931.0561 lineto
1709.6788 1913.9277 lineto
1711.2057 1913.6621 lineto
1715.1448 1923.1779 1720.8100 1927.9358 1728.2013 1927.9358 curveto
1736.7876 1927.9358 1741.0808 1924.0631 1741.0808 1916.3177 curveto
1741.0808 1911.8475 1738.4031 1908.3732 1733.0478 1905.8946 curveto
1728.0907 1903.7702 1723.1115 1901.6457 1718.1102 1899.5213 curveto
1712.7548 1896.2461 1710.0771 1891.4218 1710.0771 1885.0484 curveto
1710.0771 1880.4455 1712.3343 1876.5949 1716.8488 1873.4967 curveto
1720.8321 1870.7084 1725.2138 1869.3143 1729.9939 1869.3142 curveto
1737.2966 1869.3143 1742.8069 1870.4208 1746.5247 1872.6337 curveto
1747.3878 1887.5712 lineto
1745.8609 1887.8368 lineto
1743.0282 1881.8175 1741.1472 1878.2547 1740.2178 1877.1481 curveto
1737.7392 1874.1385 1734.1542 1872.6337 1729.4627 1872.6337 curveto
1726.4531 1872.6337 1723.7754 1873.5632 1721.4297 1875.4220 curveto
1718.8626 1877.3695 1717.5791 1879.8037 1717.5791 1882.7248 curveto
1717.5791 1886.3099 1720.3674 1889.4080 1725.9441 1892.0193 curveto
1736.1238 1896.7551 1741.3021 1899.1893 1741.4792 1899.3221 curveto
1747.1001 1903.0399 1749.9105 1908.0191 1749.9106 1914.2596 curveto
fill
0.0000000 0.0000000 0.0000000 setrgbcolor
newpath
fill
0.0000000 0.0000000 0.0000000 setrgbcolor
newpath
1847.6354 1871.5050 moveto
1847.5025 1874.0279 1846.1305 1877.4359 1843.5192 1881.7290 curveto
1838.0310 1878.8964 1834.2469 1877.4801 1832.1667 1877.4801 curveto
1829.5111 1877.4801 1827.1654 1878.7636 1825.1295 1881.3306 curveto
1823.5804 1883.6764 1822.0534 1886.0222 1820.5486 1888.3679 curveto
1820.5486 1921.2969 lineto
1820.5486 1926.0769 1823.5361 1928.4669 1829.5111 1928.4669 curveto
1830.0865 1928.4669 1830.9053 1928.4448 1831.9675 1928.4005 curveto
1833.0297 1928.3563 1833.7821 1928.3341 1834.2248 1928.3341 curveto
1834.4903 1930.7905 lineto
1801.6277 1930.7905 lineto
1801.6277 1928.8652 lineto
1807.8683 1928.6882 1810.9886 1926.1654 1810.9886 1921.2969 curveto
1810.9886 1882.3929 lineto
1810.9886 1879.7816 1807.8019 1877.7899 1801.4285 1876.4178 curveto
1801.4285 1873.9614 lineto
1805.3234 1873.5189 1810.8337 1871.2617 1817.9594 1867.1898 curveto
1820.5486 1867.7209 lineto
1820.5486 1883.3887 lineto
1825.8597 1873.4746 1830.5955 1868.5176 1834.7559 1868.5175 curveto
1836.8803 1868.5176 1841.1735 1869.5134 1847.6354 1871.5050 curveto
fill
0.0000000 0.0000000 0.0000000 setrgbcolor
newpath
1904.9292 1914.4588 moveto
1899.4410 1926.1433 1890.7440 1931.9855 1878.8382 1931.9855 curveto
1871.1814 1931.9855 1864.7195 1928.6439 1859.4526 1921.9608 curveto
1854.5398 1915.7202 1852.0834 1908.6830 1852.0834 1900.8490 curveto
1852.0834 1891.9529 1854.6062 1884.4731 1859.6518 1878.4095 curveto
1865.0514 1871.9477 1872.1108 1868.7168 1880.8299 1868.7167 curveto
1887.7786 1868.7168 1893.3996 1870.8191 1897.6928 1875.0237 curveto
1902.0301 1879.2284 1904.1988 1884.8272 1904.1989 1891.8201 curveto
1861.3115 1891.8201 lineto
1861.0902 1893.6790 1860.9796 1895.5822 1860.9796 1897.5296 curveto
1860.9796 1904.1243 1862.9934 1910.1878 1867.0210 1915.7202 curveto
1871.4469 1921.8723 1876.8465 1924.9483 1883.2199 1924.9483 curveto
1891.5407 1924.9483 1897.8697 1921.2084 1902.2072 1913.7285 curveto
1902.7383 1913.7285 lineto
1903.7120 1913.6843 1904.4423 1913.9277 1904.9292 1914.4588 curveto
1894.0414 1888.0359 moveto
1893.8643 1883.5215 1892.2931 1879.8480 1889.3277 1877.0153 curveto
1886.3623 1874.1385 1882.6003 1872.7001 1878.0416 1872.7001 curveto
1874.2795 1872.7001 1870.9379 1874.3598 1868.0168 1877.6792 curveto
1865.4498 1880.6004 1863.7015 1884.0526 1862.7721 1888.0359 curveto
1894.0414 1888.0359 lineto
1895.9666 1838.9744 moveto
1875.7843 1863.6711 lineto
1874.1910 1861.6795 lineto
1884.4149 1835.0574 lineto
1895.9666 1838.9744 lineto
fill
0.0000000 0.0000000 0.0000000 setrgbcolor
newpath
1961.4927 1914.4588 moveto
1956.0045 1926.1433 1947.3075 1931.9855 1935.4018 1931.9855 curveto
1927.7449 1931.9855 1921.2830 1928.6439 1916.0162 1921.9608 curveto
1911.1034 1915.7202 1908.6470 1908.6830 1908.6470 1900.8490 curveto
1908.6470 1891.9529 1911.1697 1884.4731 1916.2153 1878.4095 curveto
1921.6150 1871.9477 1928.6743 1868.7168 1937.3934 1868.7167 curveto
1944.3421 1868.7168 1949.9631 1870.8191 1954.2563 1875.0237 curveto
1958.5937 1879.2284 1960.7624 1884.8272 1960.7624 1891.8201 curveto
1917.8750 1891.8201 lineto
1917.6537 1893.6790 1917.5431 1895.5822 1917.5431 1897.5296 curveto
1917.5431 1904.1243 1919.5569 1910.1878 1923.5845 1915.7202 curveto
1928.0104 1921.8723 1933.4101 1924.9483 1939.7835 1924.9483 curveto
1948.1042 1924.9483 1954.4333 1921.2084 1958.7707 1913.7285 curveto
1959.3019 1913.7285 lineto
1960.2755 1913.6843 1961.0058 1913.9277 1961.4927 1914.4588 curveto
1950.6049 1888.0359 moveto
1950.4278 1883.5215 1948.8566 1879.8480 1945.8913 1877.0153 curveto
1942.9258 1874.1385 1939.1638 1872.7001 1934.6051 1872.7001 curveto
1930.8430 1872.7001 1927.5014 1874.3598 1924.5803 1877.6792 curveto
1922.0133 1880.6004 1920.2650 1884.0526 1919.3356 1888.0359 curveto
1950.6049 1888.0359 lineto
fill
0.0000000 0.0000000 0.0000000 setrgbcolor
newpath
1999.2681 1927.8030 moveto
1998.8698 1930.7905 lineto
1970.1897 1930.7905 lineto
1969.9241 1930.2594 lineto
1970.3224 1928.2014 lineto
1973.1108 1928.2014 1975.3459 1927.0727 1977.0277 1924.8155 curveto
1978.5768 1922.7796 1979.3514 1920.3232 1979.3514 1917.4463 curveto
1979.3514 1846.6091 lineto
1979.3514 1845.0159 1978.5104 1843.6881 1976.8286 1842.6258 curveto
1975.4123 1841.7407 1973.8411 1841.2981 1972.1150 1841.2980 curveto
1972.1149 1841.2981 1971.0085 1841.5194 1968.7955 1841.9619 curveto
1968.7955 1841.7407 1968.8176 1841.4087 1968.8619 1840.9661 curveto
1968.9061 1840.5236 1968.9283 1840.1695 1968.9283 1839.9038 curveto
1968.9283 1839.2843 1969.5700 1838.7532 1970.8536 1838.3105 curveto
1974.3058 1837.2484 1979.3956 1835.2567 1986.1231 1832.3355 curveto
1989.0442 1832.3355 lineto
1989.0442 1920.6994 lineto
1989.0442 1925.0368 1992.4521 1927.4047 1999.2681 1927.8030 curveto
fill
0.0000000 0.0000000 0.0000000 setrgbcolor
newpath
2048.9272 1914.2596 moveto
2048.9271 1918.9069 2046.8027 1922.8681 2042.5538 1926.1433 curveto
2038.6589 1929.2414 2034.3215 1930.7905 2029.5415 1930.7905 curveto
2027.9482 1930.7905 2025.5803 1930.5028 2022.4379 1929.9275 curveto
2019.2955 1929.3078 2016.9276 1928.9980 2015.3343 1928.9980 curveto
2013.6524 1928.9980 2012.5238 1929.8611 2011.9484 1931.5872 curveto
2009.3592 1931.0561 lineto
2008.6954 1913.9277 lineto
2010.2223 1913.6621 lineto
2014.1614 1923.1779 2019.8266 1927.9358 2027.2179 1927.9358 curveto
2035.8042 1927.9358 2040.0974 1924.0631 2040.0974 1916.3177 curveto
2040.0974 1911.8475 2037.4197 1908.3732 2032.0643 1905.8946 curveto
2027.1072 1903.7702 2022.1281 1901.6457 2017.1268 1899.5213 curveto
2011.7714 1896.2461 2009.0937 1891.4218 2009.0937 1885.0484 curveto
2009.0937 1880.4455 2011.3509 1876.5949 2015.8654 1873.4967 curveto
2019.8487 1870.7084 2024.2304 1869.3143 2029.0104 1869.3142 curveto
2036.3132 1869.3143 2041.8235 1870.4208 2045.5413 1872.6337 curveto
2046.4044 1887.5712 lineto
2044.8774 1887.8368 lineto
2042.0448 1881.8175 2040.1638 1878.2547 2039.2343 1877.1481 curveto
2036.7558 1874.1385 2033.1708 1872.6337 2028.4793 1872.6337 curveto
2025.4696 1872.6337 2022.7920 1873.5632 2020.4462 1875.4220 curveto
2017.8792 1877.3695 2016.5956 1879.8037 2016.5957 1882.7248 curveto
2016.5956 1886.3099 2019.3840 1889.4080 2024.9607 1892.0193 curveto
2035.1403 1896.7551 2040.3187 1899.1893 2040.4957 1899.3221 curveto
2046.1166 1903.0399 2048.9271 1908.0191 2048.9272 1914.2596 curveto
fill
0.0000000 0.0000000 0.0000000 setrgbcolor
newpath
2223.1605 596.05762 moveto
2223.1604 605.26360 2220.2172 612.74343 2214.3307 618.49714 curveto
2208.4885 624.25086 2200.9422 627.12772 2191.6921 627.12772 curveto
2183.3270 627.12772 2176.0906 624.18448 2169.9828 618.29797 curveto
2163.9193 612.36723 2160.8875 605.24147 2160.8875 596.92068 curveto
2160.8875 587.40494 2163.6758 579.65955 2169.2525 573.68449 curveto
2174.8735 567.70953 2182.4197 564.72202 2191.8912 564.72196 curveto
2200.9201 564.72202 2208.3778 567.68740 2214.2644 573.61810 curveto
2220.1951 579.54891 2223.1604 587.02874 2223.1605 596.05762 curveto
2211.1441 601.89986 moveto
2211.1440 593.13653 2209.7720 585.81161 2207.0279 579.92506 curveto
2203.3544 572.04694 2197.6449 568.10786 2189.8995 568.10780 curveto
2182.9508 568.10786 2178.1487 570.89620 2175.4931 576.47283 curveto
2173.6342 580.36770 2172.7048 586.23207 2172.7048 594.06595 curveto
2172.7048 601.23599 2174.4530 607.69786 2177.9495 613.45157 curveto
2182.0214 620.13474 2187.4210 623.47633 2194.1485 623.47632 curveto
2205.4788 623.47633 2211.1440 616.28418 2211.1441 601.89986 curveto
fill
0.0000000 0.0000000 0.0000000 setrgbcolor
newpath
2281.1846 609.99933 moveto
2275.6964 621.68382 2266.9994 627.52606 2255.0937 627.52606 curveto
2247.4368 627.52606 2240.9749 624.18448 2235.7080 617.50130 curveto
2230.7952 611.26074 2228.3388 604.22350 2228.3388 596.38956 curveto
2228.3388 587.49346 2230.8616 580.01363 2235.9072 573.95004 curveto
2241.3068 567.48823 2248.3662 564.25730 2257.0853 564.25723 curveto
2264.0340 564.25730 2269.6550 566.35962 2273.9482 570.56420 curveto
2278.2855 574.76889 2280.4542 580.36770 2280.4543 587.36064 curveto
2237.5669 587.36064 lineto
2237.3456 589.21958 2237.2350 591.12273 2237.2350 593.07011 curveto
2237.2350 599.66479 2239.2488 605.72832 2243.2764 611.26073 curveto
2247.7023 617.41279 2253.1020 620.48882 2259.4753 620.48881 curveto
2267.7961 620.48882 2274.1252 616.74890 2278.4626 609.26905 curveto
2278.9937 609.26905 lineto
2279.9674 609.22481 2280.6977 609.46824 2281.1846 609.99933 curveto
2270.2968 583.57647 moveto
2270.1197 579.06205 2268.5485 575.38853 2265.5831 572.55587 curveto
2262.6177 569.67907 2258.8557 568.24064 2254.2970 568.24058 curveto
2250.5349 568.24064 2247.1933 569.90036 2244.2722 573.21976 curveto
2241.7052 576.14093 2239.9569 579.59317 2239.0275 583.57647 curveto
2270.2968 583.57647 lineto
fill
0.0000000 0.0000000 0.0000000 setrgbcolor
newpath
2319.6239 626.33105 moveto
2289.1513 626.33105 lineto
2288.8857 625.79994 lineto
2289.2841 623.74188 lineto
2292.4265 623.74188 2294.6616 623.29929 2295.9894 622.41410 curveto
2297.6269 621.30762 2298.4457 619.18317 2298.4458 616.04074 curveto
2298.4458 576.40644 lineto
2298.4457 573.17556 2296.8524 571.56009 2293.6657 571.56004 curveto
2292.4707 571.56009 2291.0766 571.75926 2289.4832 572.15754 curveto
2287.8235 569.50197 lineto
2296.2328 567.15628 2302.5397 564.65563 2306.7444 562.00000 curveto
2309.2008 563.79251 lineto
2309.2008 616.23991 lineto
2309.2008 620.57734 2312.5866 622.94521 2319.3583 623.34354 curveto
2319.6239 626.33105 lineto
2309.9975 541.35299 moveto
2309.9974 543.25623 2309.3335 544.89382 2308.0058 546.26578 curveto
2306.6780 547.59364 2305.0625 548.25754 2303.1594 548.25746 curveto
2301.2562 548.25754 2299.6407 547.59364 2298.3130 546.26578 curveto
2296.9852 544.89382 2296.3213 543.25623 2296.3213 541.35299 curveto
2296.3213 539.44992 2296.9852 537.83445 2298.3130 536.50658 curveto
2299.6407 535.17889 2301.2562 534.51500 2303.1594 534.51491 curveto
2305.0625 534.51500 2306.6780 535.17889 2308.0058 536.50658 curveto
2309.3335 537.83445 2309.9974 539.44992 2309.9975 541.35299 curveto
fill
0.0000000 0.0000000 0.0000000 setrgbcolor
newpath
2355.6068 623.34354 moveto
2355.2084 626.33105 lineto
2326.5283 626.33105 lineto
2326.2628 625.79994 lineto
2326.6611 623.74188 lineto
2329.4495 623.74188 2331.6846 622.61327 2333.3664 620.35603 curveto
2334.9155 618.32011 2335.6900 615.86371 2335.6900 612.98684 curveto
2335.6900 542.14966 lineto
2335.6900 540.55641 2334.8491 539.22862 2333.1673 538.16631 curveto
2331.7509 537.28121 2330.1797 536.83862 2328.4536 536.83853 curveto
2328.4536 536.83862 2327.3471 537.05992 2325.1342 537.50242 curveto
2325.1342 537.28121 2325.1563 536.94927 2325.2006 536.50658 curveto
2325.2448 536.06408 2325.2669 535.71001 2325.2670 535.44436 curveto
2325.2669 534.82482 2325.9087 534.29371 2327.1922 533.85102 curveto
2330.6445 532.78889 2335.7343 530.79722 2342.4617 527.87600 curveto
2345.3829 527.87600 lineto
2345.3829 616.23991 lineto
2345.3828 620.57734 2348.7908 622.94521 2355.6068 623.34354 curveto
fill
grestore
showpage
