%!PS-Adobe-2.0 EPSF-2.0
%%Title: Battement.fig
%%Creator: fig2dev Version 3.2 Patchlevel 5-alpha5
%%CreationDate: Sat Aug  6 22:56:30 2005
%%For: guyotv@debian ()
%%BoundingBox: 0 0 175 141
%Magnification: 1.0000
%%EndComments
/$F2psDict 200 dict def
$F2psDict begin
$F2psDict /mtrx matrix put
/col-1 {0 setgray} bind def
/col0 {0.000 0.000 0.000 srgb} bind def
/col1 {0.000 0.000 1.000 srgb} bind def
/col2 {0.000 1.000 0.000 srgb} bind def
/col3 {0.000 1.000 1.000 srgb} bind def
/col4 {1.000 0.000 0.000 srgb} bind def
/col5 {1.000 0.000 1.000 srgb} bind def
/col6 {1.000 1.000 0.000 srgb} bind def
/col7 {1.000 1.000 1.000 srgb} bind def
/col8 {0.000 0.000 0.560 srgb} bind def
/col9 {0.000 0.000 0.690 srgb} bind def
/col10 {0.000 0.000 0.820 srgb} bind def
/col11 {0.530 0.810 1.000 srgb} bind def
/col12 {0.000 0.560 0.000 srgb} bind def
/col13 {0.000 0.690 0.000 srgb} bind def
/col14 {0.000 0.820 0.000 srgb} bind def
/col15 {0.000 0.560 0.560 srgb} bind def
/col16 {0.000 0.690 0.690 srgb} bind def
/col17 {0.000 0.820 0.820 srgb} bind def
/col18 {0.560 0.000 0.000 srgb} bind def
/col19 {0.690 0.000 0.000 srgb} bind def
/col20 {0.820 0.000 0.000 srgb} bind def
/col21 {0.560 0.000 0.560 srgb} bind def
/col22 {0.690 0.000 0.690 srgb} bind def
/col23 {0.820 0.000 0.820 srgb} bind def
/col24 {0.500 0.190 0.000 srgb} bind def
/col25 {0.630 0.250 0.000 srgb} bind def
/col26 {0.750 0.380 0.000 srgb} bind def
/col27 {1.000 0.500 0.500 srgb} bind def
/col28 {1.000 0.630 0.630 srgb} bind def
/col29 {1.000 0.750 0.750 srgb} bind def
/col30 {1.000 0.880 0.880 srgb} bind def
/col31 {1.000 0.840 0.000 srgb} bind def

end
save
newpath 0 141 moveto 0 0 lineto 175 0 lineto 175 141 lineto closepath clip newpath
3.8 145.8 translate
1 -1 scale

/cp {closepath} bind def
/ef {eofill} bind def
/gr {grestore} bind def
/gs {gsave} bind def
/sa {save} bind def
/rs {restore} bind def
/l {lineto} bind def
/m {moveto} bind def
/rm {rmoveto} bind def
/n {newpath} bind def
/s {stroke} bind def
/sh {show} bind def
/slc {setlinecap} bind def
/slj {setlinejoin} bind def
/slw {setlinewidth} bind def
/srgb {setrgbcolor} bind def
/rot {rotate} bind def
/sc {scale} bind def
/sd {setdash} bind def
/ff {findfont} bind def
/sf {setfont} bind def
/scf {scalefont} bind def
/sw {stringwidth} bind def
/tr {translate} bind def
/tnt {dup dup currentrgbcolor
  4 -2 roll dup 1 exch sub 3 -1 roll mul add
  4 -2 roll dup 1 exch sub 3 -1 roll mul add
  4 -2 roll dup 1 exch sub 3 -1 roll mul add srgb}
  bind def
/shd {dup dup currentrgbcolor 4 -2 roll mul 4 -2 roll mul
  4 -2 roll mul srgb} bind def
/reencdict 12 dict def /ReEncode { reencdict begin
/newcodesandnames exch def /newfontname exch def /basefontname exch def
/basefontdict basefontname findfont def /newfont basefontdict maxlength dict def
basefontdict { exch dup /FID ne { dup /Encoding eq
{ exch dup length array copy newfont 3 1 roll put }
{ exch newfont 3 1 roll put } ifelse } { pop pop } ifelse } forall
newfont /FontName newfontname put newcodesandnames aload pop
128 1 255 { newfont /Encoding get exch /.notdef put } for
newcodesandnames length 2 idiv { newfont /Encoding get 3 1 roll put } repeat
newfontname newfont definefont pop end } def
/isovec [
8#055 /minus 8#200 /grave 8#201 /acute 8#202 /circumflex 8#203 /tilde
8#204 /macron 8#205 /breve 8#206 /dotaccent 8#207 /dieresis
8#210 /ring 8#211 /cedilla 8#212 /hungarumlaut 8#213 /ogonek 8#214 /caron
8#220 /dotlessi 8#230 /oe 8#231 /OE
8#240 /space 8#241 /exclamdown 8#242 /cent 8#243 /sterling
8#244 /currency 8#245 /yen 8#246 /brokenbar 8#247 /section 8#250 /dieresis
8#251 /copyright 8#252 /ordfeminine 8#253 /guillemotleft 8#254 /logicalnot
8#255 /hyphen 8#256 /registered 8#257 /macron 8#260 /degree 8#261 /plusminus
8#262 /twosuperior 8#263 /threesuperior 8#264 /acute 8#265 /mu 8#266 /paragraph
8#267 /periodcentered 8#270 /cedilla 8#271 /onesuperior 8#272 /ordmasculine
8#273 /guillemotright 8#274 /onequarter 8#275 /onehalf
8#276 /threequarters 8#277 /questiondown 8#300 /Agrave 8#301 /Aacute
8#302 /Acircumflex 8#303 /Atilde 8#304 /Adieresis 8#305 /Aring
8#306 /AE 8#307 /Ccedilla 8#310 /Egrave 8#311 /Eacute
8#312 /Ecircumflex 8#313 /Edieresis 8#314 /Igrave 8#315 /Iacute
8#316 /Icircumflex 8#317 /Idieresis 8#320 /Eth 8#321 /Ntilde 8#322 /Ograve
8#323 /Oacute 8#324 /Ocircumflex 8#325 /Otilde 8#326 /Odieresis 8#327 /multiply
8#330 /Oslash 8#331 /Ugrave 8#332 /Uacute 8#333 /Ucircumflex
8#334 /Udieresis 8#335 /Yacute 8#336 /Thorn 8#337 /germandbls 8#340 /agrave
8#341 /aacute 8#342 /acircumflex 8#343 /atilde 8#344 /adieresis 8#345 /aring
8#346 /ae 8#347 /ccedilla 8#350 /egrave 8#351 /eacute
8#352 /ecircumflex 8#353 /edieresis 8#354 /igrave 8#355 /iacute
8#356 /icircumflex 8#357 /idieresis 8#360 /eth 8#361 /ntilde 8#362 /ograve
8#363 /oacute 8#364 /ocircumflex 8#365 /otilde 8#366 /odieresis 8#367 /divide
8#370 /oslash 8#371 /ugrave 8#372 /uacute 8#373 /ucircumflex
8#374 /udieresis 8#375 /yacute 8#376 /thorn 8#377 /ydieresis] def
/Times-Roman /Times-Roman-iso isovec ReEncode
/$F2psBegin {$F2psDict begin /$F2psEnteredState save def} def
/$F2psEnd {$F2psEnteredState restore end} def

$F2psBegin
10 setmiterlimit
0 slj 0 slc
 0.06299 0.06299 sc
%
% Fig objects follow
%
% 
% here starts figure with depth 50
% Polyline
2 slj
0 slc
7.500 slw
n 585 585 m 585 581 l 586 574 l 587 561 l 589 543 l 591 520 l
 593 494 l 596 467 l 599 439 l 603 413 l 606 388 l
 610 365 l 615 345 l 619 330 l 624 319 l 630 315 l
 636 319 l 641 330 l 645 345 l 650 365 l 654 388 l
 657 413 l 661 439 l 664 467 l 667 494 l 669 520 l
 671 543 l 673 561 l 674 574 l 675 581 l
 675 585 l gs col0 s gr 
% Polyline
n 675 585 m 675 589 l 676 596 l 677 609 l 679 627 l 681 650 l
 683 676 l 686 703 l 689 731 l 693 757 l 696 782 l
 700 805 l 705 825 l 709 840 l 714 851 l 720 855 l
 726 851 l 731 840 l 735 825 l 740 805 l 744 782 l
 747 757 l 751 731 l 754 703 l 757 676 l 759 650 l
 761 627 l 763 609 l 764 596 l 765 589 l
 765 585 l gs col0 s gr 
% Polyline
n 945 585 m 945 581 l 946 574 l 947 561 l 949 543 l 951 520 l
 953 494 l 956 467 l 959 439 l 963 413 l 966 388 l
 970 365 l 975 345 l 979 330 l 984 319 l 990 315 l
 996 319 l 1001 330 l 1005 345 l 1010 365 l 1014 388 l
 1017 413 l 1021 439 l 1024 467 l 1027 494 l 1029 520 l
 1031 543 l 1033 561 l 1034 574 l 1035 581 l
 1035 585 l gs col0 s gr 
% Polyline
n 1035 585 m 1035 589 l 1036 596 l 1037 609 l 1039 627 l 1041 650 l
 1043 676 l 1046 703 l 1049 731 l 1053 757 l 1056 782 l
 1060 805 l 1065 825 l 1069 840 l 1074 851 l 1080 855 l
 1086 851 l 1091 840 l 1095 825 l 1100 805 l 1104 782 l
 1107 757 l 1111 731 l 1114 703 l 1117 676 l 1119 650 l
 1121 627 l 1123 609 l 1124 596 l 1125 589 l
 1125 585 l gs col0 s gr 
% Polyline
n 1125 585 m 1125 581 l 1126 574 l 1127 561 l 1129 543 l 1131 520 l
 1133 494 l 1136 467 l 1139 439 l 1143 413 l 1146 388 l
 1150 365 l 1155 345 l 1159 330 l 1164 319 l 1170 315 l
 1176 319 l 1181 330 l 1185 345 l 1190 365 l 1194 388 l
 1197 413 l 1201 439 l 1204 467 l 1207 494 l 1209 520 l
 1211 543 l 1213 561 l 1214 574 l 1215 581 l
 1215 585 l gs col0 s gr 
% Polyline
n 1215 585 m 1215 589 l 1216 596 l 1217 609 l 1219 627 l 1221 650 l
 1223 676 l 1226 703 l 1229 731 l 1233 757 l 1236 782 l
 1240 805 l 1245 825 l 1249 840 l 1254 851 l 1260 855 l
 1266 851 l 1271 840 l 1275 825 l 1280 805 l 1284 782 l
 1287 757 l 1291 731 l 1294 703 l 1297 676 l 1299 650 l
 1301 627 l 1303 609 l 1304 596 l 1305 589 l
 1305 585 l gs col0 s gr 
% Polyline
n 1305 585 m 1305 581 l 1306 574 l 1307 561 l 1309 543 l 1311 520 l
 1313 494 l 1316 467 l 1319 439 l 1323 413 l 1326 388 l
 1330 365 l 1335 345 l 1339 330 l 1344 319 l 1350 315 l
 1356 319 l 1361 330 l 1365 345 l 1370 365 l 1374 388 l
 1377 413 l 1381 439 l 1384 467 l 1387 494 l 1389 520 l
 1391 543 l 1393 561 l 1394 574 l 1395 581 l
 1395 585 l gs col0 s gr 
% Polyline
n 1395 585 m 1395 589 l 1396 596 l 1397 609 l 1399 627 l 1401 650 l
 1403 676 l 1406 703 l 1409 731 l 1413 757 l 1416 782 l
 1420 805 l 1425 825 l 1429 840 l 1434 851 l 1440 855 l
 1446 851 l 1451 840 l 1455 825 l 1460 805 l 1464 782 l
 1467 757 l 1471 731 l 1474 703 l 1477 676 l 1479 650 l
 1481 627 l 1483 609 l 1484 596 l 1485 589 l
 1485 585 l gs col0 s gr 
% Polyline
n 1485 585 m 1485 581 l 1486 574 l 1487 561 l 1489 543 l 1491 520 l
 1493 494 l 1496 467 l 1499 439 l 1503 413 l 1506 388 l
 1510 365 l 1515 345 l 1519 330 l 1524 319 l 1530 315 l
 1536 319 l 1541 330 l 1545 345 l 1550 365 l 1554 388 l
 1557 413 l 1561 439 l 1564 467 l 1567 494 l 1569 520 l
 1571 543 l 1573 561 l 1574 574 l 1575 581 l
 1575 585 l gs col0 s gr 
% Polyline
n 1575 585 m 1575 589 l 1576 596 l 1577 609 l 1579 627 l 1581 650 l
 1583 676 l 1586 703 l 1589 731 l 1593 757 l 1596 782 l
 1600 805 l 1605 825 l 1609 840 l 1614 851 l 1620 855 l
 1626 851 l 1631 840 l 1635 825 l 1640 805 l 1644 782 l
 1647 757 l 1651 731 l 1654 703 l 1657 676 l 1659 650 l
 1661 627 l 1663 609 l 1664 596 l 1665 589 l
 1665 585 l gs col0 s gr 
% Polyline
n 1665 585 m 1665 581 l 1666 574 l 1667 561 l 1669 543 l 1671 520 l
 1673 494 l 1676 467 l 1679 439 l 1683 413 l 1686 388 l
 1690 365 l 1695 345 l 1699 330 l 1704 319 l 1710 315 l
 1716 319 l 1721 330 l 1725 345 l 1730 365 l 1734 388 l
 1737 413 l 1741 439 l 1744 467 l 1747 494 l 1749 520 l
 1751 543 l 1753 561 l 1754 574 l 1755 581 l
 1755 585 l gs col0 s gr 
% Polyline
n 1755 585 m 1755 589 l 1756 596 l 1757 609 l 1759 627 l 1761 650 l
 1763 676 l 1766 703 l 1769 731 l 1773 757 l 1776 782 l
 1780 805 l 1785 825 l 1789 840 l 1794 851 l 1800 855 l
 1806 851 l 1811 840 l 1815 825 l 1820 805 l 1824 782 l
 1827 757 l 1831 731 l 1834 703 l 1837 676 l 1839 650 l
 1841 627 l 1843 609 l 1844 596 l 1845 589 l
 1845 585 l gs col0 s gr 
% Polyline
n 1845 585 m 1845 581 l 1846 574 l 1847 561 l 1849 543 l 1851 520 l
 1853 494 l 1856 467 l 1859 439 l 1863 413 l 1866 388 l
 1870 365 l 1875 345 l 1879 330 l 1884 319 l 1890 315 l
 1896 319 l 1901 330 l 1905 345 l 1910 365 l 1914 388 l
 1917 413 l 1921 439 l 1924 467 l 1927 494 l 1929 520 l
 1931 543 l 1933 561 l 1934 574 l 1935 581 l
 1935 585 l gs col0 s gr 
% Polyline
n 1935 585 m 1935 589 l 1936 596 l 1937 609 l 1939 627 l 1941 650 l
 1943 676 l 1946 703 l 1949 731 l 1953 757 l 1956 782 l
 1960 805 l 1965 825 l 1969 840 l 1974 851 l 1980 855 l
 1986 851 l 1991 840 l 1995 825 l 2000 805 l 2004 782 l
 2007 757 l 2011 731 l 2014 703 l 2017 676 l 2019 650 l
 2021 627 l 2023 609 l 2024 596 l 2025 589 l
 2025 585 l gs col0 s gr 
% Polyline
n 2025 585 m 2025 581 l 2026 574 l 2027 561 l 2029 543 l 2031 520 l
 2033 494 l 2036 467 l 2039 439 l 2043 413 l 2046 388 l
 2050 365 l 2055 345 l 2059 330 l 2064 319 l 2070 315 l
 2076 319 l 2081 330 l 2085 345 l 2090 365 l 2094 388 l
 2097 413 l 2101 439 l 2104 467 l 2107 494 l 2109 520 l
 2111 543 l 2113 561 l 2114 574 l 2115 581 l
 2115 585 l gs col0 s gr 
% Polyline
n 2115 585 m 2115 589 l 2116 596 l 2117 609 l 2119 627 l 2121 650 l
 2123 676 l 2126 703 l 2129 731 l 2133 757 l 2136 782 l
 2140 805 l 2145 825 l 2149 840 l 2154 851 l 2160 855 l
 2166 851 l 2171 840 l 2175 825 l 2180 805 l 2184 782 l
 2187 757 l 2191 731 l 2194 703 l 2197 676 l 2199 650 l
 2201 627 l 2203 609 l 2204 596 l 2205 589 l
 2205 585 l gs col0 s gr 
% Polyline
n 2205 585 m 2205 581 l 2206 574 l 2207 561 l 2209 543 l 2211 520 l
 2213 494 l 2216 467 l 2219 439 l 2223 413 l 2226 388 l
 2230 365 l 2235 345 l 2239 330 l 2244 319 l 2250 315 l
 2256 319 l 2261 330 l 2265 345 l 2270 365 l 2274 388 l
 2277 413 l 2281 439 l 2284 467 l 2287 494 l 2289 520 l
 2291 543 l 2293 561 l 2294 574 l 2295 581 l
 2295 585 l gs col0 s gr 
% Polyline
n 2295 585 m 2295 589 l 2296 596 l 2297 609 l 2299 627 l 2301 650 l
 2303 676 l 2306 703 l 2309 731 l 2313 757 l 2316 782 l
 2320 805 l 2325 825 l 2329 840 l 2334 851 l 2340 855 l
 2346 851 l 2351 840 l 2355 825 l 2360 805 l 2364 782 l
 2367 757 l 2371 731 l 2374 703 l 2377 676 l 2379 650 l
 2381 627 l 2383 609 l 2384 596 l 2385 589 l
 2385 585 l gs col0 s gr 
% Polyline
n 2385 585 m 2385 581 l 2386 574 l 2387 561 l 2389 543 l 2391 520 l
 2393 494 l 2396 467 l 2399 439 l 2403 413 l 2406 388 l
 2410 365 l 2415 345 l 2419 330 l 2424 319 l 2430 315 l
 2436 319 l 2441 330 l 2445 345 l 2450 365 l 2454 388 l
 2457 413 l 2461 439 l 2464 467 l 2467 494 l 2469 520 l
 2471 543 l 2473 561 l 2474 574 l 2475 581 l
 2475 585 l gs col0 s gr 
% Polyline
n 2475 585 m 2475 589 l 2476 596 l 2477 609 l 2479 627 l 2481 650 l
 2483 676 l 2486 703 l 2489 731 l 2493 757 l 2496 782 l
 2500 805 l 2505 825 l 2509 840 l 2514 851 l 2520 855 l
 2526 851 l 2531 840 l 2535 825 l 2540 805 l 2544 782 l
 2547 757 l 2551 731 l 2554 703 l 2557 676 l 2559 650 l
 2561 627 l 2563 609 l 2564 596 l 2565 589 l
 2565 585 l gs col0 s gr 
% Polyline
n 226 582 m 226 578 l 227 571 l 228 558 l 230 540 l 232 517 l
 234 491 l 237 464 l 240 436 l 244 410 l 247 385 l
 251 362 l 256 342 l 260 327 l 265 316 l 271 312 l
 277 316 l 282 327 l 286 342 l 291 362 l 295 385 l
 298 410 l 302 436 l 305 464 l 308 491 l 310 517 l
 312 540 l 314 558 l 315 571 l 316 578 l
 316 582 l gs col0 s gr 
% Polyline
n 316 582 m 316 586 l 317 593 l 318 606 l 320 624 l 322 647 l
 324 673 l 327 700 l 330 728 l 334 754 l 337 779 l
 341 802 l 346 822 l 350 837 l 355 848 l 361 852 l
 367 848 l 372 837 l 376 822 l 381 802 l 385 779 l
 388 754 l 392 728 l 395 700 l 398 673 l 400 647 l
 402 624 l 404 606 l 405 593 l 406 586 l
 406 582 l gs col0 s gr 
% Polyline
n 45 585 m 45 581 l 46 574 l 47 561 l 49 543 l 51 520 l
 53 494 l 56 467 l 59 439 l 63 413 l 66 388 l
 70 365 l 75 345 l 79 330 l 84 319 l 90 315 l
 96 319 l 101 330 l 105 345 l 110 365 l 114 388 l
 117 413 l 121 439 l 124 467 l 127 494 l 129 520 l
 131 543 l 133 561 l 134 574 l 135 581 l
 135 585 l gs col0 s gr 
% Polyline
n 135 585 m 135 589 l 136 596 l 137 609 l 139 627 l 141 650 l
 143 676 l 146 703 l 149 731 l 153 757 l 156 782 l
 160 805 l 165 825 l 169 840 l 174 851 l 180 855 l
 186 851 l 191 840 l 195 825 l 200 805 l 204 782 l
 207 757 l 211 731 l 214 703 l 217 676 l 219 650 l
 221 627 l 223 609 l 224 596 l 225 589 l
 225 585 l gs col0 s gr 
% Polyline
n 225 585 m 225 581 l 226 574 l 227 561 l 229 543 l 231 520 l
 233 494 l 236 467 l 239 439 l 243 413 l 246 388 l
 250 365 l 255 345 l 259 330 l 264 319 l 270 315 l
 276 319 l 281 330 l 285 345 l 290 365 l 294 388 l
 297 413 l 301 439 l 304 467 l 307 494 l 309 520 l
 311 543 l 313 561 l 314 574 l 315 581 l
 315 585 l gs col0 s gr 
% Polyline
n 315 585 m 315 589 l 316 596 l 317 609 l 319 627 l 321 650 l
 323 676 l 326 703 l 329 731 l 333 757 l 336 782 l
 340 805 l 345 825 l 349 840 l 354 851 l 360 855 l
 366 851 l 371 840 l 375 825 l 380 805 l 384 782 l
 387 757 l 391 731 l 394 703 l 397 676 l 399 650 l
 401 627 l 403 609 l 404 596 l 405 589 l
 405 585 l gs col0 s gr 
% Polyline
 [15] 0 sd
n 41 581 m 41 577 l 42 570 l 43 557 l 45 539 l 48 517 l
 51 491 l 54 464 l 57 436 l 61 410 l 65 385 l
 70 363 l 75 343 l 80 327 l 87 317 l 93 313 l
 99 317 l 106 327 l 111 343 l 116 363 l 121 385 l
 125 410 l 129 436 l 133 464 l 136 491 l 139 517 l
 142 539 l 144 557 l 145 570 l 146 577 l
 146 581 l gs col0 s gr  [] 0 sd
% Polyline
 [15] 0 sd
n 146 581 m 146 585 l 147 592 l 148 605 l 150 623 l 153 646 l
 156 671 l 159 699 l 163 726 l 166 753 l 171 778 l
 175 800 l 180 820 l 186 835 l 192 846 l 198 850 l
 204 846 l 210 835 l 216 820 l 221 800 l 225 778 l
 230 753 l 233 726 l 237 699 l 240 671 l 243 646 l
 246 623 l 248 605 l 249 592 l 250 585 l
 250 581 l gs col0 s gr  [] 0 sd
% Polyline
n 405 585 m 405 581 l 406 574 l 407 561 l 409 543 l 411 520 l
 413 494 l 416 467 l 419 439 l 423 413 l 426 388 l
 430 365 l 435 345 l 439 330 l 444 319 l 450 315 l
 456 319 l 461 330 l 465 345 l 470 365 l 474 388 l
 477 413 l 481 439 l 484 467 l 487 494 l 489 520 l
 491 543 l 493 561 l 494 574 l 495 581 l
 495 585 l gs col0 s gr 
% Polyline
n 495 585 m 495 589 l 496 596 l 497 609 l 499 627 l 501 650 l
 503 676 l 506 703 l 509 731 l 513 757 l 516 782 l
 520 805 l 525 825 l 529 840 l 534 851 l 540 855 l
 546 851 l 551 840 l 555 825 l 560 805 l 564 782 l
 567 757 l 571 731 l 574 703 l 577 676 l 579 650 l
 581 627 l 583 609 l 584 596 l 585 589 l
 585 585 l gs col0 s gr 
% Polyline
 [15] 0 sd
n 250 581 m 250 577 l 251 570 l 252 557 l 254 539 l 257 517 l
 260 491 l 263 464 l 266 436 l 270 410 l 274 385 l
 279 363 l 284 343 l 289 327 l 296 317 l 302 313 l
 308 317 l 315 327 l 320 343 l 325 363 l 330 385 l
 334 410 l 338 436 l 342 464 l 345 491 l 348 517 l
 351 539 l 353 557 l 354 570 l 355 577 l
 355 581 l gs col0 s gr  [] 0 sd
% Polyline
 [15] 0 sd
n 355 581 m 355 585 l 356 592 l 357 605 l 359 623 l 362 646 l
 365 671 l 368 699 l 372 726 l 375 753 l 380 778 l
 384 800 l 389 820 l 395 835 l 401 846 l 407 850 l
 413 846 l 419 835 l 425 820 l 430 800 l 434 778 l
 439 753 l 442 726 l 446 699 l 449 671 l 452 646 l
 455 623 l 457 605 l 458 592 l 459 585 l
 459 581 l gs col0 s gr  [] 0 sd
% Polyline
 [15] 0 sd
n 462 581 m 462 577 l 463 570 l 464 557 l 466 539 l 469 517 l
 472 491 l 475 464 l 478 436 l 482 410 l 486 385 l
 491 363 l 496 343 l 501 327 l 508 317 l 514 313 l
 520 317 l 527 327 l 532 343 l 537 363 l 542 385 l
 546 410 l 550 436 l 554 464 l 557 491 l 560 517 l
 563 539 l 565 557 l 566 570 l 567 577 l
 567 581 l gs col0 s gr  [] 0 sd
% Polyline
 [15] 0 sd
n 567 581 m 567 585 l 568 592 l 569 605 l 571 623 l 574 646 l
 577 671 l 580 699 l 584 726 l 587 753 l 592 778 l
 596 800 l 601 820 l 607 835 l 613 846 l 619 850 l
 625 846 l 631 835 l 637 820 l 642 800 l 646 778 l
 651 753 l 654 726 l 658 699 l 661 671 l 664 646 l
 667 623 l 669 605 l 670 592 l 671 585 l
 671 581 l gs col0 s gr  [] 0 sd
% Polyline
n 765 585 m 765 581 l 766 574 l 767 561 l 769 543 l 771 520 l
 773 494 l 776 467 l 779 439 l 783 413 l 786 388 l
 790 365 l 795 345 l 799 330 l 804 319 l 810 315 l
 816 319 l 821 330 l 825 345 l 830 365 l 834 388 l
 837 413 l 841 439 l 844 467 l 847 494 l 849 520 l
 851 543 l 853 561 l 854 574 l 855 581 l
 855 585 l gs col0 s gr 
% Polyline
n 855 585 m 855 589 l 856 596 l 857 609 l 859 627 l 861 650 l
 863 676 l 866 703 l 869 731 l 873 757 l 876 782 l
 880 805 l 885 825 l 889 840 l 894 851 l 900 855 l
 906 851 l 911 840 l 915 825 l 920 805 l 924 782 l
 927 757 l 931 731 l 934 703 l 937 676 l 939 650 l
 941 627 l 943 609 l 944 596 l 945 589 l
 945 585 l gs col0 s gr 
% Polyline
 [15] 0 sd
n 672 583 m 672 579 l 673 572 l 674 559 l 676 541 l 679 519 l
 682 493 l 685 466 l 688 438 l 692 412 l 696 387 l
 701 365 l 706 345 l 711 329 l 718 319 l 724 315 l
 730 319 l 737 329 l 742 345 l 747 365 l 752 387 l
 756 412 l 760 438 l 764 466 l 767 493 l 770 519 l
 773 541 l 775 559 l 776 572 l 777 579 l
 777 583 l gs col0 s gr  [] 0 sd
% Polyline
 [15] 0 sd
n 777 583 m 777 587 l 778 594 l 779 607 l 781 625 l 784 648 l
 787 673 l 790 701 l 794 728 l 797 755 l 802 780 l
 806 802 l 811 822 l 817 837 l 823 848 l 829 852 l
 835 848 l 841 837 l 847 822 l 852 802 l 856 780 l
 861 755 l 864 728 l 868 701 l 871 673 l 874 648 l
 877 625 l 879 607 l 880 594 l 881 587 l
 881 583 l gs col0 s gr  [] 0 sd
% Polyline
 [15] 0 sd
n 884 584 m 884 580 l 885 573 l 886 560 l 888 542 l 891 520 l
 894 494 l 897 467 l 900 439 l 904 413 l 908 388 l
 913 366 l 918 346 l 923 330 l 930 320 l 936 316 l
 942 320 l 949 330 l 954 346 l 959 366 l 964 388 l
 968 413 l 972 439 l 976 467 l 979 494 l 982 520 l
 985 542 l 987 560 l 988 573 l 989 580 l
 989 584 l gs col0 s gr  [] 0 sd
% Polyline
 [15] 0 sd
n 989 584 m 989 588 l 990 595 l 991 608 l 993 626 l 996 649 l
 999 674 l 1002 702 l 1006 729 l 1009 756 l 1014 781 l
 1018 803 l 1023 823 l 1029 838 l 1035 849 l 1041 853 l
 1047 849 l 1053 838 l 1059 823 l 1064 803 l 1068 781 l
 1073 756 l 1076 729 l 1080 702 l 1083 674 l 1086 649 l
 1089 626 l 1091 608 l 1092 595 l 1093 588 l
 1093 584 l gs col0 s gr  [] 0 sd
% Polyline
 [15] 0 sd
n 1095 584 m 1095 580 l 1096 573 l 1097 560 l 1099 542 l 1102 520 l
 1105 494 l 1108 467 l 1111 439 l 1115 413 l 1119 388 l
 1124 366 l 1129 346 l 1134 330 l 1141 320 l 1147 316 l
 1153 320 l 1160 330 l 1165 346 l 1170 366 l 1175 388 l
 1179 413 l 1183 439 l 1187 467 l 1190 494 l 1193 520 l
 1196 542 l 1198 560 l 1199 573 l 1200 580 l
 1200 584 l gs col0 s gr  [] 0 sd
% Polyline
 [15] 0 sd
n 1200 584 m 1200 588 l 1201 595 l 1202 608 l 1204 626 l 1207 649 l
 1210 674 l 1213 702 l 1217 729 l 1220 756 l 1225 781 l
 1229 803 l 1234 823 l 1240 838 l 1246 849 l 1252 853 l
 1258 849 l 1264 838 l 1270 823 l 1275 803 l 1279 781 l
 1284 756 l 1287 729 l 1291 702 l 1294 674 l 1297 649 l
 1300 626 l 1302 608 l 1303 595 l 1304 588 l
 1304 584 l gs col0 s gr  [] 0 sd
% Polyline
 [15] 0 sd
n 1306 584 m 1306 580 l 1307 573 l 1308 560 l 1310 542 l 1313 520 l
 1316 494 l 1319 467 l 1322 439 l 1326 413 l 1330 388 l
 1335 366 l 1340 346 l 1345 330 l 1352 320 l 1358 316 l
 1364 320 l 1371 330 l 1376 346 l 1381 366 l 1386 388 l
 1390 413 l 1394 439 l 1398 467 l 1401 494 l 1404 520 l
 1407 542 l 1409 560 l 1410 573 l 1411 580 l
 1411 584 l gs col0 s gr  [] 0 sd
% Polyline
 [15] 0 sd
n 1411 584 m 1411 588 l 1412 595 l 1413 608 l 1415 626 l 1418 649 l
 1421 674 l 1424 702 l 1428 729 l 1431 756 l 1436 781 l
 1440 803 l 1445 823 l 1451 838 l 1457 849 l 1463 853 l
 1469 849 l 1475 838 l 1481 823 l 1486 803 l 1490 781 l
 1495 756 l 1498 729 l 1502 702 l 1505 674 l 1508 649 l
 1511 626 l 1513 608 l 1514 595 l 1515 588 l
 1515 584 l gs col0 s gr  [] 0 sd
% Polyline
 [15] 0 sd
n 1517 583 m 1517 579 l 1518 572 l 1519 559 l 1521 541 l 1524 519 l
 1527 493 l 1530 466 l 1533 438 l 1537 412 l 1541 387 l
 1546 365 l 1551 345 l 1556 329 l 1563 319 l 1569 315 l
 1575 319 l 1582 329 l 1587 345 l 1592 365 l 1597 387 l
 1601 412 l 1605 438 l 1609 466 l 1612 493 l 1615 519 l
 1618 541 l 1620 559 l 1621 572 l 1622 579 l
 1622 583 l gs col0 s gr  [] 0 sd
% Polyline
 [15] 0 sd
n 1622 583 m 1622 587 l 1623 594 l 1624 607 l 1626 625 l 1629 648 l
 1632 673 l 1635 701 l 1639 728 l 1642 755 l 1647 780 l
 1651 802 l 1656 822 l 1662 837 l 1668 848 l 1674 852 l
 1680 848 l 1686 837 l 1692 822 l 1697 802 l 1701 780 l
 1706 755 l 1709 728 l 1713 701 l 1716 673 l 1719 648 l
 1722 625 l 1724 607 l 1725 594 l 1726 587 l
 1726 583 l gs col0 s gr  [] 0 sd
% Polyline
 [15] 0 sd
n 1726 584 m 1726 580 l 1727 573 l 1728 560 l 1730 542 l 1733 520 l
 1736 494 l 1739 467 l 1742 439 l 1746 413 l 1750 388 l
 1755 366 l 1760 346 l 1765 330 l 1772 320 l 1778 316 l
 1784 320 l 1791 330 l 1796 346 l 1801 366 l 1806 388 l
 1810 413 l 1814 439 l 1818 467 l 1821 494 l 1824 520 l
 1827 542 l 1829 560 l 1830 573 l 1831 580 l
 1831 584 l gs col0 s gr  [] 0 sd
% Polyline
 [15] 0 sd
n 1831 584 m 1831 588 l 1832 595 l 1833 608 l 1835 626 l 1838 649 l
 1841 674 l 1844 702 l 1848 729 l 1851 756 l 1856 781 l
 1860 803 l 1865 823 l 1871 838 l 1877 849 l 1883 853 l
 1889 849 l 1895 838 l 1901 823 l 1906 803 l 1910 781 l
 1915 756 l 1918 729 l 1922 702 l 1925 674 l 1928 649 l
 1931 626 l 1933 608 l 1934 595 l 1935 588 l
 1935 584 l gs col0 s gr  [] 0 sd
% Polyline
 [15] 0 sd
n 1936 584 m 1936 580 l 1937 573 l 1938 560 l 1940 542 l 1943 520 l
 1946 494 l 1949 467 l 1952 439 l 1956 413 l 1960 388 l
 1965 366 l 1970 346 l 1975 330 l 1982 320 l 1988 316 l
 1994 320 l 2001 330 l 2006 346 l 2011 366 l 2016 388 l
 2020 413 l 2024 439 l 2028 467 l 2031 494 l 2034 520 l
 2037 542 l 2039 560 l 2040 573 l 2041 580 l
 2041 584 l gs col0 s gr  [] 0 sd
% Polyline
 [15] 0 sd
n 2041 584 m 2041 588 l 2042 595 l 2043 608 l 2045 626 l 2048 649 l
 2051 674 l 2054 702 l 2058 729 l 2061 756 l 2066 781 l
 2070 803 l 2075 823 l 2081 838 l 2087 849 l 2093 853 l
 2099 849 l 2105 838 l 2111 823 l 2116 803 l 2120 781 l
 2125 756 l 2128 729 l 2132 702 l 2135 674 l 2138 649 l
 2141 626 l 2143 608 l 2144 595 l 2145 588 l
 2145 584 l gs col0 s gr  [] 0 sd
% Polyline
 [15] 0 sd
n 2147 584 m 2147 580 l 2148 573 l 2149 560 l 2151 542 l 2154 520 l
 2157 494 l 2160 467 l 2163 439 l 2167 413 l 2171 388 l
 2176 366 l 2181 346 l 2186 330 l 2193 320 l 2199 316 l
 2205 320 l 2212 330 l 2217 346 l 2222 366 l 2227 388 l
 2231 413 l 2235 439 l 2239 467 l 2242 494 l 2245 520 l
 2248 542 l 2250 560 l 2251 573 l 2252 580 l
 2252 584 l gs col0 s gr  [] 0 sd
% Polyline
 [15] 0 sd
n 2252 584 m 2252 588 l 2253 595 l 2254 608 l 2256 626 l 2259 649 l
 2262 674 l 2265 702 l 2269 729 l 2272 756 l 2277 781 l
 2281 803 l 2286 823 l 2292 838 l 2298 849 l 2304 853 l
 2310 849 l 2316 838 l 2322 823 l 2327 803 l 2331 781 l
 2336 756 l 2339 729 l 2343 702 l 2346 674 l 2349 649 l
 2352 626 l 2354 608 l 2355 595 l 2356 588 l
 2356 584 l gs col0 s gr  [] 0 sd
% Polyline
 [15] 0 sd
n 2357 584 m 2357 580 l 2358 573 l 2359 560 l 2361 542 l 2364 520 l
 2367 494 l 2370 467 l 2373 439 l 2377 413 l 2381 388 l
 2386 366 l 2391 346 l 2396 330 l 2403 320 l 2409 316 l
 2415 320 l 2422 330 l 2427 346 l 2432 366 l 2437 388 l
 2441 413 l 2445 439 l 2449 467 l 2452 494 l 2455 520 l
 2458 542 l 2460 560 l 2461 573 l 2462 580 l
 2462 584 l gs col0 s gr  [] 0 sd
% Polyline
 [15] 0 sd
n 2462 584 m 2462 588 l 2463 595 l 2464 608 l 2466 626 l 2469 649 l
 2472 674 l 2475 702 l 2479 729 l 2482 756 l 2487 781 l
 2491 803 l 2496 823 l 2502 838 l 2508 849 l 2514 853 l
 2520 849 l 2526 838 l 2532 823 l 2537 803 l 2541 781 l
 2546 756 l 2549 729 l 2553 702 l 2556 674 l 2559 649 l
 2562 626 l 2564 608 l 2565 595 l 2566 588 l
 2566 584 l gs col0 s gr  [] 0 sd
% Polyline
n 1199 1526 m 1199 1529 l 1199 1535 l 1200 1546 l 1200 1563 l 1201 1585 l
 1202 1613 l 1203 1645 l 1205 1680 l 1206 1718 l 1208 1758 l
 1210 1797 l 1212 1836 l 1214 1873 l 1216 1909 l 1219 1942 l
 1222 1972 l 1225 1999 l 1228 2022 l 1232 2040 l 1236 2052 l
 1241 2056 l 1246 2052 l 1250 2041 l 1255 2023 l 1259 2001 l
 1263 1974 l 1267 1944 l 1271 1911 l 1274 1876 l 1278 1838 l
 1281 1800 l 1284 1760 l 1287 1721 l 1290 1684 l 1293 1648 l
 1295 1616 l 1297 1589 l 1299 1567 l 1300 1550 l 1300 1539 l
 1301 1533 l
 1301 1530 l gs col0 s gr 
% Polyline
n 1094 1530 m 1094 1527 l 1094 1522 l 1095 1511 l 1095 1495 l 1096 1474 l
 1097 1448 l 1098 1418 l 1099 1384 l 1101 1349 l 1102 1312 l
 1104 1274 l 1106 1238 l 1108 1203 l 1111 1169 l 1113 1138 l
 1116 1109 l 1119 1084 l 1122 1062 l 1126 1045 l 1130 1034 l
 1135 1030 l 1140 1034 l 1144 1044 l 1149 1061 l 1153 1082 l
 1157 1107 l 1161 1136 l 1165 1167 l 1169 1200 l 1172 1235 l
 1176 1272 l 1179 1309 l 1182 1345 l 1185 1381 l 1188 1415 l
 1190 1445 l 1192 1471 l 1193 1492 l 1195 1507 l 1195 1518 l
 1196 1523 l
 1196 1526 l gs col0 s gr 
% Polyline
n 990 1526 m 990 1529 l 990 1536 l 991 1548 l 992 1566 l 993 1590 l
 994 1619 l 995 1652 l 997 1688 l 999 1725 l 1001 1762 l
 1003 1798 l 1006 1833 l 1008 1866 l 1011 1896 l 1015 1923 l
 1018 1946 l 1022 1964 l 1027 1977 l 1032 1981 l 1037 1977 l
 1042 1965 l 1047 1947 l 1052 1925 l 1056 1898 l 1060 1868 l
 1064 1836 l 1068 1801 l 1072 1765 l 1075 1728 l 1079 1691 l
 1082 1656 l 1085 1623 l 1087 1594 l 1089 1570 l 1090 1552 l
 1091 1540 l 1092 1533 l
 1092 1530 l gs col0 s gr 
% Polyline
n 884 1530 m 884 1527 l 885 1519 l 885 1506 l 886 1488 l 887 1464 l
 889 1435 l 891 1404 l 893 1371 l 895 1338 l 898 1306 l
 900 1275 l 904 1247 l 907 1221 l 911 1200 l 915 1182 l
 920 1170 l 926 1166 l 932 1170 l 937 1181 l 943 1198 l
 948 1220 l 952 1245 l 957 1273 l 961 1303 l 965 1335 l
 969 1368 l 973 1401 l 976 1432 l 979 1460 l 982 1484 l
 984 1502 l 985 1515 l 986 1523 l
 986 1526 l gs col0 s gr 
% Polyline
n 778 1526 m 778 1529 l 779 1537 l 780 1549 l 781 1566 l 782 1588 l
 784 1612 l 787 1639 l 789 1665 l 792 1690 l 796 1714 l
 799 1736 l 803 1755 l 808 1770 l 814 1780 l 820 1784 l
 826 1781 l 833 1771 l 839 1756 l 844 1738 l 849 1716 l
 854 1693 l 859 1668 l 863 1642 l 867 1616 l 871 1591 l
 874 1570 l 877 1553 l 879 1541 l 880 1533 l
 880 1530 l gs col0 s gr 
% Polyline
n 651 1522 m 653 1518 l 656 1511 l 661 1500 l 668 1486 l 677 1470 l
 685 1454 l 695 1438 l 704 1425 l 715 1413 l 725 1405 l
 736 1402 l 747 1406 l 756 1416 l 762 1431 l 766 1448 l
 770 1468 l 772 1486 l 774 1502 l 775 1513 l 775 1518 l

 775 1519 l gs col0 s gr 
% Polyline
n 2531 1529 m 2531 1532 l 2531 1538 l 2532 1549 l 2532 1566 l 2533 1588 l
 2534 1616 l 2535 1648 l 2537 1683 l 2538 1721 l 2540 1761 l
 2542 1800 l 2544 1839 l 2546 1876 l 2548 1912 l 2551 1945 l
 2554 1975 l 2557 2002 l 2560 2025 l 2564 2043 l 2568 2055 l
 2573 2059 l 2578 2055 l 2582 2044 l 2587 2026 l 2591 2004 l
 2595 1977 l 2599 1947 l 2603 1914 l 2606 1879 l 2610 1841 l
 2613 1803 l 2616 1763 l 2619 1724 l 2622 1687 l 2625 1651 l
 2627 1619 l 2629 1592 l 2631 1570 l 2632 1553 l 2632 1542 l
 2633 1536 l
 2633 1533 l gs col0 s gr 
% Polyline
n 2426 1533 m 2426 1530 l 2426 1525 l 2427 1514 l 2427 1498 l 2428 1477 l
 2429 1451 l 2430 1421 l 2431 1387 l 2433 1352 l 2434 1315 l
 2436 1277 l 2438 1241 l 2440 1206 l 2443 1172 l 2445 1141 l
 2448 1112 l 2451 1087 l 2454 1065 l 2458 1048 l 2462 1037 l
 2467 1033 l 2472 1037 l 2476 1047 l 2481 1064 l 2485 1085 l
 2489 1110 l 2493 1139 l 2497 1170 l 2501 1203 l 2504 1238 l
 2508 1275 l 2511 1312 l 2514 1348 l 2517 1384 l 2520 1418 l
 2522 1448 l 2524 1474 l 2525 1495 l 2527 1510 l 2527 1521 l
 2528 1526 l
 2528 1529 l gs col0 s gr 
% Polyline
n 2322 1529 m 2322 1532 l 2322 1539 l 2323 1551 l 2324 1569 l 2325 1593 l
 2326 1622 l 2327 1655 l 2329 1691 l 2331 1728 l 2333 1765 l
 2335 1801 l 2338 1836 l 2340 1869 l 2343 1899 l 2347 1926 l
 2350 1949 l 2354 1967 l 2359 1980 l 2364 1984 l 2369 1980 l
 2374 1968 l 2379 1950 l 2384 1928 l 2388 1901 l 2392 1871 l
 2396 1839 l 2400 1804 l 2404 1768 l 2407 1731 l 2411 1694 l
 2414 1659 l 2417 1626 l 2419 1597 l 2421 1573 l 2422 1555 l
 2423 1543 l 2424 1536 l
 2424 1533 l gs col0 s gr 
% Polyline
n 2216 1533 m 2216 1530 l 2217 1522 l 2217 1509 l 2218 1491 l 2219 1467 l
 2221 1438 l 2223 1407 l 2225 1374 l 2227 1341 l 2230 1309 l
 2232 1278 l 2236 1250 l 2239 1224 l 2243 1203 l 2247 1185 l
 2252 1173 l 2258 1169 l 2264 1173 l 2269 1184 l 2275 1201 l
 2280 1223 l 2284 1248 l 2289 1276 l 2293 1306 l 2297 1338 l
 2301 1371 l 2305 1404 l 2308 1435 l 2311 1463 l 2314 1487 l
 2316 1505 l 2317 1518 l 2318 1526 l
 2318 1529 l gs col0 s gr 
% Polyline
n 2110 1529 m 2110 1532 l 2111 1540 l 2112 1552 l 2113 1569 l 2114 1591 l
 2116 1615 l 2119 1642 l 2121 1668 l 2124 1693 l 2128 1717 l
 2131 1739 l 2135 1758 l 2140 1773 l 2146 1783 l 2152 1787 l
 2158 1784 l 2165 1774 l 2171 1759 l 2176 1741 l 2181 1719 l
 2186 1696 l 2191 1671 l 2195 1645 l 2199 1619 l 2203 1594 l
 2206 1573 l 2209 1556 l 2211 1544 l 2212 1536 l
 2212 1533 l gs col0 s gr 
% Polyline
n 1983 1525 m 1985 1521 l 1988 1514 l 1993 1503 l 2000 1489 l 2009 1473 l
 2017 1457 l 2027 1441 l 2036 1428 l 2047 1416 l 2057 1408 l
 2068 1405 l 2079 1409 l 2088 1419 l 2094 1434 l 2098 1451 l
 2102 1471 l 2104 1489 l 2106 1505 l 2107 1516 l 2107 1521 l

 2107 1522 l gs col0 s gr 
% Polyline
0 slj
n 45 1530 m
 2700 1530 l gs col0 s gr 
% Polyline
n 13 582 m
 2684 582 l gs col0 s gr 
% Polyline
 [45] 0 sd
n 624 578 m
 623 1530 l gs col0 s gr  [] 0 sd
% Polyline
 [45] 0 sd
n 1304 578 m
 1304 1523 l gs col0 s gr  [] 0 sd
% Polyline
 [45] 0 sd
n 1980 585 m
 1980 1537 l gs col0 s gr  [] 0 sd
% Polyline
gs  clippath
510 1861 m 431 1796 l 412 1820 l 490 1884 l 490 1884 l 457 1837 l 510 1861 l cp
eoclip
n 729 2060 m
 434 1818 l gs col0 s gr gr

% arrowhead
n 510 1861 m 457 1837 l 490 1884 l 491 1865 l 510 1861 l 
 cp gs 0.00 setgray ef gr  col0 s
% Polyline
gs  clippath
2157 1933 m 2235 1869 l 2216 1845 l 2137 1910 l 2137 1910 l 2191 1886 l 2157 1933 l cp
eoclip
n 1919 2109 m
 2214 1867 l gs col0 s gr gr

% arrowhead
n 2157 1933 m 2191 1886 l 2137 1910 l 2156 1914 l 2157 1933 l 
 cp gs 0.00 setgray ef gr  col0 s
% Polyline
2 slj
n 630 1530 m 631 1529 l 633 1525 l 637 1520 l 643 1511 l 651 1498 l
 661 1482 l 675 1462 l 690 1439 l 708 1414 l 728 1386 l
 750 1356 l 774 1325 l 799 1294 l 825 1262 l 852 1231 l
 881 1200 l 911 1170 l 942 1142 l 974 1115 l 1008 1090 l
 1044 1067 l 1082 1046 l 1123 1027 l 1165 1012 l 1210 1000 l
 1257 993 l 1305 990 l 1353 993 l 1400 1000 l 1445 1012 l
 1487 1027 l 1528 1046 l 1566 1067 l 1602 1090 l 1636 1115 l
 1668 1142 l 1699 1170 l 1729 1200 l 1758 1231 l 1785 1262 l
 1811 1294 l 1836 1325 l 1860 1356 l 1882 1386 l 1902 1414 l
 1920 1439 l 1935 1462 l 1949 1482 l 1959 1498 l 1967 1511 l
 1973 1520 l 1977 1525 l 1979 1529 l
 1980 1530 l gs col0 s gr 
% Polyline
n 630 1530 m 629 1528 l 627 1525 l 624 1519 l 618 1509 l 611 1497 l
 602 1482 l 592 1464 l 580 1444 l 567 1423 l 553 1401 l
 537 1378 l 521 1354 l 503 1330 l 484 1305 l 464 1280 l
 441 1253 l 416 1226 l 389 1198 l 360 1170 l 328 1141 l
 296 1116 l 267 1094 l 240 1076 l 215 1061 l 191 1047 l
 169 1036 l 148 1026 l 128 1018 l 109 1011 l 92 1005 l
 78 1000 l 66 996 l 56 993 l 50 991 l 47 990 l

 45 990 l gs col0 s gr 
% Polyline
n 630 1530 m 629 1532 l 627 1535 l 624 1541 l 618 1551 l 611 1563 l
 602 1578 l 592 1596 l 580 1616 l 567 1637 l 553 1659 l
 537 1682 l 521 1706 l 503 1730 l 484 1755 l 464 1780 l
 441 1807 l 416 1834 l 389 1862 l 360 1890 l 328 1919 l
 296 1944 l 267 1966 l 240 1984 l 215 1999 l 191 2013 l
 169 2024 l 148 2034 l 128 2042 l 109 2049 l 92 2055 l
 78 2060 l 66 2064 l 56 2067 l 50 2069 l 47 2070 l

 45 2070 l gs col0 s gr 
% Polyline
n 1980 1530 m 1981 1532 l 1983 1535 l 1986 1541 l 1992 1551 l 1999 1563 l
 2008 1578 l 2018 1596 l 2030 1616 l 2043 1637 l 2057 1659 l
 2073 1682 l 2089 1706 l 2107 1730 l 2126 1755 l 2146 1780 l
 2169 1807 l 2194 1834 l 2221 1862 l 2250 1890 l 2282 1919 l
 2314 1944 l 2343 1966 l 2370 1984 l 2395 1999 l 2419 2013 l
 2441 2024 l 2462 2034 l 2482 2042 l 2501 2049 l 2518 2055 l
 2532 2060 l 2544 2064 l 2554 2067 l 2560 2069 l 2563 2070 l

 2565 2070 l gs col0 s gr 
% Polyline
n 1980 1530 m 1981 1528 l 1983 1525 l 1986 1519 l 1992 1509 l 1999 1497 l
 2008 1482 l 2018 1464 l 2030 1444 l 2043 1423 l 2057 1401 l
 2073 1378 l 2089 1354 l 2107 1330 l 2126 1305 l 2146 1280 l
 2169 1253 l 2194 1226 l 2221 1198 l 2250 1170 l 2282 1141 l
 2314 1116 l 2343 1094 l 2370 1076 l 2395 1061 l 2419 1047 l
 2441 1036 l 2462 1026 l 2482 1018 l 2501 1011 l 2518 1005 l
 2532 1000 l 2544 996 l 2554 993 l 2560 991 l 2563 990 l

 2565 990 l gs col0 s gr 
% Polyline
n 1305 1530 m 1305 1527 l 1305 1521 l 1306 1510 l 1306 1493 l 1307 1471 l
 1308 1443 l 1309 1411 l 1311 1376 l 1312 1338 l 1314 1298 l
 1316 1259 l 1318 1220 l 1320 1183 l 1322 1147 l 1325 1114 l
 1328 1084 l 1331 1057 l 1334 1034 l 1338 1016 l 1342 1004 l
 1347 1000 l 1352 1004 l 1356 1015 l 1361 1033 l 1365 1055 l
 1369 1082 l 1373 1112 l 1377 1145 l 1380 1180 l 1384 1218 l
 1387 1256 l 1390 1296 l 1393 1335 l 1396 1372 l 1399 1408 l
 1401 1440 l 1403 1467 l 1405 1489 l 1406 1506 l 1406 1517 l
 1407 1523 l
 1407 1526 l gs col0 s gr 
% Polyline
n 1411 1533 m 1411 1536 l 1411 1542 l 1412 1552 l 1412 1568 l 1413 1589 l
 1414 1615 l 1415 1645 l 1417 1679 l 1418 1715 l 1420 1752 l
 1422 1789 l 1424 1826 l 1426 1861 l 1428 1895 l 1431 1926 l
 1434 1955 l 1437 1980 l 1440 2002 l 1444 2019 l 1448 2030 l
 1453 2034 l 1458 2030 l 1462 2019 l 1467 2003 l 1471 1982 l
 1475 1956 l 1479 1928 l 1483 1897 l 1486 1864 l 1490 1828 l
 1493 1792 l 1496 1755 l 1499 1718 l 1502 1682 l 1505 1649 l
 1507 1618 l 1509 1592 l 1511 1572 l 1512 1556 l 1512 1545 l
 1513 1540 l
 1513 1537 l gs col0 s gr 
% Polyline
n 1514 1534 m 1514 1531 l 1514 1524 l 1515 1511 l 1515 1493 l 1516 1469 l
 1518 1439 l 1519 1406 l 1521 1370 l 1522 1332 l 1524 1294 l
 1527 1257 l 1529 1222 l 1532 1189 l 1534 1158 l 1538 1131 l
 1541 1107 l 1545 1089 l 1550 1077 l 1555 1072 l 1560 1076 l
 1565 1088 l 1570 1106 l 1575 1129 l 1579 1156 l 1584 1187 l
 1588 1220 l 1591 1255 l 1595 1292 l 1599 1329 l 1602 1367 l
 1605 1403 l 1608 1436 l 1611 1465 l 1613 1489 l 1614 1507 l
 1615 1520 l 1616 1527 l
 1616 1530 l gs col0 s gr 
% Polyline
n 630 1530 m 631 1531 l 633 1535 l 637 1540 l 643 1549 l 651 1562 l
 661 1578 l 675 1598 l 690 1621 l 708 1646 l 728 1674 l
 750 1704 l 774 1735 l 799 1766 l 825 1798 l 852 1829 l
 881 1860 l 911 1890 l 942 1918 l 974 1945 l 1008 1970 l
 1044 1993 l 1082 2014 l 1123 2033 l 1165 2048 l 1210 2060 l
 1257 2067 l 1305 2070 l 1353 2067 l 1400 2060 l 1445 2048 l
 1487 2033 l 1528 2014 l 1566 1993 l 1602 1970 l 1636 1945 l
 1668 1918 l 1699 1890 l 1729 1860 l 1758 1829 l 1785 1798 l
 1811 1766 l 1836 1735 l 1860 1704 l 1882 1674 l 1902 1646 l
 1920 1621 l 1935 1598 l 1949 1578 l 1959 1562 l 1967 1549 l
 1973 1540 l 1977 1535 l 1979 1531 l
 1980 1530 l gs col0 s gr 
% Polyline
n 1620 1534 m 1620 1538 l 1620 1545 l 1621 1559 l 1622 1578 l 1623 1603 l
 1625 1632 l 1626 1665 l 1628 1699 l 1631 1733 l 1633 1767 l
 1636 1799 l 1639 1828 l 1642 1854 l 1646 1877 l 1651 1895 l
 1656 1907 l 1661 1912 l 1667 1908 l 1672 1896 l 1678 1878 l
 1683 1856 l 1688 1830 l 1692 1801 l 1697 1769 l 1701 1736 l
 1705 1702 l 1709 1668 l 1712 1636 l 1715 1607 l 1718 1582 l
 1720 1562 l 1721 1549 l 1722 1542 l
 1722 1538 l gs col0 s gr 
% Polyline
n 1723 1529 m 1723 1525 l 1724 1518 l 1725 1505 l 1726 1486 l 1728 1463 l
 1730 1437 l 1733 1409 l 1735 1380 l 1739 1353 l 1742 1328 l
 1746 1305 l 1750 1284 l 1755 1268 l 1761 1257 l 1767 1253 l
 1773 1257 l 1780 1267 l 1785 1283 l 1791 1303 l 1796 1326 l
 1800 1351 l 1805 1378 l 1809 1406 l 1813 1433 l 1817 1459 l
 1820 1482 l 1822 1501 l 1824 1514 l 1825 1521 l
 1825 1525 l gs col0 s gr 
% Polyline
n 1825 1525 m 1825 1526 l 1825 1530 l 1826 1539 l 1827 1553 l 1829 1571 l
 1831 1591 l 1834 1612 l 1838 1632 l 1843 1649 l 1850 1664 l
 1858 1674 l 1869 1678 l 1881 1675 l 1893 1665 l 1904 1651 l
 1915 1634 l 1926 1615 l 1935 1595 l 1945 1575 l 1953 1557 l
 1958 1543 l 1962 1534 l 1964 1531 l
 1964 1530 l gs col0 s gr 
% Polyline
n 171 1534 m 171 1537 l 171 1542 l 170 1553 l 170 1569 l 169 1590 l
 168 1616 l 167 1646 l 166 1680 l 164 1715 l 163 1752 l
 161 1790 l 159 1826 l 157 1861 l 154 1895 l 152 1926 l
 149 1955 l 146 1980 l 143 2002 l 139 2019 l 135 2030 l
 130 2034 l 125 2030 l 121 2020 l 116 2003 l 112 1982 l
 108 1957 l 104 1928 l 100 1897 l 96 1864 l 93 1829 l
 89 1792 l 86 1755 l 83 1719 l 80 1683 l 77 1649 l
 75 1619 l 73 1593 l 72 1572 l 70 1557 l 70 1546 l
 69 1541 l
 69 1538 l gs col0 s gr 
% Polyline
n 275 1538 m 275 1535 l 275 1528 l 274 1516 l 273 1498 l 272 1474 l
 271 1445 l 270 1412 l 268 1376 l 266 1339 l 264 1302 l
 262 1266 l 259 1231 l 257 1198 l 254 1168 l 250 1141 l
 247 1118 l 243 1100 l 238 1087 l 233 1083 l 228 1087 l
 223 1099 l 218 1117 l 213 1139 l 209 1166 l 205 1196 l
 201 1228 l 197 1263 l 193 1299 l 190 1336 l 186 1373 l
 183 1408 l 180 1441 l 178 1470 l 176 1494 l 175 1512 l
 174 1524 l 173 1531 l
 173 1534 l gs col0 s gr 
% Polyline
n 381 1534 m 381 1537 l 380 1545 l 380 1558 l 379 1576 l 378 1600 l
 376 1629 l 374 1660 l 372 1693 l 370 1726 l 367 1758 l
 365 1789 l 361 1817 l 358 1843 l 354 1864 l 350 1882 l
 345 1894 l 339 1898 l 333 1894 l 328 1883 l 322 1866 l
 317 1844 l 313 1819 l 308 1791 l 304 1761 l 300 1729 l
 296 1696 l 292 1663 l 289 1632 l 286 1604 l 283 1580 l
 281 1562 l 280 1549 l 279 1541 l
 279 1538 l gs col0 s gr 
% Polyline
n 487 1538 m 487 1535 l 486 1527 l 485 1515 l 484 1498 l 483 1476 l
 481 1452 l 478 1426 l 476 1399 l 473 1374 l 469 1350 l
 466 1328 l 462 1309 l 457 1294 l 451 1284 l 445 1280 l
 439 1283 l 432 1293 l 426 1308 l 421 1326 l 416 1348 l
 411 1371 l 406 1396 l 402 1423 l 398 1448 l 394 1473 l
 391 1494 l 388 1511 l 386 1523 l 385 1531 l
 385 1534 l gs col0 s gr 
% Polyline
n 614 1542 m 612 1546 l 609 1553 l 604 1564 l 597 1578 l 588 1594 l
 580 1610 l 570 1626 l 561 1639 l 550 1651 l 540 1659 l
 529 1662 l 518 1658 l 509 1648 l 503 1633 l 499 1616 l
 495 1596 l 493 1578 l 491 1562 l 490 1551 l 490 1546 l

 490 1545 l gs col0 s gr 
% Polyline
n 66 1530 m
 40 1216 l gs col0 s gr 
% Polyline
n 2631 1530 m
 2657 1136 l gs col0 s gr 
/Times-Roman-iso ff 158.75 scf sf
-45 225 m
gs 1 -1 sc (ondes de fr\351quence l\351g\351rement diff\351rente) col0 sh gr
/Times-Roman-iso ff 158.75 scf sf
45 2250 m
gs 1 -1 sc (enveloppe \340 la fr\351quence de battement) col0 sh gr
% here ends figure;
$F2psEnd
rs
showpage
%%Trailer
%EOF
