%!PS-Adobe-3.0 EPSF-3.0
%%Creator: inkscape 0.44.1
%%Pages: 1
%%Orientation: Portrait
%%BoundingBox: 6 752 149 826
%%HiResBoundingBox: 6.983418 752.46661 148.40556 825.39234
%%DocumentMedia: plain 596 842 0 () ()
%%EndComments
%%Page: 1 1
0 842 translate
0.8 -0.8 scale
gsave [1 0 0 1 0 0] concat
0 0 0 setrgbcolor
[1.4173229 2.8346457] 0 setdash
0.35433072 setlinewidth
0 setlinejoin
0 setlinecap
newpath
8.9064378 60.912589 moveto
164.42794 60.912589 185.32979 60.912589 185.32979 60.912589 curveto
stroke
0 0 0 setrgbcolor
[] 0 setdash
0.35433072 setlinewidth
0 setlinejoin
0 setlinecap
newpath
118.30016 26.663142 moveto
118.30016 95.6177 118.30016 96.048666 118.30016 96.048666 curveto
stroke
gsave [-2.3865361e-17 -0.38976379 0.38976379 -2.3865361e-17 118.30016 28.611961] concat
gsave
0 0 0 setrgbcolor
newpath
8.7185878 4.0337352 moveto
-2.2072895 0.016013256 lineto
8.7185884 -4.0017078 lineto
6.97309 -1.6296469 6.9831476 1.6157441 8.7185878 4.0337352 curveto
closepath
eofill
grestore
grestore
gsave [1.7356626e-17 0.28346457 -0.28346457 1.7356626e-17 118.30016 96.048666] concat
gsave
0 0 0 setrgbcolor
newpath
0 0 moveto
5 -5 lineto
-12.5 0 lineto
5 5 lineto
0 0 lineto
closepath
eofill
grestore
0 0 0 setrgbcolor
[] 0 setdash
1.25 setlinewidth
0 setlinejoin
0 setlinecap
newpath
0 0 moveto
5 -5 lineto
-12.5 0 lineto
5 5 lineto
0 0 lineto
closepath
stroke
grestore
0 0 0 setrgbcolor
[] 0 setdash
1 setlinewidth
0 setlinejoin
0 setlinecap
newpath
25.426993 38.945673 moveto
91.364788 38.945673 lineto
118.30015 49.288856 lineto
158.38 60.278489 lineto
stroke
gsave [-0.2893212 -0.079329981 0.079329981 -0.2893212 159.82661 60.675139] concat
gsave
0 0 0 setrgbcolor
newpath
8.7185878 4.0337352 moveto
-2.2072895 0.016013256 lineto
8.7185884 -4.0017078 lineto
6.97309 -1.6296469 6.9831476 1.6157441 8.7185878 4.0337352 curveto
closepath
eofill
grestore
grestore
0 0 0 setrgbcolor
[] 0 setdash
0.35433072 setlinewidth
0 setlinejoin
0 setlinecap
newpath
91.149311 97.341563 moveto
91.149311 23.430897 lineto
stroke
gsave [2.3865361e-17 -0.38976379 0.38976379 2.3865361e-17 91.149311 99.290382] concat
gsave
0 0 0 setrgbcolor
newpath
8.7185878 4.0337352 moveto
-2.2072895 0.016013256 lineto
8.7185884 -4.0017078 lineto
6.97309 -1.6296469 6.9831476 1.6157441 8.7185878 4.0337352 curveto
closepath
eofill
grestore
grestore
gsave [-2.3865361e-17 0.38976379 -0.38976379 -2.3865361e-17 91.149311 21.482078] concat
gsave
0 0 0 setrgbcolor
newpath
8.7185878 4.0337352 moveto
-2.2072895 0.016013256 lineto
8.7185884 -4.0017078 lineto
6.97309 -1.6296469 6.9831476 1.6157441 8.7185878 4.0337352 curveto
closepath
eofill
grestore
grestore
gsave
0 0 0 setrgbcolor
newpath
102.65965 64.186134 moveto
102.17137 64.645119 lineto
102.0672 64.182886 101.73843 63.951766 101.18504 63.951759 curveto
100.86603 63.951766 100.57957 64.047795 100.32567 64.239845 curveto
100.05223 64.448185 99.91551 64.708601 99.915512 65.021095 curveto
99.915512 66.178322 lineto
101.06297 66.178322 lineto
101.06297 66.549416 lineto
99.915512 66.549416 lineto
99.915512 69.781837 lineto
99.91551 70.198505 100.145 70.406838 100.60399 70.406837 curveto
100.63979 70.406838 100.69188 70.406838 100.76024 70.406837 curveto
100.8286 70.403582 100.87905 70.401955 100.91161 70.401955 curveto
100.91161 70.621681 lineto
98.533676 70.621681 lineto
98.509262 70.48008 lineto
98.776189 70.3987 98.934066 70.344989 98.982895 70.318947 curveto
99.145654 70.231057 99.227035 70.099221 99.227036 69.923439 curveto
99.227036 66.549416 lineto
99.135889 66.559185 98.851058 66.536399 98.372543 66.481056 curveto
98.372543 66.290627 lineto
98.776189 66.290631 99.010563 66.253196 99.075668 66.178322 curveto
99.227036 66.178322 lineto
99.227036 66.031837 lineto
99.227035 65.507754 99.284001 65.13015 99.397934 64.899025 curveto
99.485823 64.726505 99.720198 64.456323 100.10106 64.088478 curveto
100.43309 63.769475 100.9116 63.609969 101.53661 63.609962 curveto
101.87189 63.609969 102.24624 63.802027 102.65965 64.186134 curveto
fill
grestore
gsave
0 0 0 setrgbcolor
newpath
fill
grestore
gsave
0 0 0 setrgbcolor
newpath
109.61278 66.446877 moveto
105.56004 66.446877 lineto
105.56004 65.987892 lineto
109.61278 65.987892 lineto
109.61278 66.446877 lineto
109.61278 68.287697 moveto
105.56004 68.287697 lineto
105.56004 67.82383 lineto
109.61278 67.82383 lineto
109.61278 68.287697 lineto
fill
grestore
gsave
0 0 0 setrgbcolor
newpath
fill
grestore
gsave
0 0 0 setrgbcolor
newpath
118.06004 69.23008 moveto
118.06004 69.29193 117.91681 69.755797 117.63036 70.621681 curveto
113.54344 70.621681 lineto
113.45067 70.333595 lineto
115.62515 68.57904 116.71238 66.98399 116.71239 65.548439 curveto
116.71238 64.708601 116.33152 64.28868 115.56981 64.288673 curveto
114.72345 64.28868 114.07892 64.687442 113.63622 65.484962 curveto
113.42137 65.392189 lineto
113.59715 64.907169 113.89663 64.49864 114.31981 64.166603 curveto
114.76577 63.815047 115.23778 63.639266 115.73582 63.639259 curveto
116.19481 63.639266 116.58055 63.77924 116.89305 64.059181 curveto
117.21857 64.352156 117.38133 64.724877 117.38133 65.177345 curveto
117.38133 66.625917 116.39988 68.222595 114.437 69.967384 curveto
117.10789 69.967384 lineto
117.28693 69.967385 117.45783 69.829039 117.62059 69.552345 curveto
117.78335 69.275654 117.85822 69.137308 117.8452 69.137306 curveto
117.87124 69.137308 117.90867 69.151956 117.9575 69.181252 curveto
118.00633 69.207295 118.04051 69.223571 118.06004 69.23008 curveto
fill
grestore
gsave
0 0 0 setrgbcolor
newpath
123.24559 67.096291 moveto
123.24559 67.887309 123.07794 68.636006 122.74266 69.342384 curveto
122.32599 70.224546 121.76447 70.665626 121.05809 70.665627 curveto
120.32567 70.665626 119.75601 70.231057 119.34911 69.361916 curveto
119.03009 68.681579 118.87059 67.926371 118.87059 67.096291 curveto
118.87059 66.305279 119.03823 65.556582 119.37352 64.850197 curveto
119.79019 63.971297 120.35171 63.531845 121.05809 63.531837 curveto
121.79051 63.531845 122.35854 63.964787 122.76219 64.830666 curveto
123.08445 65.514264 123.24559 66.269472 123.24559 67.096291 curveto
122.52782 67.316017 moveto
122.52781 64.975528 122.0379 63.805282 121.05809 63.805275 curveto
120.07827 63.805282 119.58836 64.830671 119.58836 66.881447 curveto
119.58836 69.218688 120.07827 70.387306 121.05809 70.387306 curveto
122.0379 70.387306 122.52781 69.363544 122.52782 67.316017 curveto
fill
grestore
gsave
0 0 0 setrgbcolor
newpath
fill
grestore
gsave
0 0 0 setrgbcolor
newpath
130.98973 69.420509 moveto
130.58608 70.279885 129.94643 70.709572 129.07079 70.709572 curveto
128.50763 70.709572 128.03075 70.483335 127.64012 70.030861 curveto
127.26577 69.597919 127.0786 69.09499 127.0786 68.522072 curveto
127.0786 67.805929 127.32599 67.215109 127.82079 66.749611 curveto
128.30581 66.293886 128.90965 66.066022 129.63231 66.066017 curveto
129.84715 66.066022 130.0978 66.132753 130.38426 66.266212 curveto
130.71303 66.412701 130.87742 66.570578 130.87743 66.739845 curveto
130.87742 67.049094 130.73094 67.203716 130.43797 67.203712 curveto
130.25568 67.203716 130.13686 67.130474 130.08153 66.983986 curveto
130.02944 66.847271 129.97899 66.710552 129.93016 66.57383 curveto
129.82274 66.424094 129.61603 66.349225 129.31004 66.34922 curveto
128.81851 66.349225 128.43439 66.572206 128.1577 67.018166 curveto
127.92658 67.395773 127.81102 67.846619 127.81102 68.370705 curveto
127.81102 68.806904 127.96401 69.213805 128.27 69.591408 curveto
128.59552 69.991799 128.96987 70.191994 129.39305 70.191994 curveto
130.00177 70.191994 130.46727 69.916929 130.78954 69.366798 curveto
130.923 69.363544 130.98973 69.381448 130.98973 69.420509 curveto
fill
grestore
gsave
0 0 0 setrgbcolor
newpath
139.65672 70.621681 moveto
137.49364 70.621681 lineto
137.49364 70.401955 lineto
137.93634 70.401955 138.15769 70.182229 138.1577 69.742775 curveto
138.1577 67.521095 lineto
138.15769 67.244406 138.09096 67.001893 137.9575 66.793556 curveto
137.80125 66.552675 137.59129 66.432232 137.32762 66.432228 curveto
136.92397 66.432232 136.44383 66.635683 135.88719 67.04258 curveto
135.88719 69.982033 lineto
135.88719 70.24896 136.1476 70.382424 136.66844 70.382423 curveto
136.69286 70.621681 lineto
134.53465 70.621681 lineto
134.53465 70.401955 lineto
134.9741 70.401955 135.19383 70.182229 135.19383 69.742775 curveto
135.19383 67.521095 lineto
135.19383 67.241151 135.13686 67.000266 135.02293 66.798439 curveto
134.88296 66.554302 134.68276 66.432232 134.42235 66.432228 curveto
134.01219 66.432232 133.50926 66.651959 132.91356 67.091408 curveto
132.91356 69.879494 lineto
132.91356 70.198505 133.15933 70.372658 133.65086 70.401955 curveto
133.62157 70.621681 lineto
131.55614 70.621681 lineto
131.53661 70.582619 lineto
131.5659 70.431252 lineto
131.76773 70.431252 131.93049 70.348244 132.05418 70.182228 curveto
132.16812 70.029234 132.22508 69.84857 132.22508 69.640236 curveto
132.22508 66.949806 lineto
132.22508 66.832623 132.12417 66.739849 131.92235 66.671486 curveto
131.89631 66.661724 131.74331 66.625917 131.46336 66.564064 curveto
131.46336 66.441994 lineto
131.49592 66.406191 131.53661 66.380149 131.58543 66.363869 curveto
131.8426 66.275982 132.22671 66.118105 132.73778 65.890236 curveto
132.91356 66.022072 lineto
132.91356 66.900978 lineto
133.85431 66.295514 134.50373 65.99278 134.8618 65.992775 curveto
135.0799 65.99278 135.28335 66.093691 135.47215 66.295509 curveto
135.63165 66.46804 135.74721 66.669862 135.81883 66.900978 curveto
136.75958 66.295514 137.409 65.99278 137.76707 65.992775 curveto
138.11538 65.99278 138.3937 66.153912 138.60204 66.476173 curveto
138.78432 66.756125 138.87547 67.07839 138.87547 67.44297 curveto
138.87547 69.982033 lineto
138.87547 70.24896 139.12612 70.382424 139.62743 70.382423 curveto
139.65672 70.621681 lineto
fill
grestore
0 0 0 setrgbcolor
[] 0 setdash
0.43931094 setlinewidth
0 setlinejoin
0 setlinecap
newpath
146.38344 74.28488 moveto
93.018152 74.28488 lineto
stroke
gsave [-0.26358656 3.2278978e-17 -3.2278978e-17 -0.26358656 144.27475 74.28488] concat
gsave
0 0 0 setrgbcolor
newpath
0 0 moveto
5 -5 lineto
-12.5 0 lineto
5 5 lineto
0 0 lineto
closepath
eofill
grestore
0 0 0 setrgbcolor
[] 0 setdash
1.25 setlinewidth
0 setlinejoin
0 setlinecap
newpath
0 0 moveto
5 -5 lineto
-12.5 0 lineto
5 5 lineto
0 0 lineto
closepath
stroke
0 0 0 setrgbcolor
[] 0 setdash
1.5 setlinewidth
0 setlinejoin
0 setlinecap
newpath
-14.759949 -7 moveto
-14.759949 65 lineto
stroke
grestore
gsave [0.26358656 -3.2278978e-17 -3.2278978e-17 -0.26358656 95.126845 74.28488] concat
gsave
0 0 0 setrgbcolor
newpath
0 0 moveto
5 -5 lineto
-12.5 0 lineto
5 5 lineto
0 0 lineto
closepath
eofill
grestore
0 0 0 setrgbcolor
[] 0 setdash
1.25 setlinewidth
0 setlinejoin
0 setlinecap
newpath
0 0 moveto
5 -5 lineto
-12.5 0 lineto
5 5 lineto
0 0 lineto
closepath
stroke
0 0 0 setrgbcolor
[] 0 setdash
1.5 setlinewidth
0 setlinejoin
0 setlinecap
newpath
-14.759949 -7 moveto
-14.759949 65 lineto
stroke
grestore
gsave
0 0 0 setrgbcolor
newpath
97.114738 27.143444 moveto
94.837395 27.143444 lineto
94.837395 27.006725 lineto
95.389477 27.006725 95.665518 26.784069 95.66552 26.338757 curveto
95.66552 22.213757 lineto
95.524893 22.297095 95.385571 22.380428 95.247551 22.463757 curveto
95.080883 22.557511 94.933748 22.621313 94.806145 22.655163 curveto
94.731926 22.483288 lineto
95.255362 22.222876 95.704581 21.905168 96.079582 21.530163 curveto
96.313957 21.530163 lineto
96.313957 26.338757 lineto
96.313955 26.606986 96.382966 26.789278 96.520988 26.885632 curveto
96.632965 26.966361 96.830882 27.006725 97.114738 27.006725 curveto
97.114738 27.143444 lineto
fill
grestore
gsave
0 0 0 setrgbcolor
newpath
101.46239 24.327038 moveto
101.46239 24.959852 101.32828 25.55881 101.06005 26.123913 curveto
100.72671 26.829642 100.2775 27.182507 99.712395 27.182507 curveto
99.126456 27.182507 98.670727 26.834851 98.345207 26.139538 curveto
98.089998 25.595269 97.962394 24.991102 97.962395 24.327038 curveto
97.962394 23.694229 98.096509 23.095271 98.364738 22.530163 curveto
98.698071 21.827043 99.147289 21.475481 99.712395 21.475475 curveto
100.29833 21.475481 100.75276 21.821835 101.07568 22.514538 curveto
101.33348 23.061417 101.46239 23.665583 101.46239 24.327038 curveto
100.88818 24.502819 moveto
100.88817 22.630428 100.49625 21.694231 99.712395 21.694225 curveto
98.928539 21.694231 98.536613 22.514542 98.536613 24.155163 curveto
98.536613 26.024956 98.928539 26.95985 99.712395 26.95985 curveto
100.49625 26.95985 100.88817 26.140841 100.88818 24.502819 curveto
fill
grestore
gsave
0 0 0 setrgbcolor
newpath
fill
grestore
gsave
0 0 0 setrgbcolor
newpath
107.65771 26.186413 moveto
107.33479 26.873913 106.82307 27.217663 106.12255 27.217663 curveto
105.67203 27.217663 105.29052 27.036673 104.97802 26.674694 curveto
104.67854 26.328341 104.5288 25.925997 104.5288 25.467663 curveto
104.5288 24.894748 104.72672 24.422093 105.12255 24.049694 curveto
105.51057 23.685114 105.99364 23.502823 106.57177 23.502819 curveto
106.74364 23.502823 106.94416 23.556208 107.17333 23.662975 curveto
107.43635 23.780166 107.56786 23.906468 107.56786 24.041882 curveto
107.56786 24.28928 107.45067 24.412978 107.2163 24.412975 curveto
107.07047 24.412978 106.97541 24.354384 106.93114 24.237194 curveto
106.88948 24.127822 106.84911 24.018447 106.81005 23.909069 curveto
106.72411 23.789281 106.55875 23.729385 106.31396 23.729382 curveto
105.92073 23.729385 105.61344 23.90777 105.39208 24.264538 curveto
105.20719 24.566624 105.11474 24.9273 105.11474 25.346569 curveto
105.11474 25.695529 105.23713 26.021049 105.48193 26.323132 curveto
105.74234 26.643445 106.04182 26.803601 106.38036 26.8036 curveto
106.86734 26.803601 107.23974 26.583549 107.49755 26.143444 curveto
107.60432 26.140841 107.6577 26.155164 107.65771 26.186413 curveto
fill
grestore
gsave
0 0 0 setrgbcolor
newpath
114.5913 27.14735 moveto
112.86083 27.14735 lineto
112.86083 26.971569 lineto
113.21499 26.971569 113.39208 26.795788 113.39208 26.444225 curveto
113.39208 24.666882 lineto
113.39208 24.44553 113.33869 24.25152 113.23193 24.08485 curveto
113.10692 23.892145 112.93895 23.795791 112.72802 23.795788 curveto
112.4051 23.795791 112.02098 23.958551 111.57568 24.284069 curveto
111.57568 26.635632 lineto
111.57567 26.849174 111.78401 26.955944 112.20068 26.955944 curveto
112.22021 27.14735 lineto
110.49364 27.14735 lineto
110.49364 26.971569 lineto
110.8452 26.971569 111.02099 26.795788 111.02099 26.444225 curveto
111.02099 24.666882 lineto
111.02099 24.442926 110.97541 24.250218 110.88427 24.088757 curveto
110.77229 23.893447 110.61213 23.795791 110.4038 23.795788 curveto
110.07567 23.795791 109.67333 23.971572 109.19677 24.323132 curveto
109.19677 26.5536 lineto
109.19677 26.808809 109.39338 26.948132 109.78661 26.971569 curveto
109.76318 27.14735 lineto
108.11083 27.14735 lineto
108.09521 27.1161 lineto
108.11864 26.995007 lineto
108.2801 26.995007 108.41031 26.928601 108.50927 26.795788 curveto
108.60042 26.673392 108.64599 26.528861 108.64599 26.362194 curveto
108.64599 24.20985 lineto
108.64599 24.116103 108.56526 24.041885 108.4038 23.987194 curveto
108.38297 23.979385 108.26057 23.950739 108.03661 23.901257 curveto
108.03661 23.8036 lineto
108.06266 23.774958 108.09521 23.754125 108.13427 23.7411 curveto
108.34 23.670791 108.64729 23.544489 109.05614 23.362194 curveto
109.19677 23.467663 lineto
109.19677 24.170788 lineto
109.94937 23.686416 110.4689 23.444229 110.75536 23.444225 curveto
110.92984 23.444229 111.0926 23.524958 111.24364 23.686413 curveto
111.37125 23.824437 111.46369 23.985895 111.52099 24.170788 curveto
112.27359 23.686416 112.79312 23.444229 113.07958 23.444225 curveto
113.35822 23.444229 113.58088 23.573135 113.74755 23.830944 curveto
113.89338 24.054905 113.9663 24.312718 113.9663 24.604382 curveto
113.9663 26.635632 lineto
113.9663 26.849174 114.16682 26.955944 114.56786 26.955944 curveto
114.5913 27.14735 lineto
fill
grestore
gsave
0 0 0 setrgbcolor
newpath
115.36308 102.81084 moveto
114.8748 103.26983 lineto
114.77063 102.8076 114.44186 102.57648 113.88847 102.57647 curveto
113.56946 102.57648 113.283 102.6725 113.0291 102.86456 curveto
112.75566 103.07289 112.61894 103.33331 112.61894 103.64581 curveto
112.61894 104.80303 lineto
113.7664 104.80303 lineto
113.7664 105.17413 lineto
112.61894 105.17413 lineto
112.61894 108.40655 lineto
112.61894 108.82321 112.84843 109.03155 113.30742 109.03155 curveto
113.34322 109.03155 113.39531 109.03155 113.46367 109.03155 curveto
113.53203 109.02829 113.58248 109.02666 113.61504 109.02666 curveto
113.61504 109.24639 lineto
111.23711 109.24639 lineto
111.21269 109.10479 lineto
111.47962 109.02341 111.6375 108.9697 111.68633 108.94366 curveto
111.84908 108.85577 111.93046 108.72393 111.93047 108.54815 curveto
111.93047 105.17413 lineto
111.83932 105.1839 111.55449 105.16111 111.07597 105.10577 curveto
111.07597 104.91534 lineto
111.47962 104.91534 111.71399 104.87791 111.7791 104.80303 curveto
111.93047 104.80303 lineto
111.93047 104.65655 lineto
111.93046 104.13246 111.98743 103.75486 112.10136 103.52374 curveto
112.18925 103.35121 112.42363 103.08103 112.80449 102.71319 curveto
113.13652 102.39418 113.61503 102.23468 114.24004 102.23467 curveto
114.57532 102.23468 114.94967 102.42674 115.36308 102.81084 curveto
fill
grestore
gsave
0 0 0 setrgbcolor
newpath
fill
grestore
gsave
0 0 0 setrgbcolor
newpath
122.31621 105.07159 moveto
118.26347 105.07159 lineto
118.26347 104.6126 lineto
122.31621 104.6126 lineto
122.31621 105.07159 lineto
122.31621 106.91241 moveto
118.26347 106.91241 lineto
118.26347 106.44854 lineto
122.31621 106.44854 lineto
122.31621 106.91241 lineto
fill
grestore
gsave
0 0 0 setrgbcolor
newpath
fill
grestore
gsave
0 0 0 setrgbcolor
newpath
129.32793 106.44854 moveto
126.17363 106.44854 lineto
126.17363 105.83819 lineto
129.32793 105.83819 lineto
129.32793 106.44854 lineto
fill
grestore
gsave
0 0 0 setrgbcolor
newpath
133.98125 106.91729 moveto
133.98124 107.62042 133.7192 108.21612 133.19511 108.7044 curveto
132.68404 109.17966 132.07369 109.41729 131.36406 109.41729 curveto
131.03854 109.41729 130.74069 109.36032 130.4705 109.24639 curveto
130.11569 109.09991 129.93828 108.88832 129.93828 108.61163 curveto
129.93828 108.49769 129.97571 108.40167 130.05058 108.32354 curveto
130.12871 108.24542 130.22474 108.20635 130.33867 108.20635 curveto
130.39075 108.20635 130.4819 108.27797 130.61211 108.4212 curveto
130.78138 108.61325 130.91972 108.74834 131.02715 108.82647 curveto
131.22246 108.97295 131.42753 109.0462 131.64238 109.0462 curveto
132.04277 109.0462 132.41549 108.78578 132.76054 108.26495 curveto
133.07304 107.79294 133.22929 107.34535 133.22929 106.92217 curveto
133.22929 106.47621 133.05676 106.06443 132.71172 105.68682 curveto
132.36015 105.2962 131.96302 105.10089 131.52031 105.10088 curveto
131.33151 105.10089 131.11503 105.17576 130.8709 105.32549 curveto
130.783 105.38084 130.57467 105.53057 130.2459 105.77471 curveto
130.80742 102.32256 lineto
133.22929 102.32256 lineto
133.37903 102.32257 133.4718 102.23468 133.50761 102.05889 curveto
133.69316 102.11749 lineto
133.38554 103.02081 lineto
131.08574 103.02081 lineto
130.77324 104.91534 lineto
131.08248 104.68748 131.49752 104.57354 132.01836 104.57354 curveto
132.61731 104.57354 133.10234 104.81931 133.47343 105.31084 curveto
133.81197 105.76007 133.98124 106.29555 133.98125 106.91729 curveto
fill
grestore
gsave
0 0 0 setrgbcolor
newpath
139.17168 105.721 moveto
139.17167 106.51202 139.00403 107.26072 138.66875 107.96709 curveto
138.25208 108.84926 137.69055 109.29034 136.98418 109.29034 curveto
136.25175 109.29034 135.68209 108.85577 135.27519 107.98663 curveto
134.95618 107.30629 134.79668 106.55108 134.79668 105.721 curveto
134.79668 104.92999 134.96432 104.18129 135.29961 103.47491 curveto
135.71627 102.59601 136.27779 102.15655 136.98418 102.15655 curveto
137.7166 102.15655 138.28463 102.5895 138.68828 103.45538 curveto
139.01054 104.13897 139.17167 104.89418 139.17168 105.721 curveto
138.4539 105.94073 moveto
138.4539 103.60024 137.96399 102.42999 136.98418 102.42999 curveto
136.00436 102.42999 135.51445 103.45538 135.51445 105.50616 curveto
135.51445 107.8434 136.00436 109.01202 136.98418 109.01202 curveto
137.96399 109.01202 138.4539 107.98825 138.4539 105.94073 curveto
fill
grestore
gsave
0 0 0 setrgbcolor
newpath
fill
grestore
gsave
0 0 0 setrgbcolor
newpath
146.91582 108.04522 moveto
146.51217 108.90459 145.87252 109.33428 144.99687 109.33428 curveto
144.43372 109.33428 143.95683 109.10805 143.56621 108.65557 curveto
143.19186 108.22263 143.00468 107.7197 143.00468 107.14678 curveto
143.00468 106.43064 143.25208 105.83982 143.74687 105.37432 curveto
144.2319 104.9186 144.83574 104.69073 145.5584 104.69073 curveto
145.77324 104.69073 146.02389 104.75746 146.31035 104.89092 curveto
146.63912 105.03741 146.80351 105.19529 146.80351 105.36456 curveto
146.80351 105.6738 146.65702 105.82843 146.36406 105.82842 curveto
146.18176 105.82843 146.06295 105.75518 146.00761 105.6087 curveto
145.95553 105.47198 145.90507 105.33526 145.85625 105.19854 curveto
145.74882 105.0488 145.54212 104.97393 145.23613 104.97393 curveto
144.74459 104.97393 144.36048 105.19692 144.08379 105.64288 curveto
143.85267 106.02048 143.73711 106.47133 143.73711 106.99541 curveto
143.73711 107.43161 143.8901 107.83852 144.19609 108.21612 curveto
144.52161 108.61651 144.89596 108.8167 145.31914 108.8167 curveto
145.92786 108.8167 146.39335 108.54164 146.71562 107.99151 curveto
146.84908 107.98825 146.91581 108.00616 146.91582 108.04522 curveto
fill
grestore
gsave
0 0 0 setrgbcolor
newpath
155.58281 109.24639 moveto
153.41972 109.24639 lineto
153.41972 109.02666 lineto
153.86243 109.02666 154.08378 108.80694 154.08379 108.36749 curveto
154.08379 106.14581 lineto
154.08378 105.86912 154.01705 105.6266 153.88359 105.41827 curveto
153.72733 105.17738 153.51737 105.05694 153.25371 105.05694 curveto
152.85006 105.05694 152.36991 105.26039 151.81328 105.66729 curveto
151.81328 108.60674 lineto
151.81327 108.87367 152.07369 109.00713 152.59453 109.00713 curveto
152.61894 109.24639 lineto
150.46074 109.24639 lineto
150.46074 109.02666 lineto
150.90019 109.02666 151.11992 108.80694 151.11992 108.36749 curveto
151.11992 106.14581 lineto
151.11992 105.86586 151.06295 105.62498 150.94902 105.42315 curveto
150.80904 105.17901 150.60885 105.05694 150.34843 105.05694 curveto
149.93828 105.05694 149.43535 105.27667 148.83965 105.71612 curveto
148.83965 108.5042 lineto
148.83964 108.82321 149.08541 108.99737 149.57695 109.02666 curveto
149.54765 109.24639 lineto
147.48222 109.24639 lineto
147.46269 109.20733 lineto
147.49199 109.05596 lineto
147.69381 109.05596 147.85657 108.97295 147.98027 108.80694 curveto
148.0942 108.65394 148.15117 108.47328 148.15117 108.26495 curveto
148.15117 105.57452 lineto
148.15117 105.45733 148.05026 105.36456 147.84843 105.2962 curveto
147.82239 105.28643 147.6694 105.25063 147.38945 105.18877 curveto
147.38945 105.0667 lineto
147.422 105.0309 147.46269 105.00486 147.51152 104.98858 curveto
147.76868 104.90069 148.1528 104.74282 148.66386 104.51495 curveto
148.83965 104.64678 lineto
148.83965 105.52569 lineto
149.7804 104.92022 150.42981 104.61749 150.78789 104.61749 curveto
151.00598 104.61749 151.20943 104.7184 151.39824 104.92022 curveto
151.55774 105.09275 151.6733 105.29457 151.74492 105.52569 curveto
152.68567 104.92022 153.33508 104.61749 153.69316 104.61749 curveto
154.04146 104.61749 154.31978 104.77862 154.52812 105.10088 curveto
154.71041 105.38084 154.80155 105.7031 154.80156 106.06768 curveto
154.80156 108.60674 lineto
154.80155 108.87367 155.0522 109.00713 155.55351 109.00713 curveto
155.58281 109.24639 lineto
fill
grestore
gsave
0 0 0 setrgbcolor
newpath
104.33624 72.772606 moveto
102.0589 72.772606 lineto
102.0589 72.635887 lineto
102.61098 72.635887 102.88702 72.413231 102.88702 71.967918 curveto
102.88702 67.842918 lineto
102.7464 67.926257 102.60707 68.00959 102.46906 68.092918 curveto
102.30239 68.186673 102.15525 68.250475 102.02765 68.284325 curveto
101.95343 68.11245 lineto
102.47687 67.852038 102.92608 67.53433 103.30109 67.159325 curveto
103.53546 67.159325 lineto
103.53546 71.967918 lineto
103.53546 72.236148 103.60447 72.41844 103.74249 72.514793 curveto
103.85447 72.595523 104.05239 72.635887 104.33624 72.635887 curveto
104.33624 72.772606 lineto
fill
grestore
gsave
0 0 0 setrgbcolor
newpath
117.92409 110.66564 moveto
117.92408 110.71512 117.8095 111.08622 117.58034 111.77892 curveto
114.31081 111.77892 lineto
114.23659 111.54845 lineto
115.97617 110.14481 116.84596 108.86877 116.84596 107.72033 curveto
116.84596 107.04846 116.54127 106.71252 115.9319 106.71252 curveto
115.25482 106.71252 114.73919 107.03153 114.38503 107.66955 curveto
114.21315 107.59533 lineto
114.35377 107.20731 114.59336 106.88049 114.9319 106.61486 curveto
115.28867 106.33362 115.66627 106.19299 116.06471 106.19299 curveto
116.4319 106.19299 116.74049 106.30497 116.99049 106.52892 curveto
117.25091 106.7633 117.38112 107.06148 117.38112 107.42345 curveto
117.38112 108.58231 116.59596 109.85965 115.02565 111.25549 curveto
117.16237 111.25549 lineto
117.30559 111.25549 117.44231 111.14481 117.57253 110.92345 curveto
117.70273 110.7021 117.76263 110.59142 117.75221 110.59142 curveto
117.77304 110.59142 117.80299 110.60314 117.84206 110.62658 curveto
117.88111 110.64741 117.90846 110.66043 117.92409 110.66564 curveto
fill
grestore
0 0 0 setrgbcolor
[1.4173229 2.8346457] 0 setdash
0.35433072 setlinewidth
0 setlinejoin
0 setlinecap
newpath
148.25229 60.924938 moveto
91.149306 38.730187 lineto
stroke
gsave
0 0 0 setrgbcolor
newpath
93.191246 102.54895 moveto
92.702965 103.00793 lineto
92.598794 102.5457 92.270019 102.31458 91.716637 102.31458 curveto
91.397624 102.31458 91.111166 102.41061 90.857262 102.60266 curveto
90.583822 102.811 90.447104 103.07142 90.447105 103.38391 curveto
90.447105 104.54114 lineto
91.594566 104.54114 lineto
91.594566 104.91223 lineto
90.447105 104.91223 lineto
90.447105 108.14465 lineto
90.447104 108.56132 90.676596 108.76965 91.135582 108.76965 curveto
91.171387 108.76965 91.22347 108.76965 91.291832 108.76965 curveto
91.360189 108.7664 91.410644 108.76477 91.443199 108.76477 curveto
91.443199 108.9845 lineto
89.065269 108.9845 lineto
89.040855 108.8429 lineto
89.307782 108.76152 89.465659 108.7078 89.514488 108.68176 curveto
89.677248 108.59387 89.758628 108.46204 89.758629 108.28625 curveto
89.758629 104.91223 lineto
89.667482 104.922 89.382652 104.89921 88.904137 104.84387 curveto
88.904137 104.65344 lineto
89.307782 104.65345 89.542157 104.61601 89.607262 104.54114 curveto
89.758629 104.54114 lineto
89.758629 104.39465 lineto
89.758628 103.87057 89.815594 103.49297 89.929527 103.26184 curveto
90.017417 103.08932 90.251791 102.81914 90.632652 102.45129 curveto
90.964681 102.13229 91.443197 101.97279 92.068199 101.97278 curveto
92.403482 101.97279 92.777831 102.16484 93.191246 102.54895 curveto
fill
grestore
gsave
0 0 0 setrgbcolor
newpath
fill
grestore
gsave
0 0 0 setrgbcolor
newpath
95.357475 111.56882 moveto
93.080132 111.56882 lineto
93.080132 111.4321 lineto
93.632214 111.4321 93.908255 111.20944 93.908257 110.76413 curveto
93.908257 106.63913 lineto
93.76763 106.72247 93.628307 106.8058 93.490288 106.88913 curveto
93.32362 106.98288 93.176485 107.04669 93.048882 107.08054 curveto
92.974663 106.90866 lineto
93.498099 106.64825 93.947318 106.33054 94.322319 105.95554 curveto
94.556694 105.95554 lineto
94.556694 110.76413 lineto
94.556692 111.03236 94.625702 111.21465 94.763725 111.311 curveto
94.875702 111.39173 95.073619 111.4321 95.357475 111.4321 curveto
95.357475 111.56882 lineto
fill
grestore
0 0 0 setrgbcolor
[] 0 setdash
0.29840264 setlinewidth
0 setlinejoin
0 setlinecap
newpath
92.413825 29.679903 moveto
117.03564 29.679903 lineto
stroke
gsave [0.17904158 0 0 0.17904158 93.846158 29.679903] concat
gsave
0 0 0 setrgbcolor
newpath
0 0 moveto
5 -5 lineto
-12.5 0 lineto
5 5 lineto
0 0 lineto
closepath
eofill
grestore
0 0 0 setrgbcolor
[] 0 setdash
1.25 setlinewidth
0 setlinejoin
0 setlinecap
newpath
0 0 moveto
5 -5 lineto
-12.5 0 lineto
5 5 lineto
0 0 lineto
closepath
stroke
0 0 0 setrgbcolor
[] 0 setdash
1.5 setlinewidth
0 setlinejoin
0 setlinecap
newpath
-14.759949 -7 moveto
-14.759949 65 lineto
stroke
grestore
gsave [-0.17904158 0 0 0.17904158 115.60331 29.679903] concat
gsave
0 0 0 setrgbcolor
newpath
0 0 moveto
5 -5 lineto
-12.5 0 lineto
5 5 lineto
0 0 lineto
closepath
eofill
grestore
0 0 0 setrgbcolor
[] 0 setdash
1.25 setlinewidth
0 setlinejoin
0 setlinecap
newpath
0 0 moveto
5 -5 lineto
-12.5 0 lineto
5 5 lineto
0 0 lineto
closepath
stroke
0 0 0 setrgbcolor
[] 0 setdash
1.5 setlinewidth
0 setlinejoin
0 setlinecap
newpath
-14.759949 -7 moveto
-14.759949 65 lineto
stroke
grestore
grestore
showpage
%%EOF
