%!PS-Adobe-2.0 EPSF-2.0
%%Title: Cordestationnaire.fig
%%Creator: fig2dev Version 3.2 Patchlevel 5-alpha5
%%CreationDate: Wed Aug 10 21:32:28 2005
%%For: guyotv@debian ()
%%BoundingBox: 0 0 172 220
%Magnification: 1.0000
%%EndComments
/$F2psDict 200 dict def
$F2psDict begin
$F2psDict /mtrx matrix put
/col-1 {0 setgray} bind def
/col0 {0.000 0.000 0.000 srgb} bind def
/col1 {0.000 0.000 1.000 srgb} bind def
/col2 {0.000 1.000 0.000 srgb} bind def
/col3 {0.000 1.000 1.000 srgb} bind def
/col4 {1.000 0.000 0.000 srgb} bind def
/col5 {1.000 0.000 1.000 srgb} bind def
/col6 {1.000 1.000 0.000 srgb} bind def
/col7 {1.000 1.000 1.000 srgb} bind def
/col8 {0.000 0.000 0.560 srgb} bind def
/col9 {0.000 0.000 0.690 srgb} bind def
/col10 {0.000 0.000 0.820 srgb} bind def
/col11 {0.530 0.810 1.000 srgb} bind def
/col12 {0.000 0.560 0.000 srgb} bind def
/col13 {0.000 0.690 0.000 srgb} bind def
/col14 {0.000 0.820 0.000 srgb} bind def
/col15 {0.000 0.560 0.560 srgb} bind def
/col16 {0.000 0.690 0.690 srgb} bind def
/col17 {0.000 0.820 0.820 srgb} bind def
/col18 {0.560 0.000 0.000 srgb} bind def
/col19 {0.690 0.000 0.000 srgb} bind def
/col20 {0.820 0.000 0.000 srgb} bind def
/col21 {0.560 0.000 0.560 srgb} bind def
/col22 {0.690 0.000 0.690 srgb} bind def
/col23 {0.820 0.000 0.820 srgb} bind def
/col24 {0.500 0.190 0.000 srgb} bind def
/col25 {0.630 0.250 0.000 srgb} bind def
/col26 {0.750 0.380 0.000 srgb} bind def
/col27 {1.000 0.500 0.500 srgb} bind def
/col28 {1.000 0.630 0.630 srgb} bind def
/col29 {1.000 0.750 0.750 srgb} bind def
/col30 {1.000 0.880 0.880 srgb} bind def
/col31 {1.000 0.840 0.000 srgb} bind def

end
save
newpath 0 220 moveto 0 0 lineto 172 0 lineto 172 220 lineto closepath clip newpath
0.8 230.4 translate
1 -1 scale

/cp {closepath} bind def
/ef {eofill} bind def
/gr {grestore} bind def
/gs {gsave} bind def
/sa {save} bind def
/rs {restore} bind def
/l {lineto} bind def
/m {moveto} bind def
/rm {rmoveto} bind def
/n {newpath} bind def
/s {stroke} bind def
/sh {show} bind def
/slc {setlinecap} bind def
/slj {setlinejoin} bind def
/slw {setlinewidth} bind def
/srgb {setrgbcolor} bind def
/rot {rotate} bind def
/sc {scale} bind def
/sd {setdash} bind def
/ff {findfont} bind def
/sf {setfont} bind def
/scf {scalefont} bind def
/sw {stringwidth} bind def
/tr {translate} bind def
/tnt {dup dup currentrgbcolor
  4 -2 roll dup 1 exch sub 3 -1 roll mul add
  4 -2 roll dup 1 exch sub 3 -1 roll mul add
  4 -2 roll dup 1 exch sub 3 -1 roll mul add srgb}
  bind def
/shd {dup dup currentrgbcolor 4 -2 roll mul 4 -2 roll mul
  4 -2 roll mul srgb} bind def
/reencdict 12 dict def /ReEncode { reencdict begin
/newcodesandnames exch def /newfontname exch def /basefontname exch def
/basefontdict basefontname findfont def /newfont basefontdict maxlength dict def
basefontdict { exch dup /FID ne { dup /Encoding eq
{ exch dup length array copy newfont 3 1 roll put }
{ exch newfont 3 1 roll put } ifelse } { pop pop } ifelse } forall
newfont /FontName newfontname put newcodesandnames aload pop
128 1 255 { newfont /Encoding get exch /.notdef put } for
newcodesandnames length 2 idiv { newfont /Encoding get 3 1 roll put } repeat
newfontname newfont definefont pop end } def
/isovec [
8#055 /minus 8#200 /grave 8#201 /acute 8#202 /circumflex 8#203 /tilde
8#204 /macron 8#205 /breve 8#206 /dotaccent 8#207 /dieresis
8#210 /ring 8#211 /cedilla 8#212 /hungarumlaut 8#213 /ogonek 8#214 /caron
8#220 /dotlessi 8#230 /oe 8#231 /OE
8#240 /space 8#241 /exclamdown 8#242 /cent 8#243 /sterling
8#244 /currency 8#245 /yen 8#246 /brokenbar 8#247 /section 8#250 /dieresis
8#251 /copyright 8#252 /ordfeminine 8#253 /guillemotleft 8#254 /logicalnot
8#255 /hyphen 8#256 /registered 8#257 /macron 8#260 /degree 8#261 /plusminus
8#262 /twosuperior 8#263 /threesuperior 8#264 /acute 8#265 /mu 8#266 /paragraph
8#267 /periodcentered 8#270 /cedilla 8#271 /onesuperior 8#272 /ordmasculine
8#273 /guillemotright 8#274 /onequarter 8#275 /onehalf
8#276 /threequarters 8#277 /questiondown 8#300 /Agrave 8#301 /Aacute
8#302 /Acircumflex 8#303 /Atilde 8#304 /Adieresis 8#305 /Aring
8#306 /AE 8#307 /Ccedilla 8#310 /Egrave 8#311 /Eacute
8#312 /Ecircumflex 8#313 /Edieresis 8#314 /Igrave 8#315 /Iacute
8#316 /Icircumflex 8#317 /Idieresis 8#320 /Eth 8#321 /Ntilde 8#322 /Ograve
8#323 /Oacute 8#324 /Ocircumflex 8#325 /Otilde 8#326 /Odieresis 8#327 /multiply
8#330 /Oslash 8#331 /Ugrave 8#332 /Uacute 8#333 /Ucircumflex
8#334 /Udieresis 8#335 /Yacute 8#336 /Thorn 8#337 /germandbls 8#340 /agrave
8#341 /aacute 8#342 /acircumflex 8#343 /atilde 8#344 /adieresis 8#345 /aring
8#346 /ae 8#347 /ccedilla 8#350 /egrave 8#351 /eacute
8#352 /ecircumflex 8#353 /edieresis 8#354 /igrave 8#355 /iacute
8#356 /icircumflex 8#357 /idieresis 8#360 /eth 8#361 /ntilde 8#362 /ograve
8#363 /oacute 8#364 /ocircumflex 8#365 /otilde 8#366 /odieresis 8#367 /divide
8#370 /oslash 8#371 /ugrave 8#372 /uacute 8#373 /ucircumflex
8#374 /udieresis 8#375 /yacute 8#376 /thorn 8#377 /ydieresis] def
/Times-Roman /Times-Roman-iso isovec ReEncode
/$F2psBegin {$F2psDict begin /$F2psEnteredState save def} def
/$F2psEnd {$F2psEnteredState restore end} def

$F2psBegin
10 setmiterlimit
0 slj 0 slc
 0.06299 0.06299 sc
%
% Fig objects follow
%
% 
% here starts figure with depth 50
% Polyline
0 slj
0 slc
7.500 slw
n 0 855 m
 2700 855 l gs col0 s gr 
% Polyline
n 0 2025 m
 2700 2025 l gs col0 s gr 
% Polyline
gs  clippath
1365 536 m 1365 435 l 1335 435 l 1335 536 l 1335 536 l 1350 480 l 1365 536 l cp
1335 1173 m 1335 1275 l 1365 1275 l 1365 1173 l 1365 1173 l 1350 1230 l 1335 1173 l cp
eoclip
n 1350 1260 m
 1350 450 l gs col0 s gr gr

% arrowhead
n 1335 1173 m 1350 1230 l 1365 1173 l 1350 1185 l 1335 1173 l 
 cp gs 0.00 setgray ef gr  col0 s
% arrowhead
n 1365 536 m 1350 480 l 1335 536 l 1350 525 l 1365 536 l 
 cp gs 0.00 setgray ef gr  col0 s
% Polyline
gs  clippath
690 1706 m 690 1605 l 660 1605 l 660 1706 l 660 1706 l 675 1650 l 690 1706 l cp
660 2343 m 660 2445 l 690 2445 l 690 2343 l 690 2343 l 675 2400 l 660 2343 l cp
eoclip
n 675 2430 m
 675 1620 l gs col0 s gr gr

% arrowhead
n 660 2343 m 675 2400 l 690 2343 l 675 2355 l 660 2343 l 
 cp gs 0.00 setgray ef gr  col0 s
% arrowhead
n 690 1706 m 675 1650 l 660 1706 l 675 1695 l 690 1706 l 
 cp gs 0.00 setgray ef gr  col0 s
% Polyline
gs  clippath
2040 1706 m 2040 1605 l 2010 1605 l 2010 1706 l 2010 1706 l 2025 1650 l 2040 1706 l cp
2010 2343 m 2010 2445 l 2040 2445 l 2040 2343 l 2040 2343 l 2025 2400 l 2010 2343 l cp
eoclip
n 2025 2430 m
 2025 1620 l gs col0 s gr gr

% arrowhead
n 2010 2343 m 2025 2400 l 2040 2343 l 2025 2355 l 2010 2343 l 
 cp gs 0.00 setgray ef gr  col0 s
% arrowhead
n 2040 1706 m 2025 1650 l 2010 1706 l 2025 1695 l 2040 1706 l 
 cp gs 0.00 setgray ef gr  col0 s
% Polyline
n 0 3195 m
 2700 3195 l gs col0 s gr 
% Polyline
gs  clippath
465 2876 m 465 2775 l 435 2775 l 435 2876 l 435 2876 l 450 2820 l 465 2876 l cp
435 3513 m 435 3615 l 465 3615 l 465 3513 l 465 3513 l 450 3570 l 435 3513 l cp
eoclip
n 450 3600 m
 450 2790 l gs col0 s gr gr

% arrowhead
n 435 3513 m 450 3570 l 465 3513 l 450 3525 l 435 3513 l 
 cp gs 0.00 setgray ef gr  col0 s
% arrowhead
n 465 2876 m 450 2820 l 435 2876 l 450 2865 l 465 2876 l 
 cp gs 0.00 setgray ef gr  col0 s
% Polyline
gs  clippath
1365 2876 m 1365 2775 l 1335 2775 l 1335 2876 l 1335 2876 l 1350 2820 l 1365 2876 l cp
1335 3513 m 1335 3615 l 1365 3615 l 1365 3513 l 1365 3513 l 1350 3570 l 1335 3513 l cp
eoclip
n 1350 3600 m
 1350 2790 l gs col0 s gr gr

% arrowhead
n 1335 3513 m 1350 3570 l 1365 3513 l 1350 3525 l 1335 3513 l 
 cp gs 0.00 setgray ef gr  col0 s
% arrowhead
n 1365 2876 m 1350 2820 l 1335 2876 l 1350 2865 l 1365 2876 l 
 cp gs 0.00 setgray ef gr  col0 s
% Polyline
gs  clippath
2265 2876 m 2265 2775 l 2235 2775 l 2235 2876 l 2235 2876 l 2250 2820 l 2265 2876 l cp
2235 3513 m 2235 3615 l 2265 3615 l 2265 3513 l 2265 3513 l 2250 3570 l 2235 3513 l cp
eoclip
n 2250 3600 m
 2250 2790 l gs col0 s gr gr

% arrowhead
n 2235 3513 m 2250 3570 l 2265 3513 l 2250 3525 l 2235 3513 l 
 cp gs 0.00 setgray ef gr  col0 s
% arrowhead
n 2265 2876 m 2250 2820 l 2235 2876 l 2250 2865 l 2265 2876 l 
 cp gs 0.00 setgray ef gr  col0 s
% Polyline
2 slj
n 0 855 m 1 854 l 3 853 l 7 851 l 12 847 l 21 842 l
 32 834 l 46 826 l 63 815 l 83 802 l 106 788 l
 132 773 l 161 756 l 192 738 l 226 718 l 261 699 l
 298 679 l 338 658 l 378 638 l 420 617 l 464 597 l
 508 577 l 555 558 l 602 539 l 652 522 l 703 504 l
 757 488 l 812 473 l 870 459 l 931 446 l 994 434 l
 1061 425 l 1130 416 l 1202 410 l 1275 406 l 1350 405 l
 1425 406 l 1498 410 l 1570 416 l 1639 425 l 1706 434 l
 1769 446 l 1830 459 l 1888 473 l 1943 488 l 1997 504 l
 2048 522 l 2098 539 l 2145 558 l 2192 577 l 2236 597 l
 2280 617 l 2322 638 l 2363 658 l 2402 679 l 2439 699 l
 2474 718 l 2508 738 l 2539 756 l 2568 773 l 2594 788 l
 2617 802 l 2637 815 l 2654 826 l 2668 834 l 2679 842 l
 2688 847 l 2693 851 l 2697 853 l 2699 854 l
 2700 855 l gs col0 s gr 
% Polyline
n 0 855 m 1 856 l 3 857 l 7 859 l 12 863 l 21 868 l
 32 876 l 46 884 l 63 895 l 83 908 l 106 922 l
 132 937 l 161 954 l 192 972 l 226 992 l 261 1011 l
 298 1031 l 338 1052 l 378 1072 l 420 1093 l 464 1113 l
 508 1133 l 555 1152 l 602 1171 l 652 1188 l 703 1206 l
 757 1222 l 812 1237 l 870 1251 l 931 1264 l 994 1276 l
 1061 1285 l 1130 1294 l 1202 1300 l 1275 1304 l 1350 1305 l
 1425 1304 l 1498 1300 l 1570 1294 l 1639 1285 l 1706 1276 l
 1769 1264 l 1830 1251 l 1888 1237 l 1943 1222 l 1997 1206 l
 2048 1188 l 2098 1171 l 2145 1152 l 2192 1133 l 2236 1113 l
 2280 1093 l 2322 1072 l 2363 1052 l 2402 1031 l 2439 1011 l
 2474 992 l 2508 972 l 2539 954 l 2568 937 l 2594 922 l
 2617 908 l 2637 895 l 2654 884 l 2668 876 l 2679 868 l
 2688 863 l 2693 859 l 2697 857 l 2699 856 l
 2700 855 l gs col0 s gr 
% Polyline
n 0 2025 m 1 2024 l 3 2021 l 7 2016 l 13 2009 l 21 1998 l
 31 1985 l 45 1969 l 60 1950 l 78 1928 l 98 1905 l
 120 1880 l 144 1854 l 169 1828 l 195 1802 l 222 1776 l
 251 1750 l 281 1725 l 312 1702 l 344 1679 l 378 1658 l
 414 1639 l 452 1621 l 493 1606 l 535 1593 l 580 1583 l
 627 1577 l 675 1575 l 723 1577 l 770 1583 l 815 1593 l
 857 1606 l 898 1621 l 936 1639 l 972 1658 l 1006 1679 l
 1038 1702 l 1069 1725 l 1099 1750 l 1128 1776 l 1155 1802 l
 1181 1828 l 1206 1854 l 1230 1880 l 1252 1905 l 1272 1928 l
 1290 1950 l 1305 1969 l 1319 1985 l 1329 1998 l 1337 2009 l
 1343 2016 l 1347 2021 l 1349 2024 l
 1350 2025 l gs col0 s gr 
% Polyline
n 1350 2025 m 1351 2026 l 1353 2029 l 1357 2034 l 1363 2041 l 1371 2052 l
 1381 2065 l 1395 2081 l 1410 2100 l 1428 2122 l 1448 2145 l
 1470 2170 l 1494 2196 l 1519 2222 l 1545 2248 l 1572 2274 l
 1601 2300 l 1631 2325 l 1662 2348 l 1694 2371 l 1728 2392 l
 1764 2411 l 1802 2429 l 1843 2444 l 1885 2457 l 1930 2467 l
 1977 2473 l 2025 2475 l 2073 2473 l 2120 2467 l 2165 2457 l
 2207 2444 l 2248 2429 l 2286 2411 l 2322 2392 l 2356 2371 l
 2388 2348 l 2419 2325 l 2449 2300 l 2478 2274 l 2505 2248 l
 2531 2222 l 2556 2196 l 2580 2170 l 2602 2145 l 2622 2122 l
 2640 2100 l 2655 2081 l 2669 2065 l 2679 2052 l 2687 2041 l
 2693 2034 l 2697 2029 l 2699 2026 l
 2700 2025 l gs col0 s gr 
% Polyline
n 1350 2025 m 1351 2024 l 1353 2021 l 1357 2016 l 1363 2009 l 1371 1998 l
 1381 1985 l 1395 1969 l 1410 1950 l 1428 1928 l 1448 1905 l
 1470 1880 l 1494 1854 l 1519 1828 l 1545 1802 l 1572 1776 l
 1601 1750 l 1631 1725 l 1662 1702 l 1694 1679 l 1728 1658 l
 1764 1639 l 1802 1621 l 1843 1606 l 1885 1593 l 1930 1583 l
 1977 1577 l 2025 1575 l 2073 1577 l 2120 1583 l 2165 1593 l
 2207 1606 l 2248 1621 l 2286 1639 l 2322 1658 l 2356 1679 l
 2388 1702 l 2419 1725 l 2449 1750 l 2478 1776 l 2505 1802 l
 2531 1828 l 2556 1854 l 2580 1880 l 2602 1905 l 2622 1928 l
 2640 1950 l 2655 1969 l 2669 1985 l 2679 1998 l 2687 2009 l
 2693 2016 l 2697 2021 l 2699 2024 l
 2700 2025 l gs col0 s gr 
% Polyline
n 0 2025 m 1 2026 l 3 2029 l 7 2034 l 13 2041 l 21 2052 l
 31 2065 l 45 2081 l 60 2100 l 78 2122 l 98 2145 l
 120 2170 l 144 2196 l 169 2222 l 195 2248 l 222 2274 l
 251 2300 l 281 2325 l 312 2348 l 344 2371 l 378 2392 l
 414 2411 l 452 2429 l 493 2444 l 535 2457 l 580 2467 l
 627 2473 l 675 2475 l 723 2473 l 770 2467 l 815 2457 l
 857 2444 l 898 2429 l 936 2411 l 972 2392 l 1006 2371 l
 1038 2348 l 1069 2325 l 1099 2300 l 1128 2274 l 1155 2248 l
 1181 2222 l 1206 2196 l 1230 2170 l 1252 2145 l 1272 2122 l
 1290 2100 l 1305 2081 l 1319 2065 l 1329 2052 l 1337 2041 l
 1343 2034 l 1347 2029 l 1349 2026 l
 1350 2025 l gs col0 s gr 
% Polyline
n 0 3195 m 1 3193 l 3 3189 l 7 3182 l 13 3170 l 21 3155 l
 31 3136 l 44 3113 l 59 3087 l 75 3058 l 93 3029 l
 113 2998 l 133 2967 l 155 2937 l 177 2908 l 201 2879 l
 226 2853 l 252 2828 l 280 2806 l 310 2786 l 342 2769 l
 377 2756 l 413 2748 l 450 2745 l 487 2748 l 523 2756 l
 558 2769 l 590 2786 l 620 2806 l 648 2828 l 674 2853 l
 699 2879 l 723 2908 l 745 2937 l 767 2967 l 788 2998 l
 807 3029 l 825 3058 l 841 3087 l 856 3113 l 869 3136 l
 879 3155 l 887 3170 l 893 3182 l 897 3189 l 899 3193 l

 900 3195 l gs col0 s gr 
% Polyline
n 900 3195 m 901 3193 l 903 3189 l 907 3182 l 913 3170 l 921 3155 l
 931 3136 l 944 3113 l 959 3087 l 975 3058 l 993 3029 l
 1013 2998 l 1033 2967 l 1055 2937 l 1077 2908 l 1101 2879 l
 1126 2853 l 1152 2828 l 1180 2806 l 1210 2786 l 1242 2769 l
 1277 2756 l 1313 2748 l 1350 2745 l 1387 2748 l 1423 2756 l
 1458 2769 l 1490 2786 l 1520 2806 l 1548 2828 l 1574 2853 l
 1599 2879 l 1623 2908 l 1645 2937 l 1667 2967 l 1688 2998 l
 1707 3029 l 1725 3058 l 1741 3087 l 1756 3113 l 1769 3136 l
 1779 3155 l 1787 3170 l 1793 3182 l 1797 3189 l 1799 3193 l

 1800 3195 l gs col0 s gr 
% Polyline
n 1800 3195 m 1801 3193 l 1803 3189 l 1807 3182 l 1813 3170 l 1821 3155 l
 1831 3136 l 1844 3113 l 1859 3087 l 1875 3058 l 1893 3029 l
 1913 2998 l 1933 2967 l 1955 2937 l 1977 2908 l 2001 2879 l
 2026 2853 l 2052 2828 l 2080 2806 l 2110 2786 l 2142 2769 l
 2177 2756 l 2213 2748 l 2250 2745 l 2287 2748 l 2323 2756 l
 2358 2769 l 2390 2786 l 2420 2806 l 2448 2828 l 2474 2853 l
 2499 2879 l 2523 2908 l 2545 2937 l 2567 2967 l 2588 2998 l
 2607 3029 l 2625 3058 l 2641 3087 l 2656 3113 l 2669 3136 l
 2679 3155 l 2687 3170 l 2693 3182 l 2697 3189 l 2699 3193 l

 2700 3195 l gs col0 s gr 
% Polyline
n 0 3195 m 1 3197 l 3 3201 l 7 3208 l 13 3220 l 21 3235 l
 31 3254 l 44 3277 l 59 3303 l 75 3332 l 93 3361 l
 113 3392 l 133 3423 l 155 3453 l 177 3482 l 201 3511 l
 226 3537 l 252 3562 l 280 3584 l 310 3604 l 342 3621 l
 377 3634 l 413 3642 l 450 3645 l 487 3642 l 523 3634 l
 558 3621 l 590 3604 l 620 3584 l 648 3562 l 674 3537 l
 699 3511 l 723 3482 l 745 3453 l 767 3423 l 788 3392 l
 807 3361 l 825 3332 l 841 3303 l 856 3277 l 869 3254 l
 879 3235 l 887 3220 l 893 3208 l 897 3201 l 899 3197 l

 900 3195 l gs col0 s gr 
% Polyline
n 900 3195 m 901 3197 l 903 3201 l 907 3208 l 913 3220 l 921 3235 l
 931 3254 l 944 3277 l 959 3303 l 975 3332 l 993 3361 l
 1013 3392 l 1033 3423 l 1055 3453 l 1077 3482 l 1101 3511 l
 1126 3537 l 1152 3562 l 1180 3584 l 1210 3604 l 1242 3621 l
 1277 3634 l 1313 3642 l 1350 3645 l 1387 3642 l 1423 3634 l
 1458 3621 l 1490 3604 l 1520 3584 l 1548 3562 l 1574 3537 l
 1599 3511 l 1623 3482 l 1645 3453 l 1667 3423 l 1688 3392 l
 1707 3361 l 1725 3332 l 1741 3303 l 1756 3277 l 1769 3254 l
 1779 3235 l 1787 3220 l 1793 3208 l 1797 3201 l 1799 3197 l

 1800 3195 l gs col0 s gr 
% Polyline
n 1800 3195 m 1801 3197 l 1803 3201 l 1807 3208 l 1813 3220 l 1821 3235 l
 1831 3254 l 1844 3277 l 1859 3303 l 1875 3332 l 1893 3361 l
 1913 3392 l 1933 3423 l 1955 3453 l 1977 3482 l 2001 3511 l
 2026 3537 l 2052 3562 l 2080 3584 l 2110 3604 l 2142 3621 l
 2177 3634 l 2213 3642 l 2250 3645 l 2287 3642 l 2323 3634 l
 2358 3621 l 2390 3604 l 2420 3584 l 2448 3562 l 2474 3537 l
 2499 3511 l 2523 3482 l 2545 3453 l 2567 3423 l 2588 3392 l
 2607 3361 l 2625 3332 l 2641 3303 l 2656 3277 l 2669 3254 l
 2679 3235 l 2687 3220 l 2693 3208 l 2697 3201 l 2699 3197 l

 2700 3195 l gs col0 s gr 
/Times-Roman-iso ff 158.75 scf sf
45 315 m
gs 1 -1 sc (a. fondamentale ou premi\350re harmonique) col0 sh gr
/Times-Roman-iso ff 158.75 scf sf
45 1485 m
gs 1 -1 sc (b. seconde harmonique) col0 sh gr
/Times-Roman-iso ff 158.75 scf sf
45 2655 m
gs 1 -1 sc (c. troisi\350me harmonique) col0 sh gr
% here ends figure;
$F2psEnd
rs
showpage
%%Trailer
%EOF
