%!PS-Adobe-2.0
%%Creator: inkscape 0.41.1
%%Pages: 1
%%Orientation: Portrait
%%BoundingBox: 23 766 111 825
%%HiResBoundingBox: 23.704898 766.11579 110.38671 824.08435
%%EndComments
%%Page: 1 1
0 842 translate
0.80000000 -0.80000000 scale
gsave [1.0000000 0.0000000 0.0000000 1.0000000 0.0000000 0.0000000] concat
0.0000000 0.0000000 0.0000000 setrgbcolor
[1.4173229 2.8346457] 0.0000000 setdash
0.35433072 setlinewidth
0 setlinejoin
0 setlinecap
newpath
29.808288 60.912589 moveto
185.32979 60.912589 127.14938 60.912589 127.14938 60.912589 curveto
stroke
0.0000000 0.0000000 0.0000000 setrgbcolor
[] 0 setdash
0.35433072 setlinewidth
0 setlinejoin
0 setlinecap
newpath
91.364788 25.154761 moveto
91.364788 94.109319 91.364788 94.540285 91.364788 94.540285 curveto
stroke
gsave [-2.3865361e-17 -0.38976379 0.38976379 -2.3865361e-17 91.364788 27.103580] concat
0.0000000 0.0000000 0.0000000 setrgbcolor
newpath
8.7185878 4.0337352 moveto
-2.2072895 0.016013256 lineto
8.7185884 -4.0017078 lineto
6.9730900 -1.6296469 6.9831476 1.6157441 8.7185878 4.0337352 curveto
closepath
eofill
grestore
gsave [1.7356626e-17 0.28346457 -0.28346457 1.7356626e-17 91.364788 94.540285] concat
0.0000000 0.0000000 0.0000000 setrgbcolor
newpath
0.0000000 0.0000000 moveto
5.0000000 -5.0000000 lineto
-12.500000 0.0000000 lineto
5.0000000 5.0000000 lineto
0.0000000 0.0000000 lineto
closepath
eofill
0.0000000 0.0000000 0.0000000 setrgbcolor
[] 0 setdash
1.2500000 setlinewidth
0 setlinejoin
0 setlinecap
newpath
0.0000000 0.0000000 moveto
5.0000000 -5.0000000 lineto
-12.500000 0.0000000 lineto
5.0000000 5.0000000 lineto
0.0000000 0.0000000 lineto
closepath
stroke
grestore
0.0000000 0.0000000 0.0000000 setrgbcolor
[] 0 setdash
0.35433072 setlinewidth
0 setlinejoin
0 setlinecap
newpath
63.782965 41.100503 moveto
63.782965 60.709455 63.782965 60.709455 63.782965 60.709455 curveto
stroke
0.0000000 0.0000000 0.0000000 setrgbcolor
[] 0 setdash
1.0000000 setlinewidth
0 setlinejoin
0 setlinecap
newpath
64.213931 41.315986 moveto
120.23951 81.611306 lineto
stroke
gsave [-0.24354911 -0.17516801 0.17516801 -0.24354911 121.45726 82.487146] concat
0.0000000 0.0000000 0.0000000 setrgbcolor
newpath
8.7185878 4.0337352 moveto
-2.2072895 0.016013256 lineto
8.7185884 -4.0017078 lineto
6.9730900 -1.6296469 6.9831476 1.6157441 8.7185878 4.0337352 curveto
closepath
eofill
grestore
0.0000000 0.0000000 0.0000000 setrgbcolor
[] 0 setdash
0.87347251 setlinewidth
0 setlinejoin
0 setlinecap
newpath
64.095408 41.315986 moveto
91.225095 41.315986 lineto
131.99412 28.171524 lineto
stroke
gsave [-0.24939961 0.080409667 -0.080409667 -0.24939961 133.24112 27.769476] concat
0.0000000 0.0000000 0.0000000 setrgbcolor
newpath
8.7185878 4.0337352 moveto
-2.2072895 0.016013256 lineto
8.7185884 -4.0017078 lineto
6.9730900 -1.6296469 6.9831476 1.6157441 8.7185878 4.0337352 curveto
closepath
eofill
grestore
0.0000000 0.0000000 0.0000000 setrgbcolor
[] 0 setdash
0.26897544 setlinewidth
0 setlinejoin
0 setlinecap
newpath
72.833254 60.963002 moveto
72.833254 48.173376 lineto
stroke
0.0000000 0.0000000 0.0000000 setrgbcolor
[] 0 setdash
0.50274938 setlinewidth
0 setlinejoin
0 setlinecap
newpath
89.274215 73.638435 moveto
36.783336 73.638435 lineto
stroke
gsave [-0.30164963 3.6940205e-17 -3.6940205e-17 -0.30164963 86.861018 73.638435] concat
0.0000000 0.0000000 0.0000000 setrgbcolor
newpath
0.0000000 0.0000000 moveto
5.0000000 -5.0000000 lineto
-12.500000 0.0000000 lineto
5.0000000 5.0000000 lineto
0.0000000 0.0000000 lineto
closepath
eofill
0.0000000 0.0000000 0.0000000 setrgbcolor
[] 0 setdash
1.2500000 setlinewidth
0 setlinejoin
0 setlinecap
newpath
0.0000000 0.0000000 moveto
5.0000000 -5.0000000 lineto
-12.500000 0.0000000 lineto
5.0000000 5.0000000 lineto
0.0000000 0.0000000 lineto
closepath
stroke
0.0000000 0.0000000 0.0000000 setrgbcolor
[] 0 setdash
1.5000000 setlinewidth
0 setlinejoin
0 setlinecap
newpath
-14.759949 -7.0000000 moveto
-14.759949 65.000000 lineto
stroke
grestore
gsave [0.30164963 -3.6940205e-17 -3.6940205e-17 -0.30164963 39.196533 73.638435] concat
0.0000000 0.0000000 0.0000000 setrgbcolor
newpath
0.0000000 0.0000000 moveto
5.0000000 -5.0000000 lineto
-12.500000 0.0000000 lineto
5.0000000 5.0000000 lineto
0.0000000 0.0000000 lineto
closepath
eofill
0.0000000 0.0000000 0.0000000 setrgbcolor
[] 0 setdash
1.2500000 setlinewidth
0 setlinejoin
0 setlinecap
newpath
0.0000000 0.0000000 moveto
5.0000000 -5.0000000 lineto
-12.500000 0.0000000 lineto
5.0000000 5.0000000 lineto
0.0000000 0.0000000 lineto
closepath
stroke
0.0000000 0.0000000 0.0000000 setrgbcolor
[] 0 setdash
1.5000000 setlinewidth
0 setlinejoin
0 setlinecap
newpath
-14.759949 -7.0000000 moveto
-14.759949 65.000000 lineto
stroke
grestore
0.0000000 0.0000000 0.0000000 setrgbcolor
[] 0 setdash
0.29987109 setlinewidth
0 setlinejoin
0 setlinecap
newpath
64.926022 32.050220 moveto
89.790765 32.050220 lineto
stroke
gsave [0.17992265 0.0000000 0.0000000 0.17992265 66.365403 32.050220] concat
0.0000000 0.0000000 0.0000000 setrgbcolor
newpath
0.0000000 0.0000000 moveto
5.0000000 -5.0000000 lineto
-12.500000 0.0000000 lineto
5.0000000 5.0000000 lineto
0.0000000 0.0000000 lineto
closepath
eofill
0.0000000 0.0000000 0.0000000 setrgbcolor
[] 0 setdash
1.2500000 setlinewidth
0 setlinejoin
0 setlinecap
newpath
0.0000000 0.0000000 moveto
5.0000000 -5.0000000 lineto
-12.500000 0.0000000 lineto
5.0000000 5.0000000 lineto
0.0000000 0.0000000 lineto
closepath
stroke
0.0000000 0.0000000 0.0000000 setrgbcolor
[] 0 setdash
1.5000000 setlinewidth
0 setlinejoin
0 setlinecap
newpath
-14.759949 -7.0000000 moveto
-14.759949 65.000000 lineto
stroke
grestore
gsave [-0.17992265 -0.0000000 0.0000000 0.17992265 88.351384 32.050220] concat
0.0000000 0.0000000 0.0000000 setrgbcolor
newpath
0.0000000 0.0000000 moveto
5.0000000 -5.0000000 lineto
-12.500000 0.0000000 lineto
5.0000000 5.0000000 lineto
0.0000000 0.0000000 lineto
closepath
eofill
0.0000000 0.0000000 0.0000000 setrgbcolor
[] 0 setdash
1.2500000 setlinewidth
0 setlinejoin
0 setlinecap
newpath
0.0000000 0.0000000 moveto
5.0000000 -5.0000000 lineto
-12.500000 0.0000000 lineto
5.0000000 5.0000000 lineto
0.0000000 0.0000000 lineto
closepath
stroke
0.0000000 0.0000000 0.0000000 setrgbcolor
[] 0 setdash
1.5000000 setlinewidth
0 setlinejoin
0 setlinecap
newpath
-14.759949 -7.0000000 moveto
-14.759949 65.000000 lineto
stroke
grestore
0.0000000 0.0000000 0.0000000 setrgbcolor
newpath
71.297440 26.934483 moveto
71.297435 27.816645 71.056550 28.446528 70.574783 28.824131 curveto
70.145093 29.162673 69.476148 29.331943 68.567947 29.331944 curveto
68.304274 29.331943 68.065017 29.286371 67.850174 29.195225 curveto
67.570225 29.071527 67.430252 28.894118 67.430252 28.662998 curveto
67.430252 28.555577 67.467687 28.466059 67.542557 28.394444 curveto
67.617426 28.319575 67.710199 28.282140 67.820877 28.282139 curveto
68.045485 28.282140 68.281488 28.391189 68.528885 28.609287 curveto
68.779534 28.827387 69.028557 28.936436 69.275955 28.936436 curveto
70.151603 28.936436 70.589428 28.322830 70.589432 27.095615 curveto
70.589428 26.760331 70.506420 26.444577 70.340408 26.148350 curveto
70.145093 25.800046 69.891187 25.625892 69.578690 25.625889 curveto
69.249911 25.625892 68.903232 25.718666 68.538651 25.904209 curveto
68.445877 25.655186 lineto
68.729078 25.577064 69.067620 25.358966 69.461502 25.000889 curveto
69.887931 24.613524 70.101147 24.291258 70.101151 24.034092 curveto
70.101147 23.734618 69.987215 23.475829 69.759354 23.257725 curveto
69.531487 23.039632 69.267815 22.930583 68.968338 22.930576 curveto
68.610264 22.930583 68.130121 23.217041 67.527908 23.789951 curveto
67.376541 23.726475 lineto
67.705316 23.225179 67.985264 22.876872 68.216385 22.681553 curveto
68.561435 22.398357 68.974846 22.256755 69.456619 22.256748 curveto
69.870028 22.256755 70.224845 22.386963 70.521072 22.647373 curveto
70.833569 22.920817 70.989818 23.260986 70.989822 23.667881 curveto
70.989818 24.016194 70.882397 24.305907 70.667557 24.537022 curveto
70.524324 24.693276 70.263908 24.872312 69.886307 25.074131 curveto
70.329012 25.103432 70.682202 25.315020 70.945877 25.708897 curveto
71.180248 26.060462 71.297435 26.468991 71.297440 26.934483 curveto
fill
0.0000000 0.0000000 0.0000000 setrgbcolor
newpath
fill
0.0000000 0.0000000 0.0000000 setrgbcolor
newpath
78.494705 28.047764 moveto
78.091056 28.907139 77.451408 29.336826 76.575760 29.336826 curveto
76.012607 29.336826 75.535720 29.110589 75.145096 28.658115 curveto
74.770747 28.225174 74.583572 27.722245 74.583572 27.149326 curveto
74.583572 26.433183 74.830968 25.842364 75.325760 25.376865 curveto
75.810785 24.921141 76.414625 24.693276 77.137283 24.693272 curveto
77.352124 24.693276 77.602775 24.760008 77.889236 24.893467 curveto
78.218009 25.039956 78.382397 25.197833 78.382401 25.367100 curveto
78.382397 25.676348 78.235912 25.830970 77.942947 25.830967 curveto
77.760652 25.830970 77.641838 25.757728 77.586502 25.611240 curveto
77.534416 25.474525 77.483960 25.337807 77.435135 25.201084 curveto
77.327710 25.051349 77.121005 24.976479 76.815018 24.976475 curveto
76.323479 24.976479 75.939365 25.199461 75.662674 25.645420 curveto
75.431553 26.023027 75.315993 26.473873 75.315994 26.997959 curveto
75.315993 27.434159 75.468988 27.841060 75.774979 28.218662 curveto
76.100498 28.619054 76.474846 28.819249 76.898026 28.819248 curveto
77.506746 28.819249 77.972241 28.544184 78.294510 27.994053 curveto
78.427970 27.990799 78.494701 28.008703 78.494705 28.047764 curveto
fill
0.0000000 0.0000000 0.0000000 setrgbcolor
newpath
87.161697 29.248936 moveto
84.998611 29.248936 lineto
84.998611 29.029209 lineto
85.441313 29.029209 85.662667 28.809483 85.662674 28.370029 curveto
85.662674 26.148350 lineto
85.662667 25.871660 85.595936 25.629148 85.462479 25.420811 curveto
85.306222 25.179929 85.096262 25.059487 84.832596 25.059483 curveto
84.428945 25.059487 83.948802 25.262937 83.392166 25.669834 curveto
83.392166 28.609287 lineto
83.392162 28.876215 83.652578 29.009678 84.173416 29.009678 curveto
84.197830 29.248936 lineto
82.039627 29.248936 lineto
82.039627 29.029209 lineto
82.479077 29.029209 82.698803 28.809483 82.698807 28.370029 curveto
82.698807 26.148350 lineto
82.698803 25.868405 82.641837 25.627520 82.527908 25.425694 curveto
82.387931 25.181557 82.187736 25.059487 81.927322 25.059483 curveto
81.517164 25.059487 81.014234 25.279213 80.418533 25.718662 curveto
80.418533 28.506748 lineto
80.418532 28.825759 80.664300 28.999913 81.155838 29.029209 curveto
81.126541 29.248936 lineto
79.061111 29.248936 lineto
79.041580 29.209873 lineto
79.070877 29.058506 lineto
79.272700 29.058506 79.435460 28.975498 79.559158 28.809483 curveto
79.673090 28.656488 79.730056 28.475824 79.730057 28.267490 curveto
79.730057 25.577061 lineto
79.730056 25.459877 79.629145 25.367104 79.427322 25.298740 curveto
79.401280 25.288979 79.248286 25.253171 78.968338 25.191319 curveto
78.968338 25.069248 lineto
79.000890 25.033445 79.041580 25.007403 79.090408 24.991123 curveto
79.347569 24.903237 79.731684 24.745359 80.242752 24.517490 curveto
80.418533 24.649326 lineto
80.418533 25.528233 lineto
81.359286 24.922768 82.008700 24.620034 82.366776 24.620029 curveto
82.584871 24.620034 82.788321 24.720945 82.977127 24.922764 curveto
83.136628 25.095294 83.252188 25.297117 83.323807 25.528233 curveto
84.264557 24.922768 84.913970 24.620034 85.272049 24.620029 curveto
85.620350 24.620034 85.898670 24.781167 86.107010 25.103428 curveto
86.289294 25.383380 86.380440 25.705645 86.380447 26.070225 curveto
86.380447 28.609287 lineto
86.380440 28.876215 86.631091 29.009678 87.132401 29.009678 curveto
87.161697 29.248936 lineto
fill
0.0000000 0.0000000 0.0000000 setrgbcolor
newpath
52.021160 76.468666 moveto
51.532879 76.927650 lineto
51.428708 76.465417 51.099933 76.234298 50.546551 76.234291 curveto
50.227538 76.234298 49.941080 76.330326 49.687176 76.522377 curveto
49.413736 76.730717 49.277018 76.991133 49.277020 77.303627 curveto
49.277020 78.460854 lineto
50.424480 78.460854 lineto
50.424480 78.831947 lineto
49.277020 78.831947 lineto
49.277020 82.064369 lineto
49.277018 82.481036 49.506510 82.689369 49.965496 82.689369 curveto
50.001301 82.689369 50.053384 82.689369 50.121746 82.689369 curveto
50.190103 82.686114 50.240559 82.684487 50.273113 82.684486 curveto
50.273113 82.904213 lineto
47.895184 82.904213 lineto
47.870770 82.762611 lineto
48.137696 82.681231 48.295574 82.627521 48.344402 82.601479 curveto
48.507162 82.513588 48.588542 82.381753 48.588543 82.205971 curveto
48.588543 78.831947 lineto
48.497396 78.841717 48.212566 78.818931 47.734051 78.763588 curveto
47.734051 78.573158 lineto
48.137696 78.573163 48.372071 78.535728 48.437176 78.460854 curveto
48.588543 78.460854 lineto
48.588543 78.314369 lineto
48.588542 77.790286 48.645508 77.412682 48.759441 77.181557 curveto
48.847331 77.009037 49.081706 76.738855 49.462566 76.371010 curveto
49.794595 76.052006 50.273111 75.892501 50.898113 75.892494 curveto
51.233396 75.892501 51.607745 76.084558 52.021160 76.468666 curveto
fill
0.0000000 0.0000000 0.0000000 setrgbcolor
newpath
55.966473 78.729408 moveto
51.913738 78.729408 lineto
51.913738 78.270424 lineto
55.966473 78.270424 lineto
55.966473 78.729408 lineto
55.966473 80.570229 moveto
51.913738 80.570229 lineto
51.913738 80.106361 lineto
55.966473 80.106361 lineto
55.966473 80.570229 lineto
fill
0.0000000 0.0000000 0.0000000 setrgbcolor
newpath
61.195965 80.697182 moveto
61.195960 81.312418 60.971351 81.852782 60.522137 82.318275 curveto
60.072914 82.780515 59.542316 83.011635 58.930340 83.011635 curveto
58.178385 83.011635 57.587565 82.674721 57.157879 82.000893 curveto
56.786785 81.418212 56.601238 80.731364 56.601238 79.940346 curveto
56.601238 78.895428 56.973959 77.996991 57.719402 77.245033 curveto
58.344400 76.616784 59.203775 76.117110 60.297527 75.746010 curveto
60.390301 75.965736 lineto
58.749673 76.545170 57.779622 77.638919 57.480145 79.246986 curveto
57.815430 78.970298 58.061198 78.789634 58.217449 78.704994 curveto
58.494140 78.548749 58.787108 78.470624 59.096355 78.470619 curveto
59.646482 78.470624 60.136391 78.704998 60.566082 79.173744 curveto
60.985999 79.632732 61.195960 80.140544 61.195965 80.697182 curveto
60.361004 80.628822 moveto
60.361000 80.163330 60.255206 79.751547 60.043621 79.393471 curveto
59.792967 78.967042 59.452798 78.753826 59.023113 78.753822 curveto
58.746418 78.753826 58.461588 78.840089 58.168621 79.012611 curveto
58.067708 79.071209 57.823568 79.248618 57.436199 79.544838 curveto
57.426433 79.658773 57.421550 79.777588 57.421551 79.901283 curveto
57.421550 81.831623 57.947265 82.796791 58.998699 82.796791 curveto
59.552082 82.796791 59.934568 82.555906 60.146160 82.074135 curveto
60.289385 81.745360 60.361000 81.263590 60.361004 80.628822 curveto
fill
0.0000000 0.0000000 0.0000000 setrgbcolor
newpath
fill
0.0000000 0.0000000 0.0000000 setrgbcolor
newpath
68.280926 81.703041 moveto
67.877276 82.562416 67.237629 82.992103 66.361980 82.992104 curveto
65.798828 82.992103 65.321940 82.765867 64.931316 82.313393 curveto
64.556967 81.880451 64.369793 81.377522 64.369793 80.804604 curveto
64.369793 80.088461 64.617188 79.497641 65.111980 79.032143 curveto
65.597005 78.576418 66.200846 78.348553 66.923504 78.348549 curveto
67.138345 78.348553 67.388996 78.415285 67.675457 78.548744 curveto
68.004229 78.695233 68.168617 78.853110 68.168621 79.022377 curveto
68.168617 79.331625 68.022133 79.486248 67.729168 79.486244 curveto
67.546873 79.486248 67.428058 79.413006 67.372723 79.266518 curveto
67.320636 79.129803 67.270181 78.993084 67.221355 78.856361 curveto
67.113931 78.706626 66.907225 78.631756 66.601238 78.631752 curveto
66.109700 78.631756 65.725586 78.854738 65.448895 79.300697 curveto
65.217774 79.678305 65.102214 80.129151 65.102215 80.653236 curveto
65.102214 81.089436 65.255209 81.496337 65.561199 81.873940 curveto
65.886718 82.274331 66.261067 82.474526 66.684246 82.474525 curveto
67.292967 82.474526 67.758461 82.199461 68.080730 81.649330 curveto
68.214190 81.646076 68.280922 81.663980 68.280926 81.703041 curveto
fill
0.0000000 0.0000000 0.0000000 setrgbcolor
newpath
76.947918 82.904213 moveto
74.784832 82.904213 lineto
74.784832 82.684486 lineto
75.227534 82.684487 75.448888 82.464760 75.448895 82.025307 curveto
75.448895 79.803627 lineto
75.448888 79.526938 75.382156 79.284425 75.248699 79.076088 curveto
75.092443 78.835207 74.882482 78.714764 74.618816 78.714760 curveto
74.215165 78.714764 73.735022 78.918214 73.178387 79.325111 curveto
73.178387 82.264565 lineto
73.178382 82.531492 73.438799 82.664955 73.959637 82.664955 curveto
73.984051 82.904213 lineto
71.825848 82.904213 lineto
71.825848 82.684486 lineto
72.265297 82.684487 72.485024 82.464760 72.485027 82.025307 curveto
72.485027 79.803627 lineto
72.485024 79.523682 72.428058 79.282797 72.314129 79.080971 curveto
72.174152 78.836834 71.973956 78.714764 71.713543 78.714760 curveto
71.303384 78.714764 70.800455 78.934490 70.204754 79.373940 curveto
70.204754 82.162025 lineto
70.204752 82.481036 70.450520 82.655190 70.942059 82.684486 curveto
70.912762 82.904213 lineto
68.847332 82.904213 lineto
68.827801 82.865150 lineto
68.857098 82.713783 lineto
69.058920 82.713783 69.221681 82.630776 69.345379 82.464760 curveto
69.459311 82.311766 69.516277 82.131102 69.516277 81.922768 curveto
69.516277 79.232338 lineto
69.516277 79.115154 69.415365 79.022381 69.213543 78.954018 curveto
69.187501 78.944256 69.034506 78.908449 68.754559 78.846596 curveto
68.754559 78.724525 lineto
68.787111 78.688722 68.827801 78.662681 68.876629 78.646400 curveto
69.133790 78.558514 69.517904 78.400637 70.028973 78.172768 curveto
70.204754 78.304604 lineto
70.204754 79.183510 lineto
71.145507 78.578045 71.794920 78.275311 72.152996 78.275307 curveto
72.371091 78.275311 72.574542 78.376223 72.763348 78.578041 curveto
72.922849 78.750571 73.038408 78.952394 73.110027 79.183510 curveto
74.050777 78.578045 74.700191 78.275311 75.058270 78.275307 curveto
75.406570 78.275311 75.684890 78.436444 75.893230 78.758705 curveto
76.075515 79.038657 76.166661 79.360922 76.166668 79.725502 curveto
76.166668 82.264565 lineto
76.166661 82.531492 76.417311 82.664955 76.918621 82.664955 curveto
76.947918 82.904213 lineto
fill
0.0000000 0.0000000 0.0000000 setrgbcolor
[1.4173229 2.8346457] 0.0000000 setdash
0.35433072 setlinewidth
0 setlinejoin
0 setlinecap
newpath
133.16848 27.525074 moveto
34.477278 60.709455 lineto
stroke
0.0000000 0.0000000 0.0000000 setrgbcolor
[] 0 setdash
0.32853961 setlinewidth
0 setlinejoin
0 setlinecap
newpath
56.241061 59.549581 moveto
56.241061 42.691342 56.241061 42.691342 56.241061 42.691342 curveto
stroke
gsave [1.2069951e-17 -0.19712377 0.19712377 1.2069951e-17 56.241061 57.972591] concat
0.0000000 0.0000000 0.0000000 setrgbcolor
newpath
0.0000000 0.0000000 moveto
5.0000000 -5.0000000 lineto
-12.500000 0.0000000 lineto
5.0000000 5.0000000 lineto
0.0000000 0.0000000 lineto
closepath
eofill
0.0000000 0.0000000 0.0000000 setrgbcolor
[] 0 setdash
1.2500000 setlinewidth
0 setlinejoin
0 setlinecap
newpath
0.0000000 0.0000000 moveto
5.0000000 -5.0000000 lineto
-12.500000 0.0000000 lineto
5.0000000 5.0000000 lineto
0.0000000 0.0000000 lineto
closepath
stroke
0.0000000 0.0000000 0.0000000 setrgbcolor
[] 0 setdash
1.5000000 setlinewidth
0 setlinejoin
0 setlinecap
newpath
-14.759949 -7.0000000 moveto
-14.759949 65.000000 lineto
stroke
grestore
gsave [-1.2069951e-17 0.19712377 0.19712377 1.2069951e-17 56.241061 44.268332] concat
0.0000000 0.0000000 0.0000000 setrgbcolor
newpath
0.0000000 0.0000000 moveto
5.0000000 -5.0000000 lineto
-12.500000 0.0000000 lineto
5.0000000 5.0000000 lineto
0.0000000 0.0000000 lineto
closepath
eofill
0.0000000 0.0000000 0.0000000 setrgbcolor
[] 0 setdash
1.2500000 setlinewidth
0 setlinejoin
0 setlinecap
newpath
0.0000000 0.0000000 moveto
5.0000000 -5.0000000 lineto
-12.500000 0.0000000 lineto
5.0000000 5.0000000 lineto
0.0000000 0.0000000 lineto
closepath
stroke
0.0000000 0.0000000 0.0000000 setrgbcolor
[] 0 setdash
1.5000000 setlinewidth
0 setlinejoin
0 setlinecap
newpath
-14.759949 -7.0000000 moveto
-14.759949 65.000000 lineto
stroke
grestore
0.0000000 0.0000000 0.0000000 setrgbcolor
newpath
36.897751 48.332642 moveto
36.897746 48.394492 36.754517 48.858359 36.468063 49.724243 curveto
32.381149 49.724243 lineto
32.288376 49.436157 lineto
34.462853 47.681602 35.550091 46.086551 35.550095 44.651001 curveto
35.550091 43.811163 35.169232 43.391242 34.407516 43.391235 curveto
33.561161 43.391242 32.916630 43.790004 32.473923 44.587524 curveto
32.259079 44.494751 lineto
32.434860 44.009731 32.734339 43.601202 33.157516 43.269165 curveto
33.603478 42.917609 34.075483 42.741828 34.573532 42.741821 curveto
35.032513 42.741828 35.418255 42.881802 35.730759 43.161743 curveto
36.056275 43.454718 36.219036 43.827439 36.219040 44.279907 curveto
36.219036 45.728479 35.237591 47.325157 33.274704 49.069946 curveto
35.945602 49.069946 lineto
36.124635 49.069947 36.295533 48.931601 36.458298 48.654907 curveto
36.621054 48.378216 36.695923 48.239870 36.682907 48.239868 curveto
36.708944 48.239870 36.746379 48.254518 36.795212 48.283813 curveto
36.844035 48.309857 36.878215 48.326133 36.897751 48.332642 curveto
fill
0.0000000 0.0000000 0.0000000 setrgbcolor
newpath
fill
0.0000000 0.0000000 0.0000000 setrgbcolor
newpath
44.280563 48.523071 moveto
43.876914 49.382447 43.237266 49.812134 42.361618 49.812134 curveto
41.798466 49.812134 41.321578 49.585897 40.930954 49.133423 curveto
40.556605 48.700481 40.369430 48.197552 40.369431 47.624634 curveto
40.369430 46.908491 40.616826 46.317671 41.111618 45.852173 curveto
41.596643 45.396448 42.200483 45.168584 42.923141 45.168579 curveto
43.137982 45.168584 43.388633 45.235315 43.675095 45.368774 curveto
44.003867 45.515263 44.168255 45.673140 44.168259 45.842407 curveto
44.168255 46.151656 44.021771 46.306278 43.728806 46.306274 curveto
43.546511 46.306278 43.427696 46.233036 43.372360 46.086548 curveto
43.320274 45.949833 43.269818 45.813114 43.220993 45.676392 curveto
43.113568 45.526656 42.906863 45.451786 42.600876 45.451782 curveto
42.109338 45.451786 41.725223 45.674768 41.448532 46.120728 curveto
41.217411 46.498335 41.101852 46.949181 41.101852 47.473267 curveto
41.101852 47.909466 41.254846 48.316367 41.560837 48.693970 curveto
41.886356 49.094361 42.260705 49.294556 42.683884 49.294556 curveto
43.292605 49.294556 43.758099 49.019491 44.080368 48.469360 curveto
44.213828 48.466106 44.280559 48.484010 44.280563 48.523071 curveto
fill
0.0000000 0.0000000 0.0000000 setrgbcolor
newpath
52.947556 49.724243 moveto
50.784470 49.724243 lineto
50.784470 49.504517 lineto
51.227172 49.504517 51.448525 49.284790 51.448532 48.845337 curveto
51.448532 46.623657 lineto
51.448525 46.346968 51.381794 46.104455 51.248337 45.896118 curveto
51.092080 45.655237 50.882120 45.534794 50.618454 45.534790 curveto
50.214803 45.534794 49.734660 45.738245 49.178024 46.145142 curveto
49.178024 49.084595 lineto
49.178020 49.351522 49.438436 49.484986 49.959274 49.484985 curveto
49.983688 49.724243 lineto
47.825485 49.724243 lineto
47.825485 49.504517 lineto
48.264935 49.504517 48.484661 49.284790 48.484665 48.845337 curveto
48.484665 46.623657 lineto
48.484661 46.343713 48.427695 46.102828 48.313766 45.901001 curveto
48.173789 45.656864 47.973594 45.534794 47.713181 45.534790 curveto
47.303022 45.534794 46.800093 45.754521 46.204391 46.193970 curveto
46.204391 48.982056 lineto
46.204390 49.301067 46.450158 49.475220 46.941696 49.504517 curveto
46.912399 49.724243 lineto
44.846970 49.724243 lineto
44.827438 49.685181 lineto
44.856735 49.533813 lineto
45.058558 49.533814 45.221318 49.450806 45.345016 49.284790 curveto
45.458948 49.131796 45.515914 48.951132 45.515915 48.742798 curveto
45.515915 46.052368 lineto
45.515914 45.935184 45.415003 45.842411 45.213181 45.774048 curveto
45.187138 45.764286 45.034144 45.728479 44.754196 45.666626 curveto
44.754196 45.544556 lineto
44.786748 45.508753 44.827438 45.482711 44.876266 45.466431 curveto
45.133428 45.378544 45.517542 45.220667 46.028610 44.992798 curveto
46.204391 45.124634 lineto
46.204391 46.003540 lineto
47.145144 45.398076 47.794558 45.095342 48.152634 45.095337 curveto
48.370729 45.095342 48.574179 45.196253 48.762985 45.398071 curveto
48.922486 45.570601 49.038046 45.772424 49.109665 46.003540 curveto
50.050415 45.398076 50.699828 45.095342 51.057907 45.095337 curveto
51.406208 45.095342 51.684528 45.256474 51.892868 45.578735 curveto
52.075152 45.858687 52.166298 46.180952 52.166306 46.545532 curveto
52.166306 49.084595 lineto
52.166298 49.351522 52.416949 49.484986 52.918259 49.484985 curveto
52.947556 49.724243 lineto
fill
grestore
showpage
