%!PS-Adobe-2.0 EPSF-2.0
%%Title: Demorefractiononde.fig
%%Creator: fig2dev Version 3.2 Patchlevel 5-alpha5
%%CreationDate: Fri Aug  5 00:52:40 2005
%%For: guyotv@debian ()
%%BoundingBox: 0 0 166 129
%Magnification: 1.0000
%%EndComments
/$F2psDict 200 dict def
$F2psDict begin
$F2psDict /mtrx matrix put
/col-1 {0 setgray} bind def
/col0 {0.000 0.000 0.000 srgb} bind def
/col1 {0.000 0.000 1.000 srgb} bind def
/col2 {0.000 1.000 0.000 srgb} bind def
/col3 {0.000 1.000 1.000 srgb} bind def
/col4 {1.000 0.000 0.000 srgb} bind def
/col5 {1.000 0.000 1.000 srgb} bind def
/col6 {1.000 1.000 0.000 srgb} bind def
/col7 {1.000 1.000 1.000 srgb} bind def
/col8 {0.000 0.000 0.560 srgb} bind def
/col9 {0.000 0.000 0.690 srgb} bind def
/col10 {0.000 0.000 0.820 srgb} bind def
/col11 {0.530 0.810 1.000 srgb} bind def
/col12 {0.000 0.560 0.000 srgb} bind def
/col13 {0.000 0.690 0.000 srgb} bind def
/col14 {0.000 0.820 0.000 srgb} bind def
/col15 {0.000 0.560 0.560 srgb} bind def
/col16 {0.000 0.690 0.690 srgb} bind def
/col17 {0.000 0.820 0.820 srgb} bind def
/col18 {0.560 0.000 0.000 srgb} bind def
/col19 {0.690 0.000 0.000 srgb} bind def
/col20 {0.820 0.000 0.000 srgb} bind def
/col21 {0.560 0.000 0.560 srgb} bind def
/col22 {0.690 0.000 0.690 srgb} bind def
/col23 {0.820 0.000 0.820 srgb} bind def
/col24 {0.500 0.190 0.000 srgb} bind def
/col25 {0.630 0.250 0.000 srgb} bind def
/col26 {0.750 0.380 0.000 srgb} bind def
/col27 {1.000 0.500 0.500 srgb} bind def
/col28 {1.000 0.630 0.630 srgb} bind def
/col29 {1.000 0.750 0.750 srgb} bind def
/col30 {1.000 0.880 0.880 srgb} bind def
/col31 {1.000 0.840 0.000 srgb} bind def

end
save
newpath 0 129 moveto 0 0 lineto 166 0 lineto 166 129 lineto closepath clip newpath
-3.4 127.9 translate
1 -1 scale

/cp {closepath} bind def
/ef {eofill} bind def
/gr {grestore} bind def
/gs {gsave} bind def
/sa {save} bind def
/rs {restore} bind def
/l {lineto} bind def
/m {moveto} bind def
/rm {rmoveto} bind def
/n {newpath} bind def
/s {stroke} bind def
/sh {show} bind def
/slc {setlinecap} bind def
/slj {setlinejoin} bind def
/slw {setlinewidth} bind def
/srgb {setrgbcolor} bind def
/rot {rotate} bind def
/sc {scale} bind def
/sd {setdash} bind def
/ff {findfont} bind def
/sf {setfont} bind def
/scf {scalefont} bind def
/sw {stringwidth} bind def
/tr {translate} bind def
/tnt {dup dup currentrgbcolor
  4 -2 roll dup 1 exch sub 3 -1 roll mul add
  4 -2 roll dup 1 exch sub 3 -1 roll mul add
  4 -2 roll dup 1 exch sub 3 -1 roll mul add srgb}
  bind def
/shd {dup dup currentrgbcolor 4 -2 roll mul 4 -2 roll mul
  4 -2 roll mul srgb} bind def
/$F2psBegin {$F2psDict begin /$F2psEnteredState save def} def
/$F2psEnd {$F2psEnteredState restore end} def

$F2psBegin
10 setmiterlimit
0 slj 0 slc
 0.06299 0.06299 sc
%
% Fig objects follow
%
% 
% here starts figure with depth 57
% Polyline
0 slj
0 slc
7.500 slw
n 66 1024 m 2606 1024 l 2606 2018 l 66 2018 l
 cp gs col7 0.90 shd ef gr gs col7 s gr 
% here ends figure;
% 
% here starts figure with depth 50
% Arc
7.500 slw
0 slc
n 1208.1 1047.9 95.0 -172.2125 127.7149 arcn
gs col0 s gr

% Arc
n 249.6 1012.1 105.1 -60.0912 6.5170 arc
gs col0 s gr

% Arc
n 1329.0 990.6 98.6 -166.7636 -66.7055 arc
gs col0 s gr

% Arc
n 1403.6 1180.1 286.9 98.3356 56.0069 arcn
gs col0 s gr

% Arc
n 252.5 947.1 546.8 8.7154 109.0528 arc
gs col0 s gr

% Polyline
0 slj
n 66 1030 m
 2601 1030 l gs col0 s gr 
% Polyline
 [30] 0 sd
n 1370 714 m
 1370 1599 l gs col0 s gr  [] 0 sd
% Polyline
n 460 0 m 230 500 l
 77 823 l gs col0 s gr 
% Polyline
n 739 0 m 451 602 l
 253 1024 l gs col0 s gr 
% Polyline
n 1023 0 m 679 709 l
 537 1030 l gs col0 s gr 
% Polyline
n 1272 0 m 899 811 l
 799 1024 l gs col0 s gr 
% Polyline
n 1551 0 m 1127 917 l
 1075 1030 l gs col0 s gr 
% Polyline
n 1835 -3 m 1411 914 l
 1359 1027 l gs col0 s gr 
% Polyline
n 2116 -2 m 1692 915 l
 1640 1028 l gs col0 s gr 
% Polyline
n 2397 7 m 1973 924 l
 1921 1037 l gs col0 s gr 
% Polyline
n 2671 12 m 2247 929 l
 2195 1042 l gs col0 s gr 
% Polyline
n 2208 1030 m 1529 1345 l
 227 1981 l gs col0 s gr 
% Polyline
n 1916 1035 m 1237 1350 l
 519 1702 l gs col0 s gr 
% Polyline
n 1631 1034 m 952 1349 l
 119 1759 l gs col0 s gr 
% Polyline
n 1363 1032 m 684 1347 l
 137 1614 l gs col0 s gr 
% Polyline
n 1078 1032 m 399 1347 l
 137 1480 l gs col0 s gr 
% Polyline
n 804 1032 m 125 1347 l
 111 1350 l gs col0 s gr 
% Polyline
n 539 1032 m 157 1206 l
 90 1226 l gs col0 s gr 
% Polyline
n 245 1034 m 105 1097 l
 95 1102 l gs col0 s gr 
% Polyline
gs  clippath
1773 1878 m 1821 1973 l 1861 1953 l 1813 1858 l 1813 1858 l 1824 1929 l 1773 1878 l cp
eoclip
n 113 445 m 1370 1030 l
 1835 1950 l gs col0 s gr gr

% arrowhead
n 1773 1878 m 1824 1929 l 1813 1858 l 1783 1848 l 1773 1878 l 
 cp gs 0.00 setgray ef gr  col0 s
% Polyline
n 255 1030 m 483 1443 l
 488 1443 l gs col0 s gr 
% Polyline
gs  clippath
697 537 m 764 569 l 777 541 l 710 510 l 710 510 l 738 540 l 697 537 l cp
589 451 m 522 419 l 509 447 l 576 478 l 576 478 l 549 449 l 589 451 l cp
eoclip
n 530 440 m
 757 549 l gs col0 s gr gr

% arrowhead
n 589 451 m 549 449 l 576 478 l 576 461 l 589 451 l 
 cp gs 0.00 setgray ef gr  col0 s
% arrowhead
n 697 537 m 738 540 l 710 510 l 710 527 l 697 537 l 
 cp gs 0.00 setgray ef gr  col0 s
% Polyline
gs  clippath
531 1652 m 562 1697 l 575 1689 l 545 1643 l 544 1644 l 549 1664 l 532 1652 l cp
522 1606 m 491 1561 l 478 1569 l 508 1615 l 509 1614 l 505 1595 l 521 1606 l cp
eoclip
n 493 1578 m
 561 1681 l gs col0 s gr gr

% arrowhead
n 521 1606 m 505 1595 l 509 1614 l 513 1607 l 521 1606 l 
 cp gs 0.00 setgray ef gr  col0 s
% arrowhead
n 532 1652 m 549 1664 l 544 1644 l 540 1651 l 532 1652 l 
 cp gs 0.00 setgray ef gr  col0 s
/Symbol ff 158.75 scf sf
623 404 m
gs 1 -1 sc (l) col0 sh gr
/Times-Roman ff 127.00 scf sf
716 456 m
gs 1 -1 sc (1) col0 sh gr
/Symbol ff 158.75 scf sf
318 1806 m
gs 1 -1 sc (l) col0 sh gr
/Times-Roman ff 127.00 scf sf
422 1832 m
gs 1 -1 sc (2) col0 sh gr
/Symbol ff 158.75 scf sf
359 957 m
gs 1 -1 sc (a) col0 sh gr
/Symbol ff 158.75 scf sf
1218 859 m
gs 1 -1 sc (a) col0 sh gr
/Symbol ff 158.75 scf sf
1466 1634 m
gs 1 -1 sc (b) col0 sh gr
/Symbol ff 158.75 scf sf
1000 1220 m
gs 1 -1 sc (b) col0 sh gr
/Times-Roman ff 127.00 scf sf
157 999 m
gs 1 -1 sc (A) col0 sh gr
/Times-Roman ff 127.00 scf sf
477 1547 m
gs 1 -1 sc (B) col0 sh gr
/Times-Roman ff 127.00 scf sf
1424 1014 m
gs 1 -1 sc (C) col0 sh gr
/Times-Roman ff 127.00 scf sf
385 554 m
gs 1 -1 sc (D) col0 sh gr
/Times-Roman ff 158.75 scf sf
2257 1837 m
gs 1 -1 sc (n) col0 sh gr
/Times-Roman ff 158.75 scf sf
105 208 m
gs 1 -1 sc (n) col0 sh gr
/Times-Roman ff 127.00 scf sf
193 254 m
gs 1 -1 sc (1) col0 sh gr
/Times-Roman ff 127.00 scf sf
2356 1894 m
gs 1 -1 sc (2) col0 sh gr
% here ends figure;
$F2psEnd
rs
showpage
%%Trailer
%EOF
