%!PS-Adobe-2.0 EPSF-2.0
%%Title: Demoreflexiononde.fig
%%Creator: fig2dev Version 3.2 Patchlevel 5-alpha5
%%CreationDate: Thu Aug  4 10:13:56 2005
%%For: guyotv@debian ()
%%BoundingBox: 0 0 164 113
%Magnification: 1.0000
%%EndComments
/$F2psDict 200 dict def
$F2psDict begin
$F2psDict /mtrx matrix put
/col-1 {0 setgray} bind def
/col0 {0.000 0.000 0.000 srgb} bind def
/col1 {0.000 0.000 1.000 srgb} bind def
/col2 {0.000 1.000 0.000 srgb} bind def
/col3 {0.000 1.000 1.000 srgb} bind def
/col4 {1.000 0.000 0.000 srgb} bind def
/col5 {1.000 0.000 1.000 srgb} bind def
/col6 {1.000 1.000 0.000 srgb} bind def
/col7 {1.000 1.000 1.000 srgb} bind def
/col8 {0.000 0.000 0.560 srgb} bind def
/col9 {0.000 0.000 0.690 srgb} bind def
/col10 {0.000 0.000 0.820 srgb} bind def
/col11 {0.530 0.810 1.000 srgb} bind def
/col12 {0.000 0.560 0.000 srgb} bind def
/col13 {0.000 0.690 0.000 srgb} bind def
/col14 {0.000 0.820 0.000 srgb} bind def
/col15 {0.000 0.560 0.560 srgb} bind def
/col16 {0.000 0.690 0.690 srgb} bind def
/col17 {0.000 0.820 0.820 srgb} bind def
/col18 {0.560 0.000 0.000 srgb} bind def
/col19 {0.690 0.000 0.000 srgb} bind def
/col20 {0.820 0.000 0.000 srgb} bind def
/col21 {0.560 0.000 0.560 srgb} bind def
/col22 {0.690 0.000 0.690 srgb} bind def
/col23 {0.820 0.000 0.820 srgb} bind def
/col24 {0.500 0.190 0.000 srgb} bind def
/col25 {0.630 0.250 0.000 srgb} bind def
/col26 {0.750 0.380 0.000 srgb} bind def
/col27 {1.000 0.500 0.500 srgb} bind def
/col28 {1.000 0.630 0.630 srgb} bind def
/col29 {1.000 0.750 0.750 srgb} bind def
/col30 {1.000 0.880 0.880 srgb} bind def
/col31 {1.000 0.840 0.000 srgb} bind def

end
save
newpath 0 113 moveto 0 0 lineto 164 0 lineto 164 113 lineto closepath clip newpath
0.8 94.3 translate
1 -1 scale

/cp {closepath} bind def
/ef {eofill} bind def
/gr {grestore} bind def
/gs {gsave} bind def
/sa {save} bind def
/rs {restore} bind def
/l {lineto} bind def
/m {moveto} bind def
/rm {rmoveto} bind def
/n {newpath} bind def
/s {stroke} bind def
/sh {show} bind def
/slc {setlinecap} bind def
/slj {setlinejoin} bind def
/slw {setlinewidth} bind def
/srgb {setrgbcolor} bind def
/rot {rotate} bind def
/sc {scale} bind def
/sd {setdash} bind def
/ff {findfont} bind def
/sf {setfont} bind def
/scf {scalefont} bind def
/sw {stringwidth} bind def
/tr {translate} bind def
/tnt {dup dup currentrgbcolor
  4 -2 roll dup 1 exch sub 3 -1 roll mul add
  4 -2 roll dup 1 exch sub 3 -1 roll mul add
  4 -2 roll dup 1 exch sub 3 -1 roll mul add srgb}
  bind def
/shd {dup dup currentrgbcolor 4 -2 roll mul 4 -2 roll mul
  4 -2 roll mul srgb} bind def
/$F2psBegin {$F2psDict begin /$F2psEnteredState save def} def
/$F2psEnd {$F2psEnteredState restore end} def

$F2psBegin
10 setmiterlimit
0 slj 0 slc
 0.06299 0.06299 sc
%
% Fig objects follow
%
% 
% here starts figure with depth 56
% Polyline
0 slj
0 slc
7.500 slw
n 0 405 m 540 1215 l 1935 1215 l 945 -270 l
 cp gs col7 0.90 shd ef gr gs col7 s gr 
% Polyline
30.000 slw
n 244 422 m
 1352 1228 l gs col0 s gr 
% here ends figure;
% 
% here starts figure with depth 52
% Polyline
0 slj
0 slc
7.500 slw
n 45 1215 m 2565 1215 l 2565 1485 l 45 1485 l
 cp gs col7 0.60 shd ef gr gs col7 s gr 
% here ends figure;
% 
% here starts figure with depth 50
% Arc
7.500 slw
0 slc
n 535.0 1217.0 487.0 179.9999 0.0001 arc
gs col0 s gr

% Polyline
0 slj
n 1749 952 m 1564 1081 l
 1350 1217 l gs col0 s gr 
% Polyline
 [60] 0 sd
n 1704 1357 m
 1704 367 l gs col0 s gr  [] 0 sd
% Polyline
n 1479 547 m 1294 676 l
 534 1222 l gs col0 s gr 
% Polyline
30.000 slw
n 1833 643 m 2018 771 l
 2203 899 l gs col0 s gr 
% Polyline
7.500 slw
gs  clippath
351 390 m 432 283 l 384 247 l 303 354 l 303 354 l 384 297 l 351 390 l cp
eoclip
n 264 457 m
 399 277 l gs col0 s gr gr

% arrowhead
n 351 390 m 384 297 l 303 354 l 339 357 l 351 390 l 
 cp gs col7 1.00 shd ef gr  col0 s
% Polyline
gs  clippath
2380 302 m 2457 191 l 2407 157 l 2330 267 l 2330 267 l 2409 208 l 2380 302 l cp
eoclip
n 894 52 m 1704 1222 l
 2424 187 l gs col0 s gr gr

% arrowhead
n 2380 302 m 2409 208 l 2330 267 l 2366 269 l 2380 302 l 
 cp gs col7 1.00 shd ef gr  col0 s
% Polyline
gs  clippath
2016 615 m 2097 508 l 2049 472 l 1968 579 l 1968 579 l 2049 522 l 2016 615 l cp
eoclip
n 1929 682 m
 2064 502 l gs col0 s gr gr

% arrowhead
n 2016 615 m 2049 522 l 1968 579 l 2004 582 l 2016 615 l 
 cp gs col7 1.00 shd ef gr  col0 s
% Polyline
gs  clippath
2196 750 m 2277 643 l 2229 607 l 2148 714 l 2148 714 l 2229 657 l 2196 750 l cp
eoclip
n 2109 817 m
 2244 637 l gs col0 s gr gr

% arrowhead
n 2196 750 m 2229 657 l 2148 714 l 2184 717 l 2196 750 l 
 cp gs col7 1.00 shd ef gr  col0 s
% Polyline
gs  clippath
531 480 m 612 373 l 564 337 l 483 444 l 483 444 l 564 387 l 531 480 l cp
eoclip
n 444 547 m
 579 367 l gs col0 s gr gr

% arrowhead
n 531 480 m 564 387 l 483 444 l 519 447 l 531 480 l 
 cp gs col7 1.00 shd ef gr  col0 s
% Polyline
n 1212 146 m 1027 275 l
 273 814 l gs col0 s gr 
% Polyline
n 39 1215 m
 2565 1215 l gs col0 s gr 
% Polyline
 [30] 0 sd
n 1350 1215 m
 1065 839 l gs col0 s gr  [] 0 sd
% Polyline
 [30] 0 sd
n 540 1215 m
 810 855 l gs col0 s gr  [] 0 sd
/Times-Roman ff 127.00 scf sf
495 1350 m
gs 1 -1 sc (A) col0 sh gr
/Times-Roman ff 127.00 scf sf
1305 1350 m
gs 1 -1 sc (D) col0 sh gr
/Times-Roman ff 127.00 scf sf
986 818 m
gs 1 -1 sc (C) col0 sh gr
/Times-Roman ff 127.00 scf sf
630 900 m
gs 1 -1 sc (B) col0 sh gr
% here ends figure;
$F2psEnd
rs
showpage
%%Trailer
%EOF
