%!PS-Adobe-2.0
%%Creator: inkscape 0.41.1
%%Pages: 1
%%Orientation: Portrait
%%BoundingBox: 23 765 149 824
%%HiResBoundingBox: 23.704898 765.85752 148.40556 823.76301
%%EndComments
%%Page: 1 1
0 842 translate
0.80000000 -0.80000000 scale
gsave [1.0000000 0.0000000 0.0000000 1.0000000 0.0000000 0.0000000] concat
0.0000000 0.0000000 0.0000000 setrgbcolor
[1.4173229 2.8346457] 0.0000000 setdash
0.35433072 setlinewidth
0 setlinejoin
0 setlinecap
newpath
29.808288 60.912589 moveto
185.32979 60.912589 185.32979 60.912589 185.32979 60.912589 curveto
stroke
0.0000000 0.0000000 0.0000000 setrgbcolor
[] 0 setdash
0.35433072 setlinewidth
0 setlinejoin
0 setlinecap
newpath
91.364788 25.154761 moveto
91.364788 94.109319 91.364788 94.540285 91.364788 94.540285 curveto
stroke
gsave [2.3865361e-17 0.38976379 -0.38976379 2.3865361e-17 91.364788 23.205942] concat
0.0000000 0.0000000 0.0000000 setrgbcolor
newpath
8.7185878 4.0337352 moveto
-2.2072895 0.016013256 lineto
8.7185884 -4.0017078 lineto
6.9730900 -1.6296469 6.9831476 1.6157441 8.7185878 4.0337352 curveto
closepath
eofill
grestore
gsave [-2.3865361e-17 -0.38976379 0.38976379 -2.3865361e-17 91.364788 96.489104] concat
0.0000000 0.0000000 0.0000000 setrgbcolor
newpath
8.7185878 4.0337352 moveto
-2.2072895 0.016013256 lineto
8.7185884 -4.0017078 lineto
6.9730900 -1.6296469 6.9831476 1.6157441 8.7185878 4.0337352 curveto
closepath
eofill
grestore
0.0000000 0.0000000 0.0000000 setrgbcolor
[] 0 setdash
0.35433072 setlinewidth
0 setlinejoin
0 setlinecap
newpath
43.096598 41.100503 moveto
43.096598 60.709455 43.096598 60.709455 43.096598 60.709455 curveto
stroke
0.0000000 0.0000000 0.0000000 setrgbcolor
[] 0 setdash
1.0000000 setlinewidth
0 setlinejoin
0 setlinecap
newpath
42.881115 41.315986 moveto
168.50770 91.954489 lineto
stroke
gsave [-0.27824579 -0.11215739 0.11215739 -0.27824579 169.89893 92.515276] concat
0.0000000 0.0000000 0.0000000 setrgbcolor
newpath
8.7185878 4.0337352 moveto
-2.2072895 0.016013256 lineto
8.7185884 -4.0017078 lineto
6.9730900 -1.6296469 6.9831476 1.6157441 8.7185878 4.0337352 curveto
closepath
eofill
grestore
0.0000000 0.0000000 0.0000000 setrgbcolor
[] 0 setdash
1.0000000 setlinewidth
0 setlinejoin
0 setlinecap
newpath
42.881115 41.315986 moveto
91.149305 41.315986 lineto
161.82773 94.540285 lineto
stroke
gsave [-0.23964884 -0.18046726 0.18046726 -0.23964884 163.02597 95.442621] concat
0.0000000 0.0000000 0.0000000 setrgbcolor
newpath
8.7185878 4.0337352 moveto
-2.2072895 0.016013256 lineto
8.7185884 -4.0017078 lineto
6.9730900 -1.6296469 6.9831476 1.6157441 8.7185878 4.0337352 curveto
closepath
eofill
grestore
0.0000000 0.0000000 0.0000000 setrgbcolor
[] 0 setdash
0.35433072 setlinewidth
0 setlinejoin
0 setlinecap
newpath
146.74392 83.119686 moveto
146.74392 60.924938 lineto
stroke
0.0000000 0.0000000 0.0000000 setrgbcolor
[] 0 setdash
0.33349445 setlinewidth
0 setlinejoin
0 setlinecap
newpath
92.637462 55.106897 moveto
115.73459 55.106897 lineto
stroke
gsave [0.20009667 0.0000000 0.0000000 0.20009667 94.238235 55.106897] concat
0.0000000 0.0000000 0.0000000 setrgbcolor
newpath
0.0000000 0.0000000 moveto
5.0000000 -5.0000000 lineto
-12.500000 0.0000000 lineto
5.0000000 5.0000000 lineto
0.0000000 0.0000000 lineto
closepath
eofill
0.0000000 0.0000000 0.0000000 setrgbcolor
[] 0 setdash
1.2500000 setlinewidth
0 setlinejoin
0 setlinecap
newpath
0.0000000 0.0000000 moveto
5.0000000 -5.0000000 lineto
-12.500000 0.0000000 lineto
5.0000000 5.0000000 lineto
0.0000000 0.0000000 lineto
closepath
stroke
0.0000000 0.0000000 0.0000000 setrgbcolor
[] 0 setdash
1.5000000 setlinewidth
0 setlinejoin
0 setlinecap
newpath
-14.759949 -7.0000000 moveto
-14.759949 65.000000 lineto
stroke
grestore
gsave [-0.20009667 -0.0000000 0.0000000 0.20009667 114.13382 55.106897] concat
0.0000000 0.0000000 0.0000000 setrgbcolor
newpath
0.0000000 0.0000000 moveto
5.0000000 -5.0000000 lineto
-12.500000 0.0000000 lineto
5.0000000 5.0000000 lineto
0.0000000 0.0000000 lineto
closepath
eofill
0.0000000 0.0000000 0.0000000 setrgbcolor
[] 0 setdash
1.2500000 setlinewidth
0 setlinejoin
0 setlinecap
newpath
0.0000000 0.0000000 moveto
5.0000000 -5.0000000 lineto
-12.500000 0.0000000 lineto
5.0000000 5.0000000 lineto
0.0000000 0.0000000 lineto
closepath
stroke
0.0000000 0.0000000 0.0000000 setrgbcolor
[] 0 setdash
1.5000000 setlinewidth
0 setlinejoin
0 setlinecap
newpath
-14.759949 -7.0000000 moveto
-14.759949 65.000000 lineto
stroke
grestore
0.0000000 0.0000000 0.0000000 setrgbcolor
[] 0 setdash
0.40314037 setlinewidth
0 setlinejoin
0 setlinecap
newpath
44.760986 32.050220 moveto
89.700400 32.050220 lineto
stroke
gsave [0.24188422 0.0000000 0.0000000 0.24188422 46.696060 32.050220] concat
0.0000000 0.0000000 0.0000000 setrgbcolor
newpath
0.0000000 0.0000000 moveto
5.0000000 -5.0000000 lineto
-12.500000 0.0000000 lineto
5.0000000 5.0000000 lineto
0.0000000 0.0000000 lineto
closepath
eofill
0.0000000 0.0000000 0.0000000 setrgbcolor
[] 0 setdash
1.2500000 setlinewidth
0 setlinejoin
0 setlinecap
newpath
0.0000000 0.0000000 moveto
5.0000000 -5.0000000 lineto
-12.500000 0.0000000 lineto
5.0000000 5.0000000 lineto
0.0000000 0.0000000 lineto
closepath
stroke
0.0000000 0.0000000 0.0000000 setrgbcolor
[] 0 setdash
1.5000000 setlinewidth
0 setlinejoin
0 setlinecap
newpath
-14.759949 -7.0000000 moveto
-14.759949 65.000000 lineto
stroke
grestore
gsave [-0.24188422 -0.0000000 0.0000000 0.24188422 87.765326 32.050220] concat
0.0000000 0.0000000 0.0000000 setrgbcolor
newpath
0.0000000 0.0000000 moveto
5.0000000 -5.0000000 lineto
-12.500000 0.0000000 lineto
5.0000000 5.0000000 lineto
0.0000000 0.0000000 lineto
closepath
eofill
0.0000000 0.0000000 0.0000000 setrgbcolor
[] 0 setdash
1.2500000 setlinewidth
0 setlinejoin
0 setlinecap
newpath
0.0000000 0.0000000 moveto
5.0000000 -5.0000000 lineto
-12.500000 0.0000000 lineto
5.0000000 5.0000000 lineto
0.0000000 0.0000000 lineto
closepath
stroke
0.0000000 0.0000000 0.0000000 setrgbcolor
[] 0 setdash
1.5000000 setlinewidth
0 setlinejoin
0 setlinecap
newpath
-14.759949 -7.0000000 moveto
-14.759949 65.000000 lineto
stroke
grestore
0.0000000 0.0000000 0.0000000 setrgbcolor
newpath
61.519611 29.675020 moveto
58.672932 29.675020 lineto
58.672932 29.504122 lineto
59.363034 29.504122 59.708086 29.225802 59.708088 28.669161 curveto
59.708088 23.512911 lineto
59.532305 23.617084 59.358152 23.721250 59.185627 23.825411 curveto
58.977293 23.942604 58.793374 24.022357 58.633869 24.064669 curveto
58.541096 23.849825 lineto
59.195391 23.524310 59.756914 23.127175 60.225666 22.658419 curveto
60.518635 22.658419 lineto
60.518635 28.669161 lineto
60.518632 29.004448 60.604895 29.232312 60.777424 29.352755 curveto
60.917395 29.453666 61.164790 29.504122 61.519611 29.504122 curveto
61.519611 29.675020 lineto
fill
0.0000000 0.0000000 0.0000000 setrgbcolor
newpath
fill
0.0000000 0.0000000 0.0000000 setrgbcolor
newpath
73.345783 29.679903 moveto
71.182697 29.679903 lineto
71.182697 29.460176 lineto
71.625399 29.460177 71.846753 29.240450 71.846760 28.800997 curveto
71.846760 26.579317 lineto
71.846753 26.302628 71.780021 26.060115 71.646564 25.851778 curveto
71.490308 25.610897 71.280347 25.490454 71.016682 25.490450 curveto
70.613030 25.490454 70.132888 25.693904 69.576252 26.100801 curveto
69.576252 29.040255 lineto
69.576248 29.307182 69.836664 29.440645 70.357502 29.440645 curveto
70.381916 29.679903 lineto
68.223713 29.679903 lineto
68.223713 29.460176 lineto
68.663163 29.460177 68.882889 29.240450 68.882893 28.800997 curveto
68.882893 26.579317 lineto
68.882889 26.299373 68.825923 26.058487 68.711994 25.856661 curveto
68.572017 25.612524 68.371822 25.490454 68.111408 25.490450 curveto
67.701249 25.490454 67.198320 25.710180 66.602619 26.149630 curveto
66.602619 28.937716 lineto
66.602618 29.256726 66.848386 29.430880 67.339924 29.460176 curveto
67.310627 29.679903 lineto
65.245197 29.679903 lineto
65.225666 29.640841 lineto
65.254963 29.489473 lineto
65.456786 29.489474 65.619546 29.406466 65.743244 29.240450 curveto
65.857176 29.087456 65.914142 28.906792 65.914143 28.698458 curveto
65.914143 26.008028 lineto
65.914142 25.890844 65.813231 25.798071 65.611408 25.729708 curveto
65.585366 25.719946 65.432372 25.684139 65.152424 25.622286 curveto
65.152424 25.500216 lineto
65.184976 25.464412 65.225666 25.438371 65.274494 25.422091 curveto
65.531655 25.334204 65.915769 25.176327 66.426838 24.948458 curveto
66.602619 25.080294 lineto
66.602619 25.959200 lineto
67.543372 25.353735 68.192785 25.051001 68.550861 25.050997 curveto
68.768957 25.051001 68.972407 25.151913 69.161213 25.353731 curveto
69.320714 25.526261 69.436274 25.728084 69.507893 25.959200 curveto
70.448643 25.353735 71.098056 25.051001 71.456135 25.050997 curveto
71.804435 25.051001 72.082756 25.212134 72.291096 25.534395 curveto
72.473380 25.814347 72.564526 26.136612 72.564533 26.501192 curveto
72.564533 29.040255 lineto
72.564526 29.307182 72.815177 29.440645 73.316486 29.440645 curveto
73.345783 29.679903 lineto
fill
0.0000000 0.0000000 0.0000000 setrgbcolor
newpath
108.04674 57.506157 moveto
107.55846 57.965141 lineto
107.45429 57.502908 107.12551 57.271789 106.57213 57.271782 curveto
106.25312 57.271789 105.96666 57.367817 105.71275 57.559868 curveto
105.43931 57.768207 105.30260 58.028624 105.30260 58.341118 curveto
105.30260 59.498344 lineto
106.45006 59.498344 lineto
106.45006 59.869438 lineto
105.30260 59.869438 lineto
105.30260 63.101860 lineto
105.30260 63.518527 105.53209 63.726860 105.99107 63.726860 curveto
106.02688 63.726860 106.07896 63.726860 106.14732 63.726860 curveto
106.21568 63.723605 106.26614 63.721977 106.29869 63.721977 curveto
106.29869 63.941704 lineto
103.92076 63.941704 lineto
103.89635 63.800102 lineto
104.16327 63.718722 104.32115 63.665011 104.36998 63.638969 curveto
104.53274 63.551079 104.61412 63.419243 104.61412 63.243462 curveto
104.61412 59.869438 lineto
104.52297 59.879208 104.23814 59.856421 103.75963 59.801079 curveto
103.75963 59.610649 lineto
104.16327 59.610653 104.39765 59.573219 104.46275 59.498344 curveto
104.61412 59.498344 lineto
104.61412 59.351860 lineto
104.61412 58.827777 104.67109 58.450173 104.78502 58.219048 curveto
104.87291 58.046527 105.10728 57.776345 105.48814 57.408501 curveto
105.82017 57.089497 106.29869 56.929992 106.92369 56.929985 curveto
107.25897 56.929992 107.63332 57.122049 108.04674 57.506157 curveto
fill
0.0000000 0.0000000 0.0000000 setrgbcolor
newpath
47.723053 57.966309 moveto
44.876373 57.966309 lineto
44.876373 57.795410 lineto
45.566476 57.795410 45.911528 57.517090 45.911530 56.960449 curveto
45.911530 51.804199 lineto
45.735747 51.908372 45.561593 52.012539 45.389069 52.116699 curveto
45.180734 52.233892 44.996815 52.313645 44.837311 52.355957 curveto
44.744537 52.141113 lineto
45.398833 51.815599 45.960356 51.418464 46.429108 50.949707 curveto
46.722076 50.949707 lineto
46.722076 56.960449 lineto
46.722074 57.295736 46.808337 57.523601 46.980865 57.644043 curveto
47.120836 57.744955 47.368232 57.795410 47.723053 57.795410 curveto
47.723053 57.966309 lineto
fill
0.0000000 0.0000000 0.0000000 setrgbcolor
newpath
fill
0.0000000 0.0000000 0.0000000 setrgbcolor
newpath
59.549225 57.971191 moveto
57.386139 57.971191 lineto
57.386139 57.751465 lineto
57.828841 57.751465 58.050195 57.531739 58.050201 57.092285 curveto
58.050201 54.870605 lineto
58.050195 54.593916 57.983463 54.351403 57.850006 54.143066 curveto
57.693750 53.902185 57.483789 53.781742 57.220123 53.781738 curveto
56.816472 53.781742 56.336329 53.985193 55.779694 54.392090 curveto
55.779694 57.331543 lineto
55.779689 57.598470 56.040106 57.731934 56.560944 57.731934 curveto
56.585358 57.971191 lineto
54.427155 57.971191 lineto
54.427155 57.751465 lineto
54.866604 57.751465 55.086331 57.531739 55.086334 57.092285 curveto
55.086334 54.870605 lineto
55.086331 54.590661 55.029364 54.349776 54.915436 54.147949 curveto
54.775458 53.903813 54.575263 53.781742 54.314850 53.781738 curveto
53.904691 53.781742 53.401762 54.001469 52.806061 54.440918 curveto
52.806061 57.229004 lineto
52.806059 57.548015 53.051827 57.722168 53.543365 57.751465 curveto
53.514069 57.971191 lineto
51.448639 57.971191 lineto
51.429108 57.932129 lineto
51.458405 57.780762 lineto
51.660227 57.780762 51.822987 57.697754 51.946686 57.531738 curveto
52.060617 57.378744 52.117584 57.198080 52.117584 56.989746 curveto
52.117584 54.299316 lineto
52.117584 54.182133 52.016672 54.089359 51.814850 54.020996 curveto
51.788808 54.011234 51.635813 53.975427 51.355865 53.913574 curveto
51.355865 53.791504 lineto
51.388418 53.755701 51.429108 53.729659 51.477936 53.713379 curveto
51.735097 53.625493 52.119211 53.467615 52.630280 53.239746 curveto
52.806061 53.371582 lineto
52.806061 54.250488 lineto
53.746814 53.645024 54.396227 53.342290 54.754303 53.342285 curveto
54.972398 53.342290 55.175849 53.443201 55.364655 53.645020 curveto
55.524156 53.817550 55.639715 54.019372 55.711334 54.250488 curveto
56.652084 53.645024 57.301498 53.342290 57.659576 53.342285 curveto
58.007877 53.342290 58.286197 53.503422 58.494537 53.825684 curveto
58.676822 54.105635 58.767967 54.427901 58.767975 54.792480 curveto
58.767975 57.331543 lineto
58.767967 57.598470 59.018618 57.731934 59.519928 57.731934 curveto
59.549225 57.971191 lineto
fill
0.0000000 0.0000000 0.0000000 setrgbcolor
newpath
153.87909 72.115410 moveto
153.87908 72.906428 153.71144 73.655125 153.37616 74.361504 curveto
152.95949 75.243665 152.39797 75.684746 151.69159 75.684746 curveto
150.95917 75.684746 150.38950 75.250176 149.98260 74.381035 curveto
149.66359 73.700698 149.50409 72.945491 149.50409 72.115410 curveto
149.50409 71.324399 149.67173 70.575701 150.00702 69.869316 curveto
150.42368 68.990417 150.98521 68.550964 151.69159 68.550957 curveto
152.42401 68.550964 152.99204 68.983906 153.39569 69.849785 curveto
153.71795 70.533384 153.87908 71.288591 153.87909 72.115410 curveto
153.16132 72.335136 moveto
153.16131 69.994647 152.67140 68.824401 151.69159 68.824394 curveto
150.71177 68.824401 150.22186 69.849791 150.22186 71.900566 curveto
150.22186 74.237807 150.71177 75.406426 151.69159 75.406425 curveto
152.67140 75.406426 153.16131 74.382664 153.16132 72.335136 curveto
fill
0.0000000 0.0000000 0.0000000 setrgbcolor
newpath
156.48163 75.626152 moveto
156.48163 75.365736 156.41652 75.144382 156.28632 74.962090 curveto
156.14309 74.753757 155.94615 74.649591 155.69550 74.649590 curveto
155.52297 74.649591 155.37160 74.695163 155.24139 74.786308 curveto
155.10142 74.887221 155.03143 75.020684 155.03143 75.186699 curveto
155.03143 75.326673 155.07050 75.447116 155.14862 75.548027 curveto
155.23651 75.661959 155.34556 75.718925 155.47577 75.718925 curveto
155.51483 75.718925 155.56854 75.712415 155.63690 75.699394 curveto
155.70852 75.689629 155.76223 75.684746 155.79803 75.684746 curveto
155.93150 75.684746 155.99823 75.775891 155.99823 75.958183 curveto
155.99823 76.426933 155.71340 76.811047 155.14374 77.110527 curveto
155.17954 77.227713 155.21372 77.286307 155.24628 77.286308 curveto
155.30813 77.286307 155.42206 77.229341 155.58807 77.115410 curveto
155.74107 77.011242 155.84198 76.929862 155.89081 76.871269 curveto
156.10891 76.607596 156.24888 76.418794 156.31073 76.304863 curveto
156.42466 76.103040 156.48163 75.876803 156.48163 75.626152 curveto
fill
0.0000000 0.0000000 0.0000000 setrgbcolor
newpath
160.90546 75.635918 moveto
158.05878 75.635918 lineto
158.05878 75.465019 lineto
158.74888 75.465019 159.09393 75.186699 159.09393 74.630058 curveto
159.09393 69.473808 lineto
158.91815 69.577981 158.74400 69.682148 158.57147 69.786308 curveto
158.36314 69.903502 158.17922 69.983254 158.01971 70.025566 curveto
157.92694 69.810722 lineto
158.58124 69.485208 159.14276 69.088073 159.61151 68.619316 curveto
159.90448 68.619316 lineto
159.90448 74.630058 lineto
159.90448 74.965345 159.99074 75.193210 160.16327 75.313652 curveto
160.30324 75.414564 160.55064 75.465019 160.90546 75.465019 curveto
160.90546 75.635918 lineto
fill
0.0000000 0.0000000 0.0000000 setrgbcolor
newpath
165.87616 73.311699 moveto
165.87616 74.014826 165.61411 74.610528 165.09003 75.098808 curveto
164.57896 75.574069 163.96861 75.811699 163.25897 75.811699 curveto
162.93345 75.811699 162.63560 75.754733 162.36542 75.640800 curveto
162.01060 75.494316 161.83319 75.282728 161.83319 75.006035 curveto
161.83319 74.892103 161.87063 74.796075 161.94550 74.717949 curveto
162.02362 74.639825 162.11965 74.600762 162.23358 74.600761 curveto
162.28566 74.600762 162.37681 74.672377 162.50702 74.815605 curveto
162.67629 75.007663 162.81463 75.142754 162.92206 75.220879 curveto
163.11737 75.367363 163.32245 75.440605 163.53729 75.440605 curveto
163.93768 75.440605 164.31040 75.180189 164.65546 74.659355 curveto
164.96795 74.187351 165.12420 73.739761 165.12421 73.316582 curveto
165.12420 72.870621 164.95168 72.458838 164.60663 72.081230 curveto
164.25506 71.690609 163.85793 71.495297 163.41522 71.495293 curveto
163.22642 71.495297 163.00995 71.570167 162.76581 71.719902 curveto
162.67792 71.775244 162.46958 71.924984 162.14081 72.169121 curveto
162.70233 68.716972 lineto
165.12421 68.716972 lineto
165.27394 68.716979 165.36672 68.629089 165.40253 68.453300 curveto
165.58807 68.511894 lineto
165.28046 69.415215 lineto
162.98065 69.415215 lineto
162.66815 71.309746 lineto
162.97740 71.081886 163.39243 70.967954 163.91327 70.967949 curveto
164.51222 70.967954 164.99725 71.213722 165.36835 71.705254 curveto
165.70688 72.154476 165.87616 72.689957 165.87616 73.311699 curveto
fill
0.0000000 0.0000000 0.0000000 setrgbcolor
newpath
fill
0.0000000 0.0000000 0.0000000 setrgbcolor
newpath
177.45819 75.640800 moveto
175.29510 75.640800 lineto
175.29510 75.421074 lineto
175.73781 75.421074 175.95916 75.201348 175.95917 74.761894 curveto
175.95917 72.540215 lineto
175.95916 72.263525 175.89243 72.021012 175.75897 71.812675 curveto
175.60272 71.571794 175.39276 71.451352 175.12909 71.451347 curveto
174.72544 71.451352 174.24530 71.654802 173.68866 72.061699 curveto
173.68866 75.001152 lineto
173.68866 75.268079 173.94907 75.401543 174.46991 75.401543 curveto
174.49432 75.640800 lineto
172.33612 75.640800 lineto
172.33612 75.421074 lineto
172.77557 75.421074 172.99530 75.201348 172.99530 74.761894 curveto
172.99530 72.540215 lineto
172.99530 72.260270 172.93833 72.019385 172.82440 71.817558 curveto
172.68442 71.573422 172.48423 71.451352 172.22382 71.451347 curveto
171.81366 71.451352 171.31073 71.671078 170.71503 72.110527 curveto
170.71503 74.898613 lineto
170.71503 75.217624 170.96079 75.391777 171.45233 75.421074 curveto
171.42303 75.640800 lineto
169.35760 75.640800 lineto
169.33807 75.601738 lineto
169.36737 75.450371 lineto
169.56919 75.450371 169.73195 75.367363 169.85565 75.201347 curveto
169.96958 75.048353 170.02655 74.867689 170.02655 74.659355 curveto
170.02655 71.968925 lineto
170.02655 71.851742 169.92564 71.758968 169.72382 71.690605 curveto
169.69777 71.680843 169.54478 71.645036 169.26483 71.583183 curveto
169.26483 71.461113 lineto
169.29738 71.425310 169.33807 71.399268 169.38690 71.382988 curveto
169.64406 71.295102 170.02818 71.137224 170.53925 70.909355 curveto
170.71503 71.041191 lineto
170.71503 71.920097 lineto
171.65578 71.314633 172.30519 71.011899 172.66327 71.011894 curveto
172.88136 71.011899 173.08481 71.112810 173.27362 71.314629 curveto
173.43312 71.487159 173.54868 71.688982 173.62030 71.920097 curveto
174.56105 71.314633 175.21046 71.011899 175.56854 71.011894 curveto
175.91684 71.011899 176.19516 71.173032 176.40350 71.495293 curveto
176.58579 71.775244 176.67693 72.097510 176.67694 72.462090 curveto
176.67694 75.001152 lineto
176.67693 75.268079 176.92758 75.401543 177.42889 75.401543 curveto
177.45819 75.640800 lineto
fill
grestore
showpage
