%!PS-Adobe-2.0
%%Creator: inkscape 0.41.1
%%Pages: 1
%%Orientation: Portrait
%%BoundingBox: 21 766 111 827
%%HiResBoundingBox: 21.315176 766.11579 110.38671 826.99276
%%EndComments
%%Page: 1 1
0 842 translate
0.80000000 -0.80000000 scale
gsave [1.0000000 0.0000000 0.0000000 1.0000000 0.0000000 0.0000000] concat
0.0000000 0.0000000 0.0000000 setrgbcolor
[1.4173229 2.8346457] 0.0000000 setdash
0.35433072 setlinewidth
0 setlinejoin
0 setlinecap
newpath
29.808288 60.912589 moveto
185.32979 60.912589 127.14938 60.912589 127.14938 60.912589 curveto
stroke
0.0000000 0.0000000 0.0000000 setrgbcolor
[] 0 setdash
0.35433072 setlinewidth
0 setlinejoin
0 setlinecap
newpath
91.364788 25.154761 moveto
91.364788 94.109319 91.364788 94.540285 91.364788 94.540285 curveto
stroke
gsave [-2.3865361e-17 -0.38976379 0.38976379 -2.3865361e-17 91.364788 27.103580] concat
0.0000000 0.0000000 0.0000000 setrgbcolor
newpath
8.7185878 4.0337352 moveto
-2.2072895 0.016013256 lineto
8.7185884 -4.0017078 lineto
6.9730900 -1.6296469 6.9831476 1.6157441 8.7185878 4.0337352 curveto
closepath
eofill
grestore
gsave [1.7356626e-17 0.28346457 -0.28346457 1.7356626e-17 91.364788 94.540285] concat
0.0000000 0.0000000 0.0000000 setrgbcolor
newpath
0.0000000 0.0000000 moveto
5.0000000 -5.0000000 lineto
-12.500000 0.0000000 lineto
5.0000000 5.0000000 lineto
0.0000000 0.0000000 lineto
closepath
eofill
0.0000000 0.0000000 0.0000000 setrgbcolor
[] 0 setdash
1.2500000 setlinewidth
0 setlinejoin
0 setlinecap
newpath
0.0000000 0.0000000 moveto
5.0000000 -5.0000000 lineto
-12.500000 0.0000000 lineto
5.0000000 5.0000000 lineto
0.0000000 0.0000000 lineto
closepath
stroke
grestore
0.0000000 0.0000000 0.0000000 setrgbcolor
[] 0 setdash
0.35433072 setlinewidth
0 setlinejoin
0 setlinecap
newpath
43.096598 41.100503 moveto
43.096598 60.709455 43.096598 60.709455 43.096598 60.709455 curveto
stroke
0.0000000 0.0000000 0.0000000 setrgbcolor
[] 0 setdash
1.0000000 setlinewidth
0 setlinejoin
0 setlinecap
newpath
42.881115 41.315986 moveto
124.33369 74.069401 lineto
stroke
gsave [-0.27833942 -0.11192484 0.11192484 -0.27833942 125.72539 74.629025] concat
0.0000000 0.0000000 0.0000000 setrgbcolor
newpath
8.7185878 4.0337352 moveto
-2.2072895 0.016013256 lineto
8.7185884 -4.0017078 lineto
6.9730900 -1.6296469 6.9831476 1.6157441 8.7185878 4.0337352 curveto
closepath
eofill
grestore
0.0000000 0.0000000 0.0000000 setrgbcolor
[] 0 setdash
1.0000000 setlinewidth
0 setlinejoin
0 setlinecap
newpath
42.881115 41.315986 moveto
91.149305 41.315986 lineto
121.31693 19.121238 lineto
stroke
gsave [-0.24164686 0.17778301 -0.17778301 -0.24164686 122.52516 18.232323] concat
0.0000000 0.0000000 0.0000000 setrgbcolor
newpath
8.7185878 4.0337352 moveto
-2.2072895 0.016013256 lineto
8.7185884 -4.0017078 lineto
6.9730900 -1.6296469 6.9831476 1.6157441 8.7185878 4.0337352 curveto
closepath
eofill
grestore
0.0000000 0.0000000 0.0000000 setrgbcolor
[] 0 setdash
0.19790417 setlinewidth
0 setlinejoin
0 setlinecap
newpath
74.341635 61.046835 moveto
74.341635 54.123067 lineto
stroke
0.0000000 0.0000000 0.0000000 setrgbcolor
[] 0 setdash
0.33406195 setlinewidth
0 setlinejoin
0 setlinecap
newpath
90.131453 73.638435 moveto
66.955649 73.638435 lineto
stroke
gsave [-0.20043717 2.4545663e-17 -2.4545663e-17 -0.20043717 88.527956 73.638435] concat
0.0000000 0.0000000 0.0000000 setrgbcolor
newpath
0.0000000 0.0000000 moveto
5.0000000 -5.0000000 lineto
-12.500000 0.0000000 lineto
5.0000000 5.0000000 lineto
0.0000000 0.0000000 lineto
closepath
eofill
0.0000000 0.0000000 0.0000000 setrgbcolor
[] 0 setdash
1.2500000 setlinewidth
0 setlinejoin
0 setlinecap
newpath
0.0000000 0.0000000 moveto
5.0000000 -5.0000000 lineto
-12.500000 0.0000000 lineto
5.0000000 5.0000000 lineto
0.0000000 0.0000000 lineto
closepath
stroke
0.0000000 0.0000000 0.0000000 setrgbcolor
[] 0 setdash
1.5000000 setlinewidth
0 setlinejoin
0 setlinecap
newpath
-14.759949 -7.0000000 moveto
-14.759949 65.000000 lineto
stroke
grestore
gsave [0.20043717 -2.4545663e-17 -2.4545663e-17 -0.20043717 68.559146 73.638435] concat
0.0000000 0.0000000 0.0000000 setrgbcolor
newpath
0.0000000 0.0000000 moveto
5.0000000 -5.0000000 lineto
-12.500000 0.0000000 lineto
5.0000000 5.0000000 lineto
0.0000000 0.0000000 lineto
closepath
eofill
0.0000000 0.0000000 0.0000000 setrgbcolor
[] 0 setdash
1.2500000 setlinewidth
0 setlinejoin
0 setlinecap
newpath
0.0000000 0.0000000 moveto
5.0000000 -5.0000000 lineto
-12.500000 0.0000000 lineto
5.0000000 5.0000000 lineto
0.0000000 0.0000000 lineto
closepath
stroke
0.0000000 0.0000000 0.0000000 setrgbcolor
[] 0 setdash
1.5000000 setlinewidth
0 setlinejoin
0 setlinecap
newpath
-14.759949 -7.0000000 moveto
-14.759949 65.000000 lineto
stroke
grestore
0.0000000 0.0000000 0.0000000 setrgbcolor
[] 0 setdash
0.40314037 setlinewidth
0 setlinejoin
0 setlinecap
newpath
44.760986 32.050220 moveto
89.700400 32.050220 lineto
stroke
gsave [0.24188422 0.0000000 0.0000000 0.24188422 46.696060 32.050220] concat
0.0000000 0.0000000 0.0000000 setrgbcolor
newpath
0.0000000 0.0000000 moveto
5.0000000 -5.0000000 lineto
-12.500000 0.0000000 lineto
5.0000000 5.0000000 lineto
0.0000000 0.0000000 lineto
closepath
eofill
0.0000000 0.0000000 0.0000000 setrgbcolor
[] 0 setdash
1.2500000 setlinewidth
0 setlinejoin
0 setlinecap
newpath
0.0000000 0.0000000 moveto
5.0000000 -5.0000000 lineto
-12.500000 0.0000000 lineto
5.0000000 5.0000000 lineto
0.0000000 0.0000000 lineto
closepath
stroke
0.0000000 0.0000000 0.0000000 setrgbcolor
[] 0 setdash
1.5000000 setlinewidth
0 setlinejoin
0 setlinecap
newpath
-14.759949 -7.0000000 moveto
-14.759949 65.000000 lineto
stroke
grestore
gsave [-0.24188422 -0.0000000 0.0000000 0.24188422 87.765326 32.050220] concat
0.0000000 0.0000000 0.0000000 setrgbcolor
newpath
0.0000000 0.0000000 moveto
5.0000000 -5.0000000 lineto
-12.500000 0.0000000 lineto
5.0000000 5.0000000 lineto
0.0000000 0.0000000 lineto
closepath
eofill
0.0000000 0.0000000 0.0000000 setrgbcolor
[] 0 setdash
1.2500000 setlinewidth
0 setlinejoin
0 setlinecap
newpath
0.0000000 0.0000000 moveto
5.0000000 -5.0000000 lineto
-12.500000 0.0000000 lineto
5.0000000 5.0000000 lineto
0.0000000 0.0000000 lineto
closepath
stroke
0.0000000 0.0000000 0.0000000 setrgbcolor
[] 0 setdash
1.5000000 setlinewidth
0 setlinejoin
0 setlinecap
newpath
-14.759949 -7.0000000 moveto
-14.759949 65.000000 lineto
stroke
grestore
0.0000000 0.0000000 0.0000000 setrgbcolor
newpath
63.458958 29.675020 moveto
60.612278 29.675020 lineto
60.612278 29.504122 lineto
61.302381 29.504122 61.647432 29.225802 61.647434 28.669161 curveto
61.647434 23.512911 lineto
61.471651 23.617084 61.297498 23.721250 61.124973 23.825411 curveto
60.916639 23.942604 60.732720 24.022357 60.573215 24.064669 curveto
60.480442 23.849825 lineto
61.134738 23.524310 61.696261 23.127175 62.165012 22.658419 curveto
62.457981 22.658419 lineto
62.457981 28.669161 lineto
62.457979 29.004448 62.544241 29.232312 62.716770 29.352755 curveto
62.856741 29.453666 63.104137 29.504122 63.458958 29.504122 curveto
63.458958 29.675020 lineto
fill
0.0000000 0.0000000 0.0000000 setrgbcolor
newpath
fill
0.0000000 0.0000000 0.0000000 setrgbcolor
newpath
75.285130 29.679903 moveto
73.122044 29.679903 lineto
73.122044 29.460176 lineto
73.564746 29.460177 73.786099 29.240450 73.786106 28.800997 curveto
73.786106 26.579317 lineto
73.786099 26.302628 73.719368 26.060115 73.585911 25.851778 curveto
73.429654 25.610897 73.219694 25.490454 72.956028 25.490450 curveto
72.552377 25.490454 72.072234 25.693904 71.515598 26.100801 curveto
71.515598 29.040255 lineto
71.515594 29.307182 71.776010 29.440645 72.296848 29.440645 curveto
72.321262 29.679903 lineto
70.163059 29.679903 lineto
70.163059 29.460176 lineto
70.602509 29.460177 70.822235 29.240450 70.822239 28.800997 curveto
70.822239 26.579317 lineto
70.822235 26.299373 70.765269 26.058487 70.651340 25.856661 curveto
70.511363 25.612524 70.311168 25.490454 70.050755 25.490450 curveto
69.640596 25.490454 69.137667 25.710180 68.541965 26.149630 curveto
68.541965 28.937716 lineto
68.541964 29.256726 68.787732 29.430880 69.279270 29.460176 curveto
69.249973 29.679903 lineto
67.184544 29.679903 lineto
67.165012 29.640841 lineto
67.194309 29.489473 lineto
67.396132 29.489474 67.558892 29.406466 67.682590 29.240450 curveto
67.796522 29.087456 67.853488 28.906792 67.853489 28.698458 curveto
67.853489 26.008028 lineto
67.853488 25.890844 67.752577 25.798071 67.550755 25.729708 curveto
67.524712 25.719946 67.371718 25.684139 67.091770 25.622286 curveto
67.091770 25.500216 lineto
67.124322 25.464412 67.165012 25.438371 67.213840 25.422091 curveto
67.471002 25.334204 67.855116 25.176327 68.366184 24.948458 curveto
68.541965 25.080294 lineto
68.541965 25.959200 lineto
69.482718 25.353735 70.132132 25.051001 70.490208 25.050997 curveto
70.708303 25.051001 70.911753 25.151913 71.100559 25.353731 curveto
71.260060 25.526261 71.375620 25.728084 71.447239 25.959200 curveto
72.387989 25.353735 73.037402 25.051001 73.395481 25.050997 curveto
73.743782 25.051001 74.022102 25.212134 74.230442 25.534395 curveto
74.412726 25.814347 74.503872 26.136612 74.503880 26.501192 curveto
74.503880 29.040255 lineto
74.503872 29.307182 74.754523 29.440645 75.255833 29.440645 curveto
75.285130 29.679903 lineto
fill
0.0000000 0.0000000 0.0000000 setrgbcolor
newpath
59.666771 58.551689 moveto
57.958763 58.551689 lineto
57.958763 58.449150 lineto
58.372825 58.449150 58.579856 58.282158 58.579857 57.948174 curveto
58.579857 54.854424 lineto
58.474387 54.916927 58.369895 54.979427 58.266380 55.041924 curveto
58.141380 55.112239 58.031028 55.160091 57.935326 55.185478 curveto
57.879662 55.056572 lineto
58.272239 54.861263 58.609153 54.622982 58.890404 54.341728 curveto
59.066185 54.341728 lineto
59.066185 57.948174 lineto
59.066183 58.149346 59.117941 58.286064 59.221458 58.358330 curveto
59.305441 58.418877 59.453878 58.449150 59.666771 58.449150 curveto
59.666771 58.551689 lineto
fill
0.0000000 0.0000000 0.0000000 setrgbcolor
newpath
62.649193 57.157158 moveto
62.649190 57.579034 62.491964 57.936455 62.177513 58.229424 curveto
61.870871 58.514580 61.504660 58.657158 61.078880 58.657158 curveto
60.883567 58.657158 60.704856 58.622978 60.542747 58.554619 curveto
60.329857 58.466728 60.223411 58.339775 60.223412 58.173759 curveto
60.223411 58.105401 60.245872 58.047783 60.290794 58.000908 curveto
60.337669 57.954033 60.395286 57.930596 60.463646 57.930595 curveto
60.494896 57.930596 60.549583 57.973565 60.627708 58.059502 curveto
60.729270 58.174736 60.812278 58.255791 60.876732 58.302666 curveto
60.993918 58.390556 61.116965 58.434502 61.245872 58.434502 curveto
61.486105 58.434502 61.709738 58.278252 61.916771 57.965752 curveto
62.104269 57.682549 62.198019 57.413995 62.198021 57.160088 curveto
62.198019 56.892511 62.094503 56.645441 61.887474 56.418877 curveto
61.676535 56.184504 61.438254 56.067317 61.172630 56.067314 curveto
61.059348 56.067317 60.929465 56.112238 60.782982 56.202080 curveto
60.730247 56.235285 60.605247 56.325129 60.407982 56.471611 curveto
60.744896 54.400322 lineto
62.198021 54.400322 lineto
62.287862 54.400326 62.343526 54.347592 62.365013 54.242119 curveto
62.476341 54.277275 lineto
62.291771 54.819267 lineto
60.911888 54.819267 lineto
60.724388 55.955986 lineto
60.909934 55.819270 61.158957 55.750911 61.471458 55.750908 curveto
61.830832 55.750911 62.121847 55.898371 62.344505 56.193291 curveto
62.547628 56.462824 62.649190 56.784113 62.649193 57.157158 curveto
fill
0.0000000 0.0000000 0.0000000 setrgbcolor
newpath
fill
0.0000000 0.0000000 0.0000000 setrgbcolor
newpath
67.081810 57.833916 moveto
66.839620 58.349541 66.455832 58.607353 65.930443 58.607353 curveto
65.592551 58.607353 65.306419 58.471611 65.072044 58.200127 curveto
64.847435 57.940362 64.735130 57.638604 64.735130 57.294853 curveto
64.735130 56.865167 64.883568 56.510676 65.180443 56.231377 curveto
65.471458 55.957942 65.833762 55.821223 66.267357 55.821220 curveto
66.396261 55.821223 66.546652 55.861262 66.718529 55.941338 curveto
66.915792 56.029231 67.014425 56.123957 67.014427 56.225517 curveto
67.014425 56.411066 66.926534 56.503840 66.750755 56.503838 curveto
66.641378 56.503840 66.570089 56.459894 66.536888 56.372002 curveto
66.505636 56.289973 66.475363 56.207941 66.446068 56.125908 curveto
66.381613 56.036067 66.257590 55.991145 66.073997 55.991142 curveto
65.779075 55.991145 65.548606 56.124934 65.382591 56.392509 curveto
65.243919 56.619074 65.174583 56.889581 65.174583 57.204033 curveto
65.174583 57.465753 65.266380 57.709893 65.449974 57.936455 curveto
65.645286 58.176690 65.869895 58.296807 66.123802 58.296806 curveto
66.489035 58.296807 66.768331 58.131768 66.961693 57.801689 curveto
67.041769 57.799737 67.081808 57.810479 67.081810 57.833916 curveto
fill
0.0000000 0.0000000 0.0000000 setrgbcolor
newpath
72.282005 58.554619 moveto
70.984154 58.554619 lineto
70.984154 58.422783 lineto
71.249775 58.422783 71.382587 58.290947 71.382591 58.027275 curveto
71.382591 56.694267 lineto
71.382587 56.528254 71.342548 56.382746 71.262474 56.257744 curveto
71.168720 56.113215 71.042744 56.040949 70.884544 56.040947 curveto
70.642354 56.040949 70.354268 56.163020 70.020287 56.407158 curveto
70.020287 58.170830 lineto
70.020284 58.330986 70.176534 58.411064 70.489037 58.411064 curveto
70.503685 58.554619 lineto
69.208763 58.554619 lineto
69.208763 58.422783 lineto
69.472433 58.422783 69.604269 58.290947 69.604271 58.027275 curveto
69.604271 56.694267 lineto
69.604269 56.526301 69.570089 56.381769 69.501732 56.260674 curveto
69.417745 56.114192 69.297628 56.040949 69.141380 56.040947 curveto
68.895285 56.040949 68.593528 56.172785 68.236107 56.436455 curveto
68.236107 58.109306 lineto
68.236106 58.300713 68.383567 58.405205 68.678490 58.422783 curveto
68.660912 58.554619 lineto
67.421654 58.554619 lineto
67.409935 58.531181 lineto
67.427513 58.440361 lineto
67.548607 58.440361 67.646263 58.390556 67.720482 58.290947 curveto
67.788841 58.199150 67.823021 58.090752 67.823021 57.965752 curveto
67.823021 56.351494 lineto
67.823021 56.281184 67.762474 56.225520 67.641380 56.184502 curveto
67.625755 56.178645 67.533958 56.157160 67.365990 56.120049 curveto
67.365990 56.046806 lineto
67.385521 56.025324 67.409935 56.009700 67.439232 55.999931 curveto
67.593529 55.947200 67.823997 55.852473 68.130638 55.715752 curveto
68.236107 55.794853 lineto
68.236107 56.322197 lineto
68.800559 55.958918 69.190207 55.777278 69.405052 55.777275 curveto
69.535909 55.777278 69.657980 55.837825 69.771263 55.958916 curveto
69.866964 56.062434 69.936300 56.183527 69.979271 56.322197 curveto
70.543721 55.958918 70.933369 55.777278 71.148216 55.777275 curveto
71.357197 55.777278 71.524189 55.873957 71.649193 56.067314 curveto
71.758563 56.235285 71.813251 56.428644 71.813255 56.647392 curveto
71.813255 58.170830 lineto
71.813251 58.330986 71.963641 58.411064 72.264427 58.411064 curveto
72.282005 58.554619 lineto
fill
0.0000000 0.0000000 0.0000000 setrgbcolor
newpath
80.895882 76.253181 moveto
80.407600 76.712166 lineto
80.303430 76.249933 79.974654 76.018813 79.421272 76.018806 curveto
79.102259 76.018813 78.815801 76.114842 78.561897 76.306892 curveto
78.288458 76.515232 78.151739 76.775648 78.151741 77.088142 curveto
78.151741 78.245369 lineto
79.299202 78.245369 lineto
79.299202 78.616463 lineto
78.151741 78.616463 lineto
78.151741 81.848885 lineto
78.151739 82.265552 78.381231 82.473885 78.840218 82.473885 curveto
78.876023 82.473885 78.928106 82.473885 78.996468 82.473885 curveto
79.064824 82.470630 79.115280 82.469002 79.147835 82.469002 curveto
79.147835 82.688728 lineto
76.769905 82.688728 lineto
76.745491 82.547127 lineto
77.012418 82.465747 77.170295 82.412036 77.219124 82.385994 curveto
77.381883 82.298104 77.463263 82.166268 77.463264 81.990486 curveto
77.463264 78.616463 lineto
77.372118 78.626232 77.087287 78.603446 76.608772 78.548103 curveto
76.608772 78.357674 lineto
77.012418 78.357678 77.246792 78.320243 77.311897 78.245369 curveto
77.463264 78.245369 lineto
77.463264 78.098885 lineto
77.463263 77.574801 77.520230 77.197197 77.634163 76.966072 curveto
77.722052 76.793552 77.956427 76.523370 78.337288 76.155525 curveto
78.669317 75.836522 79.147832 75.677017 79.772835 75.677010 curveto
80.108118 75.677017 80.482466 75.869074 80.895882 76.253181 curveto
fill
0.0000000 0.0000000 0.0000000 setrgbcolor
[1.4173229 2.8346457] 0.0000000 setdash
0.35433072 setlinewidth
0 setlinejoin
0 setlinecap
newpath
121.10144 19.121238 moveto
65.291346 60.924938 lineto
stroke
0.0000000 0.0000000 0.0000000 setrgbcolor
newpath
29.622486 55.165024 moveto
26.775806 55.165024 lineto
26.775806 54.994125 lineto
27.465909 54.994126 27.810961 54.715806 27.810963 54.159164 curveto
27.810963 49.002914 lineto
27.635180 49.107087 27.461026 49.211254 27.288502 49.315414 curveto
27.080167 49.432608 26.896248 49.512360 26.736744 49.554672 curveto
26.643970 49.339828 lineto
27.298266 49.014314 27.859789 48.617179 28.328541 48.148422 curveto
28.621510 48.148422 lineto
28.621510 54.159164 lineto
28.621507 54.494452 28.707770 54.722316 28.880299 54.842758 curveto
29.020270 54.943670 29.267665 54.994126 29.622486 54.994125 curveto
29.622486 55.165024 lineto
fill
0.0000000 0.0000000 0.0000000 setrgbcolor
newpath
fill
0.0000000 0.0000000 0.0000000 setrgbcolor
newpath
41.448658 55.169907 moveto
39.285572 55.169907 lineto
39.285572 54.950180 lineto
39.728274 54.950180 39.949628 54.730454 39.949635 54.291000 curveto
39.949635 52.069321 lineto
39.949628 51.792631 39.882896 51.550119 39.749439 51.341782 curveto
39.593183 51.100900 39.383222 50.980458 39.119556 50.980453 curveto
38.715905 50.980458 38.235762 51.183908 37.679127 51.590805 curveto
37.679127 54.530258 lineto
37.679122 54.797186 37.939539 54.930649 38.460377 54.930649 curveto
38.484791 55.169907 lineto
36.326588 55.169907 lineto
36.326588 54.950180 lineto
36.766037 54.950180 36.985764 54.730454 36.985767 54.291000 curveto
36.985767 52.069321 lineto
36.985764 51.789376 36.928798 51.548491 36.814869 51.346664 curveto
36.674892 51.102528 36.474696 50.980458 36.214283 50.980453 curveto
35.804124 50.980458 35.301195 51.200184 34.705494 51.639633 curveto
34.705494 54.427719 lineto
34.705493 54.746730 34.951260 54.920883 35.442799 54.950180 curveto
35.413502 55.169907 lineto
33.348072 55.169907 lineto
33.328541 55.130844 lineto
33.357838 54.979477 lineto
33.559660 54.979477 33.722421 54.896469 33.846119 54.730453 curveto
33.960051 54.577459 34.017017 54.396795 34.017017 54.188461 curveto
34.017017 51.498032 lineto
34.017017 51.380848 33.916105 51.288075 33.714283 51.219711 curveto
33.688241 51.209950 33.535246 51.174142 33.255299 51.112289 curveto
33.255299 50.990219 lineto
33.287851 50.954416 33.328541 50.928374 33.377369 50.912094 curveto
33.634530 50.824208 34.018644 50.666330 34.529713 50.438461 curveto
34.705494 50.570297 lineto
34.705494 51.449203 lineto
35.646247 50.843739 36.295660 50.541005 36.653736 50.541000 curveto
36.871831 50.541005 37.075282 50.641916 37.264088 50.843735 curveto
37.423589 51.016265 37.539149 51.218088 37.610767 51.449203 curveto
38.551517 50.843739 39.200931 50.541005 39.559010 50.541000 curveto
39.907310 50.541005 40.185630 50.702138 40.393970 51.024399 curveto
40.576255 51.304351 40.667401 51.626616 40.667408 51.991196 curveto
40.667408 54.530258 lineto
40.667401 54.797186 40.918051 54.930649 41.419361 54.930649 curveto
41.448658 55.169907 lineto
fill
grestore
showpage
