%!PS-Adobe-2.0 EPSF-2.0
%%Title: Dispersion.fig
%%Creator: fig2dev Version 3.2 Patchlevel 5-alpha5
%%CreationDate: Sat Jul 30 16:36:17 2005
%%For: guyotv@debian ()
%%BoundingBox: 0 0 137 118
%Magnification: 1.0000
%%EndComments
/$F2psDict 200 dict def
$F2psDict begin
$F2psDict /mtrx matrix put
/col-1 {0 setgray} bind def
/col0 {0.000 0.000 0.000 srgb} bind def
/col1 {0.000 0.000 1.000 srgb} bind def
/col2 {0.000 1.000 0.000 srgb} bind def
/col3 {0.000 1.000 1.000 srgb} bind def
/col4 {1.000 0.000 0.000 srgb} bind def
/col5 {1.000 0.000 1.000 srgb} bind def
/col6 {1.000 1.000 0.000 srgb} bind def
/col7 {1.000 1.000 1.000 srgb} bind def
/col8 {0.000 0.000 0.560 srgb} bind def
/col9 {0.000 0.000 0.690 srgb} bind def
/col10 {0.000 0.000 0.820 srgb} bind def
/col11 {0.530 0.810 1.000 srgb} bind def
/col12 {0.000 0.560 0.000 srgb} bind def
/col13 {0.000 0.690 0.000 srgb} bind def
/col14 {0.000 0.820 0.000 srgb} bind def
/col15 {0.000 0.560 0.560 srgb} bind def
/col16 {0.000 0.690 0.690 srgb} bind def
/col17 {0.000 0.820 0.820 srgb} bind def
/col18 {0.560 0.000 0.000 srgb} bind def
/col19 {0.690 0.000 0.000 srgb} bind def
/col20 {0.820 0.000 0.000 srgb} bind def
/col21 {0.560 0.000 0.560 srgb} bind def
/col22 {0.690 0.000 0.690 srgb} bind def
/col23 {0.820 0.000 0.820 srgb} bind def
/col24 {0.500 0.190 0.000 srgb} bind def
/col25 {0.630 0.250 0.000 srgb} bind def
/col26 {0.750 0.380 0.000 srgb} bind def
/col27 {1.000 0.500 0.500 srgb} bind def
/col28 {1.000 0.630 0.630 srgb} bind def
/col29 {1.000 0.750 0.750 srgb} bind def
/col30 {1.000 0.880 0.880 srgb} bind def
/col31 {1.000 0.840 0.000 srgb} bind def

end
save
newpath 0 118 moveto 0 0 lineto 137 0 lineto 137 118 lineto closepath clip newpath
-10.4 130.4 translate
1 -1 scale

/cp {closepath} bind def
/ef {eofill} bind def
/gr {grestore} bind def
/gs {gsave} bind def
/sa {save} bind def
/rs {restore} bind def
/l {lineto} bind def
/m {moveto} bind def
/rm {rmoveto} bind def
/n {newpath} bind def
/s {stroke} bind def
/sh {show} bind def
/slc {setlinecap} bind def
/slj {setlinejoin} bind def
/slw {setlinewidth} bind def
/srgb {setrgbcolor} bind def
/rot {rotate} bind def
/sc {scale} bind def
/sd {setdash} bind def
/ff {findfont} bind def
/sf {setfont} bind def
/scf {scalefont} bind def
/sw {stringwidth} bind def
/tr {translate} bind def
/tnt {dup dup currentrgbcolor
  4 -2 roll dup 1 exch sub 3 -1 roll mul add
  4 -2 roll dup 1 exch sub 3 -1 roll mul add
  4 -2 roll dup 1 exch sub 3 -1 roll mul add srgb}
  bind def
/shd {dup dup currentrgbcolor 4 -2 roll mul 4 -2 roll mul
  4 -2 roll mul srgb} bind def
/$F2psBegin {$F2psDict begin /$F2psEnteredState save def} def
/$F2psEnd {$F2psEnteredState restore end} def

$F2psBegin
10 setmiterlimit
0 slj 0 slc
 0.06299 0.06299 sc
%
% Fig objects follow
%
% 
% here starts figure with depth 53
% Polyline
0 slj
0 slc
7.500 slw
n 183 1031 m 2311 1031 l 2311 2058 l 183 2058 l
 cp gs col7 0.90 shd ef gr gs col7 s gr 
% here ends figure;
% 
% here starts figure with depth 50
% Polyline
0 slj
0 slc
7.500 slw
n 188 1036 m
 2321 1036 l gs col0 s gr 
% Polyline
 [60] 0 sd
n 851 219 m
 851 1988 l gs col0 s gr  [] 0 sd
% Polyline
30.000 slw
gs  clippath
738 1001 m 846 1074 l 880 1024 l 772 951 l 772 951 l 830 1027 l 738 1001 l cp
eoclip
n 198 598 m
 851 1041 l gs col0 s gr gr

% arrowhead
7.500 slw
n 738 1001 m 830 1027 l 772 951 l 738 1001 l  cp gs 0.00 setgray ef gr  col0 s
% Polyline
n 851 1041 m
 1623 1839 l gs col0 s gr 
% Polyline
n 851 1041 m
 1244 1978 l gs col0 s gr 
/Times-Roman ff 142.88 scf sf
1234 1894 m
gs 1 -1 sc (bleu) col0 sh gr
/Times-Roman ff 142.88 scf sf
1518 1673 m
gs 1 -1 sc (rouge) col0 sh gr
/Times-Roman ff 142.88 scf sf
297 364 m
gs 1 -1 sc (rayon) col0 sh gr
/Times-Roman ff 142.88 scf sf
297 559 m
gs 1 -1 sc (incident) col0 sh gr
/Times-Roman ff 142.88 scf sf
342 1654 m
gs 1 -1 sc (eau) col0 sh gr
/Times-Roman ff 142.88 scf sf
1528 688 m
gs 1 -1 sc (air) col0 sh gr
% here ends figure;
$F2psEnd
rs
showpage
%%Trailer
%EOF
