%!PS-Adobe-2.0 EPSF-2.0
%%Title: Divergente.fig
%%Creator: fig2dev Version 3.2 Patchlevel 5-alpha5
%%CreationDate: Tue Jul  5 00:14:15 2005
%%For: guyotv@debian ()
%%BoundingBox: 0 0 135 115
%Magnification: 1.0000
%%EndComments
/$F2psDict 200 dict def
$F2psDict begin
$F2psDict /mtrx matrix put
/col-1 {0 setgray} bind def
/col0 {0.000 0.000 0.000 srgb} bind def
/col1 {0.000 0.000 1.000 srgb} bind def
/col2 {0.000 1.000 0.000 srgb} bind def
/col3 {0.000 1.000 1.000 srgb} bind def
/col4 {1.000 0.000 0.000 srgb} bind def
/col5 {1.000 0.000 1.000 srgb} bind def
/col6 {1.000 1.000 0.000 srgb} bind def
/col7 {1.000 1.000 1.000 srgb} bind def
/col8 {0.000 0.000 0.560 srgb} bind def
/col9 {0.000 0.000 0.690 srgb} bind def
/col10 {0.000 0.000 0.820 srgb} bind def
/col11 {0.530 0.810 1.000 srgb} bind def
/col12 {0.000 0.560 0.000 srgb} bind def
/col13 {0.000 0.690 0.000 srgb} bind def
/col14 {0.000 0.820 0.000 srgb} bind def
/col15 {0.000 0.560 0.560 srgb} bind def
/col16 {0.000 0.690 0.690 srgb} bind def
/col17 {0.000 0.820 0.820 srgb} bind def
/col18 {0.560 0.000 0.000 srgb} bind def
/col19 {0.690 0.000 0.000 srgb} bind def
/col20 {0.820 0.000 0.000 srgb} bind def
/col21 {0.560 0.000 0.560 srgb} bind def
/col22 {0.690 0.000 0.690 srgb} bind def
/col23 {0.820 0.000 0.820 srgb} bind def
/col24 {0.500 0.190 0.000 srgb} bind def
/col25 {0.630 0.250 0.000 srgb} bind def
/col26 {0.750 0.380 0.000 srgb} bind def
/col27 {1.000 0.500 0.500 srgb} bind def
/col28 {1.000 0.630 0.630 srgb} bind def
/col29 {1.000 0.750 0.750 srgb} bind def
/col30 {1.000 0.880 0.880 srgb} bind def
/col31 {1.000 0.840 0.000 srgb} bind def

end
save
newpath 0 115 moveto 0 0 lineto 135 0 lineto 135 115 lineto closepath clip newpath
-19.1 134.2 translate
1 -1 scale

/cp {closepath} bind def
/ef {eofill} bind def
/gr {grestore} bind def
/gs {gsave} bind def
/sa {save} bind def
/rs {restore} bind def
/l {lineto} bind def
/m {moveto} bind def
/rm {rmoveto} bind def
/n {newpath} bind def
/s {stroke} bind def
/sh {show} bind def
/slc {setlinecap} bind def
/slj {setlinejoin} bind def
/slw {setlinewidth} bind def
/srgb {setrgbcolor} bind def
/rot {rotate} bind def
/sc {scale} bind def
/sd {setdash} bind def
/ff {findfont} bind def
/sf {setfont} bind def
/scf {scalefont} bind def
/sw {stringwidth} bind def
/tr {translate} bind def
/tnt {dup dup currentrgbcolor
  4 -2 roll dup 1 exch sub 3 -1 roll mul add
  4 -2 roll dup 1 exch sub 3 -1 roll mul add
  4 -2 roll dup 1 exch sub 3 -1 roll mul add srgb}
  bind def
/shd {dup dup currentrgbcolor 4 -2 roll mul 4 -2 roll mul
  4 -2 roll mul srgb} bind def
/$F2psBegin {$F2psDict begin /$F2psEnteredState save def} def
/$F2psEnd {$F2psEnteredState restore end} def

$F2psBegin
10 setmiterlimit
0 slj 0 slc
 0.06299 0.06299 sc
%
% Fig objects follow
%
% 
% here starts figure with depth 50
% Arc
7.500 slw
0 slc
n -1174.0 1245.0 2497.1 20.5614 -20.7575 arcn
gs col0 s gr

% Arc
n 3889.1 1237.0 2497.2 -159.4391 159.2440 arcn
gs col0 s gr

% Polyline
0 slj
n 315 1215 m
 2430 1215 l gs col0 s gr 
% Polyline
n 1158 357 m
 1563 357 l gs col0 s gr 
% Polyline
n 1164 2115 m
 1551 2115 l gs col0 s gr 
% Polyline
 [15 45] 45 sd
n 761 1215 m
 1726 330 l gs col0 s gr  [] 0 sd
% Polyline
 [15 45] 45 sd
n 761 1215 m
 1726 723 l gs col0 s gr  [] 0 sd
% Polyline
gs  clippath
2245 485 m 2349 432 l 2329 392 l 2224 444 l 2224 444 l 2302 431 l 2245 485 l cp
eoclip
n 319 898 m 1299 898 l 1407 886 l
 2326 419 l gs col0 s gr gr

% arrowhead
n 2245 485 m 2302 431 l 2224 444 l 2248 458 l 2245 485 l 
 cp gs 0.00 setgray ef gr  col0 s
% Polyline
gs  clippath
1675 407 m 1762 329 l 1732 296 l 1645 374 l 1645 374 l 1716 341 l 1675 407 l cp
eoclip
n 328 579 m 1232 579 l 1484 548 l
 1736 323 l gs col0 s gr gr

% arrowhead
n 1675 407 m 1716 341 l 1645 374 l 1671 380 l 1675 407 l 
 cp gs 0.00 setgray ef gr  col0 s
/Times-Roman ff 158.75 scf sf
558 1362 m
gs 1 -1 sc (Foyer) col0 sh gr
% here ends figure;
% 
% here starts figure with depth 47
/Times-Roman ff 158.75 scf sf
1580 1356 m
gs 1 -1 sc (Axe optique) col0 sh gr
% here ends figure;
$F2psEnd
rs
showpage
%%Trailer
%EOF
