%!PS-Adobe-2.0
%%Creator: inkscape 0.41.1
%%Pages: 1
%%Orientation: Portrait
%%BoundingBox: 0 751 150 835
%%HiResBoundingBox: 0.37542689 751.08752 149.52565 834.44220
%%EndComments
%%Page: 1 1
0 842 translate
0.80000000 -0.80000000 scale
gsave [1.0000000 0.0000000 0.0000000 1.0000000 0.0000000 0.0000000] concat
0.0000000 0.0000000 0.0000000 setrgbcolor
[1.4173229 2.8346457] 0.0000000 setdash
0.35433072 setlinewidth
0 setlinejoin
0 setlinecap
newpath
146.52843 83.119686 moveto
0.64644897 24.077346 lineto
stroke
0.0000000 0.0000000 0.0000000 setrgbcolor
[1.4173229 2.8346457] 0.0000000 setdash
0.35433072 setlinewidth
0 setlinejoin
0 setlinecap
newpath
8.9064378 60.912589 moveto
164.42794 60.912589 185.32979 60.912589 185.32979 60.912589 curveto
stroke
0.0000000 0.0000000 0.0000000 setrgbcolor
[] 0 setdash
0.35433072 setlinewidth
0 setlinejoin
0 setlinecap
newpath
91.364788 25.154761 moveto
91.364788 94.109319 91.364788 94.540285 91.364788 94.540285 curveto
stroke
gsave [2.3865361e-17 0.38976379 -0.38976379 2.3865361e-17 91.364788 23.205942] concat
0.0000000 0.0000000 0.0000000 setrgbcolor
newpath
8.7185878 4.0337352 moveto
-2.2072895 0.016013256 lineto
8.7185884 -4.0017078 lineto
6.9730900 -1.6296469 6.9831476 1.6157441 8.7185878 4.0337352 curveto
closepath
eofill
grestore
gsave [-2.3865361e-17 -0.38976379 0.38976379 -2.3865361e-17 91.364788 96.489104] concat
0.0000000 0.0000000 0.0000000 setrgbcolor
newpath
8.7185878 4.0337352 moveto
-2.2072895 0.016013256 lineto
8.7185884 -4.0017078 lineto
6.9730900 -1.6296469 6.9831476 1.6157441 8.7185878 4.0337352 curveto
closepath
eofill
grestore
0.0000000 0.0000000 0.0000000 setrgbcolor
[] 0 setdash
0.35433072 setlinewidth
0 setlinejoin
0 setlinecap
newpath
43.096598 41.100503 moveto
43.096598 60.709455 43.096598 60.709455 43.096598 60.709455 curveto
stroke
0.0000000 0.0000000 0.0000000 setrgbcolor
[] 0 setdash
1.0629921 setlinewidth
0 setlinejoin
0 setlinecap
newpath
42.881115 41.315986 moveto
146.52843 82.796461 lineto
181.43668 48.211441 lineto
stroke
gsave [-0.22654106 0.22444342 -0.22444342 -0.22654106 182.56939 47.089224] concat
0.0000000 0.0000000 0.0000000 setrgbcolor
newpath
8.7185878 4.0337352 moveto
-2.2072895 0.016013256 lineto
8.7185884 -4.0017078 lineto
6.9730900 -1.6296469 6.9831476 1.6157441 8.7185878 4.0337352 curveto
closepath
eofill
grestore
0.0000000 0.0000000 0.0000000 setrgbcolor
[] 0 setdash
1.0000000 setlinewidth
0 setlinejoin
0 setlinecap
newpath
42.881115 41.315986 moveto
91.364788 41.315986 lineto
146.52843 48.211442 lineto
180.57474 81.826789 lineto
stroke
gsave [-0.21347885 -0.21077661 0.21077661 -0.21347885 181.64213 82.880672] concat
0.0000000 0.0000000 0.0000000 setrgbcolor
newpath
8.7185878 4.0337352 moveto
-2.2072895 0.016013256 lineto
8.7185884 -4.0017078 lineto
6.9730900 -1.6296469 6.9831476 1.6157441 8.7185878 4.0337352 curveto
closepath
eofill
grestore
0.0000000 0.0000000 0.0000000 setrgbcolor
[] 0 setdash
0.35433072 setlinewidth
0 setlinejoin
0 setlinecap
newpath
146.74392 97.772529 moveto
146.74392 23.861863 lineto
stroke
gsave [2.3865361e-17 -0.38976379 0.38976379 2.3865361e-17 146.74392 99.721348] concat
0.0000000 0.0000000 0.0000000 setrgbcolor
newpath
8.7185878 4.0337352 moveto
-2.2072895 0.016013256 lineto
8.7185884 -4.0017078 lineto
6.9730900 -1.6296469 6.9831476 1.6157441 8.7185878 4.0337352 curveto
closepath
eofill
grestore
gsave [-2.3865361e-17 0.38976379 -0.38976379 -2.3865361e-17 146.74392 21.913044] concat
0.0000000 0.0000000 0.0000000 setrgbcolor
newpath
8.7185878 4.0337352 moveto
-2.2072895 0.016013256 lineto
8.7185884 -4.0017078 lineto
6.9730900 -1.6296469 6.9831476 1.6157441 8.7185878 4.0337352 curveto
closepath
eofill
grestore
0.0000000 0.0000000 0.0000000 setrgbcolor
[] 0 setdash
0.27087560 setlinewidth
0 setlinejoin
0 setlinecap
newpath
162.98211 72.561020 moveto
147.74437 72.561020 lineto
stroke
gsave [-0.16252536 1.9902959e-17 -1.9902959e-17 -0.16252536 161.68191 72.561020] concat
0.0000000 0.0000000 0.0000000 setrgbcolor
newpath
0.0000000 0.0000000 moveto
5.0000000 -5.0000000 lineto
-12.500000 0.0000000 lineto
5.0000000 5.0000000 lineto
0.0000000 0.0000000 lineto
closepath
eofill
0.0000000 0.0000000 0.0000000 setrgbcolor
[] 0 setdash
1.2500000 setlinewidth
0 setlinejoin
0 setlinecap
newpath
0.0000000 0.0000000 moveto
5.0000000 -5.0000000 lineto
-12.500000 0.0000000 lineto
5.0000000 5.0000000 lineto
0.0000000 0.0000000 lineto
closepath
stroke
0.0000000 0.0000000 0.0000000 setrgbcolor
[] 0 setdash
1.5000000 setlinewidth
0 setlinejoin
0 setlinecap
newpath
-14.759949 -7.0000000 moveto
-14.759949 65.000000 lineto
stroke
grestore
gsave [0.16252536 -1.9902959e-17 -1.9902959e-17 -0.16252536 149.04457 72.561020] concat
0.0000000 0.0000000 0.0000000 setrgbcolor
newpath
0.0000000 0.0000000 moveto
5.0000000 -5.0000000 lineto
-12.500000 0.0000000 lineto
5.0000000 5.0000000 lineto
0.0000000 0.0000000 lineto
closepath
eofill
0.0000000 0.0000000 0.0000000 setrgbcolor
[] 0 setdash
1.2500000 setlinewidth
0 setlinejoin
0 setlinecap
newpath
0.0000000 0.0000000 moveto
5.0000000 -5.0000000 lineto
-12.500000 0.0000000 lineto
5.0000000 5.0000000 lineto
0.0000000 0.0000000 lineto
closepath
stroke
0.0000000 0.0000000 0.0000000 setrgbcolor
[] 0 setdash
1.5000000 setlinewidth
0 setlinejoin
0 setlinecap
newpath
-14.759949 -7.0000000 moveto
-14.759949 65.000000 lineto
stroke
grestore
0.0000000 0.0000000 0.0000000 setrgbcolor
[] 0 setdash
0.46401700 setlinewidth
0 setlinejoin
0 setlinecap
newpath
89.587954 69.759741 moveto
44.873434 69.759741 lineto
stroke
gsave [-0.27841020 3.4094290e-17 -3.4094290e-17 -0.27841020 87.360672 69.759741] concat
0.0000000 0.0000000 0.0000000 setrgbcolor
newpath
0.0000000 0.0000000 moveto
5.0000000 -5.0000000 lineto
-12.500000 0.0000000 lineto
5.0000000 5.0000000 lineto
0.0000000 0.0000000 lineto
closepath
eofill
0.0000000 0.0000000 0.0000000 setrgbcolor
[] 0 setdash
1.2500000 setlinewidth
0 setlinejoin
0 setlinecap
newpath
0.0000000 0.0000000 moveto
5.0000000 -5.0000000 lineto
-12.500000 0.0000000 lineto
5.0000000 5.0000000 lineto
0.0000000 0.0000000 lineto
closepath
stroke
0.0000000 0.0000000 0.0000000 setrgbcolor
[] 0 setdash
1.5000000 setlinewidth
0 setlinejoin
0 setlinecap
newpath
-14.759949 -7.0000000 moveto
-14.759949 65.000000 lineto
stroke
grestore
gsave [0.27841020 -3.4094290e-17 -3.4094290e-17 -0.27841020 47.100716 69.759741] concat
0.0000000 0.0000000 0.0000000 setrgbcolor
newpath
0.0000000 0.0000000 moveto
5.0000000 -5.0000000 lineto
-12.500000 0.0000000 lineto
5.0000000 5.0000000 lineto
0.0000000 0.0000000 lineto
closepath
eofill
0.0000000 0.0000000 0.0000000 setrgbcolor
[] 0 setdash
1.2500000 setlinewidth
0 setlinejoin
0 setlinecap
newpath
0.0000000 0.0000000 moveto
5.0000000 -5.0000000 lineto
-12.500000 0.0000000 lineto
5.0000000 5.0000000 lineto
0.0000000 0.0000000 lineto
closepath
stroke
0.0000000 0.0000000 0.0000000 setrgbcolor
[] 0 setdash
1.5000000 setlinewidth
0 setlinejoin
0 setlinecap
newpath
-14.759949 -7.0000000 moveto
-14.759949 65.000000 lineto
stroke
grestore
0.0000000 0.0000000 0.0000000 setrgbcolor
[] 0 setdash
0.45955396 setlinewidth
0 setlinejoin
0 setlinecap
newpath
89.641304 78.594549 moveto
31.244656 78.594549 lineto
stroke
gsave [-0.27573237 3.3766362e-17 -3.3766362e-17 -0.27573237 87.435445 78.594549] concat
0.0000000 0.0000000 0.0000000 setrgbcolor
newpath
0.0000000 0.0000000 moveto
5.0000000 -5.0000000 lineto
-12.500000 0.0000000 lineto
5.0000000 5.0000000 lineto
0.0000000 0.0000000 lineto
closepath
eofill
0.0000000 0.0000000 0.0000000 setrgbcolor
[] 0 setdash
1.2500000 setlinewidth
0 setlinejoin
0 setlinecap
newpath
0.0000000 0.0000000 moveto
5.0000000 -5.0000000 lineto
-12.500000 0.0000000 lineto
5.0000000 5.0000000 lineto
0.0000000 0.0000000 lineto
closepath
stroke
0.0000000 0.0000000 0.0000000 setrgbcolor
[] 0 setdash
1.5000000 setlinewidth
0 setlinejoin
0 setlinecap
newpath
-14.759949 -7.0000000 moveto
-14.759949 65.000000 lineto
stroke
grestore
gsave [0.27573237 -3.3766362e-17 -3.3766362e-17 -0.27573237 33.450515 78.594549] concat
0.0000000 0.0000000 0.0000000 setrgbcolor
newpath
0.0000000 0.0000000 moveto
5.0000000 -5.0000000 lineto
-12.500000 0.0000000 lineto
5.0000000 5.0000000 lineto
0.0000000 0.0000000 lineto
closepath
eofill
0.0000000 0.0000000 0.0000000 setrgbcolor
[] 0 setdash
1.2500000 setlinewidth
0 setlinejoin
0 setlinecap
newpath
0.0000000 0.0000000 moveto
5.0000000 -5.0000000 lineto
-12.500000 0.0000000 lineto
5.0000000 5.0000000 lineto
0.0000000 0.0000000 lineto
closepath
stroke
0.0000000 0.0000000 0.0000000 setrgbcolor
[] 0 setdash
1.5000000 setlinewidth
0 setlinejoin
0 setlinecap
newpath
-14.759949 -7.0000000 moveto
-14.759949 65.000000 lineto
stroke
grestore
0.0000000 0.0000000 0.0000000 setrgbcolor
newpath
77.448151 99.956306 moveto
76.959869 100.41529 lineto
76.855699 99.953058 76.526923 99.721938 75.973541 99.721931 curveto
75.654528 99.721938 75.368070 99.817967 75.114166 100.01002 curveto
74.840727 100.21836 74.704008 100.47877 74.704010 100.79127 curveto
74.704010 101.94849 lineto
75.851471 101.94849 lineto
75.851471 102.31959 lineto
74.704010 102.31959 lineto
74.704010 105.55201 lineto
74.704008 105.96868 74.933500 106.17701 75.392487 106.17701 curveto
75.428291 106.17701 75.480375 106.17701 75.548737 106.17701 curveto
75.617093 106.17375 75.667549 106.17213 75.700104 106.17213 curveto
75.700104 106.39185 lineto
73.322174 106.39185 lineto
73.297760 106.25025 lineto
73.564687 106.16887 73.722564 106.11516 73.771393 106.08912 curveto
73.934152 106.00123 74.015532 105.86939 74.015533 105.69361 curveto
74.015533 102.31959 lineto
73.924387 102.32936 73.639556 102.30657 73.161041 102.25123 curveto
73.161041 102.06080 lineto
73.564687 102.06080 73.799061 102.02337 73.864166 101.94849 curveto
74.015533 101.94849 lineto
74.015533 101.80201 lineto
74.015532 101.27793 74.072499 100.90032 74.186432 100.66920 curveto
74.274321 100.49668 74.508696 100.22649 74.889557 99.858650 curveto
75.221586 99.539647 75.700101 99.380142 76.325104 99.380135 curveto
76.660387 99.380142 77.034735 99.572199 77.448151 99.956306 curveto
fill
0.0000000 0.0000000 0.0000000 setrgbcolor
newpath
fill
0.0000000 0.0000000 0.0000000 setrgbcolor
newpath
84.401276 102.21705 moveto
80.348541 102.21705 lineto
80.348541 101.75806 lineto
84.401276 101.75806 lineto
84.401276 102.21705 lineto
84.401276 104.05787 moveto
80.348541 104.05787 lineto
80.348541 103.59400 lineto
84.401276 103.59400 lineto
84.401276 104.05787 lineto
fill
0.0000000 0.0000000 0.0000000 setrgbcolor
newpath
fill
0.0000000 0.0000000 0.0000000 setrgbcolor
newpath
92.711823 104.38502 moveto
91.574127 104.38502 lineto
91.574127 106.39185 lineto
90.900299 106.39185 lineto
90.900299 104.38502 lineto
88.043854 104.38502 lineto
88.043854 104.07740 lineto
91.329987 99.350838 lineto
91.574127 99.350838 lineto
91.574127 103.76978 lineto
92.711823 103.76978 lineto
92.711823 104.38502 lineto
90.900299 100.48853 moveto
88.659088 103.76978 lineto
90.900299 103.76978 lineto
90.900299 100.48853 lineto
fill
0.0000000 0.0000000 0.0000000 setrgbcolor
newpath
97.487213 102.86646 moveto
97.487208 103.65748 97.319565 104.40618 96.984283 105.11256 curveto
96.567613 105.99472 96.006090 106.43580 95.299713 106.43580 curveto
94.567289 106.43580 93.997629 106.00123 93.590729 105.13209 curveto
93.271718 104.45175 93.112213 103.69654 93.112213 102.86646 curveto
93.112213 102.07545 93.279856 101.32675 93.615143 100.62037 curveto
94.031808 99.741469 94.593331 99.302017 95.299713 99.302010 curveto
96.032132 99.302017 96.600165 99.734959 97.003815 100.60084 curveto
97.326076 101.28444 97.487208 102.03964 97.487213 102.86646 curveto
96.769440 103.08619 moveto
96.769436 100.74570 96.279527 99.575454 95.299713 99.575447 curveto
94.319894 99.575454 93.829985 100.60084 93.829987 102.65162 curveto
93.829985 104.98886 94.319894 106.15748 95.299713 106.15748 curveto
96.279527 106.15748 96.769436 105.13372 96.769440 103.08619 curveto
fill
0.0000000 0.0000000 0.0000000 setrgbcolor
newpath
fill
0.0000000 0.0000000 0.0000000 setrgbcolor
newpath
105.23135 105.19068 moveto
104.82770 106.05006 104.18806 106.47974 103.31241 106.47974 curveto
102.74926 106.47974 102.27237 106.25351 101.88174 105.80103 curveto
101.50740 105.36809 101.32022 104.86516 101.32022 104.29224 curveto
101.32022 103.57610 101.56762 102.98528 102.06241 102.51978 curveto
102.54743 102.06406 103.15127 101.83619 103.87393 101.83619 curveto
104.08877 101.83619 104.33942 101.90293 104.62589 102.03638 curveto
104.95466 102.18287 105.11905 102.34075 105.11905 102.51002 curveto
105.11905 102.81927 104.97256 102.97389 104.67960 102.97388 curveto
104.49730 102.97389 104.37849 102.90065 104.32315 102.75416 curveto
104.27106 102.61744 104.22061 102.48072 104.17178 102.34400 curveto
104.06436 102.19427 103.85765 102.11940 103.55167 102.11939 curveto
103.06013 102.11940 102.67601 102.34238 102.39932 102.78834 curveto
102.16820 103.16595 102.05264 103.61679 102.05264 104.14088 curveto
102.05264 104.57708 102.20564 104.98398 102.51163 105.36158 curveto
102.83715 105.76197 103.21150 105.96217 103.63467 105.96217 curveto
104.24340 105.96217 104.70889 105.68710 105.03116 105.13697 curveto
105.16462 105.13372 105.23135 105.15162 105.23135 105.19068 curveto
fill
0.0000000 0.0000000 0.0000000 setrgbcolor
newpath
113.89835 106.39185 moveto
111.73526 106.39185 lineto
111.73526 106.17213 lineto
112.17796 106.17213 112.39932 105.95240 112.39932 105.51295 curveto
112.39932 103.29127 lineto
112.39932 103.01458 112.33258 102.77207 112.19913 102.56373 curveto
112.04287 102.32285 111.83291 102.20240 111.56924 102.20240 curveto
111.16559 102.20240 110.68545 102.40585 110.12881 102.81275 curveto
110.12881 105.75220 lineto
110.12881 106.01913 110.38923 106.15260 110.91006 106.15260 curveto
110.93448 106.39185 lineto
108.77628 106.39185 lineto
108.77628 106.17213 lineto
109.21573 106.17213 109.43545 105.95240 109.43546 105.51295 curveto
109.43546 103.29127 lineto
109.43545 103.01132 109.37849 102.77044 109.26456 102.56861 curveto
109.12458 102.32447 108.92438 102.20240 108.66397 102.20240 curveto
108.25381 102.20240 107.75088 102.42213 107.15518 102.86158 curveto
107.15518 105.64967 lineto
107.15518 105.96868 107.40095 106.14283 107.89249 106.17213 curveto
107.86319 106.39185 lineto
105.79776 106.39185 lineto
105.77823 106.35279 lineto
105.80753 106.20142 lineto
106.00935 106.20142 106.17211 106.11842 106.29581 105.95240 curveto
106.40974 105.79941 106.46670 105.61874 106.46671 105.41041 curveto
106.46671 102.71998 lineto
106.46670 102.60279 106.36579 102.51002 106.16397 102.44166 curveto
106.13793 102.43190 105.98493 102.39609 105.70499 102.33424 curveto
105.70499 102.21217 lineto
105.73754 102.17636 105.77823 102.15032 105.82706 102.13404 curveto
106.08422 102.04615 106.46833 101.88828 106.97940 101.66041 curveto
107.15518 101.79224 lineto
107.15518 102.67115 lineto
108.09593 102.06569 108.74535 101.76295 109.10342 101.76295 curveto
109.32152 101.76295 109.52497 101.86386 109.71378 102.06568 curveto
109.87328 102.23821 109.98884 102.44003 110.06046 102.67115 curveto
111.00121 102.06569 111.65062 101.76295 112.00870 101.76295 curveto
112.35700 101.76295 112.63532 101.92408 112.84366 102.24635 curveto
113.02594 102.52630 113.11709 102.84856 113.11710 103.21314 curveto
113.11710 105.75220 lineto
113.11709 106.01913 113.36774 106.15260 113.86905 106.15260 curveto
113.89835 106.39185 lineto
fill
0.0000000 0.0000000 0.0000000 setrgbcolor
newpath
52.186531 84.776062 moveto
51.048836 84.776062 lineto
51.048836 86.782898 lineto
50.375008 86.782898 lineto
50.375008 84.776062 lineto
47.518562 84.776062 lineto
47.518562 84.468445 lineto
50.804695 79.741882 lineto
51.048836 79.741882 lineto
51.048836 84.160828 lineto
52.186531 84.160828 lineto
52.186531 84.776062 lineto
50.375008 80.879578 moveto
48.133797 84.160828 lineto
50.375008 84.160828 lineto
50.375008 80.879578 lineto
fill
0.0000000 0.0000000 0.0000000 setrgbcolor
newpath
56.961922 83.257507 moveto
56.961917 84.048526 56.794274 84.797223 56.458992 85.503601 curveto
56.042321 86.385763 55.480799 86.826843 54.774422 86.826843 curveto
54.041998 86.826843 53.472337 86.392273 53.065437 85.523132 curveto
52.746426 84.842796 52.586921 84.087588 52.586922 83.257507 curveto
52.586921 82.466496 52.754564 81.717799 53.089851 81.011414 curveto
53.506517 80.132514 54.068040 79.693061 54.774422 79.693054 curveto
55.506840 79.693061 56.074874 80.126004 56.478523 80.991882 curveto
56.800784 81.675481 56.961917 82.430689 56.961922 83.257507 curveto
56.244148 83.477234 moveto
56.244144 81.136745 55.754236 79.966499 54.774422 79.966492 curveto
53.794602 79.966499 53.304694 80.991888 53.304695 83.042664 curveto
53.304694 85.379905 53.794602 86.548523 54.774422 86.548523 curveto
55.754236 86.548523 56.244144 85.524761 56.244148 83.477234 curveto
fill
0.0000000 0.0000000 0.0000000 setrgbcolor
newpath
fill
0.0000000 0.0000000 0.0000000 setrgbcolor
newpath
64.706062 85.581726 moveto
64.302413 86.441101 63.662765 86.870788 62.787117 86.870789 curveto
62.223964 86.870788 61.747077 86.644552 61.356453 86.192078 curveto
60.982104 85.759136 60.794929 85.256207 60.794930 84.683289 curveto
60.794929 83.967146 61.042325 83.376326 61.537117 82.910828 curveto
62.022142 82.455103 62.625982 82.227238 63.348640 82.227234 curveto
63.563481 82.227238 63.814132 82.293970 64.100594 82.427429 curveto
64.429366 82.573918 64.593754 82.731795 64.593758 82.901062 curveto
64.593754 83.210310 64.447270 83.364933 64.154305 83.364929 curveto
63.972010 83.364933 63.853195 83.291691 63.797859 83.145203 curveto
63.745773 83.008488 63.695317 82.871769 63.646492 82.735046 curveto
63.539067 82.585311 63.332362 82.510441 63.026375 82.510437 curveto
62.534837 82.510441 62.150722 82.733423 61.874031 83.179382 curveto
61.642910 83.556990 61.527351 84.007836 61.527351 84.531921 curveto
61.527351 84.968121 61.680345 85.375022 61.986336 85.752625 curveto
62.311855 86.153016 62.686204 86.353211 63.109383 86.353210 curveto
63.718104 86.353211 64.183598 86.078146 64.505867 85.528015 curveto
64.639327 85.524761 64.706058 85.542665 64.706062 85.581726 curveto
fill
0.0000000 0.0000000 0.0000000 setrgbcolor
newpath
73.373055 86.782898 moveto
71.209969 86.782898 lineto
71.209969 86.563171 lineto
71.652670 86.563172 71.874024 86.343445 71.874031 85.903992 curveto
71.874031 83.682312 lineto
71.874024 83.405623 71.807293 83.163110 71.673836 82.954773 curveto
71.517579 82.713892 71.307619 82.593449 71.043953 82.593445 curveto
70.640302 82.593449 70.160159 82.796899 69.603523 83.203796 curveto
69.603523 86.143250 lineto
69.603519 86.410177 69.863935 86.543640 70.384773 86.543640 curveto
70.409187 86.782898 lineto
68.250984 86.782898 lineto
68.250984 86.563171 lineto
68.690434 86.563172 68.910160 86.343445 68.910164 85.903992 curveto
68.910164 83.682312 lineto
68.910160 83.402367 68.853194 83.161482 68.739265 82.959656 curveto
68.599288 82.715519 68.399093 82.593449 68.138680 82.593445 curveto
67.728521 82.593449 67.225592 82.813175 66.629890 83.252625 curveto
66.629890 86.040710 lineto
66.629889 86.359721 66.875657 86.533875 67.367195 86.563171 curveto
67.337898 86.782898 lineto
65.272469 86.782898 lineto
65.252937 86.743835 lineto
65.282234 86.592468 lineto
65.484057 86.592468 65.646817 86.509461 65.770515 86.343445 curveto
65.884447 86.190451 65.941413 86.009787 65.941414 85.801453 curveto
65.941414 83.111023 lineto
65.941413 82.993839 65.840502 82.901066 65.638680 82.832703 curveto
65.612637 82.822941 65.459643 82.787134 65.179695 82.725281 curveto
65.179695 82.603210 lineto
65.212247 82.567407 65.252937 82.541366 65.301765 82.525085 curveto
65.558927 82.437199 65.943041 82.279322 66.454109 82.051453 curveto
66.629890 82.183289 lineto
66.629890 83.062195 lineto
67.570643 82.456730 68.220057 82.153996 68.578133 82.153992 curveto
68.796228 82.153996 68.999678 82.254908 69.188484 82.456726 curveto
69.347985 82.629256 69.463545 82.831079 69.535164 83.062195 curveto
70.475914 82.456730 71.125327 82.153996 71.483406 82.153992 curveto
71.831707 82.153996 72.110027 82.315129 72.318367 82.637390 curveto
72.500651 82.917342 72.591797 83.239607 72.591805 83.604187 curveto
72.591805 86.143250 lineto
72.591797 86.410177 72.842448 86.543640 73.343758 86.543640 curveto
73.373055 86.782898 lineto
fill
0.0000000 0.0000000 0.0000000 setrgbcolor
newpath
32.552528 53.233009 moveto
32.376747 53.233009 lineto
32.376742 52.585229 32.090284 52.261336 31.517372 52.261330 curveto
29.315224 52.261330 lineto
29.315224 54.883400 lineto
31.136513 54.883400 lineto
31.331822 54.883404 31.486444 54.806907 31.600380 54.653908 curveto
31.698032 54.520448 31.746860 54.349550 31.746864 54.141212 curveto
31.883583 54.141212 lineto
31.883583 56.045509 lineto
31.746864 56.045509 lineto
31.746860 55.511658 31.543410 55.244732 31.136513 55.244728 curveto
29.315224 55.244728 lineto
29.315224 57.896095 lineto
29.315222 58.332294 29.609818 58.550392 30.199013 58.550392 curveto
30.199013 58.770119 lineto
27.645302 58.770119 lineto
27.645302 58.550392 lineto
28.185666 58.550392 28.455848 58.312762 28.455849 57.837502 curveto
28.455849 52.573830 lineto
28.455848 52.219018 28.185666 52.043237 27.645302 52.046486 curveto
27.645302 51.836525 lineto
32.435341 51.836525 lineto
32.552528 53.233009 lineto
fill
0.0000000 0.0000000 0.0000000 setrgbcolor
[1.4173228 2.8346457] 0.0000000 setdash
0.35433072 setlinewidth
0 setlinejoin
0 setlinecap
newpath
146.52843 48.426924 moveto
4.0941768 30.110870 lineto
stroke
0.0000000 0.0000000 0.0000000 setrgbcolor
[] 0 setdash
0.35433072 setlinewidth
0 setlinejoin
0 setlinecap
newpath
20.255401 32.265700 moveto
20.255401 61.140421 lineto
stroke
0.0000000 0.0000000 0.0000000 setrgbcolor
[] 0 setdash
0.35433072 setlinewidth
0 setlinejoin
0 setlinecap
newpath
163.98255 65.665564 moveto
163.98255 60.924938 lineto
stroke
0.0000000 0.0000000 0.0000000 setrgbcolor
[] 0 setdash
0.49283925 setlinewidth
0 setlinejoin
0 setlinecap
newpath
22.336693 25.585724 moveto
89.498981 25.585724 lineto
stroke
gsave [0.29570355 0.0000000 0.0000000 0.29570355 24.702321 25.585724] concat
0.0000000 0.0000000 0.0000000 setrgbcolor
newpath
0.0000000 0.0000000 moveto
5.0000000 -5.0000000 lineto
-12.500000 0.0000000 lineto
5.0000000 5.0000000 lineto
0.0000000 0.0000000 lineto
closepath
eofill
0.0000000 0.0000000 0.0000000 setrgbcolor
[] 0 setdash
1.2500000 setlinewidth
0 setlinejoin
0 setlinecap
newpath
0.0000000 0.0000000 moveto
5.0000000 -5.0000000 lineto
-12.500000 0.0000000 lineto
5.0000000 5.0000000 lineto
0.0000000 0.0000000 lineto
closepath
stroke
0.0000000 0.0000000 0.0000000 setrgbcolor
[] 0 setdash
1.5000000 setlinewidth
0 setlinejoin
0 setlinecap
newpath
-14.759949 -7.0000000 moveto
-14.759949 65.000000 lineto
stroke
grestore
gsave [-0.29570355 -0.0000000 0.0000000 0.29570355 87.133353 25.585724] concat
0.0000000 0.0000000 0.0000000 setrgbcolor
newpath
0.0000000 0.0000000 moveto
5.0000000 -5.0000000 lineto
-12.500000 0.0000000 lineto
5.0000000 5.0000000 lineto
0.0000000 0.0000000 lineto
closepath
eofill
0.0000000 0.0000000 0.0000000 setrgbcolor
[] 0 setdash
1.2500000 setlinewidth
0 setlinejoin
0 setlinecap
newpath
0.0000000 0.0000000 moveto
5.0000000 -5.0000000 lineto
-12.500000 0.0000000 lineto
5.0000000 5.0000000 lineto
0.0000000 0.0000000 lineto
closepath
stroke
0.0000000 0.0000000 0.0000000 setrgbcolor
[] 0 setdash
1.5000000 setlinewidth
0 setlinejoin
0 setlinecap
newpath
-14.759949 -7.0000000 moveto
-14.759949 65.000000 lineto
stroke
grestore
0.0000000 0.0000000 0.0000000 setrgbcolor
newpath
60.202721 66.668526 moveto
60.202717 67.374256 60.010009 67.878162 59.624596 68.180244 curveto
59.280843 68.451078 58.745687 68.586494 58.019127 68.586494 curveto
57.808188 68.586494 57.616782 68.550036 57.444908 68.477119 curveto
57.220949 68.378161 57.108970 68.236234 57.108971 68.051338 curveto
57.108970 67.965401 57.138918 67.893787 57.198814 67.836494 curveto
57.258710 67.776599 57.332928 67.746651 57.421471 67.746651 curveto
57.601157 67.746651 57.789959 67.833891 57.987877 68.008369 curveto
58.188396 68.182849 58.387615 68.270088 58.585533 68.270088 curveto
59.286051 68.270088 59.636312 67.779204 59.636314 66.797432 curveto
59.636312 66.529205 59.569905 66.276601 59.437096 66.039619 curveto
59.280843 65.760976 59.077718 65.621654 58.827721 65.621651 curveto
58.564698 65.621654 58.287355 65.695872 57.995689 65.844307 curveto
57.921471 65.645088 lineto
58.148032 65.582591 58.418865 65.408112 58.733971 65.121651 curveto
59.075114 64.811759 59.245687 64.553946 59.245689 64.348213 curveto
59.245687 64.108634 59.154541 63.901603 58.972252 63.727119 curveto
58.789958 63.552645 58.579021 63.465406 58.339439 63.465401 curveto
58.052980 63.465406 57.668866 63.694572 57.187096 64.152901 curveto
57.066002 64.102119 lineto
57.329022 63.701083 57.552980 63.422437 57.737877 63.266182 curveto
58.013917 63.039625 58.344646 62.926344 58.730064 62.926338 curveto
59.060791 62.926344 59.344645 63.030510 59.581627 63.238838 curveto
59.831624 63.457593 59.956624 63.729728 59.956627 64.055244 curveto
59.956624 64.333894 59.870686 64.565665 59.698814 64.750557 curveto
59.584228 64.875561 59.375895 65.018790 59.073814 65.180244 curveto
59.427978 65.203685 59.710530 65.372956 59.921471 65.688057 curveto
60.108967 65.969309 60.202717 66.296132 60.202721 66.668526 curveto
fill
0.0000000 0.0000000 0.0000000 setrgbcolor
newpath
64.202721 65.699776 moveto
64.202717 66.332590 64.068602 66.931548 63.800377 67.496651 curveto
63.467040 68.202380 63.017822 68.555244 62.452721 68.555244 curveto
61.866782 68.555244 61.411053 68.207589 61.085533 67.512276 curveto
60.830324 66.968006 60.702720 66.363840 60.702721 65.699776 curveto
60.702720 65.066967 60.836835 64.468009 61.105064 63.902901 curveto
61.438397 63.199781 61.887615 62.848219 62.452721 62.848213 curveto
63.038655 62.848219 63.493082 63.194573 63.816002 63.887276 curveto
64.073811 64.434155 64.202717 65.038321 64.202721 65.699776 curveto
63.628502 65.875557 moveto
63.628499 64.003166 63.236572 63.066969 62.452721 63.066963 curveto
61.668865 63.066969 61.276939 63.887280 61.276939 65.527901 curveto
61.276939 67.397693 61.668865 68.332588 62.452721 68.332588 curveto
63.236572 68.332588 63.628499 67.513579 63.628502 65.875557 curveto
fill
0.0000000 0.0000000 0.0000000 setrgbcolor
newpath
fill
0.0000000 0.0000000 0.0000000 setrgbcolor
newpath
70.398033 67.559151 moveto
70.075114 68.246651 69.563395 68.590401 68.862877 68.590401 curveto
68.412355 68.590401 68.030845 68.409411 67.718346 68.047432 curveto
67.418866 67.701079 67.269127 67.298735 67.269127 66.840401 curveto
67.269127 66.267486 67.467043 65.794831 67.862877 65.422432 curveto
68.250897 65.057852 68.733969 64.875561 69.312096 64.875557 curveto
69.483968 64.875561 69.684489 64.928946 69.913658 65.035713 curveto
70.176676 65.152904 70.308186 65.279206 70.308189 65.414619 curveto
70.308186 65.662018 70.190999 65.785716 69.956627 65.785713 curveto
69.810791 65.785716 69.715739 65.727122 69.671471 65.609932 curveto
69.629802 65.500560 69.589437 65.391185 69.550377 65.281807 curveto
69.464437 65.162019 69.299073 65.102123 69.054283 65.102119 curveto
68.661053 65.102123 68.353761 65.280508 68.132408 65.637276 curveto
67.947512 65.939362 67.855064 66.300038 67.855064 66.719307 curveto
67.855064 67.068267 67.977459 67.393787 68.222252 67.695869 curveto
68.482667 68.016182 68.782146 68.176339 69.120689 68.176338 curveto
69.607666 68.176339 69.980062 67.956287 70.237877 67.516182 curveto
70.344645 67.513579 70.398030 67.527902 70.398033 67.559151 curveto
fill
0.0000000 0.0000000 0.0000000 setrgbcolor
newpath
77.331627 68.520088 moveto
75.601158 68.520088 lineto
75.601158 68.344307 lineto
75.955320 68.344307 76.132403 68.168526 76.132408 67.816963 curveto
76.132408 66.039619 lineto
76.132403 65.818268 76.079017 65.624258 75.972252 65.457588 curveto
75.847247 65.264883 75.679278 65.168529 75.468346 65.168526 curveto
75.145425 65.168529 74.761310 65.331289 74.316002 65.656807 curveto
74.316002 68.008369 lineto
74.315998 68.221911 74.524332 68.328682 74.941002 68.328682 curveto
74.960533 68.520088 lineto
73.233971 68.520088 lineto
73.233971 68.344307 lineto
73.585530 68.344307 73.761311 68.168526 73.761314 67.816963 curveto
73.761314 66.039619 lineto
73.761311 65.815664 73.715739 65.622956 73.624596 65.461494 curveto
73.512614 65.266185 73.352458 65.168529 73.144127 65.168526 curveto
72.816000 65.168529 72.413657 65.344310 71.937096 65.695869 curveto
71.937096 67.926338 lineto
71.937095 68.181547 72.133709 68.320870 72.526939 68.344307 curveto
72.503502 68.520088 lineto
70.851158 68.520088 lineto
70.835533 68.488838 lineto
70.858971 68.367744 lineto
71.020429 68.367745 71.150637 68.301338 71.249596 68.168526 curveto
71.340741 68.046130 71.386314 67.901599 71.386314 67.734932 curveto
71.386314 65.582588 lineto
71.386314 65.488841 71.305585 65.414623 71.144127 65.359932 curveto
71.123293 65.352123 71.000898 65.323477 70.776939 65.273994 curveto
70.776939 65.176338 lineto
70.802981 65.147696 70.835533 65.126862 70.874596 65.113838 curveto
71.080325 65.043529 71.387616 64.917227 71.796471 64.734932 curveto
71.937096 64.840401 lineto
71.937096 65.543526 lineto
72.689698 65.059154 73.209229 64.816967 73.495689 64.816963 curveto
73.670166 64.816967 73.832926 64.897696 73.983971 65.059151 curveto
74.111572 65.197175 74.204019 65.358633 74.261314 65.543526 curveto
75.013914 65.059154 75.533445 64.816967 75.819908 64.816963 curveto
76.098549 64.816967 76.321205 64.945873 76.487877 65.203682 curveto
76.633704 65.427643 76.706621 65.685456 76.706627 65.977119 curveto
76.706627 68.008369 lineto
76.706621 68.221911 76.907142 68.328682 77.308189 68.328682 curveto
77.331627 68.520088 lineto
fill
0.0000000 0.0000000 0.0000000 setrgbcolor
newpath
52.087593 20.366587 moveto
51.859724 20.444712 51.630232 20.524465 51.399117 20.605844 curveto
51.135440 20.706756 50.917342 20.809295 50.744820 20.913462 curveto
50.715519 20.932993 50.684595 20.942758 50.652046 20.942759 curveto
50.593449 20.942758 50.556014 20.880910 50.539742 20.757212 curveto
50.526717 20.669321 50.523462 20.547251 50.529976 20.391001 curveto
50.542993 20.176158 50.549504 20.088267 50.549507 20.127329 curveto
50.276066 20.296600 50.002629 20.467499 49.729195 20.640024 curveto
49.429713 20.809295 49.113958 20.893930 48.781929 20.893930 curveto
48.264350 20.893930 47.836290 20.649790 47.497749 20.161509 curveto
47.195015 19.725312 47.043648 19.238659 47.043648 18.701548 curveto
47.043648 18.001681 47.248726 17.438530 47.658882 17.012094 curveto
48.140652 16.514052 48.692409 16.265029 49.314156 16.265024 curveto
49.828476 16.265029 50.240259 16.352919 50.549507 16.528696 curveto
50.549507 14.590219 lineto
50.549504 14.342830 50.368840 14.219132 50.007515 14.219126 curveto
50.004257 14.219132 49.898463 14.224015 49.690132 14.233774 curveto
49.690132 14.062876 lineto
50.194686 13.997778 50.702498 13.830135 51.213570 13.559946 curveto
51.213570 19.902719 lineto
51.213565 19.984101 51.246117 20.060598 51.311226 20.132212 curveto
51.376326 20.200572 51.447940 20.234751 51.526070 20.234751 curveto
51.591169 20.234751 51.685570 20.228241 51.809273 20.215219 curveto
51.932966 20.202199 52.025739 20.195689 52.087593 20.195688 curveto
52.087593 20.366587 lineto
50.549507 19.936899 moveto
50.549507 17.422251 lineto
50.324894 17.103244 50.116561 16.886773 49.924507 16.772837 curveto
49.709661 16.649143 49.416692 16.587294 49.045601 16.587290 curveto
48.580104 16.587294 48.239936 16.836317 48.025093 17.334360 curveto
47.872097 17.692436 47.795600 18.136772 47.795601 18.667368 curveto
47.795600 19.084036 47.924181 19.473033 48.181343 19.834360 curveto
48.464545 20.228241 48.806341 20.425181 49.206734 20.425180 curveto
49.483424 20.425181 49.931015 20.262421 50.549507 19.936899 curveto
fill
0.0000000 0.0000000 0.0000000 setrgbcolor
newpath
54.754272 22.999931 moveto
52.961304 22.999931 lineto
52.945679 22.968681 lineto
52.969116 22.847588 lineto
53.154012 22.847588 53.285522 22.821546 53.363647 22.769463 curveto
53.460001 22.704359 53.508178 22.579359 53.508179 22.394463 curveto
53.508179 20.062431 lineto
53.508178 19.872330 53.414428 19.777278 53.226929 19.777275 curveto
53.156616 19.777278 53.074585 19.788997 52.980835 19.812431 curveto
52.883179 19.656181 lineto
53.377970 19.518164 53.749063 19.371029 53.996460 19.214775 curveto
54.140991 19.320244 lineto
54.140991 22.406181 lineto
54.140990 22.661390 54.340208 22.800713 54.738647 22.824150 curveto
54.754272 22.999931 lineto
54.187866 17.999931 moveto
54.187865 18.111915 54.148802 18.208269 54.070679 18.288994 curveto
53.992553 18.367123 53.897501 18.406186 53.785522 18.406181 curveto
53.673542 18.406186 53.578490 18.367123 53.500366 18.288994 curveto
53.422241 18.208269 53.383178 18.111915 53.383179 17.999931 curveto
53.383178 17.887957 53.422241 17.792905 53.500366 17.714775 curveto
53.578490 17.636655 53.673542 17.597593 53.785522 17.597588 curveto
53.897501 17.597593 53.992553 17.636655 54.070679 17.714775 curveto
54.148802 17.792905 54.187865 17.887957 54.187866 17.999931 curveto
fill
0.0000000 0.0000000 0.0000000 setrgbcolor
newpath
57.793335 22.996025 moveto
55.515991 22.996025 lineto
55.515991 22.859306 lineto
56.068073 22.859306 56.344115 22.636650 56.344116 22.191338 curveto
56.344116 18.066338 lineto
56.203490 18.149676 56.064167 18.233009 55.926147 18.316338 curveto
55.759480 18.410092 55.612345 18.473894 55.484741 18.507744 curveto
55.410522 18.335869 lineto
55.933959 18.075457 56.383177 17.757749 56.758179 17.382744 curveto
56.992554 17.382744 lineto
56.992554 22.191338 lineto
56.992552 22.459567 57.061562 22.641859 57.199585 22.738213 curveto
57.311562 22.818942 57.509478 22.859306 57.793335 22.859306 curveto
57.793335 22.996025 lineto
fill
0.0000000 0.0000000 0.0000000 setrgbcolor
newpath
49.124546 55.322376 moveto
46.922398 55.322376 lineto
46.922398 55.102650 lineto
47.371613 55.102650 47.596222 54.882924 47.596226 54.443470 curveto
47.596226 52.378040 lineto
47.596222 52.101351 47.532746 51.855583 47.405796 51.640736 curveto
47.252798 51.383578 47.047720 51.254998 46.790562 51.254993 curveto
46.455273 51.254998 45.947461 51.487745 45.267124 51.953236 curveto
45.267124 54.580189 lineto
45.267123 54.899200 45.517774 55.073353 46.019077 55.102650 curveto
46.116734 55.322376 lineto
43.880405 55.322376 lineto
43.865757 55.283314 lineto
43.890171 55.131947 lineto
44.160353 55.131947 44.344272 55.066843 44.441929 54.936634 curveto
44.526564 54.825957 44.568881 54.627390 44.568882 54.340931 curveto
44.568882 49.135853 lineto
44.568881 49.012161 44.507032 48.912877 44.383335 48.838001 curveto
44.282423 48.776159 44.166864 48.745234 44.036655 48.745228 curveto
44.036655 48.745234 43.953648 48.761510 43.787632 48.794056 curveto
43.787632 48.777786 43.789260 48.753372 43.792515 48.720814 curveto
43.795770 48.688268 43.797398 48.662227 43.797398 48.642689 curveto
43.797398 48.597123 43.844598 48.558060 43.938999 48.525501 curveto
44.127801 48.470170 44.316603 48.414831 44.505405 48.359486 curveto
44.707228 48.294388 44.892774 48.203243 45.062046 48.086048 curveto
45.267124 48.086048 lineto
45.267124 51.660267 lineto
46.058138 51.061313 46.723827 50.761834 47.264194 50.761829 curveto
47.628774 50.761834 47.907094 50.935987 48.099155 51.284290 curveto
48.252146 51.564242 48.328643 51.902783 48.328648 52.299915 curveto
48.328648 54.682728 lineto
48.328643 54.949655 48.585804 55.083119 49.100132 55.083118 curveto
49.124546 55.322376 lineto
fill
0.0000000 0.0000000 0.0000000 setrgbcolor
newpath
53.268116 56.126923 moveto
53.268112 56.668591 53.094935 57.108694 52.748585 57.447235 curveto
52.404832 57.785777 51.960822 57.955048 51.416553 57.955048 curveto
50.924365 57.955048 50.498584 57.781871 50.139210 57.435516 curveto
49.782439 57.086559 49.604053 56.667288 49.604053 56.177704 curveto
49.604053 55.617810 49.768116 55.162082 50.096241 54.810516 curveto
50.426969 54.458957 50.870979 54.283176 51.428272 54.283173 curveto
51.959520 54.283176 52.398321 54.457655 52.744678 54.806610 curveto
53.093633 55.155571 53.268112 55.595675 53.268116 56.126923 curveto
52.561085 56.470673 moveto
52.561082 55.955050 52.480353 55.524060 52.318897 55.177704 curveto
52.102749 54.714165 51.766812 54.482395 51.311085 54.482391 curveto
50.902229 54.482395 50.619677 54.646457 50.463428 54.974579 curveto
50.354053 55.203748 50.299365 55.548800 50.299366 56.009735 curveto
50.299365 56.431612 50.402230 56.811820 50.607960 57.150360 curveto
50.847542 57.543590 51.165250 57.740204 51.561085 57.740204 curveto
52.227749 57.740204 52.561082 57.317027 52.561085 56.470673 curveto
fill
0.0000000 0.0000000 0.0000000 setrgbcolor
newpath
56.357960 57.904266 moveto
54.080616 57.904266 lineto
54.080616 57.767548 lineto
54.632698 57.767548 54.908740 57.544892 54.908741 57.099579 curveto
54.908741 52.974579 lineto
54.768115 53.057917 54.628792 53.141250 54.490772 53.224579 curveto
54.324105 53.318333 54.176970 53.382135 54.049366 53.415985 curveto
53.975147 53.244110 lineto
54.498584 52.983698 54.947802 52.665990 55.322803 52.290985 curveto
55.557178 52.290985 lineto
55.557178 57.099579 lineto
55.557176 57.367809 55.626187 57.550100 55.764210 57.646454 curveto
55.876187 57.727183 56.074103 57.767548 56.357960 57.767548 curveto
56.357960 57.904266 lineto
fill
0.0000000 0.0000000 0.0000000 setrgbcolor
newpath
113.71572 18.642729 moveto
113.48785 18.720854 113.25836 18.800607 113.02724 18.881987 curveto
112.76357 18.982898 112.54547 19.085437 112.37295 19.189604 curveto
112.34365 19.209135 112.31272 19.218901 112.28017 19.218901 curveto
112.22158 19.218901 112.18414 19.157052 112.16787 19.033354 curveto
112.15485 18.945463 112.15159 18.823393 112.15810 18.667143 curveto
112.17112 18.452300 112.17763 18.364409 112.17764 18.403471 curveto
111.90419 18.572742 111.63076 18.743641 111.35732 18.916166 curveto
111.05784 19.085437 110.74209 19.170073 110.41006 19.170073 curveto
109.89248 19.170073 109.46442 18.925932 109.12588 18.437651 curveto
108.82314 18.001454 108.67178 17.514801 108.67178 16.977690 curveto
108.67178 16.277823 108.87685 15.714672 109.28701 15.288237 curveto
109.76878 14.790194 110.32054 14.541171 110.94228 14.541166 curveto
111.45660 14.541171 111.86839 14.629061 112.17764 14.804838 curveto
112.17764 12.866362 lineto
112.17763 12.618972 111.99697 12.495274 111.63564 12.495268 curveto
111.63238 12.495274 111.52659 12.500157 111.31826 12.509916 curveto
111.31826 12.339018 lineto
111.82281 12.273921 112.33063 12.106277 112.84170 11.836088 curveto
112.84170 18.178862 lineto
112.84169 18.260243 112.87425 18.336740 112.93935 18.408354 curveto
113.00445 18.476714 113.07607 18.510893 113.15420 18.510893 curveto
113.21930 18.510893 113.31370 18.504383 113.43740 18.491362 curveto
113.56109 18.478341 113.65387 18.471831 113.71572 18.471830 curveto
113.71572 18.642729 lineto
112.17764 18.213041 moveto
112.17764 15.698393 lineto
111.95302 15.379386 111.74469 15.162915 111.55264 15.048979 curveto
111.33779 14.925285 111.04482 14.863436 110.67373 14.863432 curveto
110.20823 14.863436 109.86806 15.112459 109.65322 15.610502 curveto
109.50023 15.968578 109.42373 16.412914 109.42373 16.943510 curveto
109.42373 17.360178 109.55231 17.749175 109.80947 18.110502 curveto
110.09267 18.504383 110.43447 18.701323 110.83486 18.701323 curveto
111.11155 18.701323 111.55914 18.538563 112.17764 18.213041 curveto
fill
0.0000000 0.0000000 0.0000000 setrgbcolor
newpath
14.674435 45.625652 moveto
12.881466 45.625652 lineto
12.865841 45.594402 lineto
12.889278 45.473309 lineto
13.074174 45.473309 13.205684 45.447267 13.283810 45.395184 curveto
13.380163 45.330080 13.428340 45.205080 13.428341 45.020184 curveto
13.428341 42.688152 lineto
13.428340 42.498051 13.334590 42.402999 13.147091 42.402996 curveto
13.076778 42.402999 12.994747 42.414718 12.900997 42.438152 curveto
12.803341 42.281902 lineto
13.298132 42.143885 13.669225 41.996750 13.916622 41.840496 curveto
14.061153 41.945965 lineto
14.061153 45.031902 lineto
14.061152 45.287111 14.260371 45.426434 14.658810 45.449871 curveto
14.674435 45.625652 lineto
14.108028 40.625652 moveto
14.108027 40.737636 14.068965 40.833990 13.990841 40.914715 curveto
13.912715 40.992844 13.817663 41.031907 13.705685 41.031902 curveto
13.593705 41.031907 13.498653 40.992844 13.420528 40.914715 curveto
13.342403 40.833990 13.303340 40.737636 13.303341 40.625652 curveto
13.303340 40.513678 13.342403 40.418626 13.420528 40.340496 curveto
13.498653 40.262376 13.593705 40.223314 13.705685 40.223309 curveto
13.817663 40.223314 13.912715 40.262376 13.990841 40.340496 curveto
14.068965 40.418626 14.108027 40.513678 14.108028 40.625652 curveto
fill
0.0000000 0.0000000 0.0000000 setrgbcolor
newpath
17.713497 45.621746 moveto
15.436153 45.621746 lineto
15.436153 45.485027 lineto
15.988236 45.485027 16.264277 45.262371 16.264278 44.817059 curveto
16.264278 40.692059 lineto
16.123652 40.775397 15.984329 40.858730 15.846310 40.942059 curveto
15.679642 41.035813 15.532507 41.099615 15.404903 41.133465 curveto
15.330685 40.961590 lineto
15.854121 40.701178 16.303339 40.383470 16.678341 40.008465 curveto
16.912716 40.008465 lineto
16.912716 44.817059 lineto
16.912714 45.085288 16.981724 45.267580 17.119747 45.363934 curveto
17.231724 45.444663 17.429640 45.485027 17.713497 45.485027 curveto
17.713497 45.621746 lineto
fill
0.0000000 0.0000000 0.0000000 setrgbcolor
newpath
165.08156 58.123657 moveto
163.28859 58.123657 lineto
163.27296 58.092407 lineto
163.29640 57.971313 lineto
163.48130 57.971314 163.61281 57.945272 163.69093 57.893188 curveto
163.78729 57.828085 163.83546 57.703085 163.83546 57.518188 curveto
163.83546 55.186157 lineto
163.83546 54.996056 163.74171 54.901004 163.55421 54.901001 curveto
163.48390 54.901004 163.40187 54.912723 163.30812 54.936157 curveto
163.21046 54.779907 lineto
163.70526 54.641890 164.07635 54.494755 164.32375 54.338501 curveto
164.46828 54.443970 lineto
164.46828 57.529907 lineto
164.46828 57.785116 164.66749 57.924439 165.06593 57.947876 curveto
165.08156 58.123657 lineto
164.51515 53.123657 moveto
164.51515 53.235641 164.47609 53.331995 164.39796 53.412720 curveto
164.31984 53.490849 164.22479 53.529912 164.11281 53.529907 curveto
164.00083 53.529912 163.90578 53.490849 163.82765 53.412720 curveto
163.74953 53.331995 163.71046 53.235641 163.71046 53.123657 curveto
163.71046 53.011683 163.74953 52.916631 163.82765 52.838501 curveto
163.90578 52.760381 164.00083 52.721319 164.11281 52.721313 curveto
164.22479 52.721319 164.31984 52.760381 164.39796 52.838501 curveto
164.47609 52.916631 164.51515 53.011683 164.51515 53.123657 curveto
fill
0.0000000 0.0000000 0.0000000 setrgbcolor
newpath
169.21046 57.010376 moveto
169.21046 57.059856 169.09588 57.430950 168.86671 58.123657 curveto
165.59718 58.123657 lineto
165.52296 57.893188 lineto
167.26255 56.489544 168.13234 55.213504 168.13234 54.065063 curveto
168.13234 53.393193 167.82765 53.057256 167.21828 53.057251 curveto
166.54119 53.057256 166.02557 53.376266 165.67140 54.014282 curveto
165.49953 53.940063 lineto
165.64015 53.552047 165.87973 53.225225 166.21828 52.959595 curveto
166.57505 52.678350 166.95265 52.537725 167.35109 52.537720 curveto
167.71827 52.537725 168.02687 52.649704 168.27687 52.873657 curveto
168.53728 53.108037 168.66749 53.406214 168.66750 53.768188 curveto
168.66749 54.927046 167.88234 56.204388 166.31203 57.600220 curveto
168.44875 57.600220 lineto
168.59197 57.600220 168.72869 57.489543 168.85890 57.268188 curveto
168.98911 57.046835 169.04900 56.936158 169.03859 56.936157 curveto
169.05942 56.936158 169.08937 56.947877 169.12843 56.971313 curveto
169.16749 56.992148 169.19484 57.005169 169.21046 57.010376 curveto
fill
0.0000000 0.0000000 0.0000000 setrgbcolor
newpath
14.481181 55.480476 moveto
14.481177 56.022144 14.308001 56.462248 13.961650 56.800789 curveto
13.617897 57.139331 13.173887 57.308601 12.629619 57.308601 curveto
12.137430 57.308601 11.711649 57.135424 11.352275 56.789070 curveto
10.995504 56.440113 10.817119 56.020842 10.817119 55.531258 curveto
10.817119 54.971364 10.981181 54.515635 11.309306 54.164070 curveto
11.640034 53.812511 12.084044 53.636730 12.641337 53.636726 curveto
13.172585 53.636730 13.611387 53.811209 13.957744 54.160164 curveto
14.306698 54.509125 14.481177 54.949229 14.481181 55.480476 curveto
13.774150 55.824226 moveto
13.774147 55.308603 13.693418 54.877614 13.531962 54.531258 curveto
13.315814 54.067719 12.979877 53.835949 12.524150 53.835945 curveto
12.115294 53.835949 11.832743 54.000011 11.676494 54.328133 curveto
11.567118 54.557302 11.512430 54.902354 11.512431 55.363289 curveto
11.512430 55.785165 11.615295 56.165373 11.821025 56.503914 curveto
12.060607 56.897143 12.378315 57.093758 12.774150 57.093758 curveto
13.440814 57.093758 13.774147 56.670581 13.774150 55.824226 curveto
fill
0.0000000 0.0000000 0.0000000 setrgbcolor
newpath
18.660869 56.148445 moveto
18.660865 56.197925 18.546281 56.569019 18.317119 57.261726 curveto
15.047587 57.261726 lineto
14.973369 57.031258 lineto
16.712950 55.627613 17.582741 54.351573 17.582744 53.203133 curveto
17.582741 52.531262 17.278054 52.195325 16.668681 52.195320 curveto
15.991597 52.195325 15.475972 52.514335 15.121806 53.152351 curveto
14.949931 53.078133 lineto
15.090556 52.690116 15.330139 52.363294 15.668681 52.097664 curveto
16.025451 51.816419 16.403054 51.675794 16.801494 51.675789 curveto
17.168679 51.675794 17.477272 51.787774 17.727275 52.011726 curveto
17.987688 52.246106 18.117897 52.544283 18.117900 52.906258 curveto
18.117897 54.065115 17.332741 55.342457 15.762431 56.738289 curveto
17.899150 56.738289 lineto
18.042376 56.738289 18.179094 56.627612 18.309306 56.406258 curveto
18.439511 56.184905 18.499407 56.074228 18.488994 56.074226 curveto
18.509823 56.074228 18.539771 56.085946 18.578837 56.109383 curveto
18.617896 56.130217 18.645240 56.143238 18.660869 56.148445 curveto
fill
0.0000000 0.0000000 0.0000000 setrgbcolor
newpath
11.934226 43.641243 moveto
9.7320776 43.641243 lineto
9.7320776 43.421516 lineto
10.181293 43.421517 10.405902 43.201790 10.405906 42.762337 curveto
10.405906 40.696907 lineto
10.405902 40.420218 10.342426 40.174450 10.215476 39.959602 curveto
10.062478 39.702445 9.8574000 39.573864 9.6002417 39.573860 curveto
9.2649527 39.573864 8.7571407 39.806611 8.0768042 40.272102 curveto
8.0768042 42.899055 lineto
8.0768029 43.218066 8.3274536 43.392220 8.8287573 43.421516 curveto
8.9264135 43.641243 lineto
6.6900854 43.641243 lineto
6.6754370 43.602180 lineto
6.6998510 43.450813 lineto
6.9700331 43.450813 7.1539522 43.385709 7.2516088 43.255501 curveto
7.3362437 43.144824 7.3785614 42.946257 7.3785620 42.659798 curveto
7.3785620 37.454720 lineto
7.3785614 37.331028 7.3167125 37.231744 7.1930151 37.156868 curveto
7.0921033 37.095026 6.9765435 37.064101 6.8463354 37.064095 curveto
6.8463353 37.064101 6.7633276 37.080377 6.5973120 37.112923 curveto
6.5973121 37.096653 6.5989397 37.072239 6.6021948 37.039680 curveto
6.6054502 37.007135 6.6070778 36.981093 6.6070776 36.961555 curveto
6.6070778 36.915989 6.6542782 36.876927 6.7486792 36.844368 curveto
6.9374811 36.789036 7.1262830 36.733698 7.3150854 36.678352 curveto
7.5169076 36.613255 7.7024543 36.522109 7.8717260 36.404915 curveto
8.0768042 36.404915 lineto
8.0768042 39.979134 lineto
8.8678177 39.380180 9.5335071 39.080701 10.073874 39.080696 curveto
10.438454 39.080701 10.716774 39.254854 10.908835 39.603157 curveto
11.061826 39.883109 11.138323 40.221650 11.138328 40.618782 curveto
11.138328 43.001595 lineto
11.138323 43.268522 11.395484 43.401985 11.909812 43.401985 curveto
11.934226 43.641243 lineto
fill
0.0000000 0.0000000 0.0000000 setrgbcolor
newpath
9.9948783 55.061852 moveto
7.7927299 55.061852 lineto
7.7927299 54.842125 lineto
8.2419452 54.842125 8.4665543 54.622399 8.4665580 54.182945 curveto
8.4665580 52.117516 lineto
8.4665543 51.840826 8.4030778 51.595058 8.2761283 51.380211 curveto
8.1231302 51.123053 7.9180523 50.994473 7.6608939 50.994469 curveto
7.3256050 50.994473 6.8177930 51.227220 6.1374564 51.692711 curveto
6.1374564 54.319664 lineto
6.1374551 54.638675 6.3881059 54.812828 6.8894095 54.842125 curveto
6.9870658 55.061852 lineto
4.7507377 55.061852 lineto
4.7360892 55.022789 lineto
4.7605033 54.871422 lineto
5.0306854 54.871422 5.2146045 54.806318 5.3122611 54.676109 curveto
5.3968960 54.565433 5.4392136 54.366865 5.4392142 54.080406 curveto
5.4392142 48.875328 lineto
5.4392136 48.751636 5.3773647 48.652353 5.2536674 48.577477 curveto
5.1527556 48.515634 5.0371958 48.484710 4.9069877 48.484703 curveto
4.9069876 48.484710 4.8239799 48.500986 4.6579642 48.533531 curveto
4.6579644 48.517262 4.6595920 48.492848 4.6628470 48.460289 curveto
4.6661024 48.427744 4.6677300 48.401702 4.6677299 48.382164 curveto
4.6677300 48.336598 4.7149305 48.297535 4.8093314 48.264977 curveto
4.9981333 48.209645 5.1869352 48.154306 5.3757377 48.098961 curveto
5.5775598 48.033864 5.7631065 47.942718 5.9323783 47.825523 curveto
6.1374564 47.825523 lineto
6.1374564 51.399742 lineto
6.9284699 50.800788 7.5941594 50.501309 8.1345267 50.501305 curveto
8.4991064 50.501309 8.7774264 50.675463 8.9694877 51.023766 curveto
9.1224782 51.303717 9.1989755 51.642259 9.1989799 52.039391 curveto
9.1989799 54.422203 lineto
9.1989755 54.689131 9.4561367 54.822594 9.9704642 54.822594 curveto
9.9948783 55.061852 lineto
fill
0.0000000 0.0000000 0.0000000 setrgbcolor
[] 0 setdash
0.66111040 setlinewidth
0 setlinejoin
0 setlinecap
newpath
23.072398 9.6399863 moveto
143.92692 9.6399863 lineto
stroke
gsave [0.39666624 0.0000000 0.0000000 0.39666624 26.245728 9.6399863] concat
0.0000000 0.0000000 0.0000000 setrgbcolor
newpath
0.0000000 0.0000000 moveto
5.0000000 -5.0000000 lineto
-12.500000 0.0000000 lineto
5.0000000 5.0000000 lineto
0.0000000 0.0000000 lineto
closepath
eofill
0.0000000 0.0000000 0.0000000 setrgbcolor
[] 0 setdash
1.2500000 setlinewidth
0 setlinejoin
0 setlinecap
newpath
0.0000000 0.0000000 moveto
5.0000000 -5.0000000 lineto
-12.500000 0.0000000 lineto
5.0000000 5.0000000 lineto
0.0000000 0.0000000 lineto
closepath
stroke
0.0000000 0.0000000 0.0000000 setrgbcolor
[] 0 setdash
1.5000000 setlinewidth
0 setlinejoin
0 setlinecap
newpath
-14.759949 -7.0000000 moveto
-14.759949 65.000000 lineto
stroke
grestore
gsave [-0.39666624 -0.0000000 0.0000000 0.39666624 140.75359 9.6399863] concat
0.0000000 0.0000000 0.0000000 setrgbcolor
newpath
0.0000000 0.0000000 moveto
5.0000000 -5.0000000 lineto
-12.500000 0.0000000 lineto
5.0000000 5.0000000 lineto
0.0000000 0.0000000 lineto
closepath
eofill
0.0000000 0.0000000 0.0000000 setrgbcolor
[] 0 setdash
1.2500000 setlinewidth
0 setlinejoin
0 setlinecap
newpath
0.0000000 0.0000000 moveto
5.0000000 -5.0000000 lineto
-12.500000 0.0000000 lineto
5.0000000 5.0000000 lineto
0.0000000 0.0000000 lineto
closepath
stroke
0.0000000 0.0000000 0.0000000 setrgbcolor
[] 0 setdash
1.5000000 setlinewidth
0 setlinejoin
0 setlinecap
newpath
-14.759949 -7.0000000 moveto
-14.759949 65.000000 lineto
stroke
grestore
0.0000000 0.0000000 0.0000000 setrgbcolor
newpath
118.25783 19.247585 moveto
118.25782 19.789253 118.08465 20.229357 117.73830 20.567898 curveto
117.39454 20.906440 116.95053 21.075710 116.40627 21.075710 curveto
115.91408 21.075710 115.48830 20.902533 115.12892 20.556179 curveto
114.77215 20.207222 114.59377 19.787951 114.59377 19.298367 curveto
114.59377 18.738473 114.75783 18.282744 115.08595 17.931179 curveto
115.41668 17.579620 115.86069 17.403839 116.41798 17.403835 curveto
116.94923 17.403839 117.38803 17.578318 117.73439 17.927273 curveto
118.08335 18.276234 118.25782 18.716338 118.25783 19.247585 curveto
117.55080 19.591335 moveto
117.55079 19.075712 117.47006 18.644723 117.30861 18.298367 curveto
117.09246 17.834828 116.75652 17.603057 116.30080 17.603054 curveto
115.89194 17.603057 115.60939 17.767120 115.45314 18.095242 curveto
115.34376 18.324411 115.28908 18.669463 115.28908 19.130398 curveto
115.28908 19.552274 115.39194 19.932482 115.59767 20.271023 curveto
115.83725 20.664252 116.15496 20.860867 116.55080 20.860867 curveto
117.21746 20.860867 117.55079 20.437690 117.55080 19.591335 curveto
fill
0.0000000 0.0000000 0.0000000 setrgbcolor
newpath
122.43752 19.915554 moveto
122.43751 19.965034 122.32293 20.336128 122.09377 21.028835 curveto
118.82423 21.028835 lineto
118.75002 20.798367 lineto
120.48960 19.394722 121.35939 18.118682 121.35939 16.970242 curveto
121.35939 16.298371 121.05470 15.962434 120.44533 15.962429 curveto
119.76824 15.962434 119.25262 16.281444 118.89845 16.919460 curveto
118.72658 16.845242 lineto
118.86720 16.457225 119.10679 16.130403 119.44533 15.864773 curveto
119.80210 15.583528 120.17970 15.442903 120.57814 15.442898 curveto
120.94533 15.442903 121.25392 15.554882 121.50392 15.778835 curveto
121.76433 16.013215 121.89454 16.311392 121.89455 16.673367 curveto
121.89454 17.832224 121.10939 19.109566 119.53908 20.505398 curveto
121.67580 20.505398 lineto
121.81902 20.505398 121.95574 20.394721 122.08595 20.173367 curveto
122.21616 19.952013 122.27605 19.841336 122.26564 19.841335 curveto
122.28647 19.841336 122.31642 19.853055 122.35548 19.876492 curveto
122.39454 19.897326 122.42189 19.910347 122.43752 19.915554 curveto
fill
0.0000000 0.0000000 0.0000000 setrgbcolor
newpath
186.90706 63.164284 moveto
186.73128 63.164284 lineto
186.73127 62.516503 186.44481 62.192611 185.87190 62.192604 curveto
183.66975 62.192604 lineto
183.66975 64.814674 lineto
185.49104 64.814674 lineto
185.68635 64.814678 185.84097 64.738181 185.95491 64.585182 curveto
186.05256 64.451723 186.10139 64.280825 186.10139 64.072487 curveto
186.23811 64.072487 lineto
186.23811 65.976784 lineto
186.10139 65.976784 lineto
186.10139 65.442933 185.89794 65.176006 185.49104 65.176003 curveto
183.66975 65.176003 lineto
183.66975 67.827370 lineto
183.66975 68.263568 183.96435 68.481667 184.55354 68.481667 curveto
184.55354 68.701393 lineto
181.99983 68.701393 lineto
181.99983 68.481667 lineto
182.54020 68.481667 182.81038 68.244037 182.81038 67.768776 curveto
182.81038 62.505104 lineto
182.81038 62.150293 182.54020 61.974512 181.99983 61.977760 curveto
181.99983 61.767799 lineto
186.78987 61.767799 lineto
186.90706 63.164284 lineto
fill
0.0000000 0.0000000 0.0000000 setrgbcolor
newpath
162.34135 56.139271 moveto
160.13921 56.139271 lineto
160.13921 55.919544 lineto
160.58842 55.919544 160.81303 55.699818 160.81303 55.260365 curveto
160.81303 53.194935 lineto
160.81303 52.918245 160.74955 52.672477 160.62260 52.457630 curveto
160.46961 52.200473 160.26453 52.071892 160.00737 52.071888 curveto
159.67208 52.071892 159.16427 52.304639 158.48393 52.770130 curveto
158.48393 55.397083 lineto
158.48393 55.716094 158.73458 55.890248 159.23589 55.919544 curveto
159.33354 56.139271 lineto
157.09721 56.139271 lineto
157.08257 56.100208 lineto
157.10698 55.948841 lineto
157.37716 55.948841 157.56108 55.883737 157.65874 55.753529 curveto
157.74337 55.642852 157.78569 55.444284 157.78569 55.157825 curveto
157.78569 49.952747 lineto
157.78569 49.829056 157.72384 49.729772 157.60014 49.654896 curveto
157.49923 49.593053 157.38367 49.562129 157.25346 49.562122 curveto
157.25346 49.562129 157.17046 49.578405 157.00444 49.610950 curveto
157.00444 49.594681 157.00607 49.570267 157.00932 49.537708 curveto
157.01258 49.505163 157.01421 49.479121 157.01421 49.459583 curveto
157.01421 49.414017 157.06141 49.374955 157.15581 49.342396 curveto
157.34461 49.287064 157.53341 49.231726 157.72221 49.176380 curveto
157.92404 49.111283 158.10958 49.020137 158.27885 48.902943 curveto
158.48393 48.902943 lineto
158.48393 52.477161 lineto
159.27495 51.878207 159.94064 51.578728 160.48100 51.578724 curveto
160.84558 51.578728 161.12390 51.752882 161.31596 52.101185 curveto
161.46895 52.381137 161.54545 52.719678 161.54546 53.116810 curveto
161.54546 55.499622 lineto
161.54545 55.766550 161.80261 55.900013 162.31694 55.900013 curveto
162.34135 56.139271 lineto
fill
0.0000000 0.0000000 0.0000000 setrgbcolor
newpath
159.82455 81.063332 moveto
159.59668 81.141457 159.36719 81.221210 159.13608 81.302589 curveto
158.87240 81.403501 158.65430 81.506040 158.48178 81.610207 curveto
158.45248 81.629738 158.42156 81.639503 158.38901 81.639503 curveto
158.33041 81.639503 158.29298 81.577654 158.27670 81.453957 curveto
158.26368 81.366066 158.26042 81.243996 158.26694 81.087746 curveto
158.27995 80.872903 158.28646 80.785012 158.28647 80.824074 curveto
158.01303 80.993345 157.73959 81.164243 157.46616 81.336769 curveto
157.16667 81.506040 156.85092 81.590675 156.51889 81.590675 curveto
156.00131 81.590675 155.57325 81.346535 155.23471 80.858253 curveto
154.93198 80.422057 154.78061 79.935404 154.78061 79.398293 curveto
154.78061 78.698426 154.98569 78.135275 155.39584 77.708839 curveto
155.87761 77.210797 156.42937 76.961774 157.05112 76.961769 curveto
157.56544 76.961774 157.97722 77.049664 158.28647 77.225441 curveto
158.28647 75.286964 lineto
158.28646 75.039575 158.10580 74.915877 157.74448 74.915871 curveto
157.74122 74.915877 157.63542 74.920760 157.42709 74.930519 curveto
157.42709 74.759621 lineto
157.93165 74.694523 158.43946 74.526880 158.95053 74.256691 curveto
158.95053 80.599464 lineto
158.95053 80.680845 158.98308 80.757343 159.04819 80.828957 curveto
159.11329 80.897317 159.18490 80.931496 159.26303 80.931496 curveto
159.32813 80.931496 159.42253 80.924986 159.54623 80.911964 curveto
159.66993 80.898944 159.76270 80.892434 159.82455 80.892433 curveto
159.82455 81.063332 lineto
158.28647 80.633644 moveto
158.28647 78.118996 lineto
158.06186 77.799989 157.85352 77.583518 157.66147 77.469582 curveto
157.44662 77.345888 157.15365 77.284039 156.78256 77.284035 curveto
156.31707 77.284039 155.97690 77.533062 155.76205 78.031105 curveto
155.60906 78.389181 155.53256 78.833517 155.53256 79.364113 curveto
155.53256 79.780781 155.66114 80.169778 155.91830 80.531105 curveto
156.20151 80.924986 156.54330 81.121926 156.94370 81.121925 curveto
157.22039 81.121926 157.66798 80.959166 158.28647 80.633644 curveto
fill
0.0000000 0.0000000 0.0000000 setrgbcolor
newpath
162.63817 83.326851 moveto
160.84520 83.326851 lineto
160.82957 83.295601 lineto
160.85301 83.174507 lineto
161.03791 83.174507 161.16942 83.148466 161.24754 83.096382 curveto
161.34390 83.031278 161.39207 82.906278 161.39207 82.721382 curveto
161.39207 80.389351 lineto
161.39207 80.199250 161.29832 80.104198 161.11082 80.104195 curveto
161.04051 80.104198 160.95848 80.115917 160.86473 80.139351 curveto
160.76707 79.983101 lineto
161.26187 79.845084 161.63296 79.697948 161.88036 79.541695 curveto
162.02489 79.647163 lineto
162.02489 82.733101 lineto
162.02489 82.988310 162.22410 83.127632 162.62254 83.151070 curveto
162.63817 83.326851 lineto
162.07176 78.326851 moveto
162.07176 78.438835 162.03270 78.535189 161.95457 78.615913 curveto
161.87645 78.694043 161.78140 78.733105 161.66942 78.733101 curveto
161.55744 78.733105 161.46239 78.694043 161.38426 78.615913 curveto
161.30614 78.535189 161.26707 78.438835 161.26707 78.326851 curveto
161.26707 78.214877 161.30614 78.119825 161.38426 78.041695 curveto
161.46239 77.963575 161.55744 77.924513 161.66942 77.924507 curveto
161.78140 77.924513 161.87645 77.963575 161.95457 78.041695 curveto
162.03270 78.119825 162.07176 78.214877 162.07176 78.326851 curveto
fill
0.0000000 0.0000000 0.0000000 setrgbcolor
newpath
166.76707 82.213570 moveto
166.76707 82.263050 166.65249 82.634143 166.42332 83.326851 curveto
163.15379 83.326851 lineto
163.07957 83.096382 lineto
164.81916 81.692738 165.68895 80.416698 165.68895 79.268257 curveto
165.68895 78.596387 165.38426 78.260450 164.77489 78.260445 curveto
164.09780 78.260450 163.58218 78.579460 163.22801 79.217476 curveto
163.05614 79.143257 lineto
163.19676 78.755241 163.43634 78.428418 163.77489 78.162788 curveto
164.13166 77.881544 164.50926 77.740919 164.90770 77.740913 curveto
165.27488 77.740919 165.58348 77.852898 165.83348 78.076851 curveto
166.09389 78.311231 166.22410 78.609408 166.22411 78.971382 curveto
166.22410 80.130240 165.43895 81.407582 163.86864 82.803413 curveto
166.00536 82.803413 lineto
166.14858 82.803414 166.28530 82.692737 166.41551 82.471382 curveto
166.54572 82.250029 166.60561 82.139352 166.59520 82.139351 curveto
166.61603 82.139352 166.64598 82.151071 166.68504 82.174507 curveto
166.72410 82.195342 166.75145 82.208362 166.76707 82.213570 curveto
fill
0.0000000 0.0000000 0.0000000 setrgbcolor
newpath
135.83397 104.10374 moveto
135.34569 104.56272 lineto
135.24152 104.10049 134.91274 103.86937 134.35936 103.86936 curveto
134.04035 103.86937 133.75389 103.96540 133.49998 104.15745 curveto
133.22655 104.36579 133.08983 104.62620 133.08983 104.93870 curveto
133.08983 106.09592 lineto
134.23729 106.09592 lineto
134.23729 106.46702 lineto
133.08983 106.46702 lineto
133.08983 109.69944 lineto
133.08983 110.11611 133.31932 110.32444 133.77831 110.32444 curveto
133.81411 110.32444 133.86619 110.32444 133.93456 110.32444 curveto
134.00291 110.32119 134.05337 110.31956 134.08592 110.31956 curveto
134.08592 110.53928 lineto
131.70799 110.53928 lineto
131.68358 110.39768 lineto
131.95051 110.31630 132.10838 110.26259 132.15721 110.23655 curveto
132.31997 110.14866 132.40135 110.01682 132.40135 109.84104 curveto
132.40135 106.46702 lineto
132.31021 106.47679 132.02537 106.45400 131.54686 106.39866 curveto
131.54686 106.20823 lineto
131.95051 106.20823 132.18488 106.17080 132.24998 106.09592 curveto
132.40135 106.09592 lineto
132.40135 105.94944 lineto
132.40135 105.42536 132.45832 105.04775 132.57225 104.81663 curveto
132.66014 104.64411 132.89451 104.37393 133.27538 104.00608 curveto
133.60740 103.68708 134.08592 103.52757 134.71092 103.52757 curveto
135.04621 103.52757 135.42055 103.71963 135.83397 104.10374 curveto
fill
0.0000000 0.0000000 0.0000000 setrgbcolor
newpath
fill
0.0000000 0.0000000 0.0000000 setrgbcolor
newpath
142.78709 106.36448 moveto
138.73436 106.36448 lineto
138.73436 105.90549 lineto
142.78709 105.90549 lineto
142.78709 106.36448 lineto
142.78709 108.20530 moveto
138.73436 108.20530 lineto
138.73436 107.74143 lineto
142.78709 107.74143 lineto
142.78709 108.20530 lineto
fill
0.0000000 0.0000000 0.0000000 setrgbcolor
newpath
fill
0.0000000 0.0000000 0.0000000 setrgbcolor
newpath
149.87206 110.53440 moveto
147.02538 110.53440 lineto
147.02538 110.36350 lineto
147.71548 110.36350 148.06053 110.08518 148.06053 109.52854 curveto
148.06053 104.37229 lineto
147.88475 104.47646 147.71060 104.58063 147.53807 104.68479 curveto
147.32974 104.80198 147.14582 104.88174 146.98631 104.92405 curveto
146.89354 104.70921 lineto
147.54784 104.38369 148.10936 103.98656 148.57811 103.51780 curveto
148.87108 103.51780 lineto
148.87108 109.52854 lineto
148.87108 109.86383 148.95734 110.09169 149.12987 110.21214 curveto
149.26984 110.31305 149.51723 110.36350 149.87206 110.36350 curveto
149.87206 110.53440 lineto
fill
0.0000000 0.0000000 0.0000000 setrgbcolor
newpath
155.30663 107.01389 moveto
155.30662 107.80491 155.13898 108.55361 154.80370 109.25999 curveto
154.38703 110.14215 153.82550 110.58323 153.11913 110.58323 curveto
152.38670 110.58323 151.81704 110.14866 151.41014 109.27952 curveto
151.09113 108.59918 150.93162 107.84397 150.93163 107.01389 curveto
150.93162 106.22288 151.09927 105.47418 151.43456 104.76780 curveto
151.85122 103.88890 152.41274 103.44945 153.11913 103.44944 curveto
153.85154 103.44945 154.41958 103.88239 154.82323 104.74827 curveto
155.14549 105.43187 155.30662 106.18707 155.30663 107.01389 curveto
154.58885 107.23362 moveto
154.58885 104.89313 154.09894 103.72288 153.11913 103.72288 curveto
152.13931 103.72288 151.64940 104.74827 151.64940 106.79905 curveto
151.64940 109.13629 152.13931 110.30491 153.11913 110.30491 curveto
154.09894 110.30491 154.58885 109.28115 154.58885 107.23362 curveto
fill
0.0000000 0.0000000 0.0000000 setrgbcolor
newpath
fill
0.0000000 0.0000000 0.0000000 setrgbcolor
newpath
163.05077 109.33811 moveto
162.64712 110.19749 162.00747 110.62717 161.13182 110.62717 curveto
160.56867 110.62717 160.09178 110.40094 159.70116 109.94846 curveto
159.32681 109.51552 159.13963 109.01259 159.13963 108.43967 curveto
159.13963 107.72353 159.38703 107.13271 159.88182 106.66721 curveto
160.36685 106.21149 160.97069 105.98362 161.69334 105.98362 curveto
161.90819 105.98362 162.15884 106.05036 162.44530 106.18382 curveto
162.77407 106.33030 162.93846 106.48818 162.93846 106.65745 curveto
162.93846 106.96670 162.79197 107.12132 162.49901 107.12132 curveto
162.31671 107.12132 162.19790 107.04808 162.14256 106.90159 curveto
162.09048 106.76487 162.04002 106.62815 161.99120 106.49143 curveto
161.88377 106.34170 161.67707 106.26683 161.37108 106.26682 curveto
160.87954 106.26683 160.49543 106.48981 160.21873 106.93577 curveto
159.98761 107.31338 159.87205 107.76422 159.87206 108.28831 curveto
159.87205 108.72451 160.02505 109.13141 160.33104 109.50901 curveto
160.65656 109.90940 161.03091 110.10960 161.45409 110.10960 curveto
162.06281 110.10960 162.52830 109.83453 162.85057 109.28440 curveto
162.98403 109.28115 163.05076 109.29905 163.05077 109.33811 curveto
fill
0.0000000 0.0000000 0.0000000 setrgbcolor
newpath
171.71776 110.53928 moveto
169.55467 110.53928 lineto
169.55467 110.31956 lineto
169.99737 110.31956 170.21873 110.09983 170.21873 109.66038 curveto
170.21873 107.43870 lineto
170.21873 107.16201 170.15200 106.91950 170.01854 106.71116 curveto
169.86228 106.47028 169.65232 106.34983 169.38866 106.34983 curveto
168.98501 106.34983 168.50486 106.55329 167.94823 106.96018 curveto
167.94823 109.89964 lineto
167.94822 110.16656 168.20864 110.30003 168.72948 110.30003 curveto
168.75389 110.53928 lineto
166.59569 110.53928 lineto
166.59569 110.31956 lineto
167.03514 110.31956 167.25486 110.09983 167.25487 109.66038 curveto
167.25487 107.43870 lineto
167.25486 107.15875 167.19790 106.91787 167.08397 106.71604 curveto
166.94399 106.47191 166.74380 106.34983 166.48338 106.34983 curveto
166.07322 106.34983 165.57030 106.56956 164.97459 107.00901 curveto
164.97459 109.79710 lineto
164.97459 110.11611 165.22036 110.29026 165.71190 110.31956 curveto
165.68260 110.53928 lineto
163.61717 110.53928 lineto
163.59764 110.50022 lineto
163.62694 110.34885 lineto
163.82876 110.34885 163.99152 110.26585 164.11522 110.09983 curveto
164.22915 109.94684 164.28612 109.76617 164.28612 109.55784 curveto
164.28612 106.86741 lineto
164.28612 106.75023 164.18521 106.65745 163.98338 106.58909 curveto
163.95734 106.57933 163.80435 106.54352 163.52440 106.48167 curveto
163.52440 106.35960 lineto
163.55695 106.32379 163.59764 106.29775 163.64647 106.28147 curveto
163.90363 106.19358 164.28774 106.03571 164.79881 105.80784 curveto
164.97459 105.93967 lineto
164.97459 106.81858 lineto
165.91535 106.21312 166.56476 105.91038 166.92284 105.91038 curveto
167.14093 105.91038 167.34438 106.01129 167.53319 106.21311 curveto
167.69269 106.38564 167.80825 106.58746 167.87987 106.81858 curveto
168.82062 106.21312 169.47003 105.91038 169.82811 105.91038 curveto
170.17641 105.91038 170.45473 106.07151 170.66307 106.39378 curveto
170.84536 106.67373 170.93650 106.99599 170.93651 107.36057 curveto
170.93651 109.89964 lineto
170.93650 110.16656 171.18715 110.30003 171.68846 110.30003 curveto
171.71776 110.53928 lineto
fill
0.0000000 0.0000000 0.0000000 setrgbcolor
newpath
79.340210 109.18922 moveto
77.062866 109.18922 lineto
77.062866 109.05251 lineto
77.614948 109.05251 77.890990 108.82985 77.890991 108.38454 curveto
77.890991 104.25954 lineto
77.750365 104.34287 77.611042 104.42621 77.473022 104.50954 curveto
77.306355 104.60329 77.159220 104.66709 77.031616 104.70094 curveto
76.957397 104.52907 lineto
77.480834 104.26866 77.930052 103.95095 78.305054 103.57594 curveto
78.539429 103.57594 lineto
78.539429 108.38454 lineto
78.539427 108.65277 78.608437 108.83506 78.746460 108.93141 curveto
78.858437 109.01214 79.056353 109.05251 79.340210 109.05251 curveto
79.340210 109.18922 lineto
fill
0.0000000 0.0000000 0.0000000 setrgbcolor
newpath
138.61046 112.38950 moveto
138.61045 112.43898 138.49587 112.81007 138.26671 113.50278 curveto
134.99718 113.50278 lineto
134.92296 113.27231 lineto
136.66254 111.86866 137.53233 110.59262 137.53233 109.44418 curveto
137.53233 108.77231 137.22764 108.43638 136.61827 108.43637 curveto
135.94119 108.43638 135.42556 108.75539 135.07140 109.39340 curveto
134.89952 109.31918 lineto
135.04015 108.93117 135.27973 108.60434 135.61827 108.33871 curveto
135.97504 108.05747 136.35264 107.91685 136.75108 107.91684 curveto
137.11827 107.91685 137.42686 108.02882 137.67686 108.25278 curveto
137.93728 108.48716 138.06749 108.78533 138.06749 109.14731 curveto
138.06749 110.30617 137.28233 111.58351 135.71202 112.97934 curveto
137.84874 112.97934 lineto
137.99197 112.97934 138.12868 112.86866 138.25890 112.64731 curveto
138.38910 112.42596 138.44900 112.31528 138.43858 112.31528 curveto
138.45941 112.31528 138.48936 112.32700 138.52843 112.35043 curveto
138.56749 112.37127 138.59483 112.38429 138.61046 112.38950 curveto
fill
grestore
showpage
