%!PS-Adobe-2.0
%%Creator: inkscape 0.41.1
%%Pages: 1
%%Orientation: Portrait
%%BoundingBox: 12 794 107 825
%%HiResBoundingBox: 12.283012 794.53853 106.31690 824.22240
%%EndComments
%%Page: 1 1
0 842 translate
0.80000000 -0.80000000 scale
gsave [1.0000000 0.0000000 0.0000000 1.0000000 0.0000000 0.0000000] concat
0.0000000 0.0000000 0.0000000 setrgbcolor
[] 0 setdash
0.35433072 setlinewidth
0 setlinejoin
0 setlinecap
newpath
25.329501 38.554156 moveto
16.746777 45.252867 lineto
25.120166 50.276900 lineto
stroke
0.0000000 0.0000000 0.0000000 setrgbcolor
[] 0 setdash
0.35433072 setlinewidth
0 setlinejoin
0 setlinecap
newpath
23.654823 39.810164 moveto
23.654823 39.810164 27.632182 45.043532 23.864158 49.439561 curveto
stroke
0.0000000 0.0000000 0.0000000 setrgbcolor
[1.1645822 2.3291641] 0.0000000 setdash
0.29114553 setlinewidth
0 setlinejoin
0 setlinecap
newpath
15.499338 45.360439 moveto
133.62536 45.360439 132.75036 45.360439 132.75036 45.360439 curveto
stroke
0.0000000 0.0000000 0.0000000 setrgbcolor
[] 0 setdash
0.35433072 setlinewidth
0 setlinejoin
0 setlinecap
newpath
63.219086 38.344821 moveto
60.079064 38.344821 lineto
60.079064 51.951578 lineto
63.219086 51.951578 lineto
stroke
0.0000000 0.0000000 0.0000000 setrgbcolor
[] 0 setdash
0.71465379 setlinewidth
0 setlinejoin
0 setlinecap
newpath
59.694063 45.462202 moveto
106.30836 45.462202 lineto
stroke
0.0000000 0.0000000 0.0000000 setrgbcolor
newpath
83.228958 43.578194 moveto
81.026810 43.578194 lineto
81.026810 43.358467 lineto
81.476025 43.358467 81.700634 43.138741 81.700638 42.699287 curveto
81.700638 40.477608 lineto
81.700634 40.194408 81.642040 39.951895 81.524857 39.750069 curveto
81.381624 39.509187 81.178174 39.388745 80.914505 39.388741 curveto
80.494581 39.388745 79.980258 39.608471 79.371536 40.047920 curveto
79.371536 42.836006 lineto
79.371535 43.155017 79.622186 43.329170 80.123489 43.358467 curveto
80.094193 43.578194 lineto
77.984818 43.578194 lineto
77.965286 43.539131 lineto
77.994583 43.387764 lineto
78.199661 43.387764 78.365676 43.304756 78.492630 43.138741 curveto
78.609817 42.989002 78.668410 42.808338 78.668411 42.596748 curveto
78.668411 39.906319 lineto
78.668410 39.789135 78.565871 39.696362 78.360794 39.627998 curveto
78.334752 39.618237 78.178502 39.582429 77.892044 39.520576 curveto
77.892044 39.398506 lineto
78.038528 39.378979 78.271275 39.300854 78.590286 39.164131 curveto
78.889764 39.033927 79.089960 38.928133 79.190872 38.846748 curveto
79.371536 38.978584 lineto
79.371536 39.857491 lineto
80.331820 39.252026 80.994254 38.949292 81.358841 38.949287 curveto
81.713655 38.949292 81.988720 39.110425 82.184036 39.432686 curveto
82.350047 39.702872 82.433055 40.025137 82.433060 40.399483 curveto
82.433060 42.938545 lineto
82.433055 43.205473 82.688589 43.338936 83.199661 43.338936 curveto
83.228958 43.578194 lineto
fill
0.0000000 0.0000000 0.0000000 setrgbcolor
newpath
87.320755 42.377022 moveto
86.917106 43.236397 86.277458 43.666084 85.401810 43.666084 curveto
84.838657 43.666084 84.363397 43.420316 83.976028 42.928780 curveto
83.614700 42.469796 83.434036 41.952219 83.434036 41.376045 curveto
83.434036 40.721751 83.619583 40.171622 83.990677 39.725655 curveto
84.387811 39.250399 84.907016 39.012769 85.548294 39.012764 curveto
86.059359 39.012769 86.472770 39.167391 86.788528 39.476631 curveto
87.107535 39.785880 87.267040 40.197663 87.267044 40.711983 curveto
84.112747 40.711983 lineto
84.096470 40.848704 84.088332 40.988678 84.088333 41.131905 curveto
84.088332 41.616933 84.236444 42.062896 84.532669 42.469795 curveto
84.858188 42.922270 85.255323 43.148507 85.724075 43.148506 curveto
86.336052 43.148507 86.801546 42.873442 87.120560 42.323311 curveto
87.159622 42.323311 lineto
87.231233 42.320057 87.284944 42.337961 87.320755 42.377022 curveto
86.519974 40.433662 moveto
86.506950 40.101635 86.391390 39.831453 86.173294 39.623116 curveto
85.955193 39.411531 85.678500 39.305737 85.343216 39.305733 curveto
85.066522 39.305737 84.820754 39.427807 84.605911 39.671944 curveto
84.417108 39.886791 84.288528 40.140697 84.220169 40.433662 curveto
86.519974 40.433662 lineto
fill
0.0000000 0.0000000 0.0000000 setrgbcolor
newpath
90.602005 42.718819 moveto
90.312289 43.291736 89.913526 43.578194 89.405716 43.578194 curveto
89.102980 43.578194 88.849074 43.485420 88.643997 43.299873 curveto
88.429153 43.104561 88.321731 42.857166 88.321732 42.557686 curveto
88.321732 39.496162 lineto
87.848099 39.496162 lineto
87.774857 39.256905 lineto
88.129674 39.123446 88.388463 38.923250 88.551224 38.656319 curveto
88.671665 38.461011 88.779087 38.145256 88.873489 37.709053 curveto
89.044388 37.709053 lineto
89.044388 39.110420 lineto
90.602005 39.110420 lineto
90.396927 39.496162 lineto
89.044388 39.496162 lineto
89.044388 42.259834 lineto
89.044386 42.429106 89.132277 42.611398 89.308060 42.806709 curveto
89.483839 43.002022 89.656365 43.099679 89.825638 43.099678 curveto
89.939568 43.099679 90.081169 43.010160 90.250443 42.831123 curveto
90.422966 42.648833 90.509229 42.557687 90.509232 42.557686 curveto
90.574333 42.557687 90.605257 42.611398 90.602005 42.718819 curveto
fill
0.0000000 0.0000000 0.0000000 setrgbcolor
[] 0 setdash
0.24011476 setlinewidth
0 setlinejoin
0 setlinecap
newpath
59.130912 59.068958 moveto
24.812310 59.068958 24.812310 59.068958 24.812310 59.068958 curveto
stroke
gsave [-0.14406886 1.7642764e-17 -1.7642764e-17 -0.14406886 57.978361 59.068958] concat
0.0000000 0.0000000 0.0000000 setrgbcolor
newpath
0.0000000 0.0000000 moveto
5.0000000 -5.0000000 lineto
-12.500000 0.0000000 lineto
5.0000000 5.0000000 lineto
0.0000000 0.0000000 lineto
closepath
eofill
0.0000000 0.0000000 0.0000000 setrgbcolor
[] 0 setdash
1.2500000 setlinewidth
0 setlinejoin
0 setlinecap
newpath
0.0000000 0.0000000 moveto
5.0000000 -5.0000000 lineto
-12.500000 0.0000000 lineto
5.0000000 5.0000000 lineto
0.0000000 0.0000000 lineto
closepath
stroke
0.0000000 0.0000000 0.0000000 setrgbcolor
[] 0 setdash
1.5000000 setlinewidth
0 setlinejoin
0 setlinecap
newpath
-14.759949 -7.0000000 moveto
-14.759949 65.000000 lineto
stroke
grestore
gsave [0.14406886 -1.7642764e-17 -1.7642764e-17 -0.14406886 25.964861 59.068958] concat
0.0000000 0.0000000 0.0000000 setrgbcolor
newpath
0.0000000 0.0000000 moveto
5.0000000 -5.0000000 lineto
-12.500000 0.0000000 lineto
5.0000000 5.0000000 lineto
0.0000000 0.0000000 lineto
closepath
eofill
0.0000000 0.0000000 0.0000000 setrgbcolor
[] 0 setdash
1.2500000 setlinewidth
0 setlinejoin
0 setlinecap
newpath
0.0000000 0.0000000 moveto
5.0000000 -5.0000000 lineto
-12.500000 0.0000000 lineto
5.0000000 5.0000000 lineto
0.0000000 0.0000000 lineto
closepath
stroke
0.0000000 0.0000000 0.0000000 setrgbcolor
[] 0 setdash
1.5000000 setlinewidth
0 setlinejoin
0 setlinecap
newpath
-14.759949 -7.0000000 moveto
-14.759949 65.000000 lineto
stroke
grestore
0.0000000 0.0000000 0.0000000 setrgbcolor
newpath
33.877796 54.968773 moveto
32.740101 54.968773 lineto
32.740101 56.975609 lineto
32.066273 56.975609 lineto
32.066273 54.968773 lineto
29.209827 54.968773 lineto
29.209827 54.661156 lineto
32.495960 49.934593 lineto
32.740101 49.934593 lineto
32.740101 54.353539 lineto
33.877796 54.353539 lineto
33.877796 54.968773 lineto
32.066273 51.072289 moveto
29.825062 54.353539 lineto
32.066273 54.353539 lineto
32.066273 51.072289 lineto
fill
0.0000000 0.0000000 0.0000000 setrgbcolor
newpath
38.653187 53.450218 moveto
38.653182 54.241237 38.485539 54.989934 38.150257 55.696312 curveto
37.733587 56.578474 37.172064 57.019554 36.465687 57.019554 curveto
35.733263 57.019554 35.163602 56.584984 34.756702 55.715843 curveto
34.437691 55.035507 34.278186 54.280299 34.278187 53.450218 curveto
34.278186 52.659207 34.445829 51.910510 34.781116 51.204124 curveto
35.197782 50.325225 35.759305 49.885772 36.465687 49.885765 curveto
37.198105 49.885772 37.766139 50.318714 38.169788 51.184593 curveto
38.492049 51.868192 38.653182 52.623400 38.653187 53.450218 curveto
37.935413 53.669945 moveto
37.935409 51.329456 37.445501 50.159209 36.465687 50.159203 curveto
35.485867 50.159209 34.995959 51.184599 34.995960 53.235374 curveto
34.995959 55.572615 35.485867 56.741234 36.465687 56.741234 curveto
37.445501 56.741234 37.935409 55.717472 37.935413 53.669945 curveto
fill
0.0000000 0.0000000 0.0000000 setrgbcolor
newpath
fill
0.0000000 0.0000000 0.0000000 setrgbcolor
newpath
46.397327 55.774437 moveto
45.993678 56.633812 45.354030 57.063499 44.478382 57.063499 curveto
43.915230 57.063499 43.438342 56.837263 43.047718 56.384789 curveto
42.673369 55.951847 42.486195 55.448918 42.486195 54.875999 curveto
42.486195 54.159856 42.733590 53.569037 43.228382 53.103539 curveto
43.713407 52.647814 44.317247 52.419949 45.039906 52.419945 curveto
45.254746 52.419949 45.505397 52.486681 45.791859 52.620140 curveto
46.120631 52.766629 46.285019 52.924506 46.285023 53.093773 curveto
46.285019 53.403021 46.138535 53.557643 45.845570 53.557640 curveto
45.663275 53.557643 45.544460 53.484401 45.489124 53.337914 curveto
45.437038 53.201199 45.386582 53.064480 45.337757 52.927757 curveto
45.230332 52.778022 45.023627 52.703152 44.717640 52.703148 curveto
44.226102 52.703152 43.841987 52.926134 43.565296 53.372093 curveto
43.334175 53.749701 43.218616 54.200546 43.218616 54.724632 curveto
43.218616 55.160832 43.371610 55.567733 43.677601 55.945335 curveto
44.003120 56.345727 44.377469 56.545922 44.800648 56.545921 curveto
45.409369 56.545922 45.874863 56.270857 46.197132 55.720726 curveto
46.330592 55.717472 46.397323 55.735376 46.397327 55.774437 curveto
fill
0.0000000 0.0000000 0.0000000 setrgbcolor
newpath
55.064320 56.975609 moveto
52.901234 56.975609 lineto
52.901234 56.755882 lineto
53.343936 56.755882 53.565290 56.536156 53.565296 56.096703 curveto
53.565296 53.875023 lineto
53.565290 53.598334 53.498558 53.355821 53.365101 53.147484 curveto
53.208845 52.906602 52.998884 52.786160 52.735218 52.786156 curveto
52.331567 52.786160 51.851424 52.989610 51.294788 53.396507 curveto
51.294788 56.335960 lineto
51.294784 56.602888 51.555200 56.736351 52.076038 56.736351 curveto
52.100452 56.975609 lineto
49.942249 56.975609 lineto
49.942249 56.755882 lineto
50.381699 56.755882 50.601425 56.536156 50.601429 56.096703 curveto
50.601429 53.875023 lineto
50.601425 53.595078 50.544459 53.354193 50.430531 53.152367 curveto
50.290553 52.908230 50.090358 52.786160 49.829945 52.786156 curveto
49.419786 52.786160 48.916857 53.005886 48.321156 53.445335 curveto
48.321156 56.233421 lineto
48.321154 56.552432 48.566922 56.726586 49.058460 56.755882 curveto
49.029163 56.975609 lineto
46.963734 56.975609 lineto
46.944202 56.936546 lineto
46.973499 56.785179 lineto
47.175322 56.785179 47.338082 56.702172 47.461781 56.536156 curveto
47.575712 56.383162 47.632678 56.202498 47.632679 55.994164 curveto
47.632679 53.303734 lineto
47.632678 53.186550 47.531767 53.093777 47.329945 53.025414 curveto
47.303903 53.015652 47.150908 52.979845 46.870960 52.917992 curveto
46.870960 52.795921 lineto
46.903512 52.760118 46.944202 52.734077 46.993031 52.717796 curveto
47.250192 52.629910 47.634306 52.472033 48.145374 52.244164 curveto
48.321156 52.375999 lineto
48.321156 53.254906 lineto
49.261908 52.649441 49.911322 52.346707 50.269398 52.346703 curveto
50.487493 52.346707 50.690943 52.447619 50.879749 52.649437 curveto
51.039250 52.821967 51.154810 53.023790 51.226429 53.254906 curveto
52.167179 52.649441 52.816592 52.346707 53.174671 52.346703 curveto
53.522972 52.346707 53.801292 52.507840 54.009632 52.830101 curveto
54.191916 53.110053 54.283062 53.432318 54.283070 53.796898 curveto
54.283070 56.335960 lineto
54.283062 56.602888 54.533713 56.736351 55.035023 56.736351 curveto
55.064320 56.975609 lineto
fill
0.0000000 0.0000000 0.0000000 setrgbcolor
[] 0 setdash
0.35433072 setlinewidth
0 setlinejoin
0 setlinecap
newpath
103.09735 38.449483 moveto
106.23737 38.449483 lineto
106.23737 52.056240 lineto
103.09735 52.056240 lineto
stroke
0.0000000 0.0000000 0.0000000 setrgbcolor
[] 0 setdash
0.36529520 setlinewidth
0 setlinejoin
0 setlinecap
newpath
25.179191 30.599432 moveto
104.60834 30.599432 104.60834 30.599432 104.60834 30.599432 curveto
stroke
gsave [0.21917712 0.0000000 0.0000000 0.21917712 26.932608 30.599432] concat
0.0000000 0.0000000 0.0000000 setrgbcolor
newpath
0.0000000 0.0000000 moveto
5.0000000 -5.0000000 lineto
-12.500000 0.0000000 lineto
5.0000000 5.0000000 lineto
0.0000000 0.0000000 lineto
closepath
eofill
0.0000000 0.0000000 0.0000000 setrgbcolor
[] 0 setdash
1.2500000 setlinewidth
0 setlinejoin
0 setlinecap
newpath
0.0000000 0.0000000 moveto
5.0000000 -5.0000000 lineto
-12.500000 0.0000000 lineto
5.0000000 5.0000000 lineto
0.0000000 0.0000000 lineto
closepath
stroke
0.0000000 0.0000000 0.0000000 setrgbcolor
[] 0 setdash
1.5000000 setlinewidth
0 setlinejoin
0 setlinecap
newpath
-14.759949 -7.0000000 moveto
-14.759949 65.000000 lineto
stroke
grestore
gsave [-0.21917712 -0.0000000 0.0000000 0.21917712 102.85492 30.599432] concat
0.0000000 0.0000000 0.0000000 setrgbcolor
newpath
0.0000000 0.0000000 moveto
5.0000000 -5.0000000 lineto
-12.500000 0.0000000 lineto
5.0000000 5.0000000 lineto
0.0000000 0.0000000 lineto
closepath
eofill
0.0000000 0.0000000 0.0000000 setrgbcolor
[] 0 setdash
1.2500000 setlinewidth
0 setlinejoin
0 setlinecap
newpath
0.0000000 0.0000000 moveto
5.0000000 -5.0000000 lineto
-12.500000 0.0000000 lineto
5.0000000 5.0000000 lineto
0.0000000 0.0000000 lineto
closepath
stroke
0.0000000 0.0000000 0.0000000 setrgbcolor
[] 0 setdash
1.5000000 setlinewidth
0 setlinejoin
0 setlinecap
newpath
-14.759949 -7.0000000 moveto
-14.759949 65.000000 lineto
stroke
grestore
0.0000000 0.0000000 0.0000000 setrgbcolor
newpath
56.617332 26.761923 moveto
56.617328 27.644086 56.376443 28.273968 55.894676 28.651571 curveto
55.464986 28.990113 54.796041 29.159384 53.887840 29.159384 curveto
53.624167 29.159384 53.384910 29.113811 53.170067 29.022665 curveto
52.890118 28.898967 52.750145 28.721559 52.750145 28.490438 curveto
52.750145 28.383017 52.787579 28.293499 52.862450 28.221884 curveto
52.937319 28.147015 53.030092 28.109580 53.140770 28.109579 curveto
53.365378 28.109580 53.601381 28.218629 53.848778 28.436728 curveto
54.099427 28.654827 54.348450 28.763876 54.595848 28.763876 curveto
55.471496 28.763876 55.909321 28.150270 55.909325 26.923056 curveto
55.909321 26.587772 55.826313 26.272017 55.660301 25.975790 curveto
55.464986 25.627486 55.211080 25.453333 54.898582 25.453329 curveto
54.569804 25.453333 54.223125 25.546106 53.858543 25.731649 curveto
53.765770 25.482626 lineto
54.048971 25.404505 54.387513 25.186406 54.781395 24.828329 curveto
55.207824 24.440964 55.421040 24.118699 55.421043 23.861532 curveto
55.421040 23.562059 55.307108 23.303270 55.079247 23.085165 curveto
54.851379 22.867072 54.587708 22.758023 54.288231 22.758017 curveto
53.930156 22.758023 53.450014 23.044481 52.847801 23.617392 curveto
52.696434 23.553915 lineto
53.025209 23.052619 53.305157 22.704312 53.536278 22.508993 curveto
53.881328 22.225797 54.294739 22.084195 54.776512 22.084188 curveto
55.189921 22.084195 55.544738 22.214404 55.840965 22.474813 curveto
56.153461 22.748257 56.309711 23.088426 56.309715 23.495321 curveto
56.309711 23.843634 56.202290 24.133347 55.987450 24.364462 curveto
55.844217 24.520716 55.583801 24.699753 55.206200 24.901571 curveto
55.648905 24.930872 56.002094 25.142461 56.265770 25.536337 curveto
56.500141 25.887903 56.617328 26.296431 56.617332 26.761923 curveto
fill
0.0000000 0.0000000 0.0000000 setrgbcolor
newpath
fill
0.0000000 0.0000000 0.0000000 setrgbcolor
newpath
68.008934 29.076376 moveto
65.845848 29.076376 lineto
65.845848 28.856649 lineto
66.288550 28.856650 66.509904 28.636923 66.509911 28.197470 curveto
66.509911 25.975790 lineto
66.509904 25.699101 66.443172 25.456588 66.309715 25.248251 curveto
66.153459 25.007370 65.943498 24.886927 65.679832 24.886923 curveto
65.276181 24.886927 64.796038 25.090377 64.239403 25.497274 curveto
64.239403 28.436728 lineto
64.239398 28.703655 64.499815 28.837118 65.020653 28.837118 curveto
65.045067 29.076376 lineto
62.886864 29.076376 lineto
62.886864 28.856649 lineto
63.326313 28.856650 63.546040 28.636923 63.546043 28.197470 curveto
63.546043 25.975790 lineto
63.546040 25.695845 63.489074 25.454960 63.375145 25.253134 curveto
63.235168 25.008997 63.034973 24.886927 62.774559 24.886923 curveto
62.364400 24.886927 61.861471 25.106653 61.265770 25.546103 curveto
61.265770 28.334188 lineto
61.265769 28.653199 61.511537 28.827353 62.003075 28.856649 curveto
61.973778 29.076376 lineto
59.908348 29.076376 lineto
59.888817 29.037313 lineto
59.918114 28.885946 lineto
60.119936 28.885946 60.282697 28.802939 60.406395 28.636923 curveto
60.520327 28.483929 60.577293 28.303265 60.577293 28.094931 curveto
60.577293 25.404501 lineto
60.577293 25.287317 60.476381 25.194544 60.274559 25.126181 curveto
60.248517 25.116419 60.095522 25.080612 59.815575 25.018759 curveto
59.815575 24.896688 lineto
59.848127 24.860885 59.888817 24.834844 59.937645 24.818563 curveto
60.194806 24.730677 60.578920 24.572800 61.089989 24.344931 curveto
61.265770 24.476767 lineto
61.265770 25.355673 lineto
62.206523 24.750208 62.855936 24.447474 63.214012 24.447470 curveto
63.432108 24.447474 63.635558 24.548386 63.824364 24.750204 curveto
63.983865 24.922734 64.099425 25.124557 64.171043 25.355673 curveto
65.111793 24.750208 65.761207 24.447474 66.119286 24.447470 curveto
66.467586 24.447474 66.745906 24.608607 66.954247 24.930868 curveto
67.136531 25.210820 67.227677 25.533085 67.227684 25.897665 curveto
67.227684 28.436728 lineto
67.227677 28.703655 67.478327 28.837118 67.979637 28.837118 curveto
68.008934 29.076376 lineto
fill
grestore
showpage
