%!PS-Adobe-2.0
%%Creator: inkscape 0.41.1
%%Pages: 1
%%Orientation: Portrait
%%BoundingBox: 44 746 161 812
%%HiResBoundingBox: 44.434818 746.44942 160.84728 811.52197
%%EndComments
%%Page: 1 1
0 842 translate
0.80000000 -0.80000000 scale
gsave [1.0000000 0.0000000 0.0000000 1.0000000 0.0000000 0.0000000] concat
0.0000000 0.0000000 0.0000000 setrgbcolor
[] 0 setdash
0.35433072 setlinewidth
0 setlinejoin
0 setlinecap
newpath
200.42513 44.064426 moveto
71.280690 44.064426 lineto
71.280690 112.75309 lineto
200.88194 112.75309 lineto
stroke
0.0000000 0.0000000 0.0000000 setrgbcolor
[0.70866144 2.1259843] 0.0000000 setdash
0.35433072 setlinewidth
0 setlinejoin
0 setlinecap
newpath
59.194192 88.907457 moveto
129.98347 88.907457 129.98347 88.907457 129.98347 88.907457 curveto
stroke
0.0000000 0.0000000 0.0000000 setrgbcolor
[0.70866144 2.1259843] 0.0000000 setdash
0.35433072 setlinewidth
0 setlinejoin
0 setlinecap
newpath
120.28356 38.136881 moveto
120.28356 95.313091 120.28356 95.313091 120.28356 95.313091 curveto
stroke
0.0000000 0.0000000 0.0000000 setrgbcolor
[] 0 setdash
1.0000000 setlinewidth
0 setlinejoin
0 setlinecap
newpath
56.227227 118.80041 moveto
71.173705 88.907457 lineto
120.28356 44.305269 lineto
146.38059 67.555346 lineto
146.38059 67.555346 lineto
stroke
gsave [-0.44799594 -0.39912358 0.39912358 -0.44799594 148.62057 69.550964] concat
0.0000000 0.0000000 0.0000000 setrgbcolor
newpath
8.7185878 4.0337352 moveto
-2.2072895 0.016013256 lineto
8.7185884 -4.0017078 lineto
6.9730900 -1.6296469 6.9831476 1.6157441 8.7185878 4.0337352 curveto
closepath
eofill
grestore
0.0000000 0.0000000 0.0000000 setrgbcolor
newpath
171.60753 50.082484 moveto
171.60753 52.089577 lineto
171.06122 52.089577 lineto
171.06122 50.100298 lineto
171.06122 49.785579 170.99986 49.550033 170.87714 49.393659 curveto
170.75442 49.237291 170.57033 49.159105 170.32489 49.159102 curveto
170.02996 49.159105 169.79739 49.253126 169.62716 49.441164 curveto
169.45693 49.629208 169.37182 49.885538 169.37182 50.210154 curveto
169.37182 52.089577 lineto
168.82254 52.089577 lineto
168.82254 48.764216 lineto
169.37182 48.764216 lineto
169.37182 49.280834 lineto
169.50246 49.080920 169.65586 48.931477 169.83203 48.832505 curveto
170.01017 48.733539 170.21503 48.684054 170.44662 48.684051 curveto
170.82864 48.684054 171.11763 48.802817 171.31359 49.040340 curveto
171.50955 49.275889 171.60753 49.623270 171.60753 50.082484 curveto
fill
0.0000000 0.0000000 0.0000000 setrgbcolor
newpath
172.77438 49.328340 moveto
176.58073 49.328340 lineto
176.58073 49.827144 lineto
172.77438 49.827144 lineto
172.77438 49.328340 lineto
172.77438 50.539721 moveto
176.58073 50.539721 lineto
176.58073 51.044463 lineto
172.77438 51.044463 lineto
172.77438 50.539721 lineto
fill
0.0000000 0.0000000 0.0000000 setrgbcolor
newpath
177.97916 51.584834 moveto
178.95895 51.584834 lineto
178.95895 48.203061 lineto
177.89306 48.416834 lineto
177.89306 47.870525 lineto
178.95302 47.656752 lineto
179.55277 47.656752 lineto
179.55277 51.584834 lineto
180.53256 51.584834 lineto
180.53256 52.089577 lineto
177.97916 52.089577 lineto
177.97916 51.584834 lineto
fill
0.0000000 0.0000000 0.0000000 setrgbcolor
newpath
181.80926 51.335432 moveto
182.43574 51.335432 lineto
182.43574 51.846113 lineto
181.94881 52.796216 lineto
181.56580 52.796216 lineto
181.80926 51.846113 lineto
181.80926 51.335432 lineto
fill
0.0000000 0.0000000 0.0000000 setrgbcolor
newpath
183.68869 47.656752 moveto
186.04316 47.656752 lineto
186.04316 48.161494 lineto
184.23796 48.161494 lineto
184.23796 49.248175 lineto
184.32506 49.218487 184.41215 49.196714 184.49924 49.182855 curveto
184.58633 49.167023 184.67343 49.159105 184.76052 49.159102 curveto
185.25536 49.159105 185.64728 49.294693 185.93627 49.565865 curveto
186.22526 49.837043 186.36975 50.204218 186.36976 50.667391 curveto
186.36975 51.144423 186.22130 51.515557 185.92440 51.780793 curveto
185.62749 52.044051 185.20885 52.175680 184.66848 52.175680 curveto
184.48242 52.175680 184.29240 52.159845 184.09842 52.128175 curveto
183.90642 52.096505 183.70749 52.048999 183.50163 51.985659 curveto
183.50163 51.382938 lineto
183.67978 51.479928 183.86386 51.552175 184.05388 51.599680 curveto
184.24390 51.647185 184.44481 51.670938 184.65660 51.670938 curveto
184.99903 51.670938 185.27021 51.580876 185.47013 51.400752 curveto
185.67004 51.220629 185.77000 50.976176 185.77001 50.667391 curveto
185.77000 50.358609 185.67004 50.114156 185.47013 49.934030 curveto
185.27021 49.753909 184.99903 49.663847 184.65660 49.663845 curveto
184.49627 49.663847 184.33594 49.681662 184.17561 49.717288 curveto
184.01726 49.752919 183.85495 49.808342 183.68869 49.883556 curveto
183.68869 47.656752 lineto
fill
0.0000000 0.0000000 0.0000000 setrgbcolor
[] 0 setdash
0.35433072 setlinewidth
0 setlinejoin
0 setlinecap
newpath
110.47540 53.146164 moveto
110.47540 53.146164 114.30192 57.836740 119.97998 56.602378 curveto
stroke
0.0000000 0.0000000 0.0000000 setrgbcolor
[] 0 setdash
0.35433072 setlinewidth
0 setlinejoin
0 setlinecap
newpath
79.369475 81.783362 moveto
79.369475 81.783362 84.183487 83.511469 84.800668 88.695789 curveto
stroke
0.0000000 0.0000000 0.0000000 setrgbcolor
[] 0 setdash
0.35433072 setlinewidth
0 setlinejoin
0 setlinecap
newpath
120.10342 82.523979 moveto
114.05505 82.523979 lineto
114.05505 88.695789 lineto
stroke
0.0000000 0.0000000 0.0000000 setrgbcolor
[] 0 setdash
0.35433072 setlinewidth
0 setlinejoin
0 setlinecap
newpath
63.446205 89.189534 moveto
63.446205 89.189534 63.199333 92.769184 67.396164 95.731652 curveto
stroke
0.0000000 0.0000000 0.0000000 setrgbcolor
newpath
113.00121 62.986675 moveto
112.77009 63.315452 112.62686 63.510764 112.57153 63.572613 curveto
112.36644 63.797222 112.16299 63.909527 111.96117 63.909527 curveto
111.60635 63.909527 111.34431 63.496116 111.17504 62.669292 curveto
110.61189 63.512392 109.93480 63.933941 109.14379 63.933941 curveto
108.63272 63.933941 108.23233 63.686545 107.94262 63.191753 curveto
107.70173 62.775088 107.58129 62.291690 107.58129 61.741558 curveto
107.58129 61.041691 107.78637 60.478541 108.19653 60.052105 curveto
108.67830 59.554062 109.23005 59.305039 109.85180 59.305035 curveto
110.79581 59.305039 111.35570 59.882838 111.53149 61.038433 curveto
111.79190 60.416692 112.00349 59.806341 112.16625 59.207378 curveto
112.15648 59.204128 112.15160 59.199245 112.15160 59.192730 curveto
112.15160 59.176459 112.15974 59.169948 112.17602 59.173199 curveto
112.16625 59.207378 lineto
112.44457 59.378277 lineto
112.16788 60.459009 111.88304 61.308618 111.59008 61.927105 curveto
111.60310 62.096378 111.66983 62.379580 111.79028 62.776714 curveto
111.93350 63.235699 112.05720 63.465191 112.16137 63.465191 curveto
112.34366 63.465191 112.57478 63.222679 112.85473 62.737652 curveto
113.00121 62.986675 lineto
111.09692 61.956402 moveto
111.08715 61.227238 111.00902 60.701522 110.86254 60.379253 curveto
110.63793 59.877955 110.21150 59.627305 109.58324 59.627300 curveto
109.11775 59.627305 108.77921 59.873073 108.56762 60.364605 curveto
108.41137 60.725936 108.33324 61.173527 108.33324 61.707378 curveto
108.33324 62.137068 108.43090 62.521182 108.62621 62.859722 curveto
108.85733 63.263369 109.17309 63.465191 109.57348 63.465191 curveto
110.05525 63.465191 110.56306 62.962262 111.09692 61.956402 curveto
fill
0.0000000 0.0000000 0.0000000 setrgbcolor
newpath
113.82146 64.447563 moveto
114.54021 64.447563 lineto
114.54021 68.822563 lineto
113.82146 68.822563 lineto
113.82146 64.447563 lineto
113.82146 62.744438 moveto
114.54021 62.744438 lineto
114.54021 63.654594 lineto
113.82146 63.654594 lineto
113.82146 62.744438 lineto
fill
0.0000000 0.0000000 0.0000000 setrgbcolor
newpath
116.75115 63.205376 moveto
116.75115 64.447563 lineto
118.23162 64.447563 lineto
118.23162 65.006157 lineto
116.75115 65.006157 lineto
116.75115 67.381157 lineto
116.75115 67.737929 116.79933 67.967095 116.89568 68.068657 curveto
116.99464 68.170220 117.19386 68.221001 117.49334 68.221001 curveto
118.23162 68.221001 lineto
118.23162 68.822563 lineto
117.49334 68.822563 lineto
116.93865 68.822563 116.55584 68.719699 116.34490 68.513969 curveto
116.13396 68.305637 116.02850 67.928033 116.02850 67.381157 curveto
116.02850 65.006157 lineto
115.50115 65.006157 lineto
115.50115 64.447563 lineto
116.02850 64.447563 lineto
116.02850 63.205376 lineto
116.75115 63.205376 lineto
fill
0.0000000 0.0000000 0.0000000 setrgbcolor
newpath
90.217819 82.626930 moveto
89.986694 82.955707 89.843465 83.151019 89.788132 83.212868 curveto
89.583049 83.437477 89.379598 83.549782 89.177780 83.549782 curveto
88.822958 83.549782 88.560914 83.136371 88.391647 82.309547 curveto
87.828493 83.152647 87.151411 83.574196 86.360397 83.574196 curveto
85.849329 83.574196 85.448938 83.326800 85.159225 82.832008 curveto
84.918340 82.415343 84.797897 81.931945 84.797897 81.381813 curveto
84.797897 80.681946 85.002975 80.118796 85.413132 79.692360 curveto
85.894901 79.194317 86.446659 78.945294 87.068405 78.945290 curveto
88.012412 78.945294 88.572308 79.523093 88.748093 80.678688 curveto
89.008505 80.056947 89.220093 79.446596 89.382858 78.847633 curveto
89.373088 78.844383 89.368205 78.839500 89.368210 78.832985 curveto
89.368205 78.816714 89.376343 78.810203 89.392624 78.813454 curveto
89.382858 78.847633 lineto
89.661179 79.018532 lineto
89.384481 80.099264 89.099651 80.948873 88.806686 81.567360 curveto
88.819703 81.736633 88.886435 82.019835 89.006882 82.416969 curveto
89.150106 82.875954 89.273804 83.105446 89.377975 83.105446 curveto
89.560262 83.105446 89.791382 82.862934 90.071335 82.377907 curveto
90.217819 82.626930 lineto
88.313522 81.596657 moveto
88.303753 80.867493 88.225628 80.341777 88.079147 80.019508 curveto
87.854535 79.518210 87.428103 79.267559 86.799850 79.267555 curveto
86.334354 79.267559 85.995813 79.513327 85.784225 80.004860 curveto
85.627975 80.366191 85.549850 80.813782 85.549850 81.347633 curveto
85.549850 81.777323 85.647506 82.161437 85.842819 82.499977 curveto
86.073938 82.903624 86.389693 83.105446 86.790085 83.105446 curveto
87.271853 83.105446 87.779665 82.602517 88.313522 81.596657 curveto
fill
0.0000000 0.0000000 0.0000000 setrgbcolor
newpath
60.963444 97.315826 moveto
60.732319 97.644603 60.589090 97.839915 60.533756 97.901764 curveto
60.328673 98.126373 60.125223 98.238678 59.923405 98.238678 curveto
59.568583 98.238678 59.306539 97.825267 59.137272 96.998444 curveto
58.574118 97.841543 57.897035 98.263092 57.106022 98.263092 curveto
56.594953 98.263092 56.194563 98.015696 55.904850 97.520905 curveto
55.663964 97.104239 55.543522 96.620841 55.543522 96.070709 curveto
55.543522 95.370842 55.748600 94.807692 56.158756 94.381256 curveto
56.640526 93.883214 57.192283 93.634190 57.814030 93.634186 curveto
58.758037 93.634190 59.317932 94.211989 59.493717 95.367584 curveto
59.754130 94.745843 59.965718 94.135492 60.128483 93.536530 curveto
60.118713 93.533279 60.113830 93.528396 60.113834 93.521881 curveto
60.113830 93.505610 60.121968 93.499099 60.138248 93.502350 curveto
60.128483 93.536530 lineto
60.406803 93.707428 lineto
60.130106 94.788161 59.845275 95.637769 59.552311 96.256256 curveto
59.565328 96.425529 59.632059 96.708732 59.752506 97.105865 curveto
59.895731 97.564851 60.019429 97.794342 60.123600 97.794342 curveto
60.305887 97.794342 60.537006 97.551830 60.816959 97.066803 curveto
60.963444 97.315826 lineto
59.059147 96.285553 moveto
59.049378 95.556389 58.971253 95.030673 58.824772 94.708405 curveto
58.600159 94.207106 58.173728 93.956456 57.545475 93.956451 curveto
57.079979 93.956456 56.741437 94.202224 56.529850 94.693756 curveto
56.373599 95.055087 56.295474 95.502678 56.295475 96.036530 curveto
56.295474 96.466219 56.393130 96.850333 56.588444 97.188873 curveto
56.819562 97.592520 57.135317 97.794342 57.535709 97.794342 curveto
58.017478 97.794342 58.525290 97.291413 59.059147 96.285553 curveto
fill
0.0000000 0.0000000 0.0000000 setrgbcolor
newpath
62.105183 96.740997 moveto
62.823933 96.740997 lineto
62.823933 101.11600 lineto
62.105183 101.11600 lineto
62.105183 96.740997 lineto
62.105183 95.037872 moveto
62.823933 95.037872 lineto
62.823933 95.948029 lineto
62.105183 95.948029 lineto
62.105183 95.037872 lineto
fill
0.0000000 0.0000000 0.0000000 setrgbcolor
newpath
93.891220 82.030190 moveto
93.810488 81.983318 93.721946 81.949464 93.625595 81.928627 curveto
93.531842 81.905193 93.427676 81.893475 93.313095 81.893471 curveto
92.906843 81.893475 92.594343 82.026287 92.375595 82.291908 curveto
92.159448 82.554932 92.051375 82.933838 92.051376 83.428627 curveto
92.051376 85.733315 lineto
91.328720 85.733315 lineto
91.328720 81.358315 lineto
92.051376 81.358315 lineto
92.051376 82.038002 lineto
92.202416 81.772381 92.399031 81.575767 92.641220 81.448158 curveto
92.883405 81.317954 93.177676 81.252850 93.524033 81.252846 curveto
93.573509 81.252850 93.628196 81.256756 93.688095 81.264565 curveto
93.747988 81.269777 93.814394 81.278892 93.887314 81.291908 curveto
93.891220 82.030190 lineto
fill
gsave [0.14857600 0.0000000 0.0000000 0.14857600 95.625960 72.557680] concat
0.0000000 0.0000000 0.0000000 setrgbcolor
newpath
151.82652 88.263763 moveto
151.82652 91.909081 148.86800 94.867600 145.22269 94.867600 curveto
141.57737 94.867600 138.61885 91.909081 138.61885 88.263763 curveto
138.61885 84.618446 141.57737 81.659927 145.22269 81.659927 curveto
148.86800 81.659927 151.82652 84.618446 151.82652 88.263763 curveto
closepath
fill
0.0000000 0.0000000 0.0000000 setrgbcolor
[] 0 setdash
1.0000000 setlinewidth
0 setlinejoin
0 setlinecap
newpath
151.82652 88.263763 moveto
151.82652 91.909081 148.86800 94.867600 145.22269 94.867600 curveto
141.57737 94.867600 138.61885 91.909081 138.61885 88.263763 curveto
138.61885 84.618446 141.57737 81.659927 145.22269 81.659927 curveto
148.86800 81.659927 151.82652 84.618446 151.82652 88.263763 curveto
closepath
stroke
grestore
grestore
showpage
