%!PS-Adobe-2.0 EPSF-2.0
%%Title: Fonctionnement_oeil.fig
%%Creator: fig2dev Version 3.2 Patchlevel 5-alpha5
%%CreationDate: Fri Jul  8 16:41:23 2005
%%For: guyotv@debian ()
%%BoundingBox: 0 0 218 174
%Magnification: 1.0000
%%EndComments
/$F2psDict 200 dict def
$F2psDict begin
$F2psDict /mtrx matrix put
/col-1 {0 setgray} bind def
/col0 {0.000 0.000 0.000 srgb} bind def
/col1 {0.000 0.000 1.000 srgb} bind def
/col2 {0.000 1.000 0.000 srgb} bind def
/col3 {0.000 1.000 1.000 srgb} bind def
/col4 {1.000 0.000 0.000 srgb} bind def
/col5 {1.000 0.000 1.000 srgb} bind def
/col6 {1.000 1.000 0.000 srgb} bind def
/col7 {1.000 1.000 1.000 srgb} bind def
/col8 {0.000 0.000 0.560 srgb} bind def
/col9 {0.000 0.000 0.690 srgb} bind def
/col10 {0.000 0.000 0.820 srgb} bind def
/col11 {0.530 0.810 1.000 srgb} bind def
/col12 {0.000 0.560 0.000 srgb} bind def
/col13 {0.000 0.690 0.000 srgb} bind def
/col14 {0.000 0.820 0.000 srgb} bind def
/col15 {0.000 0.560 0.560 srgb} bind def
/col16 {0.000 0.690 0.690 srgb} bind def
/col17 {0.000 0.820 0.820 srgb} bind def
/col18 {0.560 0.000 0.000 srgb} bind def
/col19 {0.690 0.000 0.000 srgb} bind def
/col20 {0.820 0.000 0.000 srgb} bind def
/col21 {0.560 0.000 0.560 srgb} bind def
/col22 {0.690 0.000 0.690 srgb} bind def
/col23 {0.820 0.000 0.820 srgb} bind def
/col24 {0.500 0.190 0.000 srgb} bind def
/col25 {0.630 0.250 0.000 srgb} bind def
/col26 {0.750 0.380 0.000 srgb} bind def
/col27 {1.000 0.500 0.500 srgb} bind def
/col28 {1.000 0.630 0.630 srgb} bind def
/col29 {1.000 0.750 0.750 srgb} bind def
/col30 {1.000 0.880 0.880 srgb} bind def
/col31 {1.000 0.840 0.000 srgb} bind def

end
save
newpath 0 174 moveto 0 0 lineto 218 0 lineto 218 174 lineto closepath clip newpath
0.5 196.6 translate
1 -1 scale

/cp {closepath} bind def
/ef {eofill} bind def
/gr {grestore} bind def
/gs {gsave} bind def
/sa {save} bind def
/rs {restore} bind def
/l {lineto} bind def
/m {moveto} bind def
/rm {rmoveto} bind def
/n {newpath} bind def
/s {stroke} bind def
/sh {show} bind def
/slc {setlinecap} bind def
/slj {setlinejoin} bind def
/slw {setlinewidth} bind def
/srgb {setrgbcolor} bind def
/rot {rotate} bind def
/sc {scale} bind def
/sd {setdash} bind def
/ff {findfont} bind def
/sf {setfont} bind def
/scf {scalefont} bind def
/sw {stringwidth} bind def
/tr {translate} bind def
/tnt {dup dup currentrgbcolor
  4 -2 roll dup 1 exch sub 3 -1 roll mul add
  4 -2 roll dup 1 exch sub 3 -1 roll mul add
  4 -2 roll dup 1 exch sub 3 -1 roll mul add srgb}
  bind def
/shd {dup dup currentrgbcolor 4 -2 roll mul 4 -2 roll mul
  4 -2 roll mul srgb} bind def
/reencdict 12 dict def /ReEncode { reencdict begin
/newcodesandnames exch def /newfontname exch def /basefontname exch def
/basefontdict basefontname findfont def /newfont basefontdict maxlength dict def
basefontdict { exch dup /FID ne { dup /Encoding eq
{ exch dup length array copy newfont 3 1 roll put }
{ exch newfont 3 1 roll put } ifelse } { pop pop } ifelse } forall
newfont /FontName newfontname put newcodesandnames aload pop
128 1 255 { newfont /Encoding get exch /.notdef put } for
newcodesandnames length 2 idiv { newfont /Encoding get 3 1 roll put } repeat
newfontname newfont definefont pop end } def
/isovec [
8#055 /minus 8#200 /grave 8#201 /acute 8#202 /circumflex 8#203 /tilde
8#204 /macron 8#205 /breve 8#206 /dotaccent 8#207 /dieresis
8#210 /ring 8#211 /cedilla 8#212 /hungarumlaut 8#213 /ogonek 8#214 /caron
8#220 /dotlessi 8#230 /oe 8#231 /OE
8#240 /space 8#241 /exclamdown 8#242 /cent 8#243 /sterling
8#244 /currency 8#245 /yen 8#246 /brokenbar 8#247 /section 8#250 /dieresis
8#251 /copyright 8#252 /ordfeminine 8#253 /guillemotleft 8#254 /logicalnot
8#255 /hyphen 8#256 /registered 8#257 /macron 8#260 /degree 8#261 /plusminus
8#262 /twosuperior 8#263 /threesuperior 8#264 /acute 8#265 /mu 8#266 /paragraph
8#267 /periodcentered 8#270 /cedilla 8#271 /onesuperior 8#272 /ordmasculine
8#273 /guillemotright 8#274 /onequarter 8#275 /onehalf
8#276 /threequarters 8#277 /questiondown 8#300 /Agrave 8#301 /Aacute
8#302 /Acircumflex 8#303 /Atilde 8#304 /Adieresis 8#305 /Aring
8#306 /AE 8#307 /Ccedilla 8#310 /Egrave 8#311 /Eacute
8#312 /Ecircumflex 8#313 /Edieresis 8#314 /Igrave 8#315 /Iacute
8#316 /Icircumflex 8#317 /Idieresis 8#320 /Eth 8#321 /Ntilde 8#322 /Ograve
8#323 /Oacute 8#324 /Ocircumflex 8#325 /Otilde 8#326 /Odieresis 8#327 /multiply
8#330 /Oslash 8#331 /Ugrave 8#332 /Uacute 8#333 /Ucircumflex
8#334 /Udieresis 8#335 /Yacute 8#336 /Thorn 8#337 /germandbls 8#340 /agrave
8#341 /aacute 8#342 /acircumflex 8#343 /atilde 8#344 /adieresis 8#345 /aring
8#346 /ae 8#347 /ccedilla 8#350 /egrave 8#351 /eacute
8#352 /ecircumflex 8#353 /edieresis 8#354 /igrave 8#355 /iacute
8#356 /icircumflex 8#357 /idieresis 8#360 /eth 8#361 /ntilde 8#362 /ograve
8#363 /oacute 8#364 /ocircumflex 8#365 /otilde 8#366 /odieresis 8#367 /divide
8#370 /oslash 8#371 /ugrave 8#372 /uacute 8#373 /ucircumflex
8#374 /udieresis 8#375 /yacute 8#376 /thorn 8#377 /ydieresis] def
/Times-Roman /Times-Roman-iso isovec ReEncode
 /DrawEllipse {
	/endangle exch def
	/startangle exch def
	/yrad exch def
	/xrad exch def
	/y exch def
	/x exch def
	/savematrix mtrx currentmatrix def
	x y tr xrad yrad sc 0 0 1 startangle endangle arc
	closepath
	savematrix setmatrix
	} def

/$F2psBegin {$F2psDict begin /$F2psEnteredState save def} def
/$F2psEnd {$F2psEnteredState restore end} def

$F2psBegin
10 setmiterlimit
0 slj 0 slc
 0.06299 0.06299 sc
%
% Fig objects follow
%
% 
% here starts figure with depth 50
% Arc
7.500 slw
0 slc
n 1128.2 1782.9 824.2 -124.7839 124.0256 arcn
gs col0 s gr

% Ellipse
n 1893 1763 1314 1314 0 360 DrawEllipse gs col0 s gr

% Ellipse
n 857 1756 225 517 0 360 DrawEllipse gs col7 0.90 shd ef gr gs col0 s gr

% Polyline
0 slj
n 616 1446 m 607 1395 l 625 1306 l 649 1232 l 681 1176 l 672 1125 l

 649 1115 l gs col0 s gr 
% Polyline
n 635 2135 m 621 2177 l 635 2233 l 649 2312 l 681 2420 l 686 2452 l

 663 2466 l gs col0 s gr 
% Polyline
n 658 1115 m 714 1041 l 844 873 l 979 719 l 1268 533 l 1511 449 l

 1641 393 l gs col0 s gr 
% Polyline
n 677 2466 m 807 2634 l 961 2783 l 1147 2927 l 1399 3035 l
 1604 3100 l gs col0 s gr 
% Polyline
n 518 1232 m 490 1204 l 523 1092 l 583 906 l 639 780 l 621 626 l
 695 538 l 854 440 l
 942 403 l gs col0 s gr 
% Polyline
n 518 2345 m 486 2438 l 523 2573 l 607 2746 l 863 2960 l 1166 3048 l

 1357 3109 l gs col0 s gr 
% Polyline
n 942 1283 m 928 1171 l 957 1020 l 1065 857 l 1251 671 l
 1535 498 l gs col0 s gr 
% Polyline
n 956 2224 m 951 2336 l 975 2434 l 1046 2604 l 1139 2730 l 1228 2823 l

 1381 2977 l gs col0 s gr 
% Polyline
2 slj
n 2700 657 m 2703 659 l 2709 663 l 2718 669 l 2729 677 l 2741 686 l
 2756 698 l 2774 713 l 2789 726 l 2800 736 l 2807 742 l
 2812 745 l 2814 747 l 2817 749 l 2821 753 l 2828 760 l
 2839 772 l 2853 787 l 2867 803 l 2877 816 l 2883 825 l
 2886 832 l 2888 837 l 2889 841 l 2892 847 l 2898 855 l
 2907 865 l 2919 876 l 2931 885 l 2940 890 l 2946 893 l
 2949 894 l 2951 895 l 2952 895 l 2955 894 l 2960 894 l
 2969 893 l 2979 890 l 2991 884 l 2999 879 l 3003 875 l
 3004 873 l 3005 870 l 3009 865 l 3016 855 l 3026 839 l
 3036 822 l 3042 811 l 3043 807 l 3042 806 l 3042 804 l
 3044 797 l 3053 780 l 3068 750 l 3079 730 l 3090 710 l
 3100 690 l 3110 671 l 3120 653 l 3130 636 l 3139 620 l
 3148 604 l 3155 590 l 3161 579 l 3166 571 l 3169 566 l

 3170 564 l gs col0 s gr 
% Polyline
n 3189 1439 m 3189 1437 l 3189 1433 l 3188 1426 l 3187 1417 l 3186 1405 l
 3185 1392 l 3183 1378 l 3181 1361 l 3178 1342 l 3174 1320 l
 3170 1295 l 3165 1270 l 3160 1248 l 3156 1232 l 3153 1221 l
 3149 1214 l 3147 1208 l 3144 1203 l 3141 1196 l 3138 1186 l
 3135 1170 l 3133 1150 l 3131 1127 l 3131 1101 l 3132 1084 l
 3134 1074 l 3135 1071 l 3137 1071 l 3138 1071 l 3141 1068 l
 3145 1058 l 3151 1041 l 3159 1015 l 3167 992 l 3173 972 l
 3178 956 l 3181 946 l 3183 938 l 3185 933 l 3186 927 l
 3188 920 l 3192 909 l 3199 893 l 3208 872 l 3220 848 l
 3232 825 l 3243 807 l 3251 795 l 3256 788 l 3260 785 l
 3263 784 l 3266 783 l 3269 780 l 3275 773 l 3283 762 l
 3295 744 l 3308 722 l 3321 699 l 3333 677 l 3343 658 l
 3351 640 l 3359 624 l 3365 609 l 3371 596 l 3376 584 l
 3380 576 l 3382 571 l
 3383 568 l gs col0 s gr 
/Times-Roman-iso ff 158.75 scf sf
2765 2837 m
gs 1 -1 sc (r\351tine) col0 sh gr
/Times-Roman-iso ff 158.75 scf sf
1027 1025 m
gs 1 -1 sc (muscle) col0 sh gr
/Times-Roman-iso ff 158.75 scf sf
7 2347 m
gs 1 -1 sc (corn\351e) col0 sh gr
/Times-Roman-iso ff 158.75 scf sf
40 805 m
gs 1 -1 sc (paupi\350re) col0 sh gr
/Times-Roman-iso ff 158.75 scf sf
2593 503 m
gs 1 -1 sc (nerf optique) col0 sh gr
/Times-Roman-iso ff 158.75 scf sf
2089 1137 m
gs 1 -1 sc (point aveugle) col0 sh gr
/Times-Roman-iso ff 158.75 scf sf
2807 1914 m
gs 1 -1 sc (fov\351a) col0 sh gr
/Times-Roman-iso ff 158.75 scf sf
2587 2288 m
gs 1 -1 sc (macula) col0 sh gr
/Times-Roman-iso ff 158.75 scf sf
2326 1696 m
gs 1 -1 sc (axe  optique) col0 sh gr
/Times-Roman-iso ff 158.75 scf sf
1837 1700 m
gs 1 -1 sc (Foyer) col0 sh gr
/Times-Roman-iso ff 158.75 scf sf
1070 2124 m
gs 1 -1 sc (cristallin) col0 sh gr
% here ends figure;
% 
% here starts figure with depth 48
% Arc
15.000 slw
0 slc
n 1981.2 1769.9 1398.3 -166.7737 165.2482 arcn
gs col7 s gr

% Polyline
0 slj
7.500 slw
n 35 1770 m
 3431 1770 l gs col0 s gr 
% Polyline
n 3170 2078 m
 35 1658 l gs col0 s gr 
/Times-Roman-iso ff 158.75 scf sf
403 1606 m
gs 1 -1 sc (iris) col0 sh gr
% Polyline
n 30 1430 m 380 1430 l 673 1463 l 1060 1509 l
 3170 2078 l gs col0 s gr 
% here ends figure;
$F2psEnd
rs
showpage
%%Trailer
%EOF
