%!PS-Adobe-2.0 EPSF-2.0
%%Title: Fortdiffraction.fig
%%Creator: fig2dev Version 3.2 Patchlevel 5-alpha5
%%CreationDate: Sat Aug  6 17:10:14 2005
%%For: guyotv@debian ()
%%BoundingBox: 0 0 127 127
%Magnification: 1.0000
%%EndComments
/$F2psDict 200 dict def
$F2psDict begin
$F2psDict /mtrx matrix put
/col-1 {0 setgray} bind def
/col0 {0.000 0.000 0.000 srgb} bind def
/col1 {0.000 0.000 1.000 srgb} bind def
/col2 {0.000 1.000 0.000 srgb} bind def
/col3 {0.000 1.000 1.000 srgb} bind def
/col4 {1.000 0.000 0.000 srgb} bind def
/col5 {1.000 0.000 1.000 srgb} bind def
/col6 {1.000 1.000 0.000 srgb} bind def
/col7 {1.000 1.000 1.000 srgb} bind def
/col8 {0.000 0.000 0.560 srgb} bind def
/col9 {0.000 0.000 0.690 srgb} bind def
/col10 {0.000 0.000 0.820 srgb} bind def
/col11 {0.530 0.810 1.000 srgb} bind def
/col12 {0.000 0.560 0.000 srgb} bind def
/col13 {0.000 0.690 0.000 srgb} bind def
/col14 {0.000 0.820 0.000 srgb} bind def
/col15 {0.000 0.560 0.560 srgb} bind def
/col16 {0.000 0.690 0.690 srgb} bind def
/col17 {0.000 0.820 0.820 srgb} bind def
/col18 {0.560 0.000 0.000 srgb} bind def
/col19 {0.690 0.000 0.000 srgb} bind def
/col20 {0.820 0.000 0.000 srgb} bind def
/col21 {0.560 0.000 0.560 srgb} bind def
/col22 {0.690 0.000 0.690 srgb} bind def
/col23 {0.820 0.000 0.820 srgb} bind def
/col24 {0.500 0.190 0.000 srgb} bind def
/col25 {0.630 0.250 0.000 srgb} bind def
/col26 {0.750 0.380 0.000 srgb} bind def
/col27 {1.000 0.500 0.500 srgb} bind def
/col28 {1.000 0.630 0.630 srgb} bind def
/col29 {1.000 0.750 0.750 srgb} bind def
/col30 {1.000 0.880 0.880 srgb} bind def
/col31 {1.000 0.840 0.000 srgb} bind def

end
save
newpath 0 127 moveto 0 0 lineto 127 0 lineto 127 127 lineto closepath clip newpath
-13.4 119.8 translate
1 -1 scale

/cp {closepath} bind def
/ef {eofill} bind def
/gr {grestore} bind def
/gs {gsave} bind def
/sa {save} bind def
/rs {restore} bind def
/l {lineto} bind def
/m {moveto} bind def
/rm {rmoveto} bind def
/n {newpath} bind def
/s {stroke} bind def
/sh {show} bind def
/slc {setlinecap} bind def
/slj {setlinejoin} bind def
/slw {setlinewidth} bind def
/srgb {setrgbcolor} bind def
/rot {rotate} bind def
/sc {scale} bind def
/sd {setdash} bind def
/ff {findfont} bind def
/sf {setfont} bind def
/scf {scalefont} bind def
/sw {stringwidth} bind def
/tr {translate} bind def
/tnt {dup dup currentrgbcolor
  4 -2 roll dup 1 exch sub 3 -1 roll mul add
  4 -2 roll dup 1 exch sub 3 -1 roll mul add
  4 -2 roll dup 1 exch sub 3 -1 roll mul add srgb}
  bind def
/shd {dup dup currentrgbcolor 4 -2 roll mul 4 -2 roll mul
  4 -2 roll mul srgb} bind def
 /DrawEllipse {
	/endangle exch def
	/startangle exch def
	/yrad exch def
	/xrad exch def
	/y exch def
	/x exch def
	/savematrix mtrx currentmatrix def
	x y tr xrad yrad sc 0 0 1 startangle endangle arc
	closepath
	savematrix setmatrix
	} def

/$F2psBegin {$F2psDict begin /$F2psEnteredState save def} def
/$F2psEnd {$F2psEnteredState restore end} def

$F2psBegin
10 setmiterlimit
0 slj 0 slc
 0.06299 0.06299 sc
%
% Fig objects follow
%
% 
% here starts figure with depth 55
% Polyline
0 slj
0 slc
7.500 slw
n 1125 810 m 2025 -90 l 2025 1890 l 1125 990 l
 cp gs col7 0.80 shd ef gr gs col7 s gr 
% here ends figure;
% 
% here starts figure with depth 50
% Arc
7.500 slw
0 slc
n 1168.1 900.0 496.9 -94.9791 94.9791 arc
gs col0 s gr

% Arc
n 1168.1 855.0 496.9 -94.9791 94.9791 arc
gs col0 s gr

% Arc
n 1168.1 810.0 496.9 -94.9791 94.9791 arc
gs col0 s gr

% Arc
n 1168.1 945.0 496.9 -94.9791 94.9791 arc
gs col0 s gr

% Arc
n 1168.1 990.0 496.9 -94.9791 94.9791 arc
gs col0 s gr

% Arc
gs  clippath
2073 325 m 2028 317 l 2023 347 l 2069 354 l 2069 354 l 2053 337 l 2073 325 l cp
eoclip
n 2028.5 482.8 148.3 12.9424 -85.1475 arcn
gs col0 s gr
 gr

% arrowhead
0 slj
n 2073 325 m 2053 337 l 2069 354 l 2067 339 l 2073 325 l 
 cp gs 0.00 setgray ef gr  col0 s
% Arc
gs  clippath
2076 1460 m 2030 1467 l 2035 1497 l 2080 1489 l 2080 1489 l 2060 1478 l 2076 1460 l cp
eoclip
n 2035.5 1332.2 148.3 -12.9424 85.1475 arc
gs col0 s gr
 gr

% arrowhead
n 2076 1460 m 2060 1478 l 2080 1489 l 2074 1475 l 2076 1460 l 
 cp gs 0.00 setgray ef gr  col0 s
% Arc
n 1179.1 821.0 496.9 -94.9791 94.9791 arc
gs col0 s gr

% Arc
n 1179.1 835.0 496.9 -94.9791 94.9791 arc
gs col0 s gr

% Arc
n 1176.1 867.0 496.9 -94.9791 94.9791 arc
gs col0 s gr

% Arc
n 1183.1 885.0 496.9 -94.9791 94.9791 arc
gs col0 s gr

% Arc
n 1179.1 913.0 496.9 -94.9791 94.9791 arc
gs col0 s gr

% Arc
n 1172.1 959.0 496.9 -94.9791 94.9791 arc
gs col0 s gr

% Arc
n 1176.1 973.0 496.9 -94.9791 94.9791 arc
gs col0 s gr

% Ellipse
n 1080 855 11 11 0 360 DrawEllipse gs col0 s gr

% Ellipse
n 1080 900 11 11 0 360 DrawEllipse gs col0 s gr

% Ellipse
n 1080 945 11 11 0 360 DrawEllipse gs col0 s gr

% Ellipse
n 1080 810 11 11 0 360 DrawEllipse gs col0 s gr

% Ellipse
n 1080 990 11 11 0 360 DrawEllipse gs col0 s gr

% Polyline
n 225 -90 m
 225 1890 l gs col0 s gr 
% Polyline
gs  clippath
363 1365 m 465 1365 l 465 1335 l 363 1335 l 363 1335 l 420 1350 l 363 1365 l cp
eoclip
n 225 1350 m
 450 1350 l gs col0 s gr gr

% arrowhead
n 363 1365 m 420 1350 l 363 1335 l 375 1350 l 363 1365 l 
 cp gs 0.00 setgray ef gr  col0 s
% Polyline
gs  clippath
363 375 m 465 375 l 465 345 l 363 345 l 363 345 l 420 360 l 363 375 l cp
eoclip
n 225 360 m
 450 360 l gs col0 s gr gr

% arrowhead
n 363 375 m 420 360 l 363 345 l 375 360 l 363 375 l 
 cp gs 0.00 setgray ef gr  col0 s
% Polyline
n 360 -90 m
 360 1890 l gs col0 s gr 
% Polyline
n 630 -90 m
 630 1890 l gs col0 s gr 
% Polyline
n 765 -90 m
 765 1890 l gs col0 s gr 
% Polyline
n 900 -90 m
 900 1890 l gs col0 s gr 
% Polyline
n 1035 225 m
 1035 1575 l gs col0 s gr 
% Polyline
n 495 -90 m
 495 1890 l gs col0 s gr 
% Polyline
n 1125 810 m
 2025 -90 l gs col0 s gr 
% Polyline
gs  clippath
930 931 m 930 1005 l 960 1005 l 960 931 l 960 931 l 945 969 l 930 931 l cp
960 868 m 960 795 l 930 795 l 930 868 l 930 868 l 945 831 l 960 868 l cp
eoclip
n 945 810 m
 945 990 l gs col0 s gr gr

% arrowhead
n 960 868 m 945 831 l 930 868 l 945 861 l 960 868 l 
 cp gs col7 1.00 shd ef gr  col0 s
% arrowhead
n 930 931 m 945 969 l 960 931 l 945 939 l 930 931 l 
 cp gs col7 1.00 shd ef gr  col0 s
% Polyline
gs  clippath
590 863 m 645 863 l 645 847 l 590 847 l 590 847 l 609 855 l 590 862 l cp
534 847 m 480 847 l 480 863 l 534 863 l 534 862 l 516 855 l 534 847 l cp
eoclip
n 495 855 m
 630 855 l gs col0 s gr gr

% arrowhead
n 534 847 m 516 855 l 534 862 l 531 855 l 534 847 l 
 cp gs col7 1.00 shd ef gr  col0 s
% arrowhead
n 590 862 m 609 855 l 590 847 l 594 855 l 590 862 l 
 cp gs col7 1.00 shd ef gr  col0 s
% Polyline
n 1125 -90 m 1035 -90 l 1035 810 l 1125 810 l
 cp gs col7 0.70 shd ef gr gs col0 s gr 
% Polyline
 [30] 0 sd
n 1125 810 m
 2025 810 l gs col0 s gr  [] 0 sd
% Polyline
 [30] 0 sd
n 1125 990 m
 2025 990 l gs col0 s gr  [] 0 sd
% Polyline
n 1125 990 m 1035 990 l 1035 1890 l 1125 1890 l
 cp gs col7 0.70 shd ef gr gs col0 s gr 
% Polyline
n 1125 990 m
 2025 1890 l gs col0 s gr 
/Symbol ff 158.75 scf sf
523 1035 m
gs 1 -1 sc (l) col0 sh gr
/Times-Roman ff 158.75 scf sf
2208 1246 m
gs 1 -1 sc  90.0 rot (diffraction) col0 sh gr
/Times-Roman ff 158.75 scf sf
810 945 m
gs 1 -1 sc (a) col0 sh gr
% here ends figure;
$F2psEnd
rs
showpage
%%Trailer
%EOF
