%!PS-Adobe-2.0 EPSF-2.0
%%Title: Gouttecoloree.fig
%%Creator: fig2dev Version 3.2 Patchlevel 5-alpha5
%%CreationDate: Sat Jul 30 17:00:15 2005
%%For: guyotv@debian ()
%%BoundingBox: 0 0 207 182
%Magnification: 1.0000
%%EndComments
/$F2psDict 200 dict def
$F2psDict begin
$F2psDict /mtrx matrix put
/col-1 {0 setgray} bind def
/col0 {0.000 0.000 0.000 srgb} bind def
/col1 {0.000 0.000 1.000 srgb} bind def
/col2 {0.000 1.000 0.000 srgb} bind def
/col3 {0.000 1.000 1.000 srgb} bind def
/col4 {1.000 0.000 0.000 srgb} bind def
/col5 {1.000 0.000 1.000 srgb} bind def
/col6 {1.000 1.000 0.000 srgb} bind def
/col7 {1.000 1.000 1.000 srgb} bind def
/col8 {0.000 0.000 0.560 srgb} bind def
/col9 {0.000 0.000 0.690 srgb} bind def
/col10 {0.000 0.000 0.820 srgb} bind def
/col11 {0.530 0.810 1.000 srgb} bind def
/col12 {0.000 0.560 0.000 srgb} bind def
/col13 {0.000 0.690 0.000 srgb} bind def
/col14 {0.000 0.820 0.000 srgb} bind def
/col15 {0.000 0.560 0.560 srgb} bind def
/col16 {0.000 0.690 0.690 srgb} bind def
/col17 {0.000 0.820 0.820 srgb} bind def
/col18 {0.560 0.000 0.000 srgb} bind def
/col19 {0.690 0.000 0.000 srgb} bind def
/col20 {0.820 0.000 0.000 srgb} bind def
/col21 {0.560 0.000 0.560 srgb} bind def
/col22 {0.690 0.000 0.690 srgb} bind def
/col23 {0.820 0.000 0.820 srgb} bind def
/col24 {0.500 0.190 0.000 srgb} bind def
/col25 {0.630 0.250 0.000 srgb} bind def
/col26 {0.750 0.380 0.000 srgb} bind def
/col27 {1.000 0.500 0.500 srgb} bind def
/col28 {1.000 0.630 0.630 srgb} bind def
/col29 {1.000 0.750 0.750 srgb} bind def
/col30 {1.000 0.880 0.880 srgb} bind def
/col31 {1.000 0.840 0.000 srgb} bind def

end
save
newpath 0 182 moveto 0 0 lineto 207 0 lineto 207 182 lineto closepath clip newpath
-8.7 192.5 translate
1 -1 scale

/cp {closepath} bind def
/ef {eofill} bind def
/gr {grestore} bind def
/gs {gsave} bind def
/sa {save} bind def
/rs {restore} bind def
/l {lineto} bind def
/m {moveto} bind def
/rm {rmoveto} bind def
/n {newpath} bind def
/s {stroke} bind def
/sh {show} bind def
/slc {setlinecap} bind def
/slj {setlinejoin} bind def
/slw {setlinewidth} bind def
/srgb {setrgbcolor} bind def
/rot {rotate} bind def
/sc {scale} bind def
/sd {setdash} bind def
/ff {findfont} bind def
/sf {setfont} bind def
/scf {scalefont} bind def
/sw {stringwidth} bind def
/tr {translate} bind def
/tnt {dup dup currentrgbcolor
  4 -2 roll dup 1 exch sub 3 -1 roll mul add
  4 -2 roll dup 1 exch sub 3 -1 roll mul add
  4 -2 roll dup 1 exch sub 3 -1 roll mul add srgb}
  bind def
/shd {dup dup currentrgbcolor 4 -2 roll mul 4 -2 roll mul
  4 -2 roll mul srgb} bind def
 /DrawEllipse {
	/endangle exch def
	/startangle exch def
	/yrad exch def
	/xrad exch def
	/y exch def
	/x exch def
	/savematrix mtrx currentmatrix def
	x y tr xrad yrad sc 0 0 1 startangle endangle arc
	closepath
	savematrix setmatrix
	} def

/$F2psBegin {$F2psDict begin /$F2psEnteredState save def} def
/$F2psEnd {$F2psEnteredState restore end} def

$F2psBegin
10 setmiterlimit
0 slj 0 slc
 0.06299 0.06299 sc
%
% Fig objects follow
%
% 
% here starts figure with depth 50
% Ellipse
7.500 slw
n 1710 1035 860 860 0 360 DrawEllipse gs col0 s gr

% Polyline
0 slj
0 slc
gs  clippath
722 2912 m 647 2981 l 668 3003 l 742 2935 l 742 2935 l 691 2962 l 722 2912 l cp
eoclip
n 150 289 m 1284 289 l 2514 729 l 1877 1879 l
 669 2982 l gs col0 s gr gr

% arrowhead
n 722 2912 m 691 2962 l 742 2935 l 724 2931 l 722 2912 l 
 cp gs 0.00 setgray ef gr  col0 s
% Polyline
 [45] 0 sd
gs  clippath
350 2217 m 253 2246 l 261 2275 l 359 2246 l 359 2246 l 301 2248 l 350 2217 l cp
eoclip
n 1284 289 m 2570 942 l 1528 1878 l
 272 2257 l gs col0 s gr gr
 [] 0 sd
% arrowhead
n 350 2217 m 301 2248 l 359 2246 l 344 2235 l 350 2217 l 
 cp gs 0.00 setgray ef gr  col0 s
% Polyline
 [15 45] 45 sd
n 1877 1873 m
 2929 896 l gs col0 s gr  [] 0 sd
% Polyline
 [15 60] 60 sd
n 1533 1873 m
 2929 1454 l gs col0 s gr  [] 0 sd
% Polyline
2 slj
n 2445 2700 m 2445 2698 l 2446 2695 l 2446 2688 l 2448 2678 l 2450 2663 l
 2452 2644 l 2456 2618 l 2460 2588 l 2465 2552 l 2470 2510 l
 2477 2463 l 2484 2411 l 2492 2354 l 2501 2294 l 2510 2229 l
 2520 2162 l 2531 2093 l 2542 2022 l 2553 1949 l 2565 1876 l
 2578 1803 l 2590 1731 l 2603 1659 l 2617 1589 l 2631 1520 l
 2645 1453 l 2660 1388 l 2675 1325 l 2690 1266 l 2706 1209 l
 2723 1155 l 2740 1106 l 2757 1060 l 2776 1018 l 2795 981 l
 2815 949 l 2836 924 l 2857 904 l 2879 892 l 2901 887 l
 2924 891 l 2945 902 l 2965 920 l 2985 944 l 3005 974 l
 3024 1010 l 3042 1049 l 3060 1093 l 3077 1141 l 3094 1192 l
 3110 1246 l 3125 1303 l 3140 1363 l 3155 1425 l 3169 1489 l
 3182 1556 l 3196 1624 l 3208 1694 l 3221 1765 l 3233 1837 l
 3245 1911 l 3257 1985 l 3268 2060 l 3279 2134 l 3290 2209 l
 3300 2282 l 3310 2355 l 3320 2426 l 3329 2495 l 3338 2561 l
 3346 2624 l 3353 2684 l 3360 2740 l 3367 2791 l 3372 2838 l
 3378 2880 l 3382 2917 l 3386 2948 l 3389 2975 l 3391 2996 l
 3393 3013 l 3395 3026 l 3396 3034 l 3397 3040 l 3397 3043 l

 3397 3044 l gs col0 s gr 
% Polyline
n 2565 2730 m 2565 2728 l 2566 2724 l 2567 2717 l 2569 2706 l 2571 2690 l
 2574 2669 l 2578 2643 l 2583 2611 l 2588 2574 l 2595 2532 l
 2602 2485 l 2610 2435 l 2619 2382 l 2628 2325 l 2638 2267 l
 2649 2208 l 2659 2147 l 2671 2087 l 2682 2028 l 2694 1969 l
 2706 1911 l 2719 1856 l 2732 1802 l 2745 1751 l 2758 1703 l
 2773 1657 l 2787 1615 l 2802 1576 l 2818 1542 l 2834 1512 l
 2851 1487 l 2869 1468 l 2887 1456 l 2905 1451 l 2924 1454 l
 2941 1465 l 2959 1482 l 2975 1506 l 2991 1536 l 3006 1570 l
 3021 1608 l 3035 1651 l 3048 1697 l 3060 1745 l 3072 1797 l
 3084 1851 l 3094 1907 l 3105 1965 l 3115 2025 l 3125 2087 l
 3134 2149 l 3143 2213 l 3152 2277 l 3160 2342 l 3169 2406 l
 3176 2469 l 3184 2531 l 3191 2591 l 3197 2648 l 3203 2702 l
 3208 2752 l 3213 2798 l 3218 2839 l 3221 2875 l 3225 2906 l
 3227 2931 l 3229 2951 l 3231 2966 l 3232 2977 l 3232 2984 l
 3233 2987 l
 3233 2989 l gs col0 s gr 
/Times-Roman ff 142.88 scf sf
462 2795 m
gs 1 -1 sc (rouge) col0 sh gr
/Times-Roman ff 142.88 scf sf
252 2137 m
gs 1 -1 sc (bleu) col0 sh gr
/Times-Roman ff 142.88 scf sf
2794 1793 m
gs 1 -1 sc (bleu) col0 sh gr
/Times-Roman ff 142.88 scf sf
2750 842 m
gs 1 -1 sc (rouge) col0 sh gr
% here ends figure;
$F2psEnd
rs
showpage
%%Trailer
%EOF
