%!PS-Adobe-2.0 EPSF-2.0
%%Title: Interferenceconstructive.fig
%%Creator: fig2dev Version 3.2 Patchlevel 5-alpha5
%%CreationDate: Tue Aug  2 22:15:42 2005
%%For: guyotv@debian ()
%%BoundingBox: 0 0 155 120
%Magnification: 1.0000
%%EndComments
/$F2psDict 200 dict def
$F2psDict begin
$F2psDict /mtrx matrix put
/col-1 {0 setgray} bind def
/col0 {0.000 0.000 0.000 srgb} bind def
/col1 {0.000 0.000 1.000 srgb} bind def
/col2 {0.000 1.000 0.000 srgb} bind def
/col3 {0.000 1.000 1.000 srgb} bind def
/col4 {1.000 0.000 0.000 srgb} bind def
/col5 {1.000 0.000 1.000 srgb} bind def
/col6 {1.000 1.000 0.000 srgb} bind def
/col7 {1.000 1.000 1.000 srgb} bind def
/col8 {0.000 0.000 0.560 srgb} bind def
/col9 {0.000 0.000 0.690 srgb} bind def
/col10 {0.000 0.000 0.820 srgb} bind def
/col11 {0.530 0.810 1.000 srgb} bind def
/col12 {0.000 0.560 0.000 srgb} bind def
/col13 {0.000 0.690 0.000 srgb} bind def
/col14 {0.000 0.820 0.000 srgb} bind def
/col15 {0.000 0.560 0.560 srgb} bind def
/col16 {0.000 0.690 0.690 srgb} bind def
/col17 {0.000 0.820 0.820 srgb} bind def
/col18 {0.560 0.000 0.000 srgb} bind def
/col19 {0.690 0.000 0.000 srgb} bind def
/col20 {0.820 0.000 0.000 srgb} bind def
/col21 {0.560 0.000 0.560 srgb} bind def
/col22 {0.690 0.000 0.690 srgb} bind def
/col23 {0.820 0.000 0.820 srgb} bind def
/col24 {0.500 0.190 0.000 srgb} bind def
/col25 {0.630 0.250 0.000 srgb} bind def
/col26 {0.750 0.380 0.000 srgb} bind def
/col27 {1.000 0.500 0.500 srgb} bind def
/col28 {1.000 0.630 0.630 srgb} bind def
/col29 {1.000 0.750 0.750 srgb} bind def
/col30 {1.000 0.880 0.880 srgb} bind def
/col31 {1.000 0.840 0.000 srgb} bind def

end
save
newpath 0 120 moveto 0 0 lineto 155 0 lineto 155 120 lineto closepath clip newpath
-4.9 128.3 translate
1 -1 scale

/cp {closepath} bind def
/ef {eofill} bind def
/gr {grestore} bind def
/gs {gsave} bind def
/sa {save} bind def
/rs {restore} bind def
/l {lineto} bind def
/m {moveto} bind def
/rm {rmoveto} bind def
/n {newpath} bind def
/s {stroke} bind def
/sh {show} bind def
/slc {setlinecap} bind def
/slj {setlinejoin} bind def
/slw {setlinewidth} bind def
/srgb {setrgbcolor} bind def
/rot {rotate} bind def
/sc {scale} bind def
/sd {setdash} bind def
/ff {findfont} bind def
/sf {setfont} bind def
/scf {scalefont} bind def
/sw {stringwidth} bind def
/tr {translate} bind def
/tnt {dup dup currentrgbcolor
  4 -2 roll dup 1 exch sub 3 -1 roll mul add
  4 -2 roll dup 1 exch sub 3 -1 roll mul add
  4 -2 roll dup 1 exch sub 3 -1 roll mul add srgb}
  bind def
/shd {dup dup currentrgbcolor 4 -2 roll mul 4 -2 roll mul
  4 -2 roll mul srgb} bind def
/$F2psBegin {$F2psDict begin /$F2psEnteredState save def} def
/$F2psEnd {$F2psEnteredState restore end} def

$F2psBegin
10 setmiterlimit
0 slj 0 slc
 0.06299 0.06299 sc
%
% Fig objects follow
%
% 
% here starts figure with depth 50
% Polyline
0 slj
0 slc
7.500 slw
n 270 315 m
 2340 315 l gs col0 s gr 
% Polyline
2 slj
n 90 315 m 90 314 l 91 311 l 94 303 l 99 290 l 105 274 l
 113 256 l 121 238 l 130 220 l 140 205 l 152 192 l
 165 183 l 180 180 l 195 183 l 208 192 l 220 205 l
 230 220 l 239 238 l 248 256 l 255 274 l 261 290 l
 266 303 l 269 311 l 270 314 l
 270 315 l gs col0 s gr 
% Polyline
n 2340 315 m 2340 314 l 2341 311 l 2344 303 l 2349 290 l 2355 274 l
 2363 256 l 2371 238 l 2380 220 l 2390 205 l 2402 192 l
 2415 183 l 2430 180 l 2445 183 l 2458 192 l 2470 205 l
 2480 220 l 2489 238 l 2498 256 l 2505 274 l 2511 290 l
 2516 303 l 2519 311 l 2520 314 l
 2520 315 l gs col0 s gr 
% Polyline
0 slj
n 720 585 m
 90 585 l gs col0 s gr 
% Polyline
n 900 585 m
 1575 585 l gs col0 s gr 
% Polyline
n 1755 585 m
 2520 585 l gs col0 s gr 
% Polyline
2 slj
n 720 585 m 720 584 l 721 581 l 724 573 l 729 560 l 735 544 l
 743 526 l 751 508 l 760 490 l 770 475 l 782 462 l
 795 453 l 810 450 l 825 453 l 838 462 l 850 475 l
 860 490 l 869 508 l 878 526 l 885 544 l 891 560 l
 896 573 l 899 581 l 900 584 l
 900 585 l gs col0 s gr 
% Polyline
n 1575 585 m 1575 584 l 1576 581 l 1579 573 l 1584 560 l 1590 544 l
 1598 526 l 1606 508 l 1615 490 l 1625 475 l 1637 462 l
 1650 453 l 1665 450 l 1680 453 l 1693 462 l 1705 475 l
 1715 490 l 1724 508 l 1733 526 l 1740 544 l 1746 560 l
 1751 573 l 1754 581 l 1755 584 l
 1755 585 l gs col0 s gr 
% Polyline
0 slj
n 1080 855 m
 90 855 l gs col0 s gr 
% Polyline
n 1440 855 m
 2520 855 l gs col0 s gr 
% Polyline
2 slj
n 1080 855 m 1080 854 l 1081 851 l 1084 843 l 1089 830 l 1095 814 l
 1103 796 l 1111 778 l 1120 760 l 1130 745 l 1142 732 l
 1155 723 l 1170 720 l 1185 723 l 1198 732 l 1210 745 l
 1220 760 l 1229 778 l 1238 796 l 1245 814 l 1251 830 l
 1256 843 l 1259 851 l 1260 854 l
 1260 855 l gs col0 s gr 
% Polyline
n 1260 855 m 1260 854 l 1261 851 l 1264 843 l 1269 830 l 1275 814 l
 1283 796 l 1291 778 l 1300 760 l 1310 745 l 1322 732 l
 1335 723 l 1350 720 l 1365 723 l 1378 732 l 1390 745 l
 1400 760 l 1409 778 l 1418 796 l 1425 814 l 1431 830 l
 1436 843 l 1439 851 l 1440 854 l
 1440 855 l gs col0 s gr 
% Polyline
0 slj
n 1080 1485 m
 90 1485 l gs col0 s gr 
% Polyline
n 1440 1485 m
 2520 1485 l gs col0 s gr 
% Polyline
2 slj
n 1080 1485 m 1080 1484 l 1081 1481 l 1084 1473 l 1089 1460 l 1095 1444 l
 1103 1426 l 1111 1408 l 1120 1390 l 1130 1375 l 1142 1362 l
 1155 1353 l 1170 1350 l 1185 1353 l 1198 1362 l 1210 1375 l
 1220 1390 l 1229 1408 l 1238 1426 l 1245 1444 l 1251 1460 l
 1256 1473 l 1259 1481 l 1260 1484 l
 1260 1485 l gs col0 s gr 
% Polyline
n 1260 1485 m 1260 1484 l 1261 1481 l 1264 1473 l 1269 1460 l 1275 1444 l
 1283 1426 l 1291 1408 l 1300 1390 l 1310 1375 l 1322 1362 l
 1335 1353 l 1350 1350 l 1365 1353 l 1378 1362 l 1390 1375 l
 1400 1390 l 1409 1408 l 1418 1426 l 1425 1444 l 1431 1460 l
 1436 1473 l 1439 1481 l 1440 1484 l
 1440 1485 l gs col0 s gr 
% Polyline
0 slj
n 720 1755 m
 90 1755 l gs col0 s gr 
% Polyline
n 900 1755 m
 1575 1755 l gs col0 s gr 
% Polyline
n 1755 1755 m
 2520 1755 l gs col0 s gr 
% Polyline
2 slj
n 720 1755 m 720 1754 l 721 1751 l 724 1743 l 729 1730 l 735 1714 l
 743 1696 l 751 1678 l 760 1660 l 770 1645 l 782 1632 l
 795 1623 l 810 1620 l 825 1623 l 838 1632 l 850 1645 l
 860 1660 l 869 1678 l 878 1696 l 885 1714 l 891 1730 l
 896 1743 l 899 1751 l 900 1754 l
 900 1755 l gs col0 s gr 
% Polyline
n 1575 1755 m 1575 1754 l 1576 1751 l 1579 1743 l 1584 1730 l 1590 1714 l
 1598 1696 l 1606 1678 l 1615 1660 l 1625 1645 l 1637 1632 l
 1650 1623 l 1665 1620 l 1680 1623 l 1693 1632 l 1705 1645 l
 1715 1660 l 1724 1678 l 1733 1696 l 1740 1714 l 1746 1730 l
 1751 1743 l 1754 1751 l 1755 1754 l
 1755 1755 l gs col0 s gr 
% Polyline
0 slj
n 270 2025 m
 2340 2025 l gs col0 s gr 
% Polyline
2 slj
n 90 2025 m 90 2024 l 91 2021 l 94 2013 l 99 2000 l 105 1984 l
 113 1966 l 121 1948 l 130 1930 l 140 1915 l 152 1902 l
 165 1893 l 180 1890 l 195 1893 l 208 1902 l 220 1915 l
 230 1930 l 239 1948 l 248 1966 l 255 1984 l 261 2000 l
 266 2013 l 269 2021 l 270 2024 l
 270 2025 l gs col0 s gr 
% Polyline
n 2340 2025 m 2340 2024 l 2341 2021 l 2344 2013 l 2349 2000 l 2355 1984 l
 2363 1966 l 2371 1948 l 2380 1930 l 2390 1915 l 2402 1902 l
 2415 1893 l 2430 1890 l 2445 1893 l 2458 1902 l 2470 1915 l
 2480 1930 l 2489 1948 l 2498 1966 l 2505 1984 l 2511 2000 l
 2516 2013 l 2519 2021 l 2520 2024 l
 2520 2025 l gs col0 s gr 
% Polyline
0 slj
n 1170 1215 m
 90 1215 l gs col0 s gr 
% Polyline
n 1350 1215 m
 2520 1215 l gs col0 s gr 
% Polyline
gs  clippath
348 202 m 465 202 l 465 157 l 348 157 l 348 157 l 423 180 l 348 202 l cp
eoclip
n 180 180 m
 450 180 l gs col0 s gr gr

% arrowhead
n 348 202 m 423 180 l 348 157 l 363 180 l 348 202 l 
 cp gs col7 1.00 shd ef gr  col0 s
% Polyline
gs  clippath
978 472 m 1095 472 l 1095 427 l 978 427 l 978 427 l 1053 450 l 978 472 l cp
eoclip
n 810 450 m
 1080 450 l gs col0 s gr gr

% arrowhead
n 978 472 m 1053 450 l 978 427 l 993 450 l 978 472 l 
 cp gs col7 1.00 shd ef gr  col0 s
% Polyline
gs  clippath
2262 157 m 2145 157 l 2145 202 l 2262 202 l 2262 202 l 2187 180 l 2262 157 l cp
eoclip
n 2430 180 m
 2160 180 l gs col0 s gr gr

% arrowhead
n 2262 157 m 2187 180 l 2262 202 l 2247 180 l 2262 157 l 
 cp gs col7 1.00 shd ef gr  col0 s
% Polyline
gs  clippath
1497 427 m 1380 427 l 1380 472 l 1497 472 l 1497 472 l 1422 450 l 1497 427 l cp
eoclip
n 1665 450 m
 1395 450 l gs col0 s gr gr

% arrowhead
n 1497 427 m 1422 450 l 1497 472 l 1482 450 l 1497 427 l 
 cp gs col7 1.00 shd ef gr  col0 s
% Polyline
gs  clippath
1002 1327 m 885 1327 l 885 1372 l 1002 1372 l 1002 1372 l 927 1350 l 1002 1327 l cp
eoclip
n 1170 1350 m
 900 1350 l gs col0 s gr gr

% arrowhead
n 1002 1327 m 927 1350 l 1002 1372 l 987 1350 l 1002 1327 l 
 cp gs col7 1.00 shd ef gr  col0 s
% Polyline
gs  clippath
1518 1372 m 1635 1372 l 1635 1327 l 1518 1327 l 1518 1327 l 1593 1350 l 1518 1372 l cp
eoclip
n 1350 1350 m
 1620 1350 l gs col0 s gr gr

% arrowhead
n 1518 1372 m 1593 1350 l 1518 1327 l 1533 1350 l 1518 1372 l 
 cp gs col7 1.00 shd ef gr  col0 s
% Polyline
gs  clippath
642 1597 m 525 1597 l 525 1642 l 642 1642 l 642 1642 l 567 1620 l 642 1597 l cp
eoclip
n 810 1620 m
 540 1620 l gs col0 s gr gr

% arrowhead
n 642 1597 m 567 1620 l 642 1642 l 627 1620 l 642 1597 l 
 cp gs col7 1.00 shd ef gr  col0 s
% Polyline
gs  clippath
1833 1642 m 1950 1642 l 1950 1597 l 1833 1597 l 1833 1597 l 1908 1620 l 1833 1642 l cp
eoclip
n 1665 1620 m
 1935 1620 l gs col0 s gr gr

% arrowhead
n 1833 1642 m 1908 1620 l 1833 1597 l 1848 1620 l 1833 1642 l 
 cp gs col7 1.00 shd ef gr  col0 s
% Polyline
gs  clippath
282 1867 m 165 1867 l 165 1912 l 282 1912 l 282 1912 l 207 1890 l 282 1867 l cp
eoclip
n 450 1890 m
 180 1890 l gs col0 s gr gr

% arrowhead
n 282 1867 m 207 1890 l 282 1912 l 267 1890 l 282 1867 l 
 cp gs col7 1.00 shd ef gr  col0 s
% Polyline
gs  clippath
2328 1912 m 2445 1912 l 2445 1867 l 2328 1867 l 2328 1867 l 2403 1890 l 2328 1912 l cp
eoclip
n 2160 1890 m
 2430 1890 l gs col0 s gr gr

% arrowhead
n 2328 1912 m 2403 1890 l 2328 1867 l 2343 1890 l 2328 1912 l 
 cp gs col7 1.00 shd ef gr  col0 s
% Polyline
gs  clippath
1068 742 m 1185 742 l 1185 697 l 1068 697 l 1068 697 l 1143 720 l 1068 742 l cp
eoclip
n 900 720 m
 1170 720 l gs col0 s gr gr

% arrowhead
n 1068 742 m 1143 720 l 1068 697 l 1083 720 l 1068 742 l 
 cp gs col7 1.00 shd ef gr  col0 s
% Polyline
gs  clippath
1452 697 m 1335 697 l 1335 742 l 1452 742 l 1452 742 l 1377 720 l 1452 697 l cp
eoclip
n 1620 720 m
 1350 720 l gs col0 s gr gr

% arrowhead
n 1452 697 m 1377 720 l 1452 742 l 1437 720 l 1452 697 l 
 cp gs col7 1.00 shd ef gr  col0 s
% Polyline
2 slj
n 1170 1215 m 1171 1211 l 1172 1204 l 1174 1191 l 1177 1173 l 1182 1150 l
 1187 1124 l 1193 1097 l 1199 1069 l 1205 1043 l 1213 1018 l
 1220 995 l 1229 975 l 1238 960 l 1249 949 l 1260 945 l
 1271 949 l 1282 960 l 1291 975 l 1300 995 l 1307 1018 l
 1315 1043 l 1321 1069 l 1328 1097 l 1333 1124 l 1338 1150 l
 1343 1173 l 1346 1191 l 1348 1204 l 1349 1211 l
 1350 1215 l gs col0 s gr 
% Polyline
 [15 15] 15 sd
n 1170 1215 m 1170 1214 l 1171 1211 l 1174 1203 l 1179 1190 l 1185 1174 l
 1193 1156 l 1201 1138 l 1210 1120 l 1220 1105 l 1232 1092 l
 1245 1083 l 1260 1080 l 1275 1083 l 1288 1092 l 1300 1105 l
 1310 1120 l 1319 1138 l 1328 1156 l 1335 1174 l 1341 1190 l
 1346 1203 l 1349 1211 l 1350 1214 l
 1350 1215 l gs col0 s gr  [] 0 sd
% here ends figure;
$F2psEnd
rs
showpage
%%Trailer
%EOF
