%!PS-Adobe-2.0
%%Creator: inkscape 0.41.1
%%Pages: 1
%%Orientation: Portrait
%%BoundingBox: 30 752 137 823
%%HiResBoundingBox: 30.246118 752.84155 136.84452 822.59129
%%EndComments
%%Page: 1 1
0 842 translate
0.80000000 -0.80000000 scale
gsave [1.0000000 0.0000000 0.0000000 1.0000000 0.0000000 0.0000000] concat
0.0000000 0.0000000 0.0000000 setrgbcolor
[] 0 setdash
0.35433072 setlinewidth
0 setlinejoin
0 setlinecap
newpath
71.280690 24.300236 moveto
71.280690 111.13308 71.280690 111.13308 71.280690 111.13308 curveto
stroke
0.0000000 0.0000000 0.0000000 setrgbcolor
[] 0 setdash
0.35433072 setlinewidth
0 setlinejoin
0 setlinecap
newpath
142.56138 24.300236 moveto
142.56138 111.13308 142.56138 111.13308 142.56138 111.13308 curveto
stroke
0.0000000 0.0000000 0.0000000 setrgbcolor
[0.70866144 2.1259843] 0.0000000 setdash
0.35433072 setlinewidth
0 setlinejoin
0 setlinecap
newpath
56.980218 67.335908 moveto
155.73310 67.335908 155.73310 67.335908 155.73310 67.335908 curveto
stroke
0.0000000 0.0000000 0.0000000 setrgbcolor
[] 0 setdash
1.0000000 setlinewidth
0 setlinejoin
0 setlinecap
newpath
38.307647 37.690794 moveto
71.032772 67.335908 lineto
142.25805 83.698470 lineto
170.55565 106.79856 lineto
stroke
gsave [-0.46479665 -0.37942598 0.37942598 -0.46479665 172.87963 108.69569] concat
0.0000000 0.0000000 0.0000000 setrgbcolor
newpath
8.7185878 4.0337352 moveto
-2.2072895 0.016013256 lineto
8.7185884 -4.0017078 lineto
6.9730900 -1.6296469 6.9831476 1.6157441 8.7185878 4.0337352 curveto
closepath
eofill
grestore
0.0000000 0.0000000 0.0000000 setrgbcolor
[0.47183415 1.4155025] 0.0000000 setdash
0.23591708 setlinewidth
0 setlinejoin
0 setlinecap
newpath
120.88952 83.890971 moveto
164.66701 83.890971 161.93625 83.698470 161.93625 83.698470 curveto
stroke
0.0000000 0.0000000 0.0000000 setrgbcolor
[] 0 setdash
0.35433072 setlinewidth
0 setlinejoin
0 setlinecap
newpath
62.177738 59.635878 moveto
62.177738 59.635878 59.290227 62.908391 59.675229 67.143407 curveto
stroke
0.0000000 0.0000000 0.0000000 setrgbcolor
[] 0 setdash
0.35433072 setlinewidth
0 setlinejoin
0 setlinecap
newpath
91.437850 67.335908 moveto
91.437850 67.335908 92.785356 69.645916 91.822852 71.763425 curveto
stroke
0.0000000 0.0000000 0.0000000 setrgbcolor
[] 0 setdash
0.42802128 setlinewidth
0 setlinejoin
0 setlinecap
newpath
124.57073 79.655955 moveto
124.57073 79.655955 123.44715 82.350965 124.85163 83.698470 curveto
stroke
0.0000000 0.0000000 0.0000000 setrgbcolor
[] 0 setdash
0.35433072 setlinewidth
0 setlinejoin
0 setlinecap
newpath
149.76557 83.890971 moveto
149.76557 83.890971 150.72808 86.778482 149.18807 89.088491 curveto
stroke
0.0000000 0.0000000 0.0000000 setrgbcolor
newpath
47.203598 57.595249 moveto
46.926248 57.989781 46.754373 58.224156 46.687973 58.298374 curveto
46.441873 58.567906 46.197733 58.702671 45.955551 58.702671 curveto
45.529765 58.702671 45.215312 58.206578 45.012192 57.214390 curveto
44.336407 58.226109 43.523908 58.731968 42.574692 58.731968 curveto
41.961409 58.731968 41.480941 58.435093 41.133286 57.841343 curveto
40.844223 57.341344 40.699692 56.761267 40.699692 56.101109 curveto
40.699692 55.261268 40.945785 54.585488 41.437973 54.073765 curveto
42.016097 53.476114 42.678205 53.177286 43.424301 53.177280 curveto
44.557110 53.177286 45.228984 53.870645 45.439926 55.257359 curveto
45.752421 54.511269 46.006327 53.778848 46.201645 53.060093 curveto
46.189921 53.056192 46.184061 53.050333 46.184067 53.042515 curveto
46.184061 53.022989 46.193827 53.015177 46.213364 53.019077 curveto
46.201645 53.060093 lineto
46.535629 53.265171 lineto
46.203592 54.562050 45.861796 55.581580 45.510239 56.323765 curveto
45.525859 56.526892 45.605937 56.866735 45.750473 57.343296 curveto
45.922343 57.894078 46.070780 58.169468 46.195786 58.169468 curveto
46.414530 58.169468 46.691873 57.878453 47.027817 57.296421 curveto
47.203598 57.595249 lineto
44.918442 56.358921 moveto
44.906719 55.483924 44.812969 54.853065 44.637192 54.466343 curveto
44.367657 53.864785 43.855939 53.564004 43.102036 53.563999 curveto
42.543440 53.564004 42.137190 53.858926 41.883286 54.448765 curveto
41.695784 54.882362 41.602035 55.419471 41.602036 56.060093 curveto
41.602035 56.575720 41.719222 57.036657 41.953598 57.442905 curveto
42.230940 57.927281 42.609846 58.169468 43.090317 58.169468 curveto
43.668439 58.169468 44.277813 57.565953 44.918442 56.358921 curveto
fill
0.0000000 0.0000000 0.0000000 setrgbcolor
newpath
51.538864 64.448395 moveto
49.297653 64.448395 lineto
49.278122 64.409332 lineto
49.307419 64.257965 lineto
49.538538 64.257965 49.702926 64.225413 49.800583 64.160309 curveto
49.921025 64.078929 49.981246 63.922679 49.981247 63.691559 curveto
49.981247 60.776520 lineto
49.981246 60.538893 49.864059 60.420078 49.629684 60.420074 curveto
49.541793 60.420078 49.439254 60.434727 49.322067 60.464020 curveto
49.199997 60.268707 lineto
49.818486 60.096186 50.282353 59.912266 50.591599 59.716949 curveto
50.772263 59.848785 lineto
50.772263 63.706207 lineto
50.772261 64.025218 51.021284 64.199372 51.519333 64.228668 curveto
51.538864 64.448395 lineto
50.830856 58.198395 moveto
50.830855 58.338375 50.782027 58.458817 50.684372 58.559723 curveto
50.586714 58.657385 50.467899 58.706213 50.327927 58.706207 curveto
50.187952 58.706213 50.069137 58.657385 49.971481 58.559723 curveto
49.873824 58.458817 49.824996 58.338375 49.824997 58.198395 curveto
49.824996 58.058427 49.873824 57.939612 49.971481 57.841949 curveto
50.069137 57.744300 50.187952 57.695472 50.327927 57.695465 curveto
50.467899 57.695472 50.586714 57.744300 50.684372 57.841949 curveto
50.782027 57.939612 50.830855 58.058427 50.830856 58.198395 curveto
fill
0.0000000 0.0000000 0.0000000 setrgbcolor
newpath
55.337692 64.443512 moveto
52.491013 64.443512 lineto
52.491013 64.272614 lineto
53.181115 64.272614 53.526167 63.994294 53.526169 63.437653 curveto
53.526169 58.281403 lineto
53.350386 58.385575 53.176233 58.489742 53.003708 58.593903 curveto
52.795374 58.711096 52.611454 58.790848 52.451950 58.833160 curveto
52.359177 58.618317 lineto
53.013472 58.292802 53.574995 57.895667 54.043747 57.426910 curveto
54.336716 57.426910 lineto
54.336716 63.437653 lineto
54.336713 63.772940 54.422976 64.000804 54.595505 64.121246 curveto
54.735476 64.222158 54.982871 64.272614 55.337692 64.272614 curveto
55.337692 64.443512 lineto
fill
0.0000000 0.0000000 0.0000000 setrgbcolor
newpath
114.29411 91.398499 moveto
112.05289 91.398499 lineto
112.03336 91.359436 lineto
112.06266 91.208069 lineto
112.29378 91.208069 112.45817 91.175517 112.55582 91.110413 curveto
112.67627 91.029033 112.73649 90.872783 112.73649 90.641663 curveto
112.73649 87.726624 lineto
112.73649 87.488997 112.61930 87.370182 112.38493 87.370178 curveto
112.29703 87.370182 112.19450 87.384831 112.07731 87.414124 curveto
111.95524 87.218811 lineto
112.57373 87.046289 113.03759 86.862370 113.34684 86.667053 curveto
113.52750 86.798889 lineto
113.52750 90.656311 lineto
113.52750 90.975322 113.77653 91.149475 114.27457 91.178772 curveto
114.29411 91.398499 lineto
113.58610 85.148499 moveto
113.58610 85.288479 113.53727 85.408921 113.43961 85.509827 curveto
113.34196 85.607489 113.22314 85.656317 113.08317 85.656311 curveto
112.94319 85.656317 112.82438 85.607489 112.72672 85.509827 curveto
112.62907 85.408921 112.58024 85.288479 112.58024 85.148499 curveto
112.58024 85.008531 112.62907 84.889716 112.72672 84.792053 curveto
112.82438 84.694404 112.94319 84.645576 113.08317 84.645569 curveto
113.22314 84.645576 113.34196 84.694404 113.43961 84.792053 curveto
113.53727 84.889716 113.58610 85.008531 113.58610 85.148499 curveto
fill
0.0000000 0.0000000 0.0000000 setrgbcolor
newpath
119.45524 90.006897 moveto
119.45523 90.068747 119.31200 90.532614 119.02555 91.398499 curveto
114.93864 91.398499 lineto
114.84586 91.110413 lineto
117.02034 89.355857 118.10758 87.760807 118.10758 86.325256 curveto
118.10758 85.485419 117.72672 85.065497 116.96500 85.065491 curveto
116.11865 85.065497 115.47412 85.464260 115.03141 86.261780 curveto
114.81657 86.169006 lineto
114.99235 85.683986 115.29183 85.275458 115.71500 84.943420 curveto
116.16097 84.591865 116.63297 84.416084 117.13102 84.416077 curveto
117.59000 84.416084 117.97574 84.556057 118.28825 84.835999 curveto
118.61376 85.128974 118.77652 85.501695 118.77653 85.954163 curveto
118.77652 87.402734 117.79508 88.999412 115.83219 90.744202 curveto
118.50309 90.744202 lineto
118.68212 90.744202 118.85302 90.605856 119.01579 90.329163 curveto
119.17854 90.052471 119.25341 89.914125 119.24039 89.914124 curveto
119.26643 89.914125 119.30387 89.928773 119.35270 89.958069 curveto
119.40152 89.984112 119.43570 90.000388 119.45524 90.006897 curveto
fill
0.0000000 0.0000000 0.0000000 setrgbcolor
newpath
110.41784 86.715851 moveto
110.14049 87.110383 109.96861 87.344758 109.90221 87.418976 curveto
109.65611 87.688507 109.41197 87.823273 109.16979 87.823273 curveto
108.74401 87.823273 108.42955 87.327179 108.22643 86.334991 curveto
107.55065 87.346711 106.73815 87.852570 105.78893 87.852570 curveto
105.17565 87.852570 104.69518 87.555695 104.34753 86.961945 curveto
104.05846 86.461946 103.91393 85.881868 103.91393 85.221710 curveto
103.91393 84.381870 104.16003 83.706089 104.65221 83.194366 curveto
105.23034 82.596715 105.89245 82.297888 106.63854 82.297882 curveto
107.77135 82.297888 108.44323 82.991246 108.65417 84.377960 curveto
108.96666 83.631871 109.22057 82.899449 109.41589 82.180695 curveto
109.40416 82.176794 109.39830 82.170935 109.39831 82.163116 curveto
109.39830 82.143591 109.40807 82.135778 109.42760 82.139679 curveto
109.41589 82.180695 lineto
109.74987 82.385773 lineto
109.41783 83.682652 109.07604 84.702182 108.72448 85.444366 curveto
108.74010 85.647494 108.82018 85.987337 108.96471 86.463898 curveto
109.13658 87.014680 109.28502 87.290070 109.41003 87.290070 curveto
109.62877 87.290070 109.90611 86.999055 110.24206 86.417023 curveto
110.41784 86.715851 lineto
108.13268 85.479523 moveto
108.12096 84.604526 108.02721 83.973667 107.85143 83.586945 curveto
107.58190 82.985387 107.07018 82.684606 106.31628 82.684601 curveto
105.75768 82.684606 105.35143 82.979528 105.09753 83.569366 curveto
104.91003 84.002964 104.81628 84.540073 104.81628 85.180695 curveto
104.81628 85.696322 104.93346 86.157259 105.16784 86.563507 curveto
105.44518 87.047883 105.82409 87.290070 106.30456 87.290070 curveto
106.88268 87.290070 107.49205 86.686555 108.13268 85.479523 curveto
fill
0.0000000 0.0000000 0.0000000 setrgbcolor
newpath
98.097801 61.498249 moveto
97.820451 61.892781 97.648576 62.127156 97.582176 62.201374 curveto
97.336077 62.470905 97.091936 62.605671 96.849754 62.605671 curveto
96.423968 62.605671 96.109515 62.109578 95.906395 61.117390 curveto
95.230610 62.129109 94.418111 62.634968 93.468895 62.634968 curveto
92.855612 62.634968 92.375144 62.338093 92.027489 61.744343 curveto
91.738426 61.244344 91.593895 60.664267 91.593895 60.004108 curveto
91.593895 59.164268 91.839988 58.488488 92.332176 57.976765 curveto
92.910300 57.379114 93.572409 57.080286 94.318504 57.080280 curveto
95.451313 57.080286 96.123187 57.773644 96.334129 59.160358 curveto
96.646624 58.414269 96.900530 57.681848 97.095848 56.963093 curveto
97.084124 56.959192 97.078264 56.953333 97.078270 56.945515 curveto
97.078264 56.925989 97.088030 56.918177 97.107567 56.922077 curveto
97.095848 56.963093 lineto
97.429832 57.168171 lineto
97.097796 58.465050 96.755999 59.484580 96.404442 60.226765 curveto
96.420062 60.429892 96.500140 60.769735 96.644676 61.246296 curveto
96.816546 61.797078 96.964983 62.072468 97.089989 62.072468 curveto
97.308733 62.072468 97.586076 61.781453 97.922020 61.199421 curveto
98.097801 61.498249 lineto
95.812645 60.261921 moveto
95.800922 59.386924 95.707172 58.756065 95.531395 58.369343 curveto
95.261860 57.767785 94.750142 57.467004 93.996239 57.466999 curveto
93.437643 57.467004 93.031393 57.761926 92.777489 58.351765 curveto
92.589988 58.785362 92.496238 59.322471 92.496239 59.963093 curveto
92.496238 60.478720 92.613425 60.939657 92.847801 61.345905 curveto
93.125143 61.830281 93.504049 62.072468 93.984520 62.072468 curveto
94.562642 62.072468 95.172016 61.468953 95.812645 60.261921 curveto
fill
0.0000000 0.0000000 0.0000000 setrgbcolor
newpath
159.89053 89.795860 moveto
159.61318 90.190392 159.44131 90.424767 159.37491 90.498985 curveto
159.12881 90.768517 158.88467 90.903282 158.64249 90.903282 curveto
158.21670 90.903282 157.90225 90.407189 157.69913 89.415001 curveto
157.02334 90.426720 156.21084 90.932579 155.26163 90.932579 curveto
154.64834 90.932579 154.16788 90.635704 153.82022 90.041954 curveto
153.53116 89.541955 153.38663 88.961878 153.38663 88.301720 curveto
153.38663 87.461879 153.63272 86.786099 154.12491 86.274376 curveto
154.70303 85.676725 155.36514 85.377897 156.11124 85.377892 curveto
157.24405 85.377897 157.91592 86.071256 158.12686 87.457970 curveto
158.43936 86.711880 158.69326 85.979459 158.88858 85.260704 curveto
158.87686 85.256803 158.87100 85.250944 158.87100 85.243126 curveto
158.87100 85.223600 158.88076 85.215788 158.90030 85.219688 curveto
158.88858 85.260704 lineto
159.22256 85.465782 lineto
158.89053 86.762661 158.54873 87.782192 158.19717 88.524376 curveto
158.21279 88.727503 158.29287 89.067346 158.43741 89.543907 curveto
158.60928 90.094689 158.75772 90.370080 158.88272 90.370079 curveto
159.10147 90.370080 159.37881 90.079064 159.71475 89.497032 curveto
159.89053 89.795860 lineto
157.60538 88.559532 moveto
157.59365 87.684535 157.49990 87.053677 157.32413 86.666954 curveto
157.05459 86.065396 156.54287 85.764615 155.78897 85.764610 curveto
155.23038 85.764615 154.82413 86.059537 154.57022 86.649376 curveto
154.38272 87.082973 154.28897 87.620082 154.28897 88.260704 curveto
154.28897 88.776331 154.40616 89.237268 154.64053 89.643517 curveto
154.91788 90.127892 155.29678 90.370080 155.77725 90.370079 curveto
156.35537 90.370080 156.96475 89.766565 157.60538 88.559532 curveto
fill
0.0000000 0.0000000 0.0000000 setrgbcolor
newpath
102.84933 60.999367 moveto
102.83956 61.184918 102.73865 61.435569 102.54659 61.751320 curveto
102.14294 61.542990 101.86462 61.438824 101.71163 61.438820 curveto
101.51632 61.438824 101.34379 61.533225 101.19405 61.722023 curveto
101.08012 61.894553 100.96782 62.067078 100.85714 62.239601 curveto
100.85714 64.661476 lineto
100.85714 65.013039 101.07686 65.188820 101.51632 65.188820 curveto
101.55863 65.188820 101.61886 65.187192 101.69698 65.183937 curveto
101.77511 65.180682 101.83044 65.179054 101.86300 65.179054 curveto
101.88253 65.359718 lineto
99.465538 65.359718 lineto
99.465538 65.218117 lineto
99.924522 65.205096 100.15401 65.019549 100.15401 64.661476 curveto
100.15401 61.800148 lineto
100.15401 61.608094 99.919639 61.461610 99.450890 61.360695 curveto
99.450890 61.180031 lineto
99.737348 61.147483 100.14262 60.981467 100.66671 60.681984 curveto
100.85714 60.721046 lineto
100.85714 61.873390 lineto
101.24776 61.144228 101.59607 60.779645 101.90206 60.779640 curveto
102.05831 60.779645 102.37406 60.852887 102.84933 60.999367 curveto
fill
0.0000000 0.0000000 0.0000000 setrgbcolor
newpath
106.65792 65.354836 moveto
103.81124 65.354836 lineto
103.81124 65.183937 lineto
104.50134 65.183937 104.84640 64.905617 104.84640 64.348976 curveto
104.84640 59.192726 lineto
104.67061 59.296899 104.49646 59.401065 104.32394 59.505226 curveto
104.11560 59.622419 103.93168 59.702172 103.77218 59.744484 curveto
103.67941 59.529640 lineto
104.33370 59.204126 104.89522 58.806991 105.36398 58.338234 curveto
105.65694 58.338234 lineto
105.65694 64.348976 lineto
105.65694 64.684263 105.74320 64.912128 105.91573 65.032570 curveto
106.05570 65.133482 106.30310 65.183937 106.65792 65.183937 curveto
106.65792 65.354836 lineto
fill
0.0000000 0.0000000 0.0000000 setrgbcolor
newpath
165.14034 90.875664 moveto
165.13057 91.061215 165.02965 91.311866 164.83760 91.627617 curveto
164.43395 91.419287 164.15563 91.315121 164.00264 91.315117 curveto
163.80733 91.315121 163.63480 91.409522 163.48506 91.598320 curveto
163.37113 91.770850 163.25882 91.943375 163.14815 92.115898 curveto
163.14815 94.537773 lineto
163.14815 94.889336 163.36787 95.065117 163.80733 95.065117 curveto
163.84964 95.065117 163.90986 95.063489 163.98799 95.060234 curveto
164.06611 95.056979 164.12145 95.055351 164.15401 95.055351 curveto
164.17354 95.236015 lineto
161.75655 95.236015 lineto
161.75655 95.094414 lineto
162.21553 95.081393 162.44502 94.895846 162.44502 94.537773 curveto
162.44502 91.676445 lineto
162.44502 91.484391 162.21065 91.337907 161.74190 91.236992 curveto
161.74190 91.056328 lineto
162.02836 91.023780 162.43363 90.857764 162.95772 90.558281 curveto
163.14815 90.597343 lineto
163.14815 91.749687 lineto
163.53877 91.020525 163.88708 90.655942 164.19307 90.655937 curveto
164.34932 90.655942 164.66507 90.729184 165.14034 90.875664 curveto
fill
0.0000000 0.0000000 0.0000000 setrgbcolor
newpath
170.31123 93.844414 moveto
170.31123 93.906264 170.16800 94.370131 169.88155 95.236015 curveto
165.79463 95.236015 lineto
165.70186 94.947929 lineto
167.87634 93.193374 168.96357 91.598324 168.96358 90.162773 curveto
168.96357 89.322935 168.58271 88.903014 167.82100 88.903008 curveto
166.97464 88.903014 166.33011 89.301776 165.88741 90.099297 curveto
165.67256 90.006523 lineto
165.84834 89.521503 166.14782 89.112975 166.57100 88.780937 curveto
167.01696 88.429382 167.48897 88.253600 167.98701 88.253593 curveto
168.44600 88.253600 168.83174 88.393574 169.14424 88.673515 curveto
169.46976 88.966490 169.63252 89.339211 169.63252 89.791679 curveto
169.63252 91.240251 168.65107 92.836929 166.68819 94.581718 curveto
169.35909 94.581718 lineto
169.53812 94.581719 169.70902 94.443373 169.87178 94.166679 curveto
170.03454 93.889988 170.10941 93.751642 170.09639 93.751640 curveto
170.12243 93.751642 170.15986 93.766290 170.20869 93.795586 curveto
170.25752 93.821629 170.29170 93.837905 170.31123 93.844414 curveto
fill
0.0000000 0.0000000 0.0000000 setrgbcolor
newpath
48.150791 30.896103 moveto
47.825266 31.133733 47.659251 31.255804 47.652744 31.262314 curveto
47.441152 31.392522 47.245840 31.457626 47.066807 31.457626 curveto
46.786856 31.457626 46.594799 31.244410 46.490635 30.817978 curveto
46.096752 31.104437 45.878654 31.259059 45.836338 31.281845 curveto
45.621492 31.402288 45.374097 31.462509 45.094151 31.462509 curveto
44.817457 31.462509 44.583082 31.368108 44.391026 31.179306 curveto
44.202223 30.987249 44.107822 30.754502 44.107822 30.481064 curveto
44.107822 30.139268 44.242913 29.859321 44.513096 29.641220 curveto
44.672600 29.514269 44.957431 29.366157 45.367588 29.196884 curveto
46.471104 28.742783 lineto
46.471104 28.015244 lineto
46.471101 27.758086 46.378328 27.541615 46.192783 27.365829 curveto
46.010489 27.190052 45.789135 27.102162 45.528721 27.102158 curveto
45.115308 27.102162 44.908602 27.321888 44.908604 27.761337 curveto
44.908602 27.790638 44.915113 27.829700 44.928135 27.878525 curveto
44.941155 27.927356 44.947665 27.964791 44.947666 27.990829 curveto
44.947665 28.111275 44.856519 28.218697 44.674229 28.313095 curveto
44.514723 28.397733 44.368238 28.440051 44.234776 28.440048 curveto
44.179437 28.440051 44.151767 28.394478 44.151768 28.303329 curveto
44.151767 27.870390 44.334059 27.515573 44.698643 27.238876 curveto
45.030673 26.984974 45.421297 26.858021 45.870518 26.858017 curveto
46.319734 26.858021 46.648510 26.941029 46.856846 27.107040 curveto
47.087962 27.289336 47.203522 27.598581 47.203526 28.034775 curveto
47.203526 30.549423 lineto
47.203522 30.829372 47.299551 30.969346 47.491611 30.969345 curveto
47.612050 30.969346 47.828521 30.878200 48.141026 30.695908 curveto
48.150791 30.896103 lineto
46.475986 30.490829 moveto
46.471104 29.025986 lineto
45.479893 29.460556 lineto
45.033928 29.655870 44.810946 29.969998 44.810947 30.402939 curveto
44.810946 30.588487 44.871168 30.736598 44.991611 30.847275 curveto
45.112053 30.957952 45.265047 31.013291 45.450596 31.013290 curveto
45.642651 31.013291 45.828198 30.959580 46.007236 30.852158 curveto
46.085359 30.803330 46.241609 30.682887 46.475986 30.490829 curveto
fill
0.0000000 0.0000000 0.0000000 setrgbcolor
newpath
50.562901 31.384384 moveto
48.321690 31.384384 lineto
48.302158 31.345322 lineto
48.331455 31.193954 lineto
48.562575 31.193955 48.726962 31.161403 48.824619 31.096298 curveto
48.945061 31.014918 49.005282 30.858669 49.005283 30.627548 curveto
49.005283 27.712509 lineto
49.005282 27.474883 48.888095 27.356068 48.653721 27.356064 curveto
48.565830 27.356068 48.463291 27.370716 48.346104 27.400009 curveto
48.224033 27.204697 lineto
48.842522 27.032175 49.306389 26.848256 49.615635 26.652939 curveto
49.796299 26.784775 lineto
49.796299 30.642197 lineto
49.796297 30.961207 50.045320 31.135361 50.543369 31.164658 curveto
50.562901 31.384384 lineto
49.854893 25.134384 moveto
49.854891 25.274364 49.806063 25.394807 49.708408 25.495712 curveto
49.610751 25.593374 49.491936 25.642202 49.351963 25.642197 curveto
49.211988 25.642202 49.093173 25.593374 48.995518 25.495712 curveto
48.897861 25.394807 48.849033 25.274364 48.849033 25.134384 curveto
48.849033 24.994417 48.897861 24.875602 48.995518 24.777939 curveto
49.093173 24.680289 49.211988 24.631461 49.351963 24.631454 curveto
49.491936 24.631461 49.610751 24.680289 49.708408 24.777939 curveto
49.806063 24.875602 49.854891 24.994417 49.854893 25.134384 curveto
fill
0.0000000 0.0000000 0.0000000 setrgbcolor
newpath
54.283604 27.024033 moveto
54.273835 27.209584 54.172923 27.460234 53.980869 27.775986 curveto
53.577221 27.567656 53.298901 27.463490 53.145908 27.463486 curveto
52.950594 27.463490 52.778068 27.557891 52.628330 27.746689 curveto
52.514396 27.919218 52.402092 28.091744 52.291416 28.264267 curveto
52.291416 30.686142 lineto
52.291415 31.037705 52.511141 31.213486 52.950596 31.213486 curveto
52.992911 31.213486 53.053133 31.211858 53.131260 31.208603 curveto
53.209383 31.205348 53.264721 31.203720 53.297276 31.203720 curveto
53.316807 31.384384 lineto
50.899815 31.384384 lineto
50.899815 31.242783 lineto
51.358798 31.229762 51.588290 31.044215 51.588291 30.686142 curveto
51.588291 27.824814 lineto
51.588290 27.632760 51.353916 27.486276 50.885166 27.385361 curveto
50.885166 27.204697 lineto
51.171624 27.172149 51.576897 27.006133 52.100986 26.706650 curveto
52.291416 26.745712 lineto
52.291416 27.898056 lineto
52.682039 27.168894 53.030346 26.804311 53.336338 26.804306 curveto
53.492585 26.804311 53.808340 26.877553 54.283604 27.024033 curveto
fill
0.0000000 0.0000000 0.0000000 setrgbcolor
newpath
97.127655 26.906845 moveto
97.108124 27.082626 lineto
96.942103 27.082631 96.777715 27.159128 96.614960 27.312119 curveto
96.474981 27.442331 96.367560 27.593698 96.292694 27.766220 curveto
94.686249 31.423447 lineto
94.422577 31.423447 lineto
92.796600 27.668564 lineto
92.624074 27.277943 92.337616 27.082631 91.937225 27.082626 curveto
91.937225 26.906845 lineto
94.163788 26.906845 lineto
94.163788 27.082626 lineto
93.688526 27.082631 93.450896 27.170521 93.450897 27.346298 curveto
93.450896 27.398386 93.852914 28.387968 94.656952 30.315048 curveto
94.679736 30.367133 94.704150 30.393174 94.730194 30.393173 curveto
94.765999 30.393174 94.798551 30.360622 94.827850 30.295517 curveto
95.892303 27.922470 lineto
95.960659 27.769479 95.994839 27.636015 95.994843 27.522079 curveto
95.994839 27.216094 95.739305 27.063099 95.228241 27.063095 curveto
95.281952 26.906845 lineto
97.127655 26.906845 lineto
fill
0.0000000 0.0000000 0.0000000 setrgbcolor
newpath
101.11203 30.173447 moveto
100.70838 31.032822 100.06873 31.462509 99.193085 31.462509 curveto
98.629932 31.462509 98.154672 31.216741 97.767303 30.725204 curveto
97.405975 30.266221 97.225311 29.748644 97.225311 29.172470 curveto
97.225311 28.518176 97.410858 27.968046 97.781952 27.522079 curveto
98.179086 27.046823 98.698292 26.809193 99.339569 26.809189 curveto
99.850634 26.809193 100.26405 26.963816 100.57980 27.273056 curveto
100.89881 27.582305 101.05832 27.994088 101.05832 28.508408 curveto
97.904022 28.508408 lineto
97.887745 28.645129 97.879607 28.785103 97.879608 28.928329 curveto
97.879607 29.413357 98.027719 29.859321 98.323944 30.266220 curveto
98.649463 30.718695 99.046598 30.944931 99.515350 30.944931 curveto
100.12733 30.944931 100.59282 30.669867 100.91183 30.119736 curveto
100.95090 30.119736 lineto
101.02251 30.116482 101.07622 30.134385 101.11203 30.173447 curveto
100.31125 28.230087 moveto
100.29822 27.898060 100.18267 27.627877 99.964569 27.419540 curveto
99.746468 27.207956 99.469775 27.102162 99.134491 27.102158 curveto
98.857797 27.102162 98.612029 27.224232 98.397186 27.468369 curveto
98.208383 27.683216 98.079803 27.937122 98.011444 28.230087 curveto
100.31125 28.230087 lineto
fill
0.0000000 0.0000000 0.0000000 setrgbcolor
newpath
104.96457 27.014267 moveto
104.95480 27.199818 104.85389 27.450469 104.66183 27.766220 curveto
104.25819 27.557891 103.97987 27.453724 103.82687 27.453720 curveto
103.63156 27.453724 103.45903 27.548125 103.30930 27.736923 curveto
103.19536 27.909453 103.08306 28.081979 102.97238 28.254501 curveto
102.97238 30.676376 lineto
102.97238 31.027939 103.19211 31.203720 103.63156 31.203720 curveto
103.67388 31.203720 103.73410 31.202093 103.81223 31.198837 curveto
103.89035 31.195582 103.94569 31.193955 103.97824 31.193954 curveto
103.99777 31.374619 lineto
101.58078 31.374619 lineto
101.58078 31.233017 lineto
102.03976 31.219996 102.26926 31.034450 102.26926 30.676376 curveto
102.26926 27.815048 lineto
102.26926 27.622995 102.03488 27.476510 101.56613 27.375595 curveto
101.56613 27.194931 lineto
101.85259 27.162383 102.25786 26.996368 102.78195 26.696884 curveto
102.97238 26.735947 lineto
102.97238 27.888290 lineto
103.36300 27.159128 103.71131 26.794545 104.01730 26.794540 curveto
104.17355 26.794545 104.48931 26.867787 104.96457 27.014267 curveto
fill
0.0000000 0.0000000 0.0000000 setrgbcolor
newpath
108.69504 27.014267 moveto
108.68527 27.199818 108.58436 27.450469 108.39230 27.766220 curveto
107.98865 27.557891 107.71033 27.453724 107.55734 27.453720 curveto
107.36203 27.453724 107.18950 27.548125 107.03976 27.736923 curveto
106.92583 27.909453 106.81353 28.081979 106.70285 28.254501 curveto
106.70285 30.676376 lineto
106.70285 31.027939 106.92258 31.203720 107.36203 31.203720 curveto
107.40435 31.203720 107.46457 31.202093 107.54269 31.198837 curveto
107.62082 31.195582 107.67616 31.193955 107.70871 31.193954 curveto
107.72824 31.374619 lineto
105.31125 31.374619 lineto
105.31125 31.233017 lineto
105.77023 31.219996 105.99972 31.034450 105.99973 30.676376 curveto
105.99973 27.815048 lineto
105.99972 27.622995 105.76535 27.476510 105.29660 27.375595 curveto
105.29660 27.194931 lineto
105.58306 27.162383 105.98833 26.996368 106.51242 26.696884 curveto
106.70285 26.735947 lineto
106.70285 27.888290 lineto
107.09347 27.159128 107.44178 26.794545 107.74777 26.794540 curveto
107.90402 26.794545 108.21977 26.867787 108.69504 27.014267 curveto
fill
0.0000000 0.0000000 0.0000000 setrgbcolor
newpath
112.90891 30.173447 moveto
112.50526 31.032822 111.86561 31.462509 110.98996 31.462509 curveto
110.42681 31.462509 109.95155 31.216741 109.56418 30.725204 curveto
109.20285 30.266221 109.02219 29.748644 109.02219 29.172470 curveto
109.02219 28.518176 109.20773 27.968046 109.57883 27.522079 curveto
109.97596 27.046823 110.49517 26.809193 111.13644 26.809189 curveto
111.64751 26.809193 112.06092 26.963816 112.37668 27.273056 curveto
112.69569 27.582305 112.85519 27.994088 112.85519 28.508408 curveto
109.70090 28.508408 lineto
109.68462 28.645129 109.67648 28.785103 109.67648 28.928329 curveto
109.67648 29.413357 109.82459 29.859321 110.12082 30.266220 curveto
110.44634 30.718695 110.84347 30.944931 111.31223 30.944931 curveto
111.92420 30.944931 112.38970 30.669867 112.70871 30.119736 curveto
112.74777 30.119736 lineto
112.81938 30.116482 112.87309 30.134385 112.90891 30.173447 curveto
112.10812 28.230087 moveto
112.09510 27.898060 111.97954 27.627877 111.76144 27.419540 curveto
111.54334 27.207956 111.26665 27.102162 110.93137 27.102158 curveto
110.65467 27.102162 110.40890 27.224232 110.19406 27.468369 curveto
110.00526 27.683216 109.87668 27.937122 109.80832 28.230087 curveto
112.10812 28.230087 lineto
fill
0.0000000 0.0000000 0.0000000 setrgbcolor
newpath
157.79036 30.896103 moveto
157.46483 31.133733 157.29882 31.255804 157.29231 31.262314 curveto
157.08072 31.392522 156.88541 31.457626 156.70638 31.457626 curveto
156.42642 31.457626 156.23437 31.244410 156.13020 30.817978 curveto
155.73632 31.104437 155.51822 31.259059 155.47591 31.281845 curveto
155.26106 31.402288 155.01367 31.462509 154.73372 31.462509 curveto
154.45703 31.462509 154.22265 31.368108 154.03059 31.179306 curveto
153.84179 30.987249 153.74739 30.754502 153.74739 30.481064 curveto
153.74739 30.139268 153.88248 29.859321 154.15266 29.641220 curveto
154.31217 29.514269 154.59700 29.366157 155.00716 29.196884 curveto
156.11067 28.742783 lineto
156.11067 28.015244 lineto
156.11067 27.758086 156.01790 27.541615 155.83235 27.365829 curveto
155.65006 27.190052 155.42870 27.102162 155.16829 27.102158 curveto
154.75488 27.102162 154.54817 27.321888 154.54817 27.761337 curveto
154.54817 27.790638 154.55468 27.829700 154.56770 27.878525 curveto
154.58072 27.927356 154.58723 27.964791 154.58723 27.990829 curveto
154.58723 28.111275 154.49609 28.218697 154.31380 28.313095 curveto
154.15429 28.397733 154.00781 28.440051 153.87434 28.440048 curveto
153.81900 28.440051 153.79134 28.394478 153.79134 28.303329 curveto
153.79134 27.870390 153.97363 27.515573 154.33821 27.238876 curveto
154.67024 26.984974 155.06087 26.858021 155.51009 26.858017 curveto
155.95930 26.858021 156.28808 26.941029 156.49641 27.107040 curveto
156.72753 27.289336 156.84309 27.598581 156.84309 28.034775 curveto
156.84309 30.549423 lineto
156.84309 30.829372 156.93912 30.969346 157.13118 30.969345 curveto
157.25162 30.969346 157.46809 30.878200 157.78059 30.695908 curveto
157.79036 30.896103 lineto
156.11555 30.490829 moveto
156.11067 29.025986 lineto
155.11946 29.460556 lineto
154.67350 29.655870 154.45051 29.969998 154.45052 30.402939 curveto
154.45051 30.588487 154.51074 30.736598 154.63118 30.847275 curveto
154.75162 30.957952 154.90462 31.013291 155.09016 31.013290 curveto
155.28222 31.013291 155.46777 30.959580 155.64680 30.852158 curveto
155.72493 30.803330 155.88118 30.682887 156.11555 30.490829 curveto
fill
0.0000000 0.0000000 0.0000000 setrgbcolor
newpath
160.20247 31.384384 moveto
157.96126 31.384384 lineto
157.94173 31.345322 lineto
157.97102 31.193954 lineto
158.20214 31.193955 158.36653 31.161403 158.46419 31.096298 curveto
158.58463 31.014918 158.64485 30.858669 158.64485 30.627548 curveto
158.64485 27.712509 lineto
158.64485 27.474883 158.52766 27.356068 158.29329 27.356064 curveto
158.20540 27.356068 158.10286 27.370716 157.98567 27.400009 curveto
157.86360 27.204697 lineto
158.48209 27.032175 158.94596 26.848256 159.25520 26.652939 curveto
159.43587 26.784775 lineto
159.43587 30.642197 lineto
159.43587 30.961207 159.68489 31.135361 160.18294 31.164658 curveto
160.20247 31.384384 lineto
159.49446 25.134384 moveto
159.49446 25.274364 159.44563 25.394807 159.34798 25.495712 curveto
159.25032 25.593374 159.13150 25.642202 158.99153 25.642197 curveto
158.85156 25.642202 158.73274 25.593374 158.63509 25.495712 curveto
158.53743 25.394807 158.48860 25.274364 158.48860 25.134384 curveto
158.48860 24.994417 158.53743 24.875602 158.63509 24.777939 curveto
158.73274 24.680289 158.85156 24.631461 158.99153 24.631454 curveto
159.13150 24.631461 159.25032 24.680289 159.34798 24.777939 curveto
159.44563 24.875602 159.49446 24.994417 159.49446 25.134384 curveto
fill
0.0000000 0.0000000 0.0000000 setrgbcolor
newpath
163.92317 27.024033 moveto
163.91340 27.209584 163.81249 27.460234 163.62044 27.775986 curveto
163.21679 27.567656 162.93847 27.463490 162.78548 27.463486 curveto
162.59016 27.463490 162.41764 27.557891 162.26790 27.746689 curveto
162.15396 27.919218 162.04166 28.091744 161.93098 28.264267 curveto
161.93098 30.686142 lineto
161.93098 31.037705 162.15071 31.213486 162.59016 31.213486 curveto
162.63248 31.213486 162.69270 31.211858 162.77083 31.208603 curveto
162.84895 31.205348 162.90429 31.203720 162.93684 31.203720 curveto
162.95638 31.384384 lineto
160.53938 31.384384 lineto
160.53938 31.242783 lineto
160.99837 31.229762 161.22786 31.044215 161.22786 30.686142 curveto
161.22786 27.824814 lineto
161.22786 27.632760 160.99348 27.486276 160.52473 27.385361 curveto
160.52473 27.204697 lineto
160.81119 27.172149 161.21647 27.006133 161.74055 26.706650 curveto
161.93098 26.745712 lineto
161.93098 27.898056 lineto
162.32161 27.168894 162.66991 26.804311 162.97591 26.804306 curveto
163.13215 26.804311 163.44791 26.877553 163.92317 27.024033 curveto
fill
grestore
showpage
