%!PS-Adobe-2.0
%%Creator: inkscape 0.41.1
%%Pages: 1
%%Orientation: Portrait
%%BoundingBox: 12 794 107 825
%%HiResBoundingBox: 12.283012 794.53853 106.31690 824.30052
%%EndComments
%%Page: 1 1
0 842 translate
0.80000000 -0.80000000 scale
gsave [1.0000000 0.0000000 0.0000000 1.0000000 0.0000000 0.0000000] concat
0.0000000 0.0000000 0.0000000 setrgbcolor
[] 0 setdash
0.35433072 setlinewidth
0 setlinejoin
0 setlinecap
newpath
25.329501 38.554156 moveto
16.746777 45.252867 lineto
25.120166 50.276900 lineto
stroke
0.0000000 0.0000000 0.0000000 setrgbcolor
[] 0 setdash
0.35433072 setlinewidth
0 setlinejoin
0 setlinecap
newpath
23.654823 39.810164 moveto
23.654823 39.810164 27.632182 45.043532 23.864158 49.439561 curveto
stroke
0.0000000 0.0000000 0.0000000 setrgbcolor
[1.1645822 2.3291641] 0.0000000 setdash
0.29114553 setlinewidth
0 setlinejoin
0 setlinecap
newpath
15.499338 45.360439 moveto
133.62536 45.360439 132.75036 45.360439 132.75036 45.360439 curveto
stroke
0.0000000 0.0000000 0.0000000 setrgbcolor
[] 0 setdash
0.35433072 setlinewidth
0 setlinejoin
0 setlinecap
newpath
63.219086 38.344821 moveto
60.079064 38.344821 lineto
60.079064 51.951578 lineto
63.219086 51.951578 lineto
stroke
0.0000000 0.0000000 0.0000000 setrgbcolor
[] 0 setdash
0.71465379 setlinewidth
0 setlinejoin
0 setlinecap
newpath
59.694063 45.462202 moveto
106.30836 45.462202 lineto
stroke
0.0000000 0.0000000 0.0000000 setrgbcolor
newpath
83.228958 43.578194 moveto
81.026810 43.578194 lineto
81.026810 43.358467 lineto
81.476025 43.358467 81.700634 43.138741 81.700638 42.699287 curveto
81.700638 40.477608 lineto
81.700634 40.194408 81.642040 39.951895 81.524857 39.750069 curveto
81.381624 39.509187 81.178174 39.388745 80.914505 39.388741 curveto
80.494581 39.388745 79.980258 39.608471 79.371536 40.047920 curveto
79.371536 42.836006 lineto
79.371535 43.155017 79.622186 43.329170 80.123489 43.358467 curveto
80.094193 43.578194 lineto
77.984818 43.578194 lineto
77.965286 43.539131 lineto
77.994583 43.387764 lineto
78.199661 43.387764 78.365676 43.304756 78.492630 43.138741 curveto
78.609817 42.989002 78.668410 42.808338 78.668411 42.596748 curveto
78.668411 39.906319 lineto
78.668410 39.789135 78.565871 39.696362 78.360794 39.627998 curveto
78.334752 39.618237 78.178502 39.582429 77.892044 39.520576 curveto
77.892044 39.398506 lineto
78.038528 39.378979 78.271275 39.300854 78.590286 39.164131 curveto
78.889764 39.033927 79.089960 38.928133 79.190872 38.846748 curveto
79.371536 38.978584 lineto
79.371536 39.857491 lineto
80.331820 39.252026 80.994254 38.949292 81.358841 38.949287 curveto
81.713655 38.949292 81.988720 39.110425 82.184036 39.432686 curveto
82.350047 39.702872 82.433055 40.025137 82.433060 40.399483 curveto
82.433060 42.938545 lineto
82.433055 43.205473 82.688589 43.338936 83.199661 43.338936 curveto
83.228958 43.578194 lineto
fill
0.0000000 0.0000000 0.0000000 setrgbcolor
newpath
87.320755 42.377022 moveto
86.917106 43.236397 86.277458 43.666084 85.401810 43.666084 curveto
84.838657 43.666084 84.363397 43.420316 83.976028 42.928780 curveto
83.614700 42.469796 83.434036 41.952219 83.434036 41.376045 curveto
83.434036 40.721751 83.619583 40.171622 83.990677 39.725655 curveto
84.387811 39.250399 84.907016 39.012769 85.548294 39.012764 curveto
86.059359 39.012769 86.472770 39.167391 86.788528 39.476631 curveto
87.107535 39.785880 87.267040 40.197663 87.267044 40.711983 curveto
84.112747 40.711983 lineto
84.096470 40.848704 84.088332 40.988678 84.088333 41.131905 curveto
84.088332 41.616933 84.236444 42.062896 84.532669 42.469795 curveto
84.858188 42.922270 85.255323 43.148507 85.724075 43.148506 curveto
86.336052 43.148507 86.801546 42.873442 87.120560 42.323311 curveto
87.159622 42.323311 lineto
87.231233 42.320057 87.284944 42.337961 87.320755 42.377022 curveto
86.519974 40.433662 moveto
86.506950 40.101635 86.391390 39.831453 86.173294 39.623116 curveto
85.955193 39.411531 85.678500 39.305737 85.343216 39.305733 curveto
85.066522 39.305737 84.820754 39.427807 84.605911 39.671944 curveto
84.417108 39.886791 84.288528 40.140697 84.220169 40.433662 curveto
86.519974 40.433662 lineto
fill
0.0000000 0.0000000 0.0000000 setrgbcolor
newpath
90.602005 42.718819 moveto
90.312289 43.291736 89.913526 43.578194 89.405716 43.578194 curveto
89.102980 43.578194 88.849074 43.485420 88.643997 43.299873 curveto
88.429153 43.104561 88.321731 42.857166 88.321732 42.557686 curveto
88.321732 39.496162 lineto
87.848099 39.496162 lineto
87.774857 39.256905 lineto
88.129674 39.123446 88.388463 38.923250 88.551224 38.656319 curveto
88.671665 38.461011 88.779087 38.145256 88.873489 37.709053 curveto
89.044388 37.709053 lineto
89.044388 39.110420 lineto
90.602005 39.110420 lineto
90.396927 39.496162 lineto
89.044388 39.496162 lineto
89.044388 42.259834 lineto
89.044386 42.429106 89.132277 42.611398 89.308060 42.806709 curveto
89.483839 43.002022 89.656365 43.099679 89.825638 43.099678 curveto
89.939568 43.099679 90.081169 43.010160 90.250443 42.831123 curveto
90.422966 42.648833 90.509229 42.557687 90.509232 42.557686 curveto
90.574333 42.557687 90.605257 42.611398 90.602005 42.718819 curveto
fill
0.0000000 0.0000000 0.0000000 setrgbcolor
[] 0 setdash
0.24011476 setlinewidth
0 setlinejoin
0 setlinecap
newpath
59.130912 59.068958 moveto
24.812310 59.068958 24.812310 59.068958 24.812310 59.068958 curveto
stroke
gsave [-0.14406886 1.7642764e-17 -1.7642764e-17 -0.14406886 57.978361 59.068958] concat
0.0000000 0.0000000 0.0000000 setrgbcolor
newpath
0.0000000 0.0000000 moveto
5.0000000 -5.0000000 lineto
-12.500000 0.0000000 lineto
5.0000000 5.0000000 lineto
0.0000000 0.0000000 lineto
closepath
eofill
0.0000000 0.0000000 0.0000000 setrgbcolor
[] 0 setdash
1.2500000 setlinewidth
0 setlinejoin
0 setlinecap
newpath
0.0000000 0.0000000 moveto
5.0000000 -5.0000000 lineto
-12.500000 0.0000000 lineto
5.0000000 5.0000000 lineto
0.0000000 0.0000000 lineto
closepath
stroke
0.0000000 0.0000000 0.0000000 setrgbcolor
[] 0 setdash
1.5000000 setlinewidth
0 setlinejoin
0 setlinecap
newpath
-14.759949 -7.0000000 moveto
-14.759949 65.000000 lineto
stroke
grestore
gsave [0.14406886 -1.7642764e-17 -1.7642764e-17 -0.14406886 25.964861 59.068958] concat
0.0000000 0.0000000 0.0000000 setrgbcolor
newpath
0.0000000 0.0000000 moveto
5.0000000 -5.0000000 lineto
-12.500000 0.0000000 lineto
5.0000000 5.0000000 lineto
0.0000000 0.0000000 lineto
closepath
eofill
0.0000000 0.0000000 0.0000000 setrgbcolor
[] 0 setdash
1.2500000 setlinewidth
0 setlinejoin
0 setlinecap
newpath
0.0000000 0.0000000 moveto
5.0000000 -5.0000000 lineto
-12.500000 0.0000000 lineto
5.0000000 5.0000000 lineto
0.0000000 0.0000000 lineto
closepath
stroke
0.0000000 0.0000000 0.0000000 setrgbcolor
[] 0 setdash
1.5000000 setlinewidth
0 setlinejoin
0 setlinecap
newpath
-14.759949 -7.0000000 moveto
-14.759949 65.000000 lineto
stroke
grestore
0.0000000 0.0000000 0.0000000 setrgbcolor
newpath
34.014515 55.584007 moveto
34.014510 55.645858 33.871281 56.109724 33.584827 56.975609 curveto
29.497913 56.975609 lineto
29.405140 56.687523 lineto
31.579617 54.932968 32.666855 53.337917 32.666859 51.902367 curveto
32.666855 51.062529 32.285996 50.642607 31.524281 50.642601 curveto
30.677925 50.642607 30.033394 51.041370 29.590687 51.838890 curveto
29.375843 51.746117 lineto
29.551624 51.261096 29.851103 50.852568 30.274281 50.520531 curveto
30.720242 50.168975 31.192247 49.993194 31.690296 49.993187 curveto
32.149277 49.993194 32.535019 50.133168 32.847523 50.413109 curveto
33.173039 50.706084 33.335800 51.078805 33.335804 51.531273 curveto
33.335800 52.979845 32.354355 54.576523 30.391468 56.321312 curveto
33.062366 56.321312 lineto
33.241399 56.321313 33.412297 56.182966 33.575062 55.906273 curveto
33.737818 55.629582 33.812687 55.491235 33.799671 55.491234 curveto
33.825708 55.491235 33.863143 55.505884 33.911976 55.535179 curveto
33.960799 55.561222 33.994979 55.577498 34.014515 55.584007 curveto
fill
0.0000000 0.0000000 0.0000000 setrgbcolor
newpath
39.200062 53.450218 moveto
39.200057 54.241237 39.032414 54.989934 38.697132 55.696312 curveto
38.280462 56.578474 37.718939 57.019554 37.012562 57.019554 curveto
36.280138 57.019554 35.710477 56.584984 35.303577 55.715843 curveto
34.984566 55.035507 34.825061 54.280299 34.825062 53.450218 curveto
34.825061 52.659207 34.992704 51.910510 35.327991 51.204124 curveto
35.744657 50.325225 36.306180 49.885772 37.012562 49.885765 curveto
37.744980 49.885772 38.313014 50.318714 38.716663 51.184593 curveto
39.038924 51.868192 39.200057 52.623400 39.200062 53.450218 curveto
38.482288 53.669945 moveto
38.482284 51.329456 37.992376 50.159209 37.012562 50.159203 curveto
36.032742 50.159209 35.542834 51.184599 35.542835 53.235374 curveto
35.542834 55.572615 36.032742 56.741234 37.012562 56.741234 curveto
37.992376 56.741234 38.482284 55.717472 38.482288 53.669945 curveto
fill
0.0000000 0.0000000 0.0000000 setrgbcolor
newpath
fill
0.0000000 0.0000000 0.0000000 setrgbcolor
newpath
46.944202 55.774437 moveto
46.540553 56.633812 45.900905 57.063499 45.025257 57.063499 curveto
44.462105 57.063499 43.985217 56.837263 43.594593 56.384789 curveto
43.220244 55.951847 43.033070 55.448918 43.033070 54.875999 curveto
43.033070 54.159856 43.280465 53.569037 43.775257 53.103539 curveto
44.260282 52.647814 44.864122 52.419949 45.586781 52.419945 curveto
45.801621 52.419949 46.052272 52.486681 46.338734 52.620140 curveto
46.667506 52.766629 46.831894 52.924506 46.831898 53.093773 curveto
46.831894 53.403021 46.685410 53.557643 46.392445 53.557640 curveto
46.210150 53.557643 46.091335 53.484401 46.035999 53.337914 curveto
45.983913 53.201199 45.933457 53.064480 45.884632 52.927757 curveto
45.777207 52.778022 45.570502 52.703152 45.264515 52.703148 curveto
44.772977 52.703152 44.388862 52.926134 44.112171 53.372093 curveto
43.881050 53.749701 43.765491 54.200546 43.765491 54.724632 curveto
43.765491 55.160832 43.918485 55.567733 44.224476 55.945335 curveto
44.549995 56.345727 44.924344 56.545922 45.347523 56.545921 curveto
45.956244 56.545922 46.421738 56.270857 46.744007 55.720726 curveto
46.877467 55.717472 46.944198 55.735376 46.944202 55.774437 curveto
fill
0.0000000 0.0000000 0.0000000 setrgbcolor
newpath
55.611195 56.975609 moveto
53.448109 56.975609 lineto
53.448109 56.755882 lineto
53.890811 56.755882 54.112165 56.536156 54.112171 56.096703 curveto
54.112171 53.875023 lineto
54.112165 53.598334 54.045433 53.355821 53.911976 53.147484 curveto
53.755720 52.906602 53.545759 52.786160 53.282093 52.786156 curveto
52.878442 52.786160 52.398299 52.989610 51.841663 53.396507 curveto
51.841663 56.335960 lineto
51.841659 56.602888 52.102075 56.736351 52.622913 56.736351 curveto
52.647327 56.975609 lineto
50.489124 56.975609 lineto
50.489124 56.755882 lineto
50.928574 56.755882 51.148300 56.536156 51.148304 56.096703 curveto
51.148304 53.875023 lineto
51.148300 53.595078 51.091334 53.354193 50.977406 53.152367 curveto
50.837428 52.908230 50.637233 52.786160 50.376820 52.786156 curveto
49.966661 52.786160 49.463732 53.005886 48.868031 53.445335 curveto
48.868031 56.233421 lineto
48.868029 56.552432 49.113797 56.726586 49.605335 56.755882 curveto
49.576038 56.975609 lineto
47.510609 56.975609 lineto
47.491077 56.936546 lineto
47.520374 56.785179 lineto
47.722197 56.785179 47.884957 56.702172 48.008656 56.536156 curveto
48.122587 56.383162 48.179553 56.202498 48.179554 55.994164 curveto
48.179554 53.303734 lineto
48.179553 53.186550 48.078642 53.093777 47.876820 53.025414 curveto
47.850778 53.015652 47.697783 52.979845 47.417835 52.917992 curveto
47.417835 52.795921 lineto
47.450387 52.760118 47.491077 52.734077 47.539906 52.717796 curveto
47.797067 52.629910 48.181181 52.472033 48.692249 52.244164 curveto
48.868031 52.375999 lineto
48.868031 53.254906 lineto
49.808783 52.649441 50.458197 52.346707 50.816273 52.346703 curveto
51.034368 52.346707 51.237818 52.447619 51.426624 52.649437 curveto
51.586125 52.821967 51.701685 53.023790 51.773304 53.254906 curveto
52.714054 52.649441 53.363467 52.346707 53.721546 52.346703 curveto
54.069847 52.346707 54.348167 52.507840 54.556507 52.830101 curveto
54.738791 53.110053 54.829937 53.432318 54.829945 53.796898 curveto
54.829945 56.335960 lineto
54.829937 56.602888 55.080588 56.736351 55.581898 56.736351 curveto
55.611195 56.975609 lineto
fill
0.0000000 0.0000000 0.0000000 setrgbcolor
[] 0 setdash
0.35433072 setlinewidth
0 setlinejoin
0 setlinecap
newpath
103.09735 38.449483 moveto
106.23737 38.449483 lineto
106.23737 52.056240 lineto
103.09735 52.056240 lineto
stroke
0.0000000 0.0000000 0.0000000 setrgbcolor
[] 0 setdash
0.36529520 setlinewidth
0 setlinejoin
0 setlinecap
newpath
25.179191 30.599432 moveto
104.60834 30.599432 104.60834 30.599432 104.60834 30.599432 curveto
stroke
gsave [0.21917712 0.0000000 0.0000000 0.21917712 26.932608 30.599432] concat
0.0000000 0.0000000 0.0000000 setrgbcolor
newpath
0.0000000 0.0000000 moveto
5.0000000 -5.0000000 lineto
-12.500000 0.0000000 lineto
5.0000000 5.0000000 lineto
0.0000000 0.0000000 lineto
closepath
eofill
0.0000000 0.0000000 0.0000000 setrgbcolor
[] 0 setdash
1.2500000 setlinewidth
0 setlinejoin
0 setlinecap
newpath
0.0000000 0.0000000 moveto
5.0000000 -5.0000000 lineto
-12.500000 0.0000000 lineto
5.0000000 5.0000000 lineto
0.0000000 0.0000000 lineto
closepath
stroke
0.0000000 0.0000000 0.0000000 setrgbcolor
[] 0 setdash
1.5000000 setlinewidth
0 setlinejoin
0 setlinecap
newpath
-14.759949 -7.0000000 moveto
-14.759949 65.000000 lineto
stroke
grestore
gsave [-0.21917712 -0.0000000 0.0000000 0.21917712 102.85492 30.599432] concat
0.0000000 0.0000000 0.0000000 setrgbcolor
newpath
0.0000000 0.0000000 moveto
5.0000000 -5.0000000 lineto
-12.500000 0.0000000 lineto
5.0000000 5.0000000 lineto
0.0000000 0.0000000 lineto
closepath
eofill
0.0000000 0.0000000 0.0000000 setrgbcolor
[] 0 setdash
1.2500000 setlinewidth
0 setlinejoin
0 setlinecap
newpath
0.0000000 0.0000000 moveto
5.0000000 -5.0000000 lineto
-12.500000 0.0000000 lineto
5.0000000 5.0000000 lineto
0.0000000 0.0000000 lineto
closepath
stroke
0.0000000 0.0000000 0.0000000 setrgbcolor
[] 0 setdash
1.5000000 setlinewidth
0 setlinejoin
0 setlinecap
newpath
-14.759949 -7.0000000 moveto
-14.759949 65.000000 lineto
stroke
grestore
0.0000000 0.0000000 0.0000000 setrgbcolor
newpath
57.115379 27.069540 moveto
55.977684 27.069540 lineto
55.977684 29.076376 lineto
55.303856 29.076376 lineto
55.303856 27.069540 lineto
52.447411 27.069540 lineto
52.447411 26.761923 lineto
55.733543 22.035360 lineto
55.977684 22.035360 lineto
55.977684 26.454306 lineto
57.115379 26.454306 lineto
57.115379 27.069540 lineto
55.303856 23.173056 moveto
53.062645 26.454306 lineto
55.303856 26.454306 lineto
55.303856 23.173056 lineto
fill
0.0000000 0.0000000 0.0000000 setrgbcolor
newpath
61.890770 25.550985 moveto
61.890765 26.342004 61.723122 27.090701 61.387840 27.797079 curveto
60.971170 28.679241 60.409647 29.120321 59.703270 29.120321 curveto
58.970846 29.120321 58.401185 28.685751 57.994286 27.816610 curveto
57.675275 27.136274 57.515770 26.381066 57.515770 25.550985 curveto
57.515770 24.759974 57.683413 24.011277 58.018700 23.304892 curveto
58.435365 22.425992 58.996888 21.986539 59.703270 21.986532 curveto
60.435689 21.986539 61.003722 22.419482 61.407372 23.285360 curveto
61.729633 23.968959 61.890765 24.724167 61.890770 25.550985 curveto
61.172997 25.770712 moveto
61.172992 23.430223 60.683084 22.259977 59.703270 22.259970 curveto
58.723451 22.259977 58.233542 23.285366 58.233543 25.336142 curveto
58.233542 27.673383 58.723451 28.842001 59.703270 28.842001 curveto
60.683084 28.842001 61.172992 27.818239 61.172997 25.770712 curveto
fill
0.0000000 0.0000000 0.0000000 setrgbcolor
newpath
fill
0.0000000 0.0000000 0.0000000 setrgbcolor
newpath
69.634911 27.875204 moveto
69.231261 28.734579 68.591613 29.164266 67.715965 29.164267 curveto
67.152813 29.164266 66.675925 28.938030 66.285301 28.485556 curveto
65.910952 28.052614 65.723778 27.549685 65.723778 26.976767 curveto
65.723778 26.260624 65.971173 25.669804 66.465965 25.204306 curveto
66.950990 24.748581 67.554831 24.520716 68.277489 24.520712 curveto
68.492330 24.520716 68.742980 24.587448 69.029442 24.720907 curveto
69.358214 24.867396 69.522602 25.025273 69.522606 25.194540 curveto
69.522602 25.503788 69.376118 25.658411 69.083153 25.658407 curveto
68.900858 25.658411 68.782043 25.585169 68.726707 25.438681 curveto
68.674621 25.301966 68.624165 25.165247 68.575340 25.028524 curveto
68.467916 24.878789 68.261210 24.803919 67.955223 24.803915 curveto
67.463685 24.803919 67.079571 25.026901 66.802879 25.472860 curveto
66.571759 25.850468 66.456199 26.301314 66.456200 26.825399 curveto
66.456199 27.261599 66.609194 27.668500 66.915184 28.046103 curveto
67.240703 28.446494 67.615052 28.646689 68.038231 28.646688 curveto
68.646952 28.646689 69.112446 28.371624 69.434715 27.821493 curveto
69.568175 27.818239 69.634907 27.836143 69.634911 27.875204 curveto
fill
0.0000000 0.0000000 0.0000000 setrgbcolor
newpath
78.301903 29.076376 moveto
76.138817 29.076376 lineto
76.138817 28.856649 lineto
76.581519 28.856650 76.802873 28.636923 76.802879 28.197470 curveto
76.802879 25.975790 lineto
76.802873 25.699101 76.736141 25.456588 76.602684 25.248251 curveto
76.446428 25.007370 76.236467 24.886927 75.972801 24.886923 curveto
75.569150 24.886927 75.089007 25.090377 74.532372 25.497274 curveto
74.532372 28.436728 lineto
74.532367 28.703655 74.792784 28.837118 75.313622 28.837118 curveto
75.338036 29.076376 lineto
73.179832 29.076376 lineto
73.179832 28.856649 lineto
73.619282 28.856650 73.839008 28.636923 73.839012 28.197470 curveto
73.839012 25.975790 lineto
73.839008 25.695845 73.782042 25.454960 73.668114 25.253134 curveto
73.528136 25.008997 73.327941 24.886927 73.067528 24.886923 curveto
72.657369 24.886927 72.154440 25.106653 71.558739 25.546103 curveto
71.558739 28.334188 lineto
71.558737 28.653199 71.804505 28.827353 72.296043 28.856649 curveto
72.266747 29.076376 lineto
70.201317 29.076376 lineto
70.181786 29.037313 lineto
70.211082 28.885946 lineto
70.412905 28.885946 70.575665 28.802939 70.699364 28.636923 curveto
70.813295 28.483929 70.870261 28.303265 70.870262 28.094931 curveto
70.870262 25.404501 lineto
70.870261 25.287317 70.769350 25.194544 70.567528 25.126181 curveto
70.541486 25.116419 70.388491 25.080612 70.108543 25.018759 curveto
70.108543 24.896688 lineto
70.141095 24.860885 70.181786 24.834844 70.230614 24.818563 curveto
70.487775 24.730677 70.871889 24.572800 71.382957 24.344931 curveto
71.558739 24.476767 lineto
71.558739 25.355673 lineto
72.499492 24.750208 73.148905 24.447474 73.506981 24.447470 curveto
73.725076 24.447474 73.928527 24.548386 74.117332 24.750204 curveto
74.276834 24.922734 74.392393 25.124557 74.464012 25.355673 curveto
75.404762 24.750208 76.054176 24.447474 76.412254 24.447470 curveto
76.760555 24.447474 77.038875 24.608607 77.247215 24.930868 curveto
77.429500 25.210820 77.520645 25.533085 77.520653 25.897665 curveto
77.520653 28.436728 lineto
77.520645 28.703655 77.771296 28.837118 78.272606 28.837118 curveto
78.301903 29.076376 lineto
fill
grestore
showpage
