%!PS-Adobe-2.0
%%Creator: inkscape 0.41.1
%%Pages: 1
%%Orientation: Portrait
%%BoundingBox: 23 765 149 824
%%HiResBoundingBox: 23.704898 765.85752 148.40556 823.47293
%%EndComments
%%Page: 1 1
0 842 translate
0.80000000 -0.80000000 scale
gsave [1.0000000 0.0000000 0.0000000 1.0000000 0.0000000 0.0000000] concat
0.0000000 0.0000000 0.0000000 setrgbcolor
[1.4173229 2.8346457] 0.0000000 setdash
0.35433072 setlinewidth
0 setlinejoin
0 setlinecap
newpath
29.808288 60.912589 moveto
185.32979 60.912589 185.32979 60.912589 185.32979 60.912589 curveto
stroke
0.0000000 0.0000000 0.0000000 setrgbcolor
[] 0 setdash
0.35433072 setlinewidth
0 setlinejoin
0 setlinecap
newpath
91.364788 25.154761 moveto
91.364788 94.109319 91.364788 94.540285 91.364788 94.540285 curveto
stroke
gsave [2.3865361e-17 0.38976379 -0.38976379 2.3865361e-17 91.364788 23.205942] concat
0.0000000 0.0000000 0.0000000 setrgbcolor
newpath
8.7185878 4.0337352 moveto
-2.2072895 0.016013256 lineto
8.7185884 -4.0017078 lineto
6.9730900 -1.6296469 6.9831476 1.6157441 8.7185878 4.0337352 curveto
closepath
eofill
grestore
gsave [-2.3865361e-17 -0.38976379 0.38976379 -2.3865361e-17 91.364788 96.489104] concat
0.0000000 0.0000000 0.0000000 setrgbcolor
newpath
8.7185878 4.0337352 moveto
-2.2072895 0.016013256 lineto
8.7185884 -4.0017078 lineto
6.9730900 -1.6296469 6.9831476 1.6157441 8.7185878 4.0337352 curveto
closepath
eofill
grestore
0.0000000 0.0000000 0.0000000 setrgbcolor
[] 0 setdash
0.35433072 setlinewidth
0 setlinejoin
0 setlinecap
newpath
43.096598 41.100503 moveto
43.096598 60.709455 43.096598 60.709455 43.096598 60.709455 curveto
stroke
0.0000000 0.0000000 0.0000000 setrgbcolor
[] 0 setdash
1.0000000 setlinewidth
0 setlinejoin
0 setlinecap
newpath
42.881115 41.315986 moveto
168.50770 91.954489 lineto
stroke
gsave [-0.27824579 -0.11215739 0.11215739 -0.27824579 169.89893 92.515276] concat
0.0000000 0.0000000 0.0000000 setrgbcolor
newpath
8.7185878 4.0337352 moveto
-2.2072895 0.016013256 lineto
8.7185884 -4.0017078 lineto
6.9730900 -1.6296469 6.9831476 1.6157441 8.7185878 4.0337352 curveto
closepath
eofill
grestore
0.0000000 0.0000000 0.0000000 setrgbcolor
[] 0 setdash
1.0000000 setlinewidth
0 setlinejoin
0 setlinecap
newpath
42.881115 41.315986 moveto
91.149305 41.315986 lineto
161.82773 94.540285 lineto
stroke
gsave [-0.23964884 -0.18046726 0.18046726 -0.23964884 163.02597 95.442621] concat
0.0000000 0.0000000 0.0000000 setrgbcolor
newpath
8.7185878 4.0337352 moveto
-2.2072895 0.016013256 lineto
8.7185884 -4.0017078 lineto
6.9730900 -1.6296469 6.9831476 1.6157441 8.7185878 4.0337352 curveto
closepath
eofill
grestore
0.0000000 0.0000000 0.0000000 setrgbcolor
[] 0 setdash
0.35433072 setlinewidth
0 setlinejoin
0 setlinecap
newpath
146.74392 83.119686 moveto
146.74392 60.924938 lineto
stroke
0.0000000 0.0000000 0.0000000 setrgbcolor
[] 0 setdash
0.33349445 setlinewidth
0 setlinejoin
0 setlinecap
newpath
92.637462 55.106897 moveto
115.73459 55.106897 lineto
stroke
gsave [0.20009667 0.0000000 0.0000000 0.20009667 94.238235 55.106897] concat
0.0000000 0.0000000 0.0000000 setrgbcolor
newpath
0.0000000 0.0000000 moveto
5.0000000 -5.0000000 lineto
-12.500000 0.0000000 lineto
5.0000000 5.0000000 lineto
0.0000000 0.0000000 lineto
closepath
eofill
0.0000000 0.0000000 0.0000000 setrgbcolor
[] 0 setdash
1.2500000 setlinewidth
0 setlinejoin
0 setlinecap
newpath
0.0000000 0.0000000 moveto
5.0000000 -5.0000000 lineto
-12.500000 0.0000000 lineto
5.0000000 5.0000000 lineto
0.0000000 0.0000000 lineto
closepath
stroke
0.0000000 0.0000000 0.0000000 setrgbcolor
[] 0 setdash
1.5000000 setlinewidth
0 setlinejoin
0 setlinecap
newpath
-14.759949 -7.0000000 moveto
-14.759949 65.000000 lineto
stroke
grestore
gsave [-0.20009667 -0.0000000 0.0000000 0.20009667 114.13382 55.106897] concat
0.0000000 0.0000000 0.0000000 setrgbcolor
newpath
0.0000000 0.0000000 moveto
5.0000000 -5.0000000 lineto
-12.500000 0.0000000 lineto
5.0000000 5.0000000 lineto
0.0000000 0.0000000 lineto
closepath
eofill
0.0000000 0.0000000 0.0000000 setrgbcolor
[] 0 setdash
1.2500000 setlinewidth
0 setlinejoin
0 setlinecap
newpath
0.0000000 0.0000000 moveto
5.0000000 -5.0000000 lineto
-12.500000 0.0000000 lineto
5.0000000 5.0000000 lineto
0.0000000 0.0000000 lineto
closepath
stroke
0.0000000 0.0000000 0.0000000 setrgbcolor
[] 0 setdash
1.5000000 setlinewidth
0 setlinejoin
0 setlinecap
newpath
-14.759949 -7.0000000 moveto
-14.759949 65.000000 lineto
stroke
grestore
0.0000000 0.0000000 0.0000000 setrgbcolor
[] 0 setdash
0.49725518 setlinewidth
0 setlinejoin
0 setlinecap
newpath
93.379417 48.211442 moveto
144.72929 48.211442 lineto
stroke
gsave [0.29835311 0.0000000 0.0000000 0.29835311 95.766242 48.211442] concat
0.0000000 0.0000000 0.0000000 setrgbcolor
newpath
0.0000000 0.0000000 moveto
5.0000000 -5.0000000 lineto
-12.500000 0.0000000 lineto
5.0000000 5.0000000 lineto
0.0000000 0.0000000 lineto
closepath
eofill
0.0000000 0.0000000 0.0000000 setrgbcolor
[] 0 setdash
1.2500000 setlinewidth
0 setlinejoin
0 setlinecap
newpath
0.0000000 0.0000000 moveto
5.0000000 -5.0000000 lineto
-12.500000 0.0000000 lineto
5.0000000 5.0000000 lineto
0.0000000 0.0000000 lineto
closepath
stroke
0.0000000 0.0000000 0.0000000 setrgbcolor
[] 0 setdash
1.5000000 setlinewidth
0 setlinejoin
0 setlinecap
newpath
-14.759949 -7.0000000 moveto
-14.759949 65.000000 lineto
stroke
grestore
gsave [-0.29835311 -0.0000000 0.0000000 0.29835311 142.34247 48.211442] concat
0.0000000 0.0000000 0.0000000 setrgbcolor
newpath
0.0000000 0.0000000 moveto
5.0000000 -5.0000000 lineto
-12.500000 0.0000000 lineto
5.0000000 5.0000000 lineto
0.0000000 0.0000000 lineto
closepath
eofill
0.0000000 0.0000000 0.0000000 setrgbcolor
[] 0 setdash
1.2500000 setlinewidth
0 setlinejoin
0 setlinecap
newpath
0.0000000 0.0000000 moveto
5.0000000 -5.0000000 lineto
-12.500000 0.0000000 lineto
5.0000000 5.0000000 lineto
0.0000000 0.0000000 lineto
closepath
stroke
0.0000000 0.0000000 0.0000000 setrgbcolor
[] 0 setdash
1.5000000 setlinewidth
0 setlinejoin
0 setlinecap
newpath
-14.759949 -7.0000000 moveto
-14.759949 65.000000 lineto
stroke
grestore
0.0000000 0.0000000 0.0000000 setrgbcolor
[] 0 setdash
0.40314037 setlinewidth
0 setlinejoin
0 setlinecap
newpath
44.760986 32.050220 moveto
89.700400 32.050220 lineto
stroke
gsave [0.24188422 0.0000000 0.0000000 0.24188422 46.696060 32.050220] concat
0.0000000 0.0000000 0.0000000 setrgbcolor
newpath
0.0000000 0.0000000 moveto
5.0000000 -5.0000000 lineto
-12.500000 0.0000000 lineto
5.0000000 5.0000000 lineto
0.0000000 0.0000000 lineto
closepath
eofill
0.0000000 0.0000000 0.0000000 setrgbcolor
[] 0 setdash
1.2500000 setlinewidth
0 setlinejoin
0 setlinecap
newpath
0.0000000 0.0000000 moveto
5.0000000 -5.0000000 lineto
-12.500000 0.0000000 lineto
5.0000000 5.0000000 lineto
0.0000000 0.0000000 lineto
closepath
stroke
0.0000000 0.0000000 0.0000000 setrgbcolor
[] 0 setdash
1.5000000 setlinewidth
0 setlinejoin
0 setlinecap
newpath
-14.759949 -7.0000000 moveto
-14.759949 65.000000 lineto
stroke
grestore
gsave [-0.24188422 -0.0000000 0.0000000 0.24188422 87.765326 32.050220] concat
0.0000000 0.0000000 0.0000000 setrgbcolor
newpath
0.0000000 0.0000000 moveto
5.0000000 -5.0000000 lineto
-12.500000 0.0000000 lineto
5.0000000 5.0000000 lineto
0.0000000 0.0000000 lineto
closepath
eofill
0.0000000 0.0000000 0.0000000 setrgbcolor
[] 0 setdash
1.2500000 setlinewidth
0 setlinejoin
0 setlinecap
newpath
0.0000000 0.0000000 moveto
5.0000000 -5.0000000 lineto
-12.500000 0.0000000 lineto
5.0000000 5.0000000 lineto
0.0000000 0.0000000 lineto
closepath
stroke
0.0000000 0.0000000 0.0000000 setrgbcolor
[] 0 setdash
1.5000000 setlinewidth
0 setlinejoin
0 setlinecap
newpath
-14.759949 -7.0000000 moveto
-14.759949 65.000000 lineto
stroke
grestore
0.0000000 0.0000000 0.0000000 setrgbcolor
newpath
54.274281 27.796415 moveto
54.274276 28.678578 54.033391 29.308460 53.551624 29.686064 curveto
53.121934 30.024606 52.452989 30.193876 51.544788 30.193876 curveto
51.281115 30.193876 51.041858 30.148303 50.827015 30.057158 curveto
50.547066 29.933460 50.407093 29.756051 50.407093 29.524931 curveto
50.407093 29.417510 50.444527 29.327992 50.519398 29.256376 curveto
50.594267 29.181507 50.687040 29.144073 50.797718 29.144072 curveto
51.022326 29.144073 51.258329 29.253122 51.505726 29.471220 curveto
51.756375 29.689319 52.005398 29.798369 52.252796 29.798368 curveto
53.128444 29.798369 53.566269 29.184763 53.566273 27.957548 curveto
53.566269 27.622264 53.483261 27.306509 53.317249 27.010283 curveto
53.121934 26.661979 52.868028 26.487825 52.555531 26.487822 curveto
52.226752 26.487825 51.880073 26.580599 51.515491 26.766142 curveto
51.422718 26.517118 lineto
51.705919 26.438997 52.044461 26.220898 52.438343 25.862822 curveto
52.864772 25.475456 53.077988 25.153191 53.077991 24.896025 curveto
53.077988 24.596551 52.964056 24.337762 52.736195 24.119658 curveto
52.508328 23.901565 52.244656 23.792515 51.945179 23.792509 curveto
51.587104 23.792515 51.106962 24.078973 50.504749 24.651884 curveto
50.353382 24.588408 lineto
50.682157 24.087111 50.962105 23.738805 51.193226 23.543486 curveto
51.538276 23.260289 51.951687 23.118688 52.433460 23.118681 curveto
52.846869 23.118688 53.201686 23.248896 53.497913 23.509306 curveto
53.810410 23.782750 53.966659 24.122919 53.966663 24.529814 curveto
53.966659 24.878126 53.859238 25.167840 53.644398 25.398954 curveto
53.501165 25.555209 53.240749 25.734245 52.863148 25.936064 curveto
53.305853 25.965365 53.659043 26.176953 53.922718 26.570829 curveto
54.157089 26.922395 54.274276 27.330923 54.274281 27.796415 curveto
fill
0.0000000 0.0000000 0.0000000 setrgbcolor
newpath
59.274281 26.585478 moveto
59.274276 27.376496 59.106633 28.125193 58.771351 28.831572 curveto
58.354680 29.713733 57.793157 30.154814 57.086781 30.154814 curveto
56.354357 30.154814 55.784696 29.720244 55.377796 28.851103 curveto
55.058785 28.170766 54.899280 27.415559 54.899281 26.585478 curveto
54.899280 25.794467 55.066923 25.045769 55.402210 24.339384 curveto
55.818876 23.460484 56.380398 23.021032 57.086781 23.021025 curveto
57.819199 23.021032 58.387232 23.453974 58.790882 24.319853 curveto
59.113143 25.003452 59.274276 25.758659 59.274281 26.585478 curveto
58.556507 26.805204 moveto
58.556503 24.464715 58.066595 23.294469 57.086781 23.294462 curveto
56.106961 23.294469 55.617053 24.319859 55.617054 26.370634 curveto
55.617053 28.707875 56.106961 29.876494 57.086781 29.876493 curveto
58.066595 29.876494 58.556503 28.852732 58.556507 26.805204 curveto
fill
0.0000000 0.0000000 0.0000000 setrgbcolor
newpath
fill
0.0000000 0.0000000 0.0000000 setrgbcolor
newpath
67.018421 28.909697 moveto
66.614772 29.769072 65.975124 30.198759 65.099476 30.198759 curveto
64.536323 30.198759 64.059436 29.972522 63.668812 29.520048 curveto
63.294463 29.087106 63.107288 28.584177 63.107288 28.011259 curveto
63.107288 27.295116 63.354684 26.704296 63.849476 26.238798 curveto
64.334501 25.783073 64.938341 25.555209 65.660999 25.555204 curveto
65.875840 25.555209 66.126491 25.621941 66.412952 25.755400 curveto
66.741725 25.901888 66.906113 26.059766 66.906116 26.229033 curveto
66.906113 26.538281 66.759628 26.692903 66.466663 26.692900 curveto
66.284368 26.692903 66.165553 26.619661 66.110218 26.473173 curveto
66.058132 26.336458 66.007676 26.199740 65.958851 26.063017 curveto
65.851426 25.913282 65.644721 25.838412 65.338734 25.838408 curveto
64.847195 25.838412 64.463081 26.061393 64.186390 26.507353 curveto
63.955269 26.884960 63.839709 27.335806 63.839710 27.859892 curveto
63.839709 28.296092 63.992704 28.702992 64.298695 29.080595 curveto
64.624214 29.480986 64.998562 29.681181 65.421741 29.681181 curveto
66.030462 29.681181 66.495957 29.406117 66.818226 28.855986 curveto
66.951686 28.852732 67.018417 28.870635 67.018421 28.909697 curveto
fill
0.0000000 0.0000000 0.0000000 setrgbcolor
newpath
75.685413 30.110868 moveto
73.522327 30.110868 lineto
73.522327 29.891142 lineto
73.965029 29.891142 74.186383 29.671416 74.186390 29.231962 curveto
74.186390 27.010283 lineto
74.186383 26.733593 74.119652 26.491080 73.986195 26.282743 curveto
73.829938 26.041862 73.619978 25.921420 73.356312 25.921415 curveto
72.952661 25.921420 72.472518 26.124870 71.915882 26.531767 curveto
71.915882 29.471220 lineto
71.915878 29.738147 72.176294 29.871611 72.697132 29.871611 curveto
72.721546 30.110868 lineto
70.563343 30.110868 lineto
70.563343 29.891142 lineto
71.002793 29.891142 71.222519 29.671416 71.222523 29.231962 curveto
71.222523 27.010283 lineto
71.222519 26.730338 71.165553 26.489453 71.051624 26.287626 curveto
70.911647 26.043490 70.711452 25.921420 70.451038 25.921415 curveto
70.040880 25.921420 69.537950 26.141146 68.942249 26.580595 curveto
68.942249 29.368681 lineto
68.942248 29.687692 69.188016 29.861845 69.679554 29.891142 curveto
69.650257 30.110868 lineto
67.584827 30.110868 lineto
67.565296 30.071806 lineto
67.594593 29.920439 lineto
67.796416 29.920439 67.959176 29.837431 68.082874 29.671415 curveto
68.196806 29.518421 68.253772 29.337757 68.253773 29.129423 curveto
68.253773 26.438993 lineto
68.253772 26.321810 68.152861 26.229036 67.951038 26.160673 curveto
67.924996 26.150911 67.772002 26.115104 67.492054 26.053251 curveto
67.492054 25.931181 lineto
67.524606 25.895378 67.565296 25.869336 67.614124 25.853056 curveto
67.871285 25.765170 68.255400 25.607292 68.766468 25.379423 curveto
68.942249 25.511259 lineto
68.942249 26.390165 lineto
69.883002 25.784701 70.532416 25.481967 70.890491 25.481962 curveto
71.108587 25.481967 71.312037 25.582878 71.500843 25.784697 curveto
71.660344 25.957227 71.775904 26.159049 71.847523 26.390165 curveto
72.788273 25.784701 73.437686 25.481967 73.795765 25.481962 curveto
74.144066 25.481967 74.422386 25.643099 74.630726 25.965361 curveto
74.813010 26.245312 74.904156 26.567578 74.904163 26.932158 curveto
74.904163 29.471220 lineto
74.904156 29.738147 75.154807 29.871611 75.656116 29.871611 curveto
75.685413 30.110868 lineto
fill
0.0000000 0.0000000 0.0000000 setrgbcolor
newpath
108.64307 44.265259 moveto
107.50538 44.265259 lineto
107.50538 46.272095 lineto
106.83155 46.272095 lineto
106.83155 44.265259 lineto
103.97511 44.265259 lineto
103.97511 43.957642 lineto
107.26124 39.231079 lineto
107.50538 39.231079 lineto
107.50538 43.650024 lineto
108.64307 43.650024 lineto
108.64307 44.265259 lineto
106.83155 40.368774 moveto
104.59034 43.650024 lineto
106.83155 43.650024 lineto
106.83155 40.368774 lineto
fill
0.0000000 0.0000000 0.0000000 setrgbcolor
newpath
113.41846 42.746704 moveto
113.41846 43.537722 113.25082 44.286420 112.91553 44.992798 curveto
112.49886 45.874960 111.93734 46.316040 111.23096 46.316040 curveto
110.49854 46.316040 109.92888 45.881470 109.52198 45.012329 curveto
109.20297 44.331992 109.04346 43.576785 109.04346 42.746704 curveto
109.04346 41.955693 109.21111 41.206996 109.54639 40.500610 curveto
109.96306 39.621711 110.52458 39.182258 111.23096 39.182251 curveto
111.96338 39.182258 112.53142 39.615200 112.93507 40.481079 curveto
113.25733 41.164678 113.41846 41.919886 113.41846 42.746704 curveto
112.70069 42.966431 moveto
112.70069 40.625942 112.21078 39.455695 111.23096 39.455688 curveto
110.25115 39.455695 109.76124 40.481085 109.76124 42.531860 curveto
109.76124 44.869101 110.25115 46.037720 111.23096 46.037720 curveto
112.21078 46.037720 112.70069 45.013958 112.70069 42.966431 curveto
fill
0.0000000 0.0000000 0.0000000 setrgbcolor
newpath
fill
0.0000000 0.0000000 0.0000000 setrgbcolor
newpath
121.16261 45.070923 moveto
120.75896 45.930298 120.11931 46.359985 119.24366 46.359985 curveto
118.68051 46.359985 118.20362 46.133749 117.81300 45.681274 curveto
117.43865 45.248333 117.25147 44.745404 117.25147 44.172485 curveto
117.25147 43.456342 117.49887 42.865523 117.99366 42.400024 curveto
118.47868 41.944300 119.08253 41.716435 119.80518 41.716431 curveto
120.02002 41.716435 120.27068 41.783167 120.55714 41.916626 curveto
120.88591 42.063115 121.05030 42.220992 121.05030 42.390259 curveto
121.05030 42.699507 120.90381 42.854129 120.61085 42.854126 curveto
120.42855 42.854129 120.30974 42.780887 120.25440 42.634399 curveto
120.20232 42.497684 120.15186 42.360966 120.10303 42.224243 curveto
119.99561 42.074508 119.78890 41.999638 119.48292 41.999634 curveto
118.99138 41.999638 118.60727 42.222620 118.33057 42.668579 curveto
118.09945 43.046186 117.98389 43.497032 117.98389 44.021118 curveto
117.98389 44.457318 118.13689 44.864219 118.44288 45.241821 curveto
118.76840 45.642213 119.14275 45.842408 119.56593 45.842407 curveto
120.17465 45.842408 120.64014 45.567343 120.96241 45.017212 curveto
121.09587 45.013958 121.16260 45.031862 121.16261 45.070923 curveto
fill
0.0000000 0.0000000 0.0000000 setrgbcolor
newpath
129.82960 46.272095 moveto
127.66651 46.272095 lineto
127.66651 46.052368 lineto
128.10921 46.052368 128.33057 45.832642 128.33057 45.393188 curveto
128.33057 43.171509 lineto
128.33057 42.894819 128.26384 42.652307 128.13038 42.443970 curveto
127.97412 42.203088 127.76416 42.082646 127.50050 42.082642 curveto
127.09684 42.082646 126.61670 42.286096 126.06007 42.692993 curveto
126.06007 45.632446 lineto
126.06006 45.899374 126.32048 46.032837 126.84132 46.032837 curveto
126.86573 46.272095 lineto
124.70753 46.272095 lineto
124.70753 46.052368 lineto
125.14698 46.052368 125.36670 45.832642 125.36671 45.393188 curveto
125.36671 43.171509 lineto
125.36670 42.891564 125.30974 42.650679 125.19581 42.448853 curveto
125.05583 42.204716 124.85564 42.082646 124.59522 42.082642 curveto
124.18506 42.082646 123.68213 42.302372 123.08643 42.741821 curveto
123.08643 45.529907 lineto
123.08643 45.848918 123.33220 46.023072 123.82374 46.052368 curveto
123.79444 46.272095 lineto
121.72901 46.272095 lineto
121.70948 46.233032 lineto
121.73878 46.081665 lineto
121.94060 46.081665 122.10336 45.998658 122.22706 45.832642 curveto
122.34099 45.679647 122.39796 45.498984 122.39796 45.290649 curveto
122.39796 42.600220 lineto
122.39796 42.483036 122.29704 42.390263 122.09522 42.321899 curveto
122.06918 42.312138 121.91619 42.276330 121.63624 42.214478 curveto
121.63624 42.092407 lineto
121.66879 42.056604 121.70948 42.030563 121.75831 42.014282 curveto
122.01547 41.926396 122.39958 41.768519 122.91065 41.540649 curveto
123.08643 41.672485 lineto
123.08643 42.551392 lineto
124.02719 41.945927 124.67660 41.643193 125.03468 41.643188 curveto
125.25277 41.643193 125.45622 41.744104 125.64503 41.945923 curveto
125.80453 42.118453 125.92009 42.320276 125.99171 42.551392 curveto
126.93246 41.945927 127.58187 41.643193 127.93995 41.643188 curveto
128.28825 41.643193 128.56657 41.804326 128.77491 42.126587 curveto
128.95719 42.406539 129.04834 42.728804 129.04835 43.093384 curveto
129.04835 45.632446 lineto
129.04834 45.899374 129.29899 46.032837 129.80030 46.032837 curveto
129.82960 46.272095 lineto
fill
0.0000000 0.0000000 0.0000000 setrgbcolor
newpath
108.04674 57.506157 moveto
107.55846 57.965141 lineto
107.45429 57.502908 107.12551 57.271789 106.57213 57.271782 curveto
106.25312 57.271789 105.96666 57.367817 105.71275 57.559868 curveto
105.43931 57.768207 105.30260 58.028624 105.30260 58.341118 curveto
105.30260 59.498344 lineto
106.45006 59.498344 lineto
106.45006 59.869438 lineto
105.30260 59.869438 lineto
105.30260 63.101860 lineto
105.30260 63.518527 105.53209 63.726860 105.99107 63.726860 curveto
106.02688 63.726860 106.07896 63.726860 106.14732 63.726860 curveto
106.21568 63.723605 106.26614 63.721977 106.29869 63.721977 curveto
106.29869 63.941704 lineto
103.92076 63.941704 lineto
103.89635 63.800102 lineto
104.16327 63.718722 104.32115 63.665011 104.36998 63.638969 curveto
104.53274 63.551079 104.61412 63.419243 104.61412 63.243462 curveto
104.61412 59.869438 lineto
104.52297 59.879208 104.23814 59.856421 103.75963 59.801079 curveto
103.75963 59.610649 lineto
104.16327 59.610653 104.39765 59.573219 104.46275 59.498344 curveto
104.61412 59.498344 lineto
104.61412 59.351860 lineto
104.61412 58.827777 104.67109 58.450173 104.78502 58.219048 curveto
104.87291 58.046527 105.10728 57.776345 105.48814 57.408501 curveto
105.82017 57.089497 106.29869 56.929992 106.92369 56.929985 curveto
107.25897 56.929992 107.63332 57.122049 108.04674 57.506157 curveto
fill
grestore
showpage
