%!PS-Adobe-2.0
%%Creator: inkscape 0.41.1
%%Pages: 1
%%Orientation: Portrait
%%BoundingBox: 4 751 62 820
%%HiResBoundingBox: 4.5197472 751.38134 61.584338 819.24226
%%EndComments
%%Page: 1 1
0 842 translate
0.80000000 -0.80000000 scale
gsave [1.0000000 0.0000000 0.0000000 1.0000000 0.0000000 0.0000000] concat
0.0000000 0.0000000 0.0000000 setrgbcolor
[] 0 setdash
0.35433072 setlinewidth
0 setlinejoin
0 setlinecap
newpath
54.432527 28.512276 moveto
54.432527 28.512276 69.879837 40.228809 71.175850 71.333110 curveto
stroke
0.0000000 0.0000000 0.0000000 setrgbcolor
[] 0 setdash
0.35433072 setlinewidth
0 setlinejoin
0 setlinecap
newpath
71.150624 71.130399 moveto
71.150624 71.130399 71.581840 94.200449 65.760425 112.95834 curveto
stroke
0.0000000 0.0000000 0.0000000 setrgbcolor
[] 0 setdash
0.35433072 setlinewidth
0 setlinejoin
0 setlinecap
newpath
73.691427 28.486517 moveto
73.691427 28.486517 84.524245 77.219841 65.766353 112.79515 curveto
stroke
0.0000000 0.0000000 0.0000000 setrgbcolor
[] 0 setdash
0.35433072 setlinewidth
0 setlinejoin
0 setlinecap
newpath
54.333204 28.655633 moveto
73.737919 28.655633 lineto
stroke
0.0000000 0.0000000 0.0000000 setrgbcolor
[] 0 setdash
0.35433072 setlinewidth
0 setlinejoin
0 setlinecap
newpath
51.959399 97.029491 moveto
67.007045 92.399445 lineto
stroke
gsave [-0.37252804 0.11462404 -0.11462404 -0.37252804 68.869685 91.826325] concat
0.0000000 0.0000000 0.0000000 setrgbcolor
newpath
8.7185878 4.0337352 moveto
-2.2072895 0.016013256 lineto
8.7185884 -4.0017078 lineto
6.9730900 -1.6296469 6.9831476 1.6157441 8.7185878 4.0337352 curveto
closepath
eofill
grestore
0.0000000 0.0000000 0.0000000 setrgbcolor
newpath
8.4471254 79.832932 moveto
8.4178286 80.052658 lineto
6.3084536 80.052658 lineto
6.2889223 80.013596 lineto
6.3182192 79.862228 lineto
6.5232968 79.862229 6.6876847 79.779221 6.8113832 79.613205 curveto
6.9253147 79.463466 6.9822807 79.282802 6.9822817 79.071213 curveto
6.9822817 73.861252 lineto
6.9822807 73.744071 6.9204319 73.646414 6.7967348 73.568283 curveto
6.6925675 73.503185 6.5770077 73.470633 6.4500551 73.470627 curveto
6.4500547 73.470633 6.3686746 73.486909 6.2059145 73.519455 curveto
6.2059143 73.503185 6.2075419 73.478771 6.2107973 73.446213 curveto
6.2140523 73.413667 6.2156800 73.387626 6.2156801 73.368088 curveto
6.2156800 73.322522 6.2628804 73.283459 6.3572817 73.250900 curveto
6.6111874 73.172782 6.9855360 73.026298 7.4803286 72.811447 curveto
7.6951723 72.811447 lineto
7.6951723 79.310471 lineto
7.6951707 79.629481 7.9458215 79.803635 8.4471254 79.832932 curveto
fill
0.0000000 0.0000000 0.0000000 setrgbcolor
newpath
12.641461 78.851486 moveto
12.237812 79.710862 11.598164 80.140549 10.722516 80.140549 curveto
10.159364 80.140549 9.6841036 79.894781 9.2967348 79.403244 curveto
8.9354064 78.944261 8.7547425 78.426683 8.7547426 77.850510 curveto
8.7547425 77.196216 8.9402892 76.646086 9.3113832 76.200119 curveto
9.7085176 75.724863 10.227723 75.487233 10.869000 75.487228 curveto
11.380065 75.487233 11.793476 75.641855 12.109235 75.951096 curveto
12.428241 76.260344 12.587747 76.672128 12.587750 77.186447 curveto
9.4334536 77.186447 lineto
9.4171768 77.323169 9.4090388 77.463142 9.4090395 77.606369 curveto
9.4090388 78.091397 9.5571506 78.537360 9.8533754 78.944260 curveto
10.178895 79.396734 10.576030 79.622971 11.044782 79.622971 curveto
11.656758 79.622971 12.122252 79.347906 12.441266 78.797775 curveto
12.480329 78.797775 lineto
12.551939 78.794521 12.605650 78.812425 12.641461 78.851486 curveto
11.840680 76.908127 moveto
11.827656 76.576099 11.712096 76.305917 11.494000 76.097580 curveto
11.275899 75.885996 10.999206 75.780201 10.663922 75.780197 curveto
10.387228 75.780201 10.141460 75.902272 9.9266176 76.146408 curveto
9.7378145 76.361256 9.6092339 76.615162 9.5408754 76.908127 curveto
11.840680 76.908127 lineto
fill
0.0000000 0.0000000 0.0000000 setrgbcolor
newpath
18.373883 80.052658 moveto
16.171735 80.052658 lineto
16.171735 79.832932 lineto
16.620950 79.832932 16.845559 79.613205 16.845563 79.173752 curveto
16.845563 76.952072 lineto
16.845559 76.668872 16.786965 76.426360 16.669782 76.224533 curveto
16.526549 75.983652 16.323099 75.863209 16.059430 75.863205 curveto
15.639506 75.863209 15.125183 76.082935 14.516461 76.522385 curveto
14.516461 79.310471 lineto
14.516460 79.629481 14.767111 79.803635 15.268414 79.832932 curveto
15.239118 80.052658 lineto
13.129743 80.052658 lineto
13.110211 80.013596 lineto
13.139508 79.862228 lineto
13.344586 79.862229 13.510602 79.779221 13.637555 79.613205 curveto
13.754742 79.463466 13.813336 79.282802 13.813336 79.071213 curveto
13.813336 76.380783 lineto
13.813336 76.263599 13.710797 76.170826 13.505719 76.102463 curveto
13.479677 76.092701 13.323427 76.056894 13.036969 75.995041 curveto
13.036969 75.872971 lineto
13.183453 75.853444 13.416201 75.775319 13.735211 75.638596 curveto
14.034690 75.508392 14.234885 75.402598 14.335797 75.321213 curveto
14.516461 75.453049 lineto
14.516461 76.331955 lineto
15.476745 75.726491 16.139180 75.423756 16.503766 75.423752 curveto
16.858580 75.423756 17.133645 75.584889 17.328961 75.907150 curveto
17.494973 76.177336 17.577980 76.499602 17.577985 76.873947 curveto
17.577985 79.413010 lineto
17.577980 79.679937 17.833514 79.813401 18.344586 79.813400 curveto
18.373883 80.052658 lineto
fill
0.0000000 0.0000000 0.0000000 setrgbcolor
newpath
21.410993 79.193283 moveto
21.121276 79.766200 20.722514 80.052658 20.214704 80.052658 curveto
19.911968 80.052658 19.658062 79.959885 19.452985 79.774338 curveto
19.238140 79.579026 19.130719 79.331630 19.130719 79.032150 curveto
19.130719 75.970627 lineto
18.657086 75.970627 lineto
18.583844 75.731369 lineto
18.938661 75.597910 19.197450 75.397715 19.360211 75.130783 curveto
19.480653 74.935476 19.588075 74.619721 19.682477 74.183517 curveto
19.853375 74.183517 lineto
19.853375 75.584885 lineto
21.410993 75.584885 lineto
21.205914 75.970627 lineto
19.853375 75.970627 lineto
19.853375 78.734299 lineto
19.853374 78.903571 19.941265 79.085862 20.117047 79.281174 curveto
20.292827 79.476487 20.465353 79.574143 20.634625 79.574142 curveto
20.748555 79.574143 20.890157 79.484625 21.059430 79.305588 curveto
21.231953 79.123297 21.318216 79.032151 21.318219 79.032150 curveto
21.383320 79.032151 21.414245 79.085862 21.410993 79.193283 curveto
fill
0.0000000 0.0000000 0.0000000 setrgbcolor
newpath
24.433454 80.052658 moveto
22.192243 80.052658 lineto
22.172711 80.013596 lineto
22.202008 79.862228 lineto
22.433128 79.862229 22.597515 79.829677 22.695172 79.764572 curveto
22.815614 79.683192 22.875835 79.526942 22.875836 79.295822 curveto
22.875836 76.380783 lineto
22.875835 76.143157 22.758648 76.024342 22.524274 76.024338 curveto
22.436383 76.024342 22.333844 76.038990 22.216657 76.068283 curveto
22.094586 75.872971 lineto
22.713075 75.700449 23.176942 75.516530 23.486188 75.321213 curveto
23.666852 75.453049 lineto
23.666852 79.310471 lineto
23.666850 79.629481 23.915874 79.803635 24.413922 79.832932 curveto
24.433454 80.052658 lineto
23.725446 73.802658 moveto
23.725444 73.942638 23.676616 74.063081 23.578961 74.163986 curveto
23.481304 74.261648 23.362489 74.310476 23.222516 74.310471 curveto
23.082541 74.310476 22.963726 74.261648 22.866071 74.163986 curveto
22.768414 74.063081 22.719586 73.942638 22.719586 73.802658 curveto
22.719586 73.662691 22.768414 73.543876 22.866071 73.446213 curveto
22.963726 73.348563 23.082541 73.299735 23.222516 73.299728 curveto
23.362489 73.299735 23.481304 73.348563 23.578961 73.446213 curveto
23.676616 73.543876 23.725444 73.662691 23.725446 73.802658 curveto
fill
0.0000000 0.0000000 0.0000000 setrgbcolor
newpath
27.079938 79.832932 moveto
27.050641 80.052658 lineto
24.941266 80.052658 lineto
24.921735 80.013596 lineto
24.951032 79.862228 lineto
25.156109 79.862229 25.320497 79.779221 25.444196 79.613205 curveto
25.558127 79.463466 25.615093 79.282802 25.615094 79.071213 curveto
25.615094 73.861252 lineto
25.615093 73.744071 25.553244 73.646414 25.429547 73.568283 curveto
25.325380 73.503185 25.209820 73.470633 25.082868 73.470627 curveto
25.082867 73.470633 25.001487 73.486909 24.838727 73.519455 curveto
24.838727 73.503185 24.840354 73.478771 24.843610 73.446213 curveto
24.846865 73.413667 24.848492 73.387626 24.848493 73.368088 curveto
24.848492 73.322522 24.895693 73.283459 24.990094 73.250900 curveto
25.244000 73.172782 25.618348 73.026298 26.113141 72.811447 curveto
26.327985 72.811447 lineto
26.327985 79.310471 lineto
26.327983 79.629481 26.578634 79.803635 27.079938 79.832932 curveto
fill
0.0000000 0.0000000 0.0000000 setrgbcolor
newpath
29.716657 79.832932 moveto
29.687360 80.052658 lineto
27.577985 80.052658 lineto
27.558454 80.013596 lineto
27.587750 79.862228 lineto
27.792828 79.862229 27.957216 79.779221 28.080914 79.613205 curveto
28.194846 79.463466 28.251812 79.282802 28.251813 79.071213 curveto
28.251813 73.861252 lineto
28.251812 73.744071 28.189963 73.646414 28.066266 73.568283 curveto
27.962099 73.503185 27.846539 73.470633 27.719586 73.470627 curveto
27.719586 73.470633 27.638206 73.486909 27.475446 73.519455 curveto
27.475446 73.503185 27.477073 73.478771 27.480329 73.446213 curveto
27.483584 73.413667 27.485211 73.387626 27.485211 73.368088 curveto
27.485211 73.322522 27.532412 73.283459 27.626813 73.250900 curveto
27.880719 73.172782 28.255067 73.026298 28.749860 72.811447 curveto
28.964704 72.811447 lineto
28.964704 79.310471 lineto
28.964702 79.629481 29.215353 79.803635 29.716657 79.832932 curveto
fill
0.0000000 0.0000000 0.0000000 setrgbcolor
newpath
33.910993 78.851486 moveto
33.507343 79.710862 32.867695 80.140549 31.992047 80.140549 curveto
31.428895 80.140549 30.953635 79.894781 30.566266 79.403244 curveto
30.204938 78.944261 30.024274 78.426683 30.024274 77.850510 curveto
30.024274 77.196216 30.209820 76.646086 30.580914 76.200119 curveto
30.978049 75.724863 31.497254 75.487233 32.138532 75.487228 curveto
32.649597 75.487233 33.063008 75.641855 33.378766 75.951096 curveto
33.697773 76.260344 33.857278 76.672128 33.857282 77.186447 curveto
30.702985 77.186447 lineto
30.686708 77.323169 30.678570 77.463142 30.678571 77.606369 curveto
30.678570 78.091397 30.826682 78.537360 31.122907 78.944260 curveto
31.448426 79.396734 31.845561 79.622971 32.314313 79.622971 curveto
32.926289 79.622971 33.391783 79.347906 33.710797 78.797775 curveto
33.749860 78.797775 lineto
33.821471 78.794521 33.875181 78.812425 33.910993 78.851486 curveto
33.110211 76.908127 moveto
33.097187 76.576099 32.981628 76.305917 32.763532 76.097580 curveto
32.545430 75.885996 32.268738 75.780201 31.933454 75.780197 curveto
31.656759 75.780201 31.410991 75.902272 31.196149 76.146408 curveto
31.007346 76.361256 30.878765 76.615162 30.810407 76.908127 curveto
33.110211 76.908127 lineto
fill
0.0000000 0.0000000 0.0000000 setrgbcolor
newpath
10.004743 88.851486 moveto
9.6010932 89.710862 8.9614454 90.140549 8.0857973 90.140549 curveto
7.5226448 90.140549 7.0457572 89.914312 6.6551332 89.461838 curveto
6.2807841 89.028896 6.0936098 88.525967 6.0936098 87.953049 curveto
6.0936098 87.236906 6.3410053 86.646086 6.8357973 86.180588 curveto
7.3208221 85.724863 7.9246626 85.496999 8.6473207 85.496994 curveto
8.8621617 85.496999 9.1128125 85.563730 9.3992739 85.697189 curveto
9.7280462 85.843678 9.8924341 86.001555 9.8924379 86.170822 curveto
9.8924341 86.480071 9.7459499 86.634693 9.4529848 86.634689 curveto
9.2706899 86.634693 9.1518749 86.561451 9.0965395 86.414963 curveto
9.0444532 86.278248 8.9939975 86.141529 8.9451723 86.004807 curveto
8.8377476 85.855071 8.6310421 85.780201 8.3250551 85.780197 curveto
7.8335169 85.780201 7.4494027 86.003183 7.1727114 86.449142 curveto
6.9415907 86.826750 6.8260309 87.277596 6.8260317 87.801682 curveto
6.8260309 88.237881 6.9790255 88.644782 7.2850161 89.022385 curveto
7.6105353 89.422776 7.9848839 89.622971 8.4080629 89.622971 curveto
9.0167839 89.622971 9.4822782 89.347906 9.8045473 88.797775 curveto
9.9380070 88.794521 10.004739 88.812425 10.004743 88.851486 curveto
fill
0.0000000 0.0000000 0.0000000 setrgbcolor
newpath
15.151227 87.826096 moveto
15.151222 88.503180 14.934751 89.053310 14.501813 89.476486 curveto
14.072122 89.899663 13.517109 90.111252 12.836774 90.111252 curveto
12.221538 90.111252 11.689312 89.894781 11.240094 89.461838 curveto
10.794130 89.025641 10.571149 88.501553 10.571149 87.889572 curveto
10.571149 87.189705 10.776227 86.620044 11.186383 86.180588 curveto
11.599794 85.741139 12.154806 85.521413 12.851422 85.521408 curveto
13.515482 85.521413 14.063984 85.739511 14.496930 86.175705 curveto
14.933124 86.611906 15.151222 87.162036 15.151227 87.826096 curveto
14.267438 88.255783 moveto
14.267434 87.611254 14.166523 87.072518 13.964704 86.639572 curveto
13.694518 86.060149 13.274597 85.770436 12.704938 85.770432 curveto
12.193869 85.770436 11.840679 85.975514 11.645368 86.385666 curveto
11.508648 86.672128 11.440289 87.103442 11.440289 87.679611 curveto
11.440289 88.206957 11.568869 88.682217 11.826032 89.105392 curveto
12.125509 89.596929 12.522644 89.842697 13.017438 89.842697 curveto
13.850768 89.842697 14.267434 89.313727 14.267438 88.255783 curveto
fill
0.0000000 0.0000000 0.0000000 setrgbcolor
newpath
20.815289 90.052658 moveto
18.613141 90.052658 lineto
18.613141 89.832932 lineto
19.062356 89.832932 19.286965 89.613205 19.286969 89.173752 curveto
19.286969 86.952072 lineto
19.286965 86.668872 19.228372 86.426360 19.111188 86.224533 curveto
18.967955 85.983652 18.764505 85.863209 18.500836 85.863205 curveto
18.080912 85.863209 17.566589 86.082935 16.957868 86.522385 curveto
16.957868 89.310471 lineto
16.957866 89.629481 17.208517 89.803635 17.709821 89.832932 curveto
17.680524 90.052658 lineto
15.571149 90.052658 lineto
15.551618 90.013596 lineto
15.580914 89.862228 lineto
15.785992 89.862229 15.952008 89.779221 16.078961 89.613205 curveto
16.196148 89.463466 16.254742 89.282802 16.254743 89.071213 curveto
16.254743 86.380783 lineto
16.254742 86.263599 16.152203 86.170826 15.947125 86.102463 curveto
15.921083 86.092701 15.764833 86.056894 15.478375 85.995041 curveto
15.478375 85.872971 lineto
15.624860 85.853444 15.857607 85.775319 16.176618 85.638596 curveto
16.476096 85.508392 16.676291 85.402598 16.777204 85.321213 curveto
16.957868 85.453049 lineto
16.957868 86.331955 lineto
17.918152 85.726491 18.580586 85.423756 18.945172 85.423752 curveto
19.299986 85.423756 19.575051 85.584889 19.770368 85.907150 curveto
19.936379 86.177336 20.019386 86.499602 20.019391 86.873947 curveto
20.019391 89.413010 lineto
20.019386 89.679937 20.274920 89.813401 20.785993 89.813400 curveto
20.815289 90.052658 lineto
fill
0.0000000 0.0000000 0.0000000 setrgbcolor
newpath
26.059430 85.584885 moveto
26.039899 85.760666 lineto
25.873878 85.760670 25.709490 85.837168 25.546735 85.990158 curveto
25.406756 86.120370 25.299335 86.271737 25.224469 86.444260 curveto
23.618024 90.101486 lineto
23.354352 90.101486 lineto
21.728375 86.346603 lineto
21.555849 85.955982 21.269391 85.760670 20.869000 85.760666 curveto
20.869000 85.584885 lineto
23.095563 85.584885 lineto
23.095563 85.760666 lineto
22.620301 85.760670 22.382671 85.848561 22.382672 86.024338 curveto
22.382671 86.076425 22.784689 87.066007 23.588727 88.993088 curveto
23.611511 89.045172 23.635925 89.071214 23.661969 89.071213 curveto
23.697774 89.071214 23.730326 89.038662 23.759625 88.973557 curveto
24.824079 86.600510 lineto
24.892434 86.447518 24.926614 86.314055 24.926618 86.200119 curveto
24.926614 85.894134 24.671080 85.741139 24.160016 85.741135 curveto
24.213727 85.584885 lineto
26.059430 85.584885 lineto
fill
0.0000000 0.0000000 0.0000000 setrgbcolor
newpath
30.043805 88.851486 moveto
29.640156 89.710862 29.000508 90.140549 28.124860 90.140549 curveto
27.561707 90.140549 27.086447 89.894781 26.699079 89.403244 curveto
26.337750 88.944261 26.157086 88.426683 26.157086 87.850510 curveto
26.157086 87.196216 26.342633 86.646086 26.713727 86.200119 curveto
27.110861 85.724863 27.630067 85.487233 28.271344 85.487228 curveto
28.782409 85.487233 29.195820 85.641855 29.511579 85.951096 curveto
29.830585 86.260344 29.990090 86.672128 29.990094 87.186447 curveto
26.835797 87.186447 lineto
26.819521 87.323169 26.811383 87.463142 26.811383 87.606369 curveto
26.811383 88.091397 26.959494 88.537360 27.255719 88.944260 curveto
27.581239 89.396734 27.978374 89.622971 28.447125 89.622971 curveto
29.059102 89.622971 29.524596 89.347906 29.843610 88.797775 curveto
29.882672 88.797775 lineto
29.954283 88.794521 30.007994 88.812425 30.043805 88.851486 curveto
29.243024 86.908127 moveto
29.230000 86.576099 29.114440 86.305917 28.896344 86.097580 curveto
28.678243 85.885996 28.401550 85.780201 28.066266 85.780197 curveto
27.789572 85.780201 27.543804 85.902272 27.328961 86.146408 curveto
27.140158 86.361256 27.011578 86.615162 26.943219 86.908127 curveto
29.243024 86.908127 lineto
fill
0.0000000 0.0000000 0.0000000 setrgbcolor
newpath
33.896344 85.692307 moveto
33.886575 85.877858 33.785664 86.128508 33.593610 86.444260 curveto
33.189961 86.235930 32.911641 86.131764 32.758649 86.131760 curveto
32.563334 86.131764 32.390808 86.226165 32.241071 86.414963 curveto
32.127137 86.587492 32.014832 86.760018 31.904157 86.932541 curveto
31.904157 89.354416 lineto
31.904155 89.705979 32.123882 89.881760 32.563336 89.881760 curveto
32.605652 89.881760 32.665873 89.880132 32.744000 89.876877 curveto
32.822123 89.873622 32.877462 89.871994 32.910016 89.871994 curveto
32.929547 90.052658 lineto
30.512555 90.052658 lineto
30.512555 89.911057 lineto
30.971539 89.898036 31.201031 89.712489 31.201032 89.354416 curveto
31.201032 86.493088 lineto
31.201031 86.301034 30.966656 86.154550 30.497907 86.053635 curveto
30.497907 85.872971 lineto
30.784365 85.840423 31.189638 85.674407 31.713727 85.374924 curveto
31.904157 85.413986 lineto
31.904157 86.566330 lineto
32.294780 85.837168 32.643087 85.472585 32.949079 85.472580 curveto
33.105326 85.472585 33.421081 85.545827 33.896344 85.692307 curveto
fill
0.0000000 0.0000000 0.0000000 setrgbcolor
newpath
38.920758 86.375900 moveto
37.739118 86.248947 lineto
37.918150 86.519133 38.007668 86.823495 38.007672 87.162033 curveto
38.007668 87.601489 37.797708 87.953051 37.377789 88.216721 curveto
37.019714 88.441332 36.606303 88.553636 36.137555 88.553635 curveto
35.929220 88.553636 35.709494 88.530850 35.478375 88.485275 curveto
35.042177 88.716396 34.824078 88.923102 34.824079 89.105392 curveto
34.824078 89.313727 35.174012 89.440680 35.873883 89.486252 curveto
36.882995 89.554612 37.532409 89.629481 37.822125 89.710861 curveto
38.521991 89.906174 38.871925 90.291916 38.871930 90.868088 curveto
38.871925 91.366133 38.517108 91.781172 37.807477 92.113205 curveto
37.221536 92.389895 36.645365 92.528242 36.078961 92.528244 curveto
35.639507 92.528242 35.252137 92.471275 34.916852 92.357346 curveto
34.438336 92.191328 34.199079 91.934167 34.199079 91.585861 curveto
34.199079 91.094324 34.553896 90.594650 35.263532 90.086838 curveto
35.250510 90.057541 35.152854 90.018478 34.970563 89.969650 curveto
34.752463 89.914312 34.592958 89.852463 34.492047 89.784103 curveto
34.322776 89.670171 34.238141 89.515549 34.238141 89.320236 curveto
34.238141 89.121669 34.299990 88.970302 34.423688 88.866135 curveto
34.492047 88.807542 34.632021 88.739183 34.843610 88.661057 curveto
35.042177 88.586188 35.185406 88.508063 35.273297 88.426682 curveto
34.625510 88.215095 34.301617 87.774015 34.301618 87.103439 curveto
34.301617 86.634693 34.480654 86.240813 34.838727 85.921799 curveto
35.183778 85.615814 35.593934 85.462819 36.069196 85.462814 curveto
36.635600 85.462819 37.081563 85.612558 37.407086 85.912033 curveto
38.891461 85.814377 lineto
38.894712 85.925058 38.904477 86.112232 38.920758 86.375900 curveto
37.275250 87.142502 moveto
37.275247 86.787687 37.164570 86.468677 36.943219 86.185471 curveto
36.702331 85.879485 36.409363 85.726491 36.064313 85.726486 curveto
35.712749 85.726491 35.444194 85.885996 35.258649 86.205002 curveto
35.105653 86.468677 35.029156 86.789315 35.029157 87.166916 curveto
35.029156 87.918871 35.405132 88.294847 36.157086 88.294846 curveto
36.902526 88.294847 37.275247 87.910733 37.275250 87.142502 curveto
38.212750 90.970627 moveto
38.212746 90.632085 37.989765 90.396082 37.543805 90.262619 curveto
37.309427 90.194260 36.948099 90.148687 36.459821 90.125900 curveto
36.244975 90.106369 35.921082 90.086838 35.488141 90.067307 curveto
35.029156 90.431889 34.799664 90.874597 34.799664 91.395432 curveto
34.799664 91.880456 35.362814 92.122969 36.489118 92.122971 curveto
36.827657 92.122969 37.187357 92.015547 37.568219 91.800705 curveto
37.997903 91.556563 38.212746 91.279870 38.212750 90.970627 curveto
fill
0.0000000 0.0000000 0.0000000 setrgbcolor
newpath
43.266461 88.851486 moveto
42.862812 89.710862 42.223164 90.140549 41.347516 90.140549 curveto
40.784364 90.140549 40.309104 89.894781 39.921735 89.403244 curveto
39.560406 88.944261 39.379743 88.426683 39.379743 87.850510 curveto
39.379743 87.196216 39.565289 86.646086 39.936383 86.200119 curveto
40.333518 85.724863 40.852723 85.487233 41.494000 85.487228 curveto
42.005065 85.487233 42.418476 85.641855 42.734235 85.951096 curveto
43.053241 86.260344 43.212747 86.672128 43.212750 87.186447 curveto
40.058454 87.186447 lineto
40.042177 87.323169 40.034039 87.463142 40.034039 87.606369 curveto
40.034039 88.091397 40.182151 88.537360 40.478375 88.944260 curveto
40.803895 89.396734 41.201030 89.622971 41.669782 89.622971 curveto
42.281758 89.622971 42.747252 89.347906 43.066266 88.797775 curveto
43.105329 88.797775 lineto
43.176939 88.794521 43.230650 88.812425 43.266461 88.851486 curveto
42.465680 86.908127 moveto
42.452656 86.576099 42.337096 86.305917 42.119000 86.097580 curveto
41.900899 85.885996 41.624206 85.780201 41.288922 85.780197 curveto
41.012228 85.780201 40.766460 85.902272 40.551618 86.146408 curveto
40.362814 86.361256 40.234234 86.615162 40.165875 86.908127 curveto
42.465680 86.908127 lineto
fill
0.0000000 0.0000000 0.0000000 setrgbcolor
newpath
48.998883 90.052658 moveto
46.796735 90.052658 lineto
46.796735 89.832932 lineto
47.245950 89.832932 47.470559 89.613205 47.470563 89.173752 curveto
47.470563 86.952072 lineto
47.470559 86.668872 47.411965 86.426360 47.294782 86.224533 curveto
47.151549 85.983652 46.948099 85.863209 46.684430 85.863205 curveto
46.264506 85.863209 45.750183 86.082935 45.141461 86.522385 curveto
45.141461 89.310471 lineto
45.141460 89.629481 45.392111 89.803635 45.893414 89.832932 curveto
45.864118 90.052658 lineto
43.754743 90.052658 lineto
43.735211 90.013596 lineto
43.764508 89.862228 lineto
43.969586 89.862229 44.135602 89.779221 44.262555 89.613205 curveto
44.379742 89.463466 44.438336 89.282802 44.438336 89.071213 curveto
44.438336 86.380783 lineto
44.438336 86.263599 44.335797 86.170826 44.130719 86.102463 curveto
44.104677 86.092701 43.948427 86.056894 43.661969 85.995041 curveto
43.661969 85.872971 lineto
43.808453 85.853444 44.041201 85.775319 44.360211 85.638596 curveto
44.659690 85.508392 44.859885 85.402598 44.960797 85.321213 curveto
45.141461 85.453049 lineto
45.141461 86.331955 lineto
46.101745 85.726491 46.764180 85.423756 47.128766 85.423752 curveto
47.483580 85.423756 47.758645 85.584889 47.953961 85.907150 curveto
48.119973 86.177336 48.202980 86.499602 48.202985 86.873947 curveto
48.202985 89.413010 lineto
48.202980 89.679937 48.458514 89.813401 48.969586 89.813400 curveto
48.998883 90.052658 lineto
fill
0.0000000 0.0000000 0.0000000 setrgbcolor
newpath
52.035993 89.193283 moveto
51.746276 89.766200 51.347514 90.052658 50.839704 90.052658 curveto
50.536968 90.052658 50.283062 89.959885 50.077985 89.774338 curveto
49.863140 89.579026 49.755719 89.331630 49.755719 89.032150 curveto
49.755719 85.970627 lineto
49.282086 85.970627 lineto
49.208844 85.731369 lineto
49.563661 85.597910 49.822450 85.397715 49.985211 85.130783 curveto
50.105653 84.935476 50.213075 84.619721 50.307477 84.183517 curveto
50.478375 84.183517 lineto
50.478375 85.584885 lineto
52.035993 85.584885 lineto
51.830914 85.970627 lineto
50.478375 85.970627 lineto
50.478375 88.734299 lineto
50.478374 88.903571 50.566265 89.085862 50.742047 89.281174 curveto
50.917827 89.476487 51.090353 89.574143 51.259625 89.574142 curveto
51.373555 89.574143 51.515157 89.484625 51.684430 89.305588 curveto
51.856953 89.123297 51.943216 89.032151 51.943219 89.032150 curveto
52.008320 89.032151 52.039245 89.085862 52.035993 89.193283 curveto
fill
0.0000000 0.0000000 0.0000000 setrgbcolor
newpath
56.567243 88.851486 moveto
56.163593 89.710862 55.523945 90.140549 54.648297 90.140549 curveto
54.085145 90.140549 53.609885 89.894781 53.222516 89.403244 curveto
52.861188 88.944261 52.680524 88.426683 52.680524 87.850510 curveto
52.680524 87.196216 52.866070 86.646086 53.237164 86.200119 curveto
53.634299 85.724863 54.153504 85.487233 54.794782 85.487228 curveto
55.305847 85.487233 55.719258 85.641855 56.035016 85.951096 curveto
56.354023 86.260344 56.513528 86.672128 56.513532 87.186447 curveto
53.359235 87.186447 lineto
53.342958 87.323169 53.334820 87.463142 53.334821 87.606369 curveto
53.334820 88.091397 53.482932 88.537360 53.779157 88.944260 curveto
54.104676 89.396734 54.501811 89.622971 54.970563 89.622971 curveto
55.582539 89.622971 56.048033 89.347906 56.367047 88.797775 curveto
56.406110 88.797775 lineto
56.477721 88.794521 56.531431 88.812425 56.567243 88.851486 curveto
55.766461 86.908127 moveto
55.753437 86.576099 55.637878 86.305917 55.419782 86.097580 curveto
55.201680 85.885996 54.924988 85.780201 54.589704 85.780197 curveto
54.313009 85.780201 54.067241 85.902272 53.852399 86.146408 curveto
53.663596 86.361256 53.535015 86.615162 53.466657 86.908127 curveto
55.766461 86.908127 lineto
fill
0.0000000 0.0000000 0.0000000 setrgbcolor
newpath
11.508649 94.984299 moveto
11.508643 95.612558 11.230323 96.141529 10.673688 96.571213 curveto
10.162616 96.965096 9.5831896 97.162036 8.9354067 97.162033 curveto
8.7140498 97.162036 8.4178262 97.113208 8.0467348 97.015549 curveto
8.0418520 99.041916 lineto
8.0418500 99.338141 8.1574098 99.562750 8.3885317 99.715744 curveto
8.5903521 99.849208 8.8442581 99.907801 9.1502504 99.891525 curveto
9.1844301 100.02824 lineto
9.1795473 100.07707 lineto
6.2107973 100.07707 lineto
6.2400942 99.862228 lineto
6.2938051 99.862228 lineto
6.6258358 99.865484 6.8569554 99.802007 6.9871645 99.671799 curveto
7.1206270 99.538336 7.1873587 99.305589 7.1873598 98.973557 curveto
7.1873598 93.949142 lineto
7.1873587 93.516206 6.8716038 93.301363 6.2400942 93.304611 curveto
6.2400942 93.123947 lineto
6.6925675 93.062105 7.3582569 93.031181 8.2371645 93.031174 curveto
9.2169790 93.031181 9.9396346 93.123954 10.405133 93.309494 curveto
11.140805 93.602469 11.508643 94.160737 11.508649 94.984299 curveto
10.483258 94.984299 moveto
10.483254 94.512299 10.340025 94.111909 10.053571 93.783127 curveto
9.7540879 93.438081 9.3716013 93.265555 8.9061098 93.265549 curveto
8.7954300 93.265555 8.6522010 93.278576 8.4764223 93.304611 curveto
8.2583211 93.333915 8.1150921 93.351818 8.0467348 93.358322 curveto
8.0467348 96.751877 lineto
8.2680868 96.813729 8.5952349 96.844653 9.0281801 96.844650 curveto
9.5392443 96.844653 9.9201033 96.655852 10.170758 96.278244 curveto
10.379087 95.959238 10.483254 95.527923 10.483258 94.984299 curveto
fill
0.0000000 0.0000000 0.0000000 setrgbcolor
newpath
fill
0.0000000 0.0000000 0.0000000 setrgbcolor
newpath
19.448102 95.877853 moveto
15.395368 95.877853 lineto
15.395368 95.418869 lineto
19.448102 95.418869 lineto
19.448102 95.877853 lineto
19.448102 97.718674 moveto
15.395368 97.718674 lineto
15.395368 97.254807 lineto
19.448102 97.254807 lineto
19.448102 97.718674 lineto
fill
0.0000000 0.0000000 0.0000000 setrgbcolor
newpath
fill
0.0000000 0.0000000 0.0000000 setrgbcolor
newpath
26.533063 100.04778 moveto
23.686383 100.04778 lineto
23.686383 99.876877 lineto
24.376486 99.876877 24.721538 99.598557 24.721539 99.041916 curveto
24.721539 93.885666 lineto
24.545757 93.989839 24.371603 94.094005 24.199079 94.198166 curveto
23.990744 94.315359 23.806825 94.395112 23.647321 94.437424 curveto
23.554547 94.222580 lineto
24.208843 93.897065 24.770366 93.499930 25.239118 93.031174 curveto
25.532086 93.031174 lineto
25.532086 99.041916 lineto
25.532084 99.377203 25.618347 99.605067 25.790875 99.725510 curveto
25.930846 99.826421 26.178242 99.876877 26.533063 99.876877 curveto
26.533063 100.04778 lineto
fill
0.0000000 0.0000000 0.0000000 setrgbcolor
newpath
29.023297 100.03801 moveto
29.023295 99.777593 28.958191 99.556239 28.827985 99.373947 curveto
28.684754 99.165615 28.487814 99.061448 28.237164 99.061447 curveto
28.064638 99.061448 27.913271 99.107021 27.783063 99.198166 curveto
27.643089 99.299078 27.573102 99.432542 27.573102 99.598557 curveto
27.573102 99.738531 27.612164 99.858973 27.690289 99.959885 curveto
27.778180 100.07382 27.887229 100.13078 28.017438 100.13078 curveto
28.056500 100.13078 28.110210 100.12427 28.178571 100.11125 curveto
28.250184 100.10149 28.303895 100.09660 28.339704 100.09660 curveto
28.473166 100.09660 28.539898 100.18775 28.539899 100.37004 curveto
28.539898 100.83879 28.255067 101.22290 27.685407 101.52238 curveto
27.721213 101.63957 27.755393 101.69816 27.787946 101.69817 curveto
27.849794 101.69816 27.963726 101.64120 28.129743 101.52727 curveto
28.282736 101.42310 28.383648 101.34172 28.432477 101.28313 curveto
28.650575 101.01945 28.790548 100.83065 28.852399 100.71672 curveto
28.966329 100.51490 29.023295 100.28866 29.023297 100.03801 curveto
fill
0.0000000 0.0000000 0.0000000 setrgbcolor
newpath
34.589704 93.465744 moveto
32.128766 100.05266 lineto
31.572125 100.05266 lineto
33.910993 93.797775 lineto
31.327985 93.797775 lineto
31.129416 93.797782 30.921083 93.908458 30.702985 94.129807 curveto
30.494651 94.338146 30.369325 94.543223 30.327008 94.745041 curveto
30.170758 94.652267 lineto
30.576032 93.128830 lineto
34.589704 93.128830 lineto
34.589704 93.465744 lineto
fill
0.0000000 0.0000000 0.0000000 setrgbcolor
newpath
38.134625 100.04778 moveto
35.287946 100.04778 lineto
35.287946 99.876877 lineto
35.978049 99.876877 36.323100 99.598557 36.323102 99.041916 curveto
36.323102 93.885666 lineto
36.147319 93.989839 35.973166 94.094005 35.800641 94.198166 curveto
35.592307 94.315359 35.408388 94.395112 35.248883 94.437424 curveto
35.156110 94.222580 lineto
35.810405 93.897065 36.371928 93.499930 36.840680 93.031174 curveto
37.133649 93.031174 lineto
37.133649 99.041916 lineto
37.133646 99.377203 37.219909 99.605067 37.392438 99.725510 curveto
37.532409 99.826421 37.779805 99.876877 38.134625 99.876877 curveto
38.134625 100.04778 lineto
fill
0.0000000 0.0000000 0.0000000 setrgbcolor
newpath
fill
0.0000000 0.0000000 0.0000000 setrgbcolor
newpath
48.735211 96.371017 moveto
48.735204 97.438728 48.393408 98.319261 47.709821 99.012619 curveto
47.026222 99.705979 46.150572 100.05266 45.082868 100.05266 curveto
41.899274 100.05266 lineto
41.899274 99.847580 lineto
42.231305 99.850835 42.465679 99.800380 42.602399 99.696213 curveto
42.761903 99.575771 42.841656 99.356044 42.841657 99.037033 curveto
42.841657 93.880783 lineto
42.841656 93.509696 42.626812 93.324149 42.197125 93.324142 curveto
42.122255 93.324149 42.037620 93.329032 41.943219 93.338791 curveto
41.943219 93.148361 lineto
42.464052 93.086519 43.172059 93.055595 44.067243 93.055588 curveto
45.398619 93.055595 46.453306 93.270438 47.231305 93.700119 curveto
48.233903 94.256765 48.735204 95.147064 48.735211 96.371017 curveto
47.660993 96.556564 moveto
47.660987 94.372325 46.521665 93.280204 44.243024 93.280197 curveto
44.083516 93.280204 43.902853 93.286714 43.701032 93.299728 curveto
43.701032 99.139572 lineto
43.701030 99.621343 43.831238 99.862229 44.091657 99.862228 curveto
45.082868 99.862228 lineto
45.958515 99.862229 46.622576 99.515549 47.075055 98.822189 curveto
47.465674 98.232998 47.660987 97.477791 47.660993 96.556564 curveto
fill
0.0000000 0.0000000 0.0000000 setrgbcolor
newpath
7.9836683 39.577404 moveto
7.9543715 39.797131 lineto
5.8449965 39.797131 lineto
5.8254652 39.758068 lineto
5.8547621 39.606701 lineto
6.0598397 39.606701 6.2242276 39.523693 6.3479261 39.357677 curveto
6.4618576 39.207938 6.5188236 39.027275 6.5188246 38.815685 curveto
6.5188246 33.605724 lineto
6.5188236 33.488543 6.4569747 33.390887 6.3332777 33.312756 curveto
6.2291104 33.247658 6.1135506 33.215106 5.9865980 33.215099 curveto
5.9865976 33.215106 5.9052175 33.231382 5.7424574 33.263927 curveto
5.7424572 33.247658 5.7440848 33.223244 5.7473402 33.190685 curveto
5.7505952 33.158140 5.7522228 33.132098 5.7522230 33.112560 curveto
5.7522228 33.066994 5.7994233 33.027932 5.8938246 32.995373 curveto
6.1477303 32.917255 6.5220788 32.770770 7.0168715 32.555920 curveto
7.2317152 32.555920 lineto
7.2317152 39.054943 lineto
7.2317136 39.373954 7.4823643 39.548107 7.9836683 39.577404 curveto
fill
0.0000000 0.0000000 0.0000000 setrgbcolor
newpath
12.178004 38.595959 moveto
11.774355 39.455334 11.134707 39.885021 10.259059 39.885021 curveto
9.6959064 39.885021 9.2206465 39.639253 8.8332777 39.147717 curveto
8.4719493 38.688733 8.2912854 38.171156 8.2912855 37.594982 curveto
8.2912854 36.940688 8.4768321 36.390558 8.8479261 35.944592 curveto
9.2450605 35.469335 9.7642657 35.231705 10.405543 35.231701 curveto
10.916608 35.231705 11.330019 35.386328 11.645778 35.695568 curveto
11.964784 36.004817 12.124289 36.416600 12.124293 36.930920 curveto
8.9699965 36.930920 lineto
8.9537197 37.067641 8.9455817 37.207615 8.9455824 37.350842 curveto
8.9455817 37.835870 9.0936935 38.281833 9.3899183 38.688732 curveto
9.7154377 39.141207 10.112573 39.367444 10.581325 39.367443 curveto
11.193301 39.367444 11.658795 39.092379 11.977809 38.542248 curveto
12.016871 38.542248 lineto
12.088482 38.538994 12.142193 38.556897 12.178004 38.595959 curveto
11.377223 36.652599 moveto
11.364199 36.320572 11.248639 36.050390 11.030543 35.842052 curveto
10.812442 35.630468 10.535749 35.524674 10.200465 35.524670 curveto
9.9237708 35.524674 9.6780028 35.646744 9.4631605 35.890881 curveto
9.2743574 36.105728 9.1457768 36.359634 9.0774183 36.652599 curveto
11.377223 36.652599 lineto
fill
0.0000000 0.0000000 0.0000000 setrgbcolor
newpath
17.910426 39.797131 moveto
15.708278 39.797131 lineto
15.708278 39.577404 lineto
16.157493 39.577404 16.382102 39.357678 16.382106 38.918224 curveto
16.382106 36.696545 lineto
16.382102 36.413345 16.323508 36.170832 16.206325 35.969006 curveto
16.063092 35.728124 15.859642 35.607682 15.595973 35.607677 curveto
15.176049 35.607682 14.661726 35.827408 14.053004 36.266857 curveto
14.053004 39.054943 lineto
14.053003 39.373954 14.303654 39.548107 14.804957 39.577404 curveto
14.775661 39.797131 lineto
12.666286 39.797131 lineto
12.646754 39.758068 lineto
12.676051 39.606701 lineto
12.881129 39.606701 13.047144 39.523693 13.174098 39.357677 curveto
13.291285 39.207938 13.349878 39.027275 13.349879 38.815685 curveto
13.349879 36.125256 lineto
13.349878 36.008072 13.247340 35.915299 13.042262 35.846935 curveto
13.016220 35.837174 12.859970 35.801366 12.573512 35.739513 curveto
12.573512 35.617443 lineto
12.719996 35.597916 12.952743 35.519791 13.271754 35.383068 curveto
13.571232 35.252864 13.771428 35.147070 13.872340 35.065685 curveto
14.053004 35.197521 lineto
14.053004 36.076427 lineto
15.013288 35.470963 15.675722 35.168229 16.040309 35.168224 curveto
16.395123 35.168229 16.670188 35.329362 16.865504 35.651623 curveto
17.031515 35.921809 17.114523 36.244074 17.114528 36.618420 curveto
17.114528 39.157482 lineto
17.114523 39.424410 17.370057 39.557873 17.881129 39.557873 curveto
17.910426 39.797131 lineto
fill
0.0000000 0.0000000 0.0000000 setrgbcolor
newpath
20.947536 38.937756 moveto
20.657819 39.510673 20.259057 39.797131 19.751246 39.797131 curveto
19.448511 39.797131 19.194605 39.704357 18.989528 39.518810 curveto
18.774683 39.323498 18.667261 39.076103 18.667262 38.776623 curveto
18.667262 35.715099 lineto
18.193629 35.715099 lineto
18.120387 35.475842 lineto
18.475204 35.342382 18.733993 35.142187 18.896754 34.875256 curveto
19.017196 34.679948 19.124618 34.364193 19.219020 33.927990 curveto
19.389918 33.927990 lineto
19.389918 35.329357 lineto
20.947536 35.329357 lineto
20.742457 35.715099 lineto
19.389918 35.715099 lineto
19.389918 38.478771 lineto
19.389917 38.648043 19.477808 38.830335 19.653590 39.025646 curveto
19.829370 39.220959 20.001896 39.318615 20.171168 39.318615 curveto
20.285098 39.318615 20.426700 39.229097 20.595973 39.050060 curveto
20.768496 38.867770 20.854759 38.776624 20.854762 38.776623 curveto
20.919863 38.776624 20.950788 38.830335 20.947536 38.937756 curveto
fill
0.0000000 0.0000000 0.0000000 setrgbcolor
newpath
23.969996 39.797131 moveto
21.728786 39.797131 lineto
21.709254 39.758068 lineto
21.738551 39.606701 lineto
21.969670 39.606701 22.134058 39.574149 22.231715 39.509045 curveto
22.352157 39.427665 22.412378 39.271415 22.412379 39.040295 curveto
22.412379 36.125256 lineto
22.412378 35.887629 22.295191 35.768814 22.060817 35.768810 curveto
21.972926 35.768814 21.870387 35.783463 21.753200 35.812756 curveto
21.631129 35.617443 lineto
22.249618 35.444921 22.713485 35.261002 23.022731 35.065685 curveto
23.203395 35.197521 lineto
23.203395 39.054943 lineto
23.203393 39.373954 23.452416 39.548107 23.950465 39.577404 curveto
23.969996 39.797131 lineto
23.261989 33.547131 moveto
23.261987 33.687111 23.213159 33.807553 23.115504 33.908459 curveto
23.017847 34.006121 22.899032 34.054949 22.759059 34.054943 curveto
22.619084 34.054949 22.500269 34.006121 22.402614 33.908459 curveto
22.304957 33.807553 22.256129 33.687111 22.256129 33.547131 curveto
22.256129 33.407163 22.304957 33.288348 22.402614 33.190685 curveto
22.500269 33.093036 22.619084 33.044208 22.759059 33.044201 curveto
22.899032 33.044208 23.017847 33.093036 23.115504 33.190685 curveto
23.213159 33.288348 23.261987 33.407163 23.261989 33.547131 curveto
fill
0.0000000 0.0000000 0.0000000 setrgbcolor
newpath
26.616481 39.577404 moveto
26.587184 39.797131 lineto
24.477809 39.797131 lineto
24.458278 39.758068 lineto
24.487575 39.606701 lineto
24.692652 39.606701 24.857040 39.523693 24.980739 39.357677 curveto
25.094670 39.207938 25.151636 39.027275 25.151637 38.815685 curveto
25.151637 33.605724 lineto
25.151636 33.488543 25.089787 33.390887 24.966090 33.312756 curveto
24.861923 33.247658 24.746363 33.215106 24.619411 33.215099 curveto
24.619410 33.215106 24.538030 33.231382 24.375270 33.263927 curveto
24.375270 33.247658 24.376897 33.223244 24.380153 33.190685 curveto
24.383408 33.158140 24.385035 33.132098 24.385036 33.112560 curveto
24.385035 33.066994 24.432236 33.027932 24.526637 32.995373 curveto
24.780543 32.917255 25.154891 32.770770 25.649684 32.555920 curveto
25.864528 32.555920 lineto
25.864528 39.054943 lineto
25.864526 39.373954 26.115177 39.548107 26.616481 39.577404 curveto
fill
0.0000000 0.0000000 0.0000000 setrgbcolor
newpath
29.253200 39.577404 moveto
29.223903 39.797131 lineto
27.114528 39.797131 lineto
27.094996 39.758068 lineto
27.124293 39.606701 lineto
27.329371 39.606701 27.493759 39.523693 27.617457 39.357677 curveto
27.731389 39.207938 27.788355 39.027275 27.788356 38.815685 curveto
27.788356 33.605724 lineto
27.788355 33.488543 27.726506 33.390887 27.602809 33.312756 curveto
27.498642 33.247658 27.383082 33.215106 27.256129 33.215099 curveto
27.256129 33.215106 27.174749 33.231382 27.011989 33.263927 curveto
27.011988 33.247658 27.013616 33.223244 27.016871 33.190685 curveto
27.020126 33.158140 27.021754 33.132098 27.021754 33.112560 curveto
27.021754 33.066994 27.068955 33.027932 27.163356 32.995373 curveto
27.417262 32.917255 27.791610 32.770770 28.286403 32.555920 curveto
28.501246 32.555920 lineto
28.501246 39.054943 lineto
28.501245 39.373954 28.751896 39.548107 29.253200 39.577404 curveto
fill
0.0000000 0.0000000 0.0000000 setrgbcolor
newpath
33.447536 38.595959 moveto
33.043886 39.455334 32.404238 39.885021 31.528590 39.885021 curveto
30.965438 39.885021 30.490178 39.639253 30.102809 39.147717 curveto
29.741481 38.688733 29.560817 38.171156 29.560817 37.594982 curveto
29.560817 36.940688 29.746363 36.390558 30.117457 35.944592 curveto
30.514592 35.469335 31.033797 35.231705 31.675075 35.231701 curveto
32.186140 35.231705 32.599551 35.386328 32.915309 35.695568 curveto
33.234316 36.004817 33.393821 36.416600 33.393825 36.930920 curveto
30.239528 36.930920 lineto
30.223251 37.067641 30.215113 37.207615 30.215114 37.350842 curveto
30.215113 37.835870 30.363225 38.281833 30.659450 38.688732 curveto
30.984969 39.141207 31.382104 39.367444 31.850856 39.367443 curveto
32.462832 39.367444 32.928326 39.092379 33.247340 38.542248 curveto
33.286403 38.542248 lineto
33.358013 38.538994 33.411724 38.556897 33.447536 38.595959 curveto
32.646754 36.652599 moveto
32.633730 36.320572 32.518171 36.050390 32.300075 35.842052 curveto
32.081973 35.630468 31.805281 35.524674 31.469996 35.524670 curveto
31.193302 35.524674 30.947534 35.646744 30.732692 35.890881 curveto
30.543889 36.105728 30.415308 36.359634 30.346950 36.652599 curveto
32.646754 36.652599 lineto
fill
0.0000000 0.0000000 0.0000000 setrgbcolor
newpath
10.693629 49.318615 moveto
10.465760 49.396740 10.236268 49.476493 10.005153 49.557873 curveto
9.7414767 49.658784 9.5233779 49.761323 9.3508558 49.865490 curveto
9.3215552 49.885021 9.2906308 49.894787 9.2580824 49.894787 curveto
9.1994850 49.894787 9.1620502 49.832938 9.1457777 49.709240 curveto
9.1327533 49.621350 9.1294981 49.499279 9.1360121 49.343029 curveto
9.1490293 49.128186 9.1555398 49.040295 9.1555433 49.079357 curveto
8.8821025 49.248629 8.6086653 49.419527 8.3352308 49.592052 curveto
8.0357492 49.761323 7.7199943 49.845959 7.3879652 49.845959 curveto
6.8703858 49.845959 6.4423263 49.601818 6.1037855 49.113537 curveto
5.8010509 48.677340 5.6496839 48.190687 5.6496840 47.653576 curveto
5.6496839 46.953709 5.8547618 46.390558 6.2649183 45.964123 curveto
6.7466880 45.466080 7.2984453 45.217057 7.9201918 45.217052 curveto
8.4345118 45.217057 8.8462953 45.304948 9.1555433 45.480724 curveto
9.1555433 43.542248 lineto
9.1555398 43.294858 8.9748759 43.171161 8.6135511 43.171154 curveto
8.6102929 43.171161 8.5044987 43.176043 8.2961683 43.185802 curveto
8.2961683 43.014904 lineto
8.8007224 42.949807 9.3085344 42.782164 9.8196058 42.511974 curveto
9.8196058 48.854748 lineto
9.8196016 48.936129 9.8521536 49.012626 9.9172621 49.084240 curveto
9.9823618 49.152600 10.053976 49.186780 10.132106 49.186779 curveto
10.197205 49.186780 10.291606 49.180269 10.415309 49.167248 curveto
10.539002 49.154228 10.631775 49.147717 10.693629 49.147717 curveto
10.693629 49.318615 lineto
9.1555433 48.888927 moveto
9.1555433 46.374279 lineto
8.9309306 46.055272 8.7225975 45.838801 8.5305433 45.724865 curveto
8.3156968 45.601171 8.0227284 45.539322 7.6516371 45.539318 curveto
7.1861407 45.539322 6.8459718 45.788346 6.6311293 46.286388 curveto
6.4781336 46.644464 6.4016363 47.088800 6.4016371 47.619396 curveto
6.4016363 48.036065 6.5302169 48.425062 6.7873793 48.786388 curveto
7.0705809 49.180269 7.4123774 49.377209 7.8127699 49.377209 curveto
8.0894601 49.377209 8.5370508 49.214449 9.1555433 48.888927 curveto
fill
0.0000000 0.0000000 0.0000000 setrgbcolor
newpath
13.208278 49.797131 moveto
10.967067 49.797131 lineto
10.947536 49.758068 lineto
10.976832 49.606701 lineto
11.207952 49.606701 11.372340 49.574149 11.469996 49.509045 curveto
11.590438 49.427665 11.650660 49.271415 11.650661 49.040295 curveto
11.650661 46.125256 lineto
11.650660 45.887629 11.533472 45.768814 11.299098 45.768810 curveto
11.211207 45.768814 11.108668 45.783463 10.991481 45.812756 curveto
10.869411 45.617443 lineto
11.487899 45.444921 11.951766 45.261002 12.261012 45.065685 curveto
12.441676 45.197521 lineto
12.441676 49.054943 lineto
12.441674 49.373954 12.690698 49.548107 13.188746 49.577404 curveto
13.208278 49.797131 lineto
12.500270 43.547131 moveto
12.500268 43.687111 12.451440 43.807553 12.353786 43.908459 curveto
12.256128 44.006121 12.137313 44.054949 11.997340 44.054943 curveto
11.857365 44.054949 11.738550 44.006121 11.640895 43.908459 curveto
11.543238 43.807553 11.494410 43.687111 11.494411 43.547131 curveto
11.494410 43.407163 11.543238 43.288348 11.640895 43.190685 curveto
11.738550 43.093036 11.857365 43.044208 11.997340 43.044201 curveto
12.137313 43.044208 12.256128 43.093036 12.353786 43.190685 curveto
12.451440 43.288348 12.500268 43.407163 12.500270 43.547131 curveto
fill
0.0000000 0.0000000 0.0000000 setrgbcolor
newpath
18.564723 45.329357 moveto
18.545192 45.505138 lineto
18.379171 45.505143 18.214783 45.581640 18.052028 45.734631 curveto
17.912049 45.864843 17.804628 46.016210 17.729762 46.188732 curveto
16.123317 49.845959 lineto
15.859645 49.845959 lineto
14.233668 46.091076 lineto
14.061142 45.700455 13.774684 45.505143 13.374293 45.505138 curveto
13.374293 45.329357 lineto
15.600856 45.329357 lineto
15.600856 45.505138 lineto
15.125594 45.505143 14.887964 45.593033 14.887965 45.768810 curveto
14.887964 45.820898 15.289982 46.810480 16.094020 48.737560 curveto
16.116804 48.789645 16.141218 48.815686 16.167262 48.815685 curveto
16.203067 48.815686 16.235619 48.783134 16.264918 48.718029 curveto
17.329371 46.344982 lineto
17.397727 46.191991 17.431907 46.058528 17.431911 45.944592 curveto
17.431907 45.638606 17.176373 45.485611 16.665309 45.485607 curveto
16.719020 45.329357 lineto
18.564723 45.329357 lineto
fill
0.0000000 0.0000000 0.0000000 setrgbcolor
newpath
22.549098 48.595959 moveto
22.145449 49.455334 21.505801 49.885021 20.630153 49.885021 curveto
20.067000 49.885021 19.591740 49.639253 19.204371 49.147717 curveto
18.843043 48.688733 18.662379 48.171156 18.662379 47.594982 curveto
18.662379 46.940688 18.847926 46.390558 19.219020 45.944592 curveto
19.616154 45.469335 20.135359 45.231705 20.776637 45.231701 curveto
21.287702 45.231705 21.701113 45.386328 22.016871 45.695568 curveto
22.335878 46.004817 22.495383 46.416600 22.495387 46.930920 curveto
19.341090 46.930920 lineto
19.324813 47.067641 19.316675 47.207615 19.316676 47.350842 curveto
19.316675 47.835870 19.464787 48.281833 19.761012 48.688732 curveto
20.086531 49.141207 20.483666 49.367444 20.952418 49.367443 curveto
21.564395 49.367444 22.029889 49.092379 22.348903 48.542248 curveto
22.387965 48.542248 lineto
22.459576 48.538994 22.513287 48.556897 22.549098 48.595959 curveto
21.748317 46.652599 moveto
21.735293 46.320572 21.619733 46.050390 21.401637 45.842052 curveto
21.183536 45.630468 20.906843 45.524674 20.571559 45.524670 curveto
20.294865 45.524674 20.049097 45.646744 19.834254 45.890881 curveto
19.645451 46.105728 19.516871 46.359634 19.448512 46.652599 curveto
21.748317 46.652599 lineto
fill
0.0000000 0.0000000 0.0000000 setrgbcolor
newpath
26.401637 45.436779 moveto
26.391868 45.622330 26.290957 45.872981 26.098903 46.188732 curveto
25.695254 45.980403 25.416934 45.876236 25.263942 45.876232 curveto
25.068627 45.876236 24.896101 45.970637 24.746364 46.159435 curveto
24.632430 46.331965 24.520125 46.504491 24.409450 46.677013 curveto
24.409450 49.098888 lineto
24.409448 49.450451 24.629174 49.626232 25.068629 49.626232 curveto
25.110945 49.626232 25.171166 49.624605 25.249293 49.621349 curveto
25.327416 49.618094 25.382754 49.616467 25.415309 49.616467 curveto
25.434840 49.797131 lineto
23.017848 49.797131 lineto
23.017848 49.655529 lineto
23.476832 49.642508 23.706324 49.456962 23.706325 49.098888 curveto
23.706325 46.237560 lineto
23.706324 46.045507 23.471949 45.899023 23.003200 45.798107 curveto
23.003200 45.617443 lineto
23.289658 45.584895 23.694931 45.418880 24.219020 45.119396 curveto
24.409450 45.158459 lineto
24.409450 46.310802 lineto
24.800073 45.581640 25.148380 45.217057 25.454371 45.217052 curveto
25.610619 45.217057 25.926374 45.290299 26.401637 45.436779 curveto
fill
0.0000000 0.0000000 0.0000000 setrgbcolor
newpath
31.426051 46.120373 moveto
30.244411 45.993420 lineto
30.423443 46.263605 30.512961 46.567967 30.512965 46.906506 curveto
30.512961 47.345961 30.303001 47.697523 29.883082 47.961193 curveto
29.525007 48.185804 29.111596 48.298109 28.642848 48.298107 curveto
28.434513 48.298109 28.214787 48.275322 27.983668 48.229748 curveto
27.547470 48.460869 27.329371 48.667574 27.329371 48.849865 curveto
27.329371 49.058199 27.679305 49.185152 28.379176 49.230724 curveto
29.388288 49.299084 30.037701 49.373954 30.327418 49.455334 curveto
31.027284 49.650646 31.377218 50.036388 31.377223 50.612560 curveto
31.377218 51.110606 31.022401 51.525644 30.312770 51.857677 curveto
29.726829 52.134368 29.150658 52.272714 28.584254 52.272717 curveto
28.144800 52.272714 27.757430 52.215748 27.422145 52.101818 curveto
26.943629 51.935800 26.704371 51.678639 26.704371 51.330334 curveto
26.704371 50.838796 27.059189 50.339122 27.768825 49.831310 curveto
27.755803 49.802013 27.658146 49.762951 27.475856 49.714123 curveto
27.257756 49.658784 27.098251 49.596935 26.997340 49.528576 curveto
26.828069 49.414644 26.743434 49.260022 26.743434 49.064709 curveto
26.743434 48.866142 26.805283 48.714775 26.928981 48.610607 curveto
26.997340 48.552015 27.137314 48.483655 27.348903 48.405529 curveto
27.547470 48.330661 27.690699 48.252536 27.778590 48.171154 curveto
27.130803 47.959567 26.806910 47.518487 26.806911 46.847912 curveto
26.806910 46.379165 26.985947 45.985285 27.344020 45.666271 curveto
27.689071 45.360286 28.099227 45.207291 28.574489 45.207287 curveto
29.140892 45.207291 29.586856 45.357031 29.912379 45.656506 curveto
31.396754 45.558849 lineto
31.400005 45.669531 31.409770 45.856705 31.426051 46.120373 curveto
29.780543 46.886974 moveto
29.780540 46.532160 29.669863 46.213150 29.448512 45.929943 curveto
29.207624 45.623958 28.914656 45.470963 28.569606 45.470959 curveto
28.218042 45.470963 27.949487 45.630468 27.763942 45.949474 curveto
27.610946 46.213150 27.534449 46.533787 27.534450 46.911388 curveto
27.534449 47.663344 27.910425 48.039320 28.662379 48.039318 curveto
29.407819 48.039320 29.780540 47.655206 29.780543 46.886974 curveto
30.718043 50.715099 moveto
30.718039 50.376557 30.495058 50.140555 30.049098 50.007092 curveto
29.814720 49.938732 29.453392 49.893159 28.965114 49.870373 curveto
28.750268 49.850841 28.426375 49.831310 27.993434 49.811779 curveto
27.534449 50.176362 27.304957 50.619070 27.304957 51.139904 curveto
27.304957 51.624928 27.868107 51.867441 28.994411 51.867443 curveto
29.332950 51.867441 29.692650 51.760019 30.073512 51.545177 curveto
30.503196 51.301035 30.718039 51.024343 30.718043 50.715099 curveto
fill
0.0000000 0.0000000 0.0000000 setrgbcolor
newpath
35.771754 48.595959 moveto
35.368105 49.455334 34.728457 49.885021 33.852809 49.885021 curveto
33.289656 49.885021 32.814396 49.639253 32.427028 49.147717 curveto
32.065699 48.688733 31.885035 48.171156 31.885036 47.594982 curveto
31.885035 46.940688 32.070582 46.390558 32.441676 45.944592 curveto
32.838811 45.469335 33.358016 45.231705 33.999293 45.231701 curveto
34.510358 45.231705 34.923769 45.386328 35.239528 45.695568 curveto
35.558534 46.004817 35.718039 46.416600 35.718043 46.930920 curveto
32.563746 46.930920 lineto
32.547470 47.067641 32.539332 47.207615 32.539332 47.350842 curveto
32.539332 47.835870 32.687443 48.281833 32.983668 48.688732 curveto
33.309188 49.141207 33.706323 49.367444 34.175075 49.367443 curveto
34.787051 49.367444 35.252545 49.092379 35.571559 48.542248 curveto
35.610621 48.542248 lineto
35.682232 48.538994 35.735943 48.556897 35.771754 48.595959 curveto
34.970973 46.652599 moveto
34.957949 46.320572 34.842389 46.050390 34.624293 45.842052 curveto
34.406192 45.630468 34.129499 45.524674 33.794215 45.524670 curveto
33.517521 45.524674 33.271753 45.646744 33.056911 45.890881 curveto
32.868107 46.105728 32.739527 46.359634 32.671168 46.652599 curveto
34.970973 46.652599 lineto
fill
0.0000000 0.0000000 0.0000000 setrgbcolor
newpath
41.504176 49.797131 moveto
39.302028 49.797131 lineto
39.302028 49.577404 lineto
39.751243 49.577404 39.975852 49.357678 39.975856 48.918224 curveto
39.975856 46.696545 lineto
39.975852 46.413345 39.917258 46.170832 39.800075 45.969006 curveto
39.656842 45.728124 39.453392 45.607682 39.189723 45.607677 curveto
38.769799 45.607682 38.255476 45.827408 37.646754 46.266857 curveto
37.646754 49.054943 lineto
37.646753 49.373954 37.897404 49.548107 38.398707 49.577404 curveto
38.369411 49.797131 lineto
36.260036 49.797131 lineto
36.240504 49.758068 lineto
36.269801 49.606701 lineto
36.474879 49.606701 36.640894 49.523693 36.767848 49.357677 curveto
36.885035 49.207938 36.943628 49.027275 36.943629 48.815685 curveto
36.943629 46.125256 lineto
36.943628 46.008072 36.841090 45.915299 36.636012 45.846935 curveto
36.609970 45.837174 36.453720 45.801366 36.167262 45.739513 curveto
36.167262 45.617443 lineto
36.313746 45.597916 36.546493 45.519791 36.865504 45.383068 curveto
37.164982 45.252864 37.365178 45.147070 37.466090 45.065685 curveto
37.646754 45.197521 lineto
37.646754 46.076427 lineto
38.607038 45.470963 39.269472 45.168229 39.634059 45.168224 curveto
39.988873 45.168229 40.263938 45.329362 40.459254 45.651623 curveto
40.625265 45.921809 40.708273 46.244074 40.708278 46.618420 curveto
40.708278 49.157482 lineto
40.708273 49.424410 40.963807 49.557873 41.474879 49.557873 curveto
41.504176 49.797131 lineto
fill
0.0000000 0.0000000 0.0000000 setrgbcolor
newpath
44.541286 48.937756 moveto
44.251569 49.510673 43.852807 49.797131 43.344996 49.797131 curveto
43.042261 49.797131 42.788355 49.704357 42.583278 49.518810 curveto
42.368433 49.323498 42.261011 49.076103 42.261012 48.776623 curveto
42.261012 45.715099 lineto
41.787379 45.715099 lineto
41.714137 45.475842 lineto
42.068954 45.342382 42.327743 45.142187 42.490504 44.875256 curveto
42.610946 44.679948 42.718368 44.364193 42.812770 43.927990 curveto
42.983668 43.927990 lineto
42.983668 45.329357 lineto
44.541286 45.329357 lineto
44.336207 45.715099 lineto
42.983668 45.715099 lineto
42.983668 48.478771 lineto
42.983667 48.648043 43.071558 48.830335 43.247340 49.025646 curveto
43.423120 49.220959 43.595646 49.318615 43.764918 49.318615 curveto
43.878848 49.318615 44.020450 49.229097 44.189723 49.050060 curveto
44.362246 48.867770 44.448509 48.776624 44.448512 48.776623 curveto
44.513613 48.776624 44.544538 48.830335 44.541286 48.937756 curveto
fill
0.0000000 0.0000000 0.0000000 setrgbcolor
newpath
49.072536 48.595959 moveto
48.668886 49.455334 48.029238 49.885021 47.153590 49.885021 curveto
46.590438 49.885021 46.115178 49.639253 45.727809 49.147717 curveto
45.366481 48.688733 45.185817 48.171156 45.185817 47.594982 curveto
45.185817 46.940688 45.371363 46.390558 45.742457 45.944592 curveto
46.139592 45.469335 46.658797 45.231705 47.300075 45.231701 curveto
47.811140 45.231705 48.224551 45.386328 48.540309 45.695568 curveto
48.859316 46.004817 49.018821 46.416600 49.018825 46.930920 curveto
45.864528 46.930920 lineto
45.848251 47.067641 45.840113 47.207615 45.840114 47.350842 curveto
45.840113 47.835870 45.988225 48.281833 46.284450 48.688732 curveto
46.609969 49.141207 47.007104 49.367444 47.475856 49.367443 curveto
48.087832 49.367444 48.553326 49.092379 48.872340 48.542248 curveto
48.911403 48.542248 lineto
48.983013 48.538994 49.036724 48.556897 49.072536 48.595959 curveto
48.271754 46.652599 moveto
48.258730 46.320572 48.143171 46.050390 47.925075 45.842052 curveto
47.706973 45.630468 47.430281 45.524674 47.094996 45.524670 curveto
46.818302 45.524674 46.572534 45.646744 46.357692 45.890881 curveto
46.168889 46.105728 46.040308 46.359634 45.971950 46.652599 curveto
48.271754 46.652599 lineto
fill
0.0000000 0.0000000 0.0000000 setrgbcolor
newpath
11.045192 54.728771 moveto
11.045186 55.357031 10.766866 55.886002 10.210231 56.315685 curveto
9.6991590 56.709569 9.1197325 56.906508 8.4719496 56.906506 curveto
8.2505927 56.906508 7.9543691 56.857680 7.5832777 56.760021 curveto
7.5783949 58.786388 lineto
7.5783929 59.082613 7.6939527 59.307222 7.9250746 59.460217 curveto
8.1268949 59.593680 8.3808009 59.652274 8.6867933 59.635998 curveto
8.7209730 59.772717 lineto
8.7160902 59.821545 lineto
5.7473402 59.821545 lineto
5.7766371 59.606701 lineto
5.8303480 59.606701 lineto
6.1623787 59.609956 6.3934982 59.546480 6.5237074 59.416271 curveto
6.6571699 59.282808 6.7239016 59.050061 6.7239027 58.718029 curveto
6.7239027 53.693615 lineto
6.7239016 53.260679 6.4081467 53.045835 5.7766371 53.049084 curveto
5.7766371 52.868420 lineto
6.2291104 52.806578 6.8947998 52.775653 7.7737074 52.775646 curveto
8.7535219 52.775653 9.4761775 52.868427 9.9416761 53.053967 curveto
10.677348 53.346942 11.045186 53.905209 11.045192 54.728771 curveto
10.019801 54.728771 moveto
10.019797 54.256772 9.8765677 53.856381 9.5901136 53.527599 curveto
9.2906308 53.182554 8.9081442 53.010028 8.4426527 53.010021 curveto
8.3319729 53.010028 8.1887438 53.023049 8.0129652 53.049084 curveto
7.7948640 53.078387 7.6516350 53.096291 7.5832777 53.102795 curveto
7.5832777 56.496349 lineto
7.8046296 56.558202 8.1317778 56.589126 8.5647230 56.589123 curveto
9.0757872 56.589126 9.4566462 56.400324 9.7073011 56.022717 curveto
9.9156301 55.703710 10.019797 55.272396 10.019801 54.728771 curveto
fill
0.0000000 0.0000000 0.0000000 setrgbcolor
newpath
fill
0.0000000 0.0000000 0.0000000 setrgbcolor
newpath
18.984645 55.622326 moveto
14.931911 55.622326 lineto
14.931911 55.163342 lineto
18.984645 55.163342 lineto
18.984645 55.622326 lineto
18.984645 57.463146 moveto
14.931911 57.463146 lineto
14.931911 56.999279 lineto
18.984645 56.999279 lineto
18.984645 57.463146 lineto
fill
0.0000000 0.0000000 0.0000000 setrgbcolor
newpath
fill
0.0000000 0.0000000 0.0000000 setrgbcolor
newpath
25.996364 56.999279 moveto
22.842067 56.999279 lineto
22.842067 56.388927 lineto
25.996364 56.388927 lineto
25.996364 56.999279 lineto
fill
0.0000000 0.0000000 0.0000000 setrgbcolor
newpath
31.113551 56.271740 moveto
31.113546 57.062758 30.945903 57.811455 30.610621 58.517834 curveto
30.193951 59.399996 29.632428 59.841076 28.926051 59.841076 curveto
28.193627 59.841076 27.623967 59.406506 27.217067 58.537365 curveto
26.898056 57.857028 26.738551 57.101821 26.738551 56.271740 curveto
26.738551 55.480729 26.906194 54.732031 27.241481 54.025646 curveto
27.658146 53.146747 28.219669 52.707294 28.926051 52.707287 curveto
29.658470 52.707294 30.226503 53.140236 30.630153 54.006115 curveto
30.952414 54.689714 31.113546 55.444921 31.113551 56.271740 curveto
30.395778 56.491467 moveto
30.395774 54.150977 29.905865 52.980731 28.926051 52.980724 curveto
27.946232 52.980731 27.456323 54.006121 27.456325 56.056896 curveto
27.456323 58.394137 27.946232 59.562756 28.926051 59.562756 curveto
29.905865 59.562756 30.395774 58.538994 30.395778 56.491467 curveto
fill
0.0000000 0.0000000 0.0000000 setrgbcolor
newpath
33.716090 59.782482 moveto
33.716088 59.522066 33.650984 59.300712 33.520778 59.118420 curveto
33.377547 58.910087 33.180607 58.805921 32.929957 58.805920 curveto
32.757430 58.805921 32.606063 58.851494 32.475856 58.942638 curveto
32.335881 59.043551 32.265895 59.177014 32.265895 59.343029 curveto
32.265895 59.483003 32.304957 59.603446 32.383082 59.704357 curveto
32.470972 59.818289 32.580022 59.875256 32.710231 59.875256 curveto
32.749292 59.875256 32.803003 59.868745 32.871364 59.855724 curveto
32.942977 59.845959 32.996688 59.841076 33.032496 59.841076 curveto
33.165959 59.841076 33.232690 59.932222 33.232692 60.114513 curveto
33.232690 60.583263 32.947860 60.967377 32.378200 61.266857 curveto
32.414006 61.384043 32.448186 61.442637 32.480739 61.442638 curveto
32.542587 61.442637 32.656519 61.385671 32.822536 61.271740 curveto
32.975529 61.167572 33.076441 61.086192 33.125270 61.027599 curveto
33.343367 60.763926 33.483341 60.575125 33.545192 60.461193 curveto
33.659122 60.259370 33.716088 60.033133 33.716090 59.782482 curveto
fill
0.0000000 0.0000000 0.0000000 setrgbcolor
newpath
38.867457 57.482677 moveto
38.867453 58.364840 38.626568 58.994723 38.144801 59.372326 curveto
37.715111 59.710868 37.046166 59.880138 36.137965 59.880138 curveto
35.874292 59.880138 35.635034 59.834565 35.420192 59.743420 curveto
35.140243 59.619722 35.000269 59.442313 35.000270 59.211193 curveto
35.000269 59.103772 35.037704 59.014254 35.112575 58.942638 curveto
35.187444 58.867770 35.280217 58.830335 35.390895 58.830334 curveto
35.615503 58.830335 35.851506 58.939384 36.098903 59.157482 curveto
36.349552 59.375582 36.598575 59.484631 36.845973 59.484631 curveto
37.721621 59.484631 38.159446 58.871025 38.159450 57.643810 curveto
38.159446 57.308526 38.076438 56.992771 37.910426 56.696545 curveto
37.715111 56.348241 37.461205 56.174087 37.148707 56.174084 curveto
36.819929 56.174087 36.473250 56.266861 36.108668 56.452404 curveto
36.015895 56.203381 lineto
36.299096 56.125259 36.637638 55.907161 37.031520 55.549084 curveto
37.457949 55.161719 37.671165 54.839453 37.671168 54.582287 curveto
37.671165 54.282813 37.557233 54.024024 37.329371 53.805920 curveto
37.101504 53.587827 36.837833 53.478778 36.538356 53.478771 curveto
36.180281 53.478778 35.700139 53.765236 35.097926 54.338146 curveto
34.946559 54.274670 lineto
35.275334 53.773374 35.555282 53.425067 35.786403 53.229748 curveto
36.131453 52.946551 36.544864 52.804950 37.026637 52.804943 curveto
37.440046 52.804950 37.794863 52.935158 38.091090 53.195568 curveto
38.403586 53.469012 38.559836 53.809181 38.559840 54.216076 curveto
38.559836 54.564388 38.452414 54.854102 38.237575 55.085217 curveto
38.094342 55.241471 37.833925 55.420507 37.456325 55.622326 curveto
37.899030 55.651627 38.252219 55.863215 38.515895 56.257092 curveto
38.750266 56.608657 38.867453 57.017185 38.867457 57.482677 curveto
fill
0.0000000 0.0000000 0.0000000 setrgbcolor
newpath
43.379176 57.482677 moveto
43.379172 58.364840 43.138287 58.994723 42.656520 59.372326 curveto
42.226829 59.710868 41.557885 59.880138 40.649684 59.880138 curveto
40.386011 59.880138 40.146753 59.834565 39.931911 59.743420 curveto
39.651962 59.619722 39.511988 59.442313 39.511989 59.211193 curveto
39.511988 59.103772 39.549423 59.014254 39.624293 58.942638 curveto
39.699163 58.867770 39.791936 58.830335 39.902614 58.830334 curveto
40.127222 58.830335 40.363224 58.939384 40.610621 59.157482 curveto
40.861271 59.375582 41.110294 59.484631 41.357692 59.484631 curveto
42.233340 59.484631 42.671165 58.871025 42.671168 57.643810 curveto
42.671165 57.308526 42.588157 56.992771 42.422145 56.696545 curveto
42.226829 56.348241 41.972923 56.174087 41.660426 56.174084 curveto
41.331648 56.174087 40.984969 56.266861 40.620387 56.452404 curveto
40.527614 56.203381 lineto
40.810815 56.125259 41.149356 55.907161 41.543239 55.549084 curveto
41.969668 55.161719 42.182884 54.839453 42.182887 54.582287 curveto
42.182884 54.282813 42.068952 54.024024 41.841090 53.805920 curveto
41.613223 53.587827 41.349551 53.478778 41.050075 53.478771 curveto
40.692000 53.478778 40.211857 53.765236 39.609645 54.338146 curveto
39.458278 54.274670 lineto
39.787053 53.773374 40.067001 53.425067 40.298121 53.229748 curveto
40.643172 52.946551 41.056583 52.804950 41.538356 52.804943 curveto
41.951764 52.804950 42.306582 52.935158 42.602809 53.195568 curveto
42.915305 53.469012 43.071555 53.809181 43.071559 54.216076 curveto
43.071555 54.564388 42.964133 54.854102 42.749293 55.085217 curveto
42.606061 55.241471 42.345644 55.420507 41.968043 55.622326 curveto
42.410748 55.651627 42.763938 55.863215 43.027614 56.257092 curveto
43.261984 56.608657 43.379172 57.017185 43.379176 57.482677 curveto
fill
0.0000000 0.0000000 0.0000000 setrgbcolor
newpath
fill
0.0000000 0.0000000 0.0000000 setrgbcolor
newpath
53.545192 56.115490 moveto
53.545185 57.183201 53.203388 58.063734 52.519801 58.757092 curveto
51.836202 59.450451 50.960552 59.797131 49.892848 59.797131 curveto
46.709254 59.797131 lineto
46.709254 59.592052 lineto
47.041285 59.595308 47.275660 59.544852 47.412379 59.440685 curveto
47.571884 59.320243 47.651636 59.100517 47.651637 58.781506 curveto
47.651637 53.625256 lineto
47.651636 53.254168 47.436793 53.068622 47.007106 53.068615 curveto
46.932236 53.068622 46.847600 53.073504 46.753200 53.083263 curveto
46.753200 52.892834 lineto
47.274032 52.830992 47.982039 52.800067 48.877223 52.800060 curveto
50.208600 52.800067 51.263286 53.014911 52.041286 53.444592 curveto
53.043883 54.001238 53.545185 54.891537 53.545192 56.115490 curveto
52.470973 56.301037 moveto
52.470967 54.116798 51.331645 53.024676 49.053004 53.024670 curveto
48.893497 53.024676 48.712833 53.031187 48.511012 53.044201 curveto
48.511012 58.884045 lineto
48.511010 59.365816 48.641218 59.606701 48.901637 59.606701 curveto
49.892848 59.606701 lineto
50.768495 59.606701 51.432557 59.260022 51.885036 58.566662 curveto
52.275655 57.977471 52.470967 57.222263 52.470973 56.301037 curveto
fill
0.0000000 0.0000000 0.0000000 setrgbcolor
[] 0 setdash
0.35433072 setlinewidth
0 setlinejoin
0 setlinecap
newpath
55.367626 55.744920 moveto
65.142165 52.400998 lineto
stroke
gsave [-0.36878045 0.12616176 -0.12616176 -0.36878045 66.986067 51.770189] concat
0.0000000 0.0000000 0.0000000 setrgbcolor
newpath
8.7185878 4.0337352 moveto
-2.2072895 0.016013256 lineto
8.7185884 -4.0017078 lineto
6.9730900 -1.6296469 6.9831476 1.6157441 8.7185878 4.0337352 curveto
closepath
eofill
grestore
grestore
showpage
