%!PS-Adobe-2.0
%%Creator: inkscape 0.41.1
%%Pages: 1
%%Orientation: Portrait
%%BoundingBox: 23 766 111 827
%%HiResBoundingBox: 23.704898 766.11579 110.38671 826.99276
%%EndComments
%%Page: 1 1
0 842 translate
0.80000000 -0.80000000 scale
gsave [1.0000000 0.0000000 0.0000000 1.0000000 0.0000000 0.0000000] concat
0.0000000 0.0000000 0.0000000 setrgbcolor
[1.4173229 2.8346457] 0.0000000 setdash
0.35433072 setlinewidth
0 setlinejoin
0 setlinecap
newpath
29.808288 60.912589 moveto
185.32979 60.912589 127.14938 60.912589 127.14938 60.912589 curveto
stroke
0.0000000 0.0000000 0.0000000 setrgbcolor
[] 0 setdash
0.35433072 setlinewidth
0 setlinejoin
0 setlinecap
newpath
91.364788 25.154761 moveto
91.364788 94.109319 91.364788 94.540285 91.364788 94.540285 curveto
stroke
gsave [-2.3865361e-17 -0.38976379 0.38976379 -2.3865361e-17 91.364788 27.103580] concat
0.0000000 0.0000000 0.0000000 setrgbcolor
newpath
8.7185878 4.0337352 moveto
-2.2072895 0.016013256 lineto
8.7185884 -4.0017078 lineto
6.9730900 -1.6296469 6.9831476 1.6157441 8.7185878 4.0337352 curveto
closepath
eofill
grestore
gsave [1.7356626e-17 0.28346457 -0.28346457 1.7356626e-17 91.364788 94.540285] concat
0.0000000 0.0000000 0.0000000 setrgbcolor
newpath
0.0000000 0.0000000 moveto
5.0000000 -5.0000000 lineto
-12.500000 0.0000000 lineto
5.0000000 5.0000000 lineto
0.0000000 0.0000000 lineto
closepath
eofill
0.0000000 0.0000000 0.0000000 setrgbcolor
[] 0 setdash
1.2500000 setlinewidth
0 setlinejoin
0 setlinecap
newpath
0.0000000 0.0000000 moveto
5.0000000 -5.0000000 lineto
-12.500000 0.0000000 lineto
5.0000000 5.0000000 lineto
0.0000000 0.0000000 lineto
closepath
stroke
grestore
0.0000000 0.0000000 0.0000000 setrgbcolor
[] 0 setdash
0.35433072 setlinewidth
0 setlinejoin
0 setlinecap
newpath
43.096598 41.100503 moveto
43.096598 60.709455 43.096598 60.709455 43.096598 60.709455 curveto
stroke
0.0000000 0.0000000 0.0000000 setrgbcolor
[] 0 setdash
1.0000000 setlinewidth
0 setlinejoin
0 setlinecap
newpath
42.881115 41.315986 moveto
124.33369 74.069401 lineto
stroke
gsave [-0.27833942 -0.11192484 0.11192484 -0.27833942 125.72539 74.629025] concat
0.0000000 0.0000000 0.0000000 setrgbcolor
newpath
8.7185878 4.0337352 moveto
-2.2072895 0.016013256 lineto
8.7185884 -4.0017078 lineto
6.9730900 -1.6296469 6.9831476 1.6157441 8.7185878 4.0337352 curveto
closepath
eofill
grestore
0.0000000 0.0000000 0.0000000 setrgbcolor
[] 0 setdash
1.0000000 setlinewidth
0 setlinejoin
0 setlinecap
newpath
42.881115 41.315986 moveto
91.149305 41.315986 lineto
121.31693 19.121238 lineto
stroke
gsave [-0.24164686 0.17778301 -0.17778301 -0.24164686 122.52516 18.232323] concat
0.0000000 0.0000000 0.0000000 setrgbcolor
newpath
8.7185878 4.0337352 moveto
-2.2072895 0.016013256 lineto
8.7185884 -4.0017078 lineto
6.9730900 -1.6296469 6.9831476 1.6157441 8.7185878 4.0337352 curveto
closepath
eofill
grestore
0.0000000 0.0000000 0.0000000 setrgbcolor
[] 0 setdash
0.19790417 setlinewidth
0 setlinejoin
0 setlinecap
newpath
74.341635 61.046835 moveto
74.341635 54.123067 lineto
stroke
0.0000000 0.0000000 0.0000000 setrgbcolor
[] 0 setdash
0.33406195 setlinewidth
0 setlinejoin
0 setlinecap
newpath
90.131453 73.638435 moveto
66.955649 73.638435 lineto
stroke
gsave [-0.20043717 2.4545663e-17 -2.4545663e-17 -0.20043717 88.527956 73.638435] concat
0.0000000 0.0000000 0.0000000 setrgbcolor
newpath
0.0000000 0.0000000 moveto
5.0000000 -5.0000000 lineto
-12.500000 0.0000000 lineto
5.0000000 5.0000000 lineto
0.0000000 0.0000000 lineto
closepath
eofill
0.0000000 0.0000000 0.0000000 setrgbcolor
[] 0 setdash
1.2500000 setlinewidth
0 setlinejoin
0 setlinecap
newpath
0.0000000 0.0000000 moveto
5.0000000 -5.0000000 lineto
-12.500000 0.0000000 lineto
5.0000000 5.0000000 lineto
0.0000000 0.0000000 lineto
closepath
stroke
0.0000000 0.0000000 0.0000000 setrgbcolor
[] 0 setdash
1.5000000 setlinewidth
0 setlinejoin
0 setlinecap
newpath
-14.759949 -7.0000000 moveto
-14.759949 65.000000 lineto
stroke
grestore
gsave [0.20043717 -2.4545663e-17 -2.4545663e-17 -0.20043717 68.559146 73.638435] concat
0.0000000 0.0000000 0.0000000 setrgbcolor
newpath
0.0000000 0.0000000 moveto
5.0000000 -5.0000000 lineto
-12.500000 0.0000000 lineto
5.0000000 5.0000000 lineto
0.0000000 0.0000000 lineto
closepath
eofill
0.0000000 0.0000000 0.0000000 setrgbcolor
[] 0 setdash
1.2500000 setlinewidth
0 setlinejoin
0 setlinecap
newpath
0.0000000 0.0000000 moveto
5.0000000 -5.0000000 lineto
-12.500000 0.0000000 lineto
5.0000000 5.0000000 lineto
0.0000000 0.0000000 lineto
closepath
stroke
0.0000000 0.0000000 0.0000000 setrgbcolor
[] 0 setdash
1.5000000 setlinewidth
0 setlinejoin
0 setlinecap
newpath
-14.759949 -7.0000000 moveto
-14.759949 65.000000 lineto
stroke
grestore
0.0000000 0.0000000 0.0000000 setrgbcolor
[] 0 setdash
0.40314037 setlinewidth
0 setlinejoin
0 setlinecap
newpath
44.760986 32.050220 moveto
89.700400 32.050220 lineto
stroke
gsave [0.24188422 0.0000000 0.0000000 0.24188422 46.696060 32.050220] concat
0.0000000 0.0000000 0.0000000 setrgbcolor
newpath
0.0000000 0.0000000 moveto
5.0000000 -5.0000000 lineto
-12.500000 0.0000000 lineto
5.0000000 5.0000000 lineto
0.0000000 0.0000000 lineto
closepath
eofill
0.0000000 0.0000000 0.0000000 setrgbcolor
[] 0 setdash
1.2500000 setlinewidth
0 setlinejoin
0 setlinecap
newpath
0.0000000 0.0000000 moveto
5.0000000 -5.0000000 lineto
-12.500000 0.0000000 lineto
5.0000000 5.0000000 lineto
0.0000000 0.0000000 lineto
closepath
stroke
0.0000000 0.0000000 0.0000000 setrgbcolor
[] 0 setdash
1.5000000 setlinewidth
0 setlinejoin
0 setlinecap
newpath
-14.759949 -7.0000000 moveto
-14.759949 65.000000 lineto
stroke
grestore
gsave [-0.24188422 -0.0000000 0.0000000 0.24188422 87.765326 32.050220] concat
0.0000000 0.0000000 0.0000000 setrgbcolor
newpath
0.0000000 0.0000000 moveto
5.0000000 -5.0000000 lineto
-12.500000 0.0000000 lineto
5.0000000 5.0000000 lineto
0.0000000 0.0000000 lineto
closepath
eofill
0.0000000 0.0000000 0.0000000 setrgbcolor
[] 0 setdash
1.2500000 setlinewidth
0 setlinejoin
0 setlinecap
newpath
0.0000000 0.0000000 moveto
5.0000000 -5.0000000 lineto
-12.500000 0.0000000 lineto
5.0000000 5.0000000 lineto
0.0000000 0.0000000 lineto
closepath
stroke
0.0000000 0.0000000 0.0000000 setrgbcolor
[] 0 setdash
1.5000000 setlinewidth
0 setlinejoin
0 setlinecap
newpath
-14.759949 -7.0000000 moveto
-14.759949 65.000000 lineto
stroke
grestore
0.0000000 0.0000000 0.0000000 setrgbcolor
newpath
54.274281 27.796415 moveto
54.274276 28.678578 54.033391 29.308460 53.551624 29.686064 curveto
53.121934 30.024606 52.452989 30.193876 51.544788 30.193876 curveto
51.281115 30.193876 51.041858 30.148303 50.827015 30.057158 curveto
50.547066 29.933460 50.407093 29.756051 50.407093 29.524931 curveto
50.407093 29.417510 50.444527 29.327992 50.519398 29.256376 curveto
50.594267 29.181507 50.687040 29.144073 50.797718 29.144072 curveto
51.022326 29.144073 51.258329 29.253122 51.505726 29.471220 curveto
51.756375 29.689319 52.005398 29.798369 52.252796 29.798368 curveto
53.128444 29.798369 53.566269 29.184763 53.566273 27.957548 curveto
53.566269 27.622264 53.483261 27.306509 53.317249 27.010283 curveto
53.121934 26.661979 52.868028 26.487825 52.555531 26.487822 curveto
52.226752 26.487825 51.880073 26.580599 51.515491 26.766142 curveto
51.422718 26.517118 lineto
51.705919 26.438997 52.044461 26.220898 52.438343 25.862822 curveto
52.864772 25.475456 53.077988 25.153191 53.077991 24.896025 curveto
53.077988 24.596551 52.964056 24.337762 52.736195 24.119658 curveto
52.508328 23.901565 52.244656 23.792515 51.945179 23.792509 curveto
51.587104 23.792515 51.106962 24.078973 50.504749 24.651884 curveto
50.353382 24.588408 lineto
50.682157 24.087111 50.962105 23.738805 51.193226 23.543486 curveto
51.538276 23.260289 51.951687 23.118688 52.433460 23.118681 curveto
52.846869 23.118688 53.201686 23.248896 53.497913 23.509306 curveto
53.810410 23.782750 53.966659 24.122919 53.966663 24.529814 curveto
53.966659 24.878126 53.859238 25.167840 53.644398 25.398954 curveto
53.501165 25.555209 53.240749 25.734245 52.863148 25.936064 curveto
53.305853 25.965365 53.659043 26.176953 53.922718 26.570829 curveto
54.157089 26.922395 54.274276 27.330923 54.274281 27.796415 curveto
fill
0.0000000 0.0000000 0.0000000 setrgbcolor
newpath
59.274281 26.585478 moveto
59.274276 27.376496 59.106633 28.125193 58.771351 28.831572 curveto
58.354680 29.713733 57.793157 30.154814 57.086781 30.154814 curveto
56.354357 30.154814 55.784696 29.720244 55.377796 28.851103 curveto
55.058785 28.170766 54.899280 27.415559 54.899281 26.585478 curveto
54.899280 25.794467 55.066923 25.045769 55.402210 24.339384 curveto
55.818876 23.460484 56.380398 23.021032 57.086781 23.021025 curveto
57.819199 23.021032 58.387232 23.453974 58.790882 24.319853 curveto
59.113143 25.003452 59.274276 25.758659 59.274281 26.585478 curveto
58.556507 26.805204 moveto
58.556503 24.464715 58.066595 23.294469 57.086781 23.294462 curveto
56.106961 23.294469 55.617053 24.319859 55.617054 26.370634 curveto
55.617053 28.707875 56.106961 29.876494 57.086781 29.876493 curveto
58.066595 29.876494 58.556503 28.852732 58.556507 26.805204 curveto
fill
0.0000000 0.0000000 0.0000000 setrgbcolor
newpath
fill
0.0000000 0.0000000 0.0000000 setrgbcolor
newpath
67.018421 28.909697 moveto
66.614772 29.769072 65.975124 30.198759 65.099476 30.198759 curveto
64.536323 30.198759 64.059436 29.972522 63.668812 29.520048 curveto
63.294463 29.087106 63.107288 28.584177 63.107288 28.011259 curveto
63.107288 27.295116 63.354684 26.704296 63.849476 26.238798 curveto
64.334501 25.783073 64.938341 25.555209 65.660999 25.555204 curveto
65.875840 25.555209 66.126491 25.621941 66.412952 25.755400 curveto
66.741725 25.901888 66.906113 26.059766 66.906116 26.229033 curveto
66.906113 26.538281 66.759628 26.692903 66.466663 26.692900 curveto
66.284368 26.692903 66.165553 26.619661 66.110218 26.473173 curveto
66.058132 26.336458 66.007676 26.199740 65.958851 26.063017 curveto
65.851426 25.913282 65.644721 25.838412 65.338734 25.838408 curveto
64.847195 25.838412 64.463081 26.061393 64.186390 26.507353 curveto
63.955269 26.884960 63.839709 27.335806 63.839710 27.859892 curveto
63.839709 28.296092 63.992704 28.702992 64.298695 29.080595 curveto
64.624214 29.480986 64.998562 29.681181 65.421741 29.681181 curveto
66.030462 29.681181 66.495957 29.406117 66.818226 28.855986 curveto
66.951686 28.852732 67.018417 28.870635 67.018421 28.909697 curveto
fill
0.0000000 0.0000000 0.0000000 setrgbcolor
newpath
75.685413 30.110868 moveto
73.522327 30.110868 lineto
73.522327 29.891142 lineto
73.965029 29.891142 74.186383 29.671416 74.186390 29.231962 curveto
74.186390 27.010283 lineto
74.186383 26.733593 74.119652 26.491080 73.986195 26.282743 curveto
73.829938 26.041862 73.619978 25.921420 73.356312 25.921415 curveto
72.952661 25.921420 72.472518 26.124870 71.915882 26.531767 curveto
71.915882 29.471220 lineto
71.915878 29.738147 72.176294 29.871611 72.697132 29.871611 curveto
72.721546 30.110868 lineto
70.563343 30.110868 lineto
70.563343 29.891142 lineto
71.002793 29.891142 71.222519 29.671416 71.222523 29.231962 curveto
71.222523 27.010283 lineto
71.222519 26.730338 71.165553 26.489453 71.051624 26.287626 curveto
70.911647 26.043490 70.711452 25.921420 70.451038 25.921415 curveto
70.040880 25.921420 69.537950 26.141146 68.942249 26.580595 curveto
68.942249 29.368681 lineto
68.942248 29.687692 69.188016 29.861845 69.679554 29.891142 curveto
69.650257 30.110868 lineto
67.584827 30.110868 lineto
67.565296 30.071806 lineto
67.594593 29.920439 lineto
67.796416 29.920439 67.959176 29.837431 68.082874 29.671415 curveto
68.196806 29.518421 68.253772 29.337757 68.253773 29.129423 curveto
68.253773 26.438993 lineto
68.253772 26.321810 68.152861 26.229036 67.951038 26.160673 curveto
67.924996 26.150911 67.772002 26.115104 67.492054 26.053251 curveto
67.492054 25.931181 lineto
67.524606 25.895378 67.565296 25.869336 67.614124 25.853056 curveto
67.871285 25.765170 68.255400 25.607292 68.766468 25.379423 curveto
68.942249 25.511259 lineto
68.942249 26.390165 lineto
69.883002 25.784701 70.532416 25.481967 70.890491 25.481962 curveto
71.108587 25.481967 71.312037 25.582878 71.500843 25.784697 curveto
71.660344 25.957227 71.775904 26.159049 71.847523 26.390165 curveto
72.788273 25.784701 73.437686 25.481967 73.795765 25.481962 curveto
74.144066 25.481967 74.422386 25.643099 74.630726 25.965361 curveto
74.813010 26.245312 74.904156 26.567578 74.904163 26.932158 curveto
74.904163 29.471220 lineto
74.904156 29.738147 75.154807 29.871611 75.656116 29.871611 curveto
75.685413 30.110868 lineto
fill
0.0000000 0.0000000 0.0000000 setrgbcolor
newpath
77.120895 68.463905 moveto
75.412888 68.463905 lineto
75.412888 68.361366 lineto
75.826949 68.361366 76.033980 68.194374 76.033981 67.860390 curveto
76.033981 64.766640 lineto
75.928512 64.829143 75.824020 64.891643 75.720505 64.954140 curveto
75.595504 65.024456 75.485153 65.072307 75.389450 65.097694 curveto
75.333786 64.968788 lineto
75.726363 64.773479 76.063277 64.535198 76.344528 64.253944 curveto
76.520309 64.253944 lineto
76.520309 67.860390 lineto
76.520308 68.061562 76.572066 68.198281 76.675583 68.270546 curveto
76.759565 68.331093 76.908003 68.361366 77.120895 68.361366 curveto
77.120895 68.463905 lineto
fill
0.0000000 0.0000000 0.0000000 setrgbcolor
newpath
80.381638 66.351601 moveto
80.381635 66.826212 80.281049 67.275430 80.079880 67.699257 curveto
79.829877 68.228554 79.492964 68.493202 79.069138 68.493202 curveto
78.629683 68.493202 78.287887 68.232460 78.043747 67.710976 curveto
77.852340 67.302774 77.756637 66.849649 77.756638 66.351601 curveto
77.756637 65.876994 77.857223 65.427776 78.058395 65.003944 curveto
78.308395 64.476605 78.645308 64.212933 79.069138 64.212929 curveto
79.508589 64.212933 79.849409 64.472698 80.091599 64.992226 curveto
80.284955 65.402385 80.381635 65.855510 80.381638 66.351601 curveto
79.950974 66.483437 moveto
79.950971 65.079143 79.657026 64.376995 79.069138 64.376991 curveto
78.481246 64.376995 78.187301 64.992229 78.187302 66.222694 curveto
78.187301 67.625039 78.481246 68.326210 79.069138 68.326210 curveto
79.657026 68.326210 79.950971 67.711953 79.950974 66.483437 curveto
fill
0.0000000 0.0000000 0.0000000 setrgbcolor
newpath
fill
0.0000000 0.0000000 0.0000000 setrgbcolor
newpath
85.028122 67.746132 moveto
84.785932 68.261757 84.402144 68.519569 83.876755 68.519569 curveto
83.538863 68.519569 83.252731 68.383827 83.018356 68.112343 curveto
82.793747 67.852578 82.681442 67.550820 82.681442 67.207069 curveto
82.681442 66.777384 82.829880 66.422892 83.126755 66.143593 curveto
83.417770 65.870158 83.780074 65.733439 84.213669 65.733437 curveto
84.342573 65.733439 84.492964 65.773478 84.664841 65.853554 curveto
84.862104 65.941447 84.960737 66.036173 84.960739 66.137733 curveto
84.960737 66.323282 84.872846 66.416056 84.697067 66.416054 curveto
84.587690 66.416056 84.516401 66.372111 84.483200 66.284218 curveto
84.451948 66.202189 84.421675 66.120158 84.392380 66.038124 curveto
84.327925 65.948283 84.203902 65.903361 84.020309 65.903358 curveto
83.725386 65.903361 83.494918 66.037150 83.328903 66.304726 curveto
83.190231 66.531290 83.120895 66.801798 83.120895 67.116249 curveto
83.120895 67.377969 83.212692 67.622109 83.396286 67.848671 curveto
83.591598 68.088906 83.816207 68.209023 84.070114 68.209023 curveto
84.435347 68.209023 84.714643 68.043984 84.908005 67.713905 curveto
84.988081 67.711953 85.028120 67.722695 85.028122 67.746132 curveto
fill
0.0000000 0.0000000 0.0000000 setrgbcolor
newpath
90.228317 68.466835 moveto
88.930466 68.466835 lineto
88.930466 68.334999 lineto
89.196087 68.334999 89.328899 68.203163 89.328903 67.939491 curveto
89.328903 66.606483 lineto
89.328899 66.440470 89.288860 66.294962 89.208786 66.169960 curveto
89.115032 66.025431 88.989056 65.953166 88.830856 65.953163 curveto
88.588666 65.953166 88.300580 66.075236 87.966599 66.319374 curveto
87.966599 68.083046 lineto
87.966596 68.243202 88.122846 68.323280 88.435349 68.323280 curveto
88.449997 68.466835 lineto
87.155075 68.466835 lineto
87.155075 68.334999 lineto
87.418745 68.334999 87.550581 68.203163 87.550583 67.939491 curveto
87.550583 66.606483 lineto
87.550581 66.438517 87.516401 66.293986 87.448044 66.172890 curveto
87.364057 66.026408 87.243940 65.953166 87.087692 65.953163 curveto
86.841597 65.953166 86.539839 66.085001 86.182419 66.348671 curveto
86.182419 68.021523 lineto
86.182418 68.212929 86.329879 68.317421 86.624802 68.334999 curveto
86.607224 68.466835 lineto
85.367966 68.466835 lineto
85.356247 68.443398 lineto
85.373825 68.352577 lineto
85.494919 68.352577 85.592575 68.302773 85.666794 68.203163 curveto
85.735153 68.111367 85.769332 68.002968 85.769333 67.877968 curveto
85.769333 66.263710 lineto
85.769332 66.193400 85.708786 66.137736 85.587692 66.096718 curveto
85.572067 66.090861 85.480270 66.069376 85.312302 66.032265 curveto
85.312302 65.959023 lineto
85.331833 65.937541 85.356247 65.921916 85.385544 65.912148 curveto
85.539840 65.859416 85.770309 65.764689 86.076950 65.627968 curveto
86.182419 65.707069 lineto
86.182419 66.234413 lineto
86.746871 65.871134 87.136519 65.689494 87.351364 65.689491 curveto
87.482221 65.689494 87.604292 65.750041 87.717575 65.871132 curveto
87.813276 65.974650 87.882612 66.095744 87.925583 66.234413 curveto
88.490033 65.871134 88.879681 65.689494 89.094528 65.689491 curveto
89.303509 65.689494 89.470501 65.786174 89.595505 65.979530 curveto
89.704875 66.147501 89.759563 66.340861 89.759567 66.559608 curveto
89.759567 68.083046 lineto
89.759563 68.243202 89.909953 68.323280 90.210739 68.323280 curveto
90.228317 68.466835 lineto
fill
0.0000000 0.0000000 0.0000000 setrgbcolor
newpath
80.895882 76.253181 moveto
80.407600 76.712166 lineto
80.303430 76.249933 79.974654 76.018813 79.421272 76.018806 curveto
79.102259 76.018813 78.815801 76.114842 78.561897 76.306892 curveto
78.288458 76.515232 78.151739 76.775648 78.151741 77.088142 curveto
78.151741 78.245369 lineto
79.299202 78.245369 lineto
79.299202 78.616463 lineto
78.151741 78.616463 lineto
78.151741 81.848885 lineto
78.151739 82.265552 78.381231 82.473885 78.840218 82.473885 curveto
78.876023 82.473885 78.928106 82.473885 78.996468 82.473885 curveto
79.064824 82.470630 79.115280 82.469002 79.147835 82.469002 curveto
79.147835 82.688728 lineto
76.769905 82.688728 lineto
76.745491 82.547127 lineto
77.012418 82.465747 77.170295 82.412036 77.219124 82.385994 curveto
77.381883 82.298104 77.463263 82.166268 77.463264 81.990486 curveto
77.463264 78.616463 lineto
77.372118 78.626232 77.087287 78.603446 76.608772 78.548103 curveto
76.608772 78.357674 lineto
77.012418 78.357678 77.246792 78.320243 77.311897 78.245369 curveto
77.463264 78.245369 lineto
77.463264 78.098885 lineto
77.463263 77.574801 77.520230 77.197197 77.634163 76.966072 curveto
77.722052 76.793552 77.956427 76.523370 78.337288 76.155525 curveto
78.669317 75.836522 79.147832 75.677017 79.772835 75.677010 curveto
80.108118 75.677017 80.482466 75.869074 80.895882 76.253181 curveto
fill
0.0000000 0.0000000 0.0000000 setrgbcolor
[1.4173229 2.8346457] 0.0000000 setdash
0.35433072 setlinewidth
0 setlinejoin
0 setlinecap
newpath
121.10144 19.121238 moveto
65.291346 60.924938 lineto
stroke
0.0000000 0.0000000 0.0000000 setrgbcolor
[] 0 setdash
0.26758531 setlinewidth
0 setlinejoin
0 setlinecap
newpath
90.288113 70.837156 moveto
75.418308 70.837156 lineto
stroke
gsave [-0.16055118 1.9661200e-17 -1.9661200e-17 -0.16055118 89.003704 70.837156] concat
0.0000000 0.0000000 0.0000000 setrgbcolor
newpath
0.0000000 0.0000000 moveto
5.0000000 -5.0000000 lineto
-12.500000 0.0000000 lineto
5.0000000 5.0000000 lineto
0.0000000 0.0000000 lineto
closepath
eofill
0.0000000 0.0000000 0.0000000 setrgbcolor
[] 0 setdash
1.2500000 setlinewidth
0 setlinejoin
0 setlinecap
newpath
0.0000000 0.0000000 moveto
5.0000000 -5.0000000 lineto
-12.500000 0.0000000 lineto
5.0000000 5.0000000 lineto
0.0000000 0.0000000 lineto
closepath
stroke
0.0000000 0.0000000 0.0000000 setrgbcolor
[] 0 setdash
1.5000000 setlinewidth
0 setlinejoin
0 setlinecap
newpath
-14.759949 -7.0000000 moveto
-14.759949 65.000000 lineto
stroke
grestore
gsave [0.16055118 -1.9661200e-17 -1.9661200e-17 -0.16055118 76.702717 70.837156] concat
0.0000000 0.0000000 0.0000000 setrgbcolor
newpath
0.0000000 0.0000000 moveto
5.0000000 -5.0000000 lineto
-12.500000 0.0000000 lineto
5.0000000 5.0000000 lineto
0.0000000 0.0000000 lineto
closepath
eofill
0.0000000 0.0000000 0.0000000 setrgbcolor
[] 0 setdash
1.2500000 setlinewidth
0 setlinejoin
0 setlinecap
newpath
0.0000000 0.0000000 moveto
5.0000000 -5.0000000 lineto
-12.500000 0.0000000 lineto
5.0000000 5.0000000 lineto
0.0000000 0.0000000 lineto
closepath
stroke
0.0000000 0.0000000 0.0000000 setrgbcolor
[] 0 setdash
1.5000000 setlinewidth
0 setlinejoin
0 setlinecap
newpath
-14.759949 -7.0000000 moveto
-14.759949 65.000000 lineto
stroke
grestore
grestore
showpage
