%!PS-Adobe-2.0
%%Creator: inkscape 0.41.1
%%Pages: 1
%%Orientation: Portrait
%%BoundingBox: 12 747 152 813
%%HiResBoundingBox: 12.299988 747.55975 151.83479 812.22491
%%EndComments
%%Page: 1 1
0 842 translate
0.80000000 -0.80000000 scale
gsave [1.0000000 0.0000000 0.0000000 1.0000000 0.0000000 0.0000000] concat
0.0000000 0.0000000 0.0000000 setrgbcolor
[] 0 setdash
0.35433072 setlinewidth
0 setlinejoin
0 setlinecap
newpath
25.329501 38.554156 moveto
16.746777 45.252867 lineto
25.120166 50.276900 lineto
stroke
0.0000000 0.0000000 0.0000000 setrgbcolor
[] 0 setdash
0.35433072 setlinewidth
0 setlinejoin
0 setlinecap
newpath
23.654823 39.810164 moveto
23.654823 39.810164 27.632182 45.043532 23.864158 49.439561 curveto
stroke
0.0000000 0.0000000 0.0000000 setrgbcolor
[1.4173229 2.8346457] 0.0000000 setdash
0.35433072 setlinewidth
0 setlinejoin
0 setlinecap
newpath
15.552150 45.360439 moveto
190.51384 45.360439 189.21783 45.360439 189.21783 45.360439 curveto
stroke
0.0000000 0.0000000 0.0000000 setrgbcolor
[] 0 setdash
0.35433072 setlinewidth
0 setlinejoin
0 setlinecap
newpath
100.27133 38.344821 moveto
97.131308 38.344821 lineto
97.131308 51.951578 lineto
100.27133 51.951578 lineto
stroke
0.0000000 0.0000000 0.0000000 setrgbcolor
[] 0 setdash
1.0000000 setlinewidth
0 setlinejoin
0 setlinecap
newpath
97.131308 45.462202 moveto
188.40124 45.462202 lineto
stroke
0.0000000 0.0000000 0.0000000 setrgbcolor
newpath
141.63335 42.950188 moveto
139.43120 42.950188 lineto
139.43120 42.730461 lineto
139.88041 42.730461 140.10502 42.510735 140.10503 42.071281 curveto
140.10503 39.849602 lineto
140.10502 39.566402 140.04643 39.323889 139.92924 39.122063 curveto
139.78601 38.881181 139.58256 38.760739 139.31889 38.760735 curveto
138.89897 38.760739 138.38465 38.980465 137.77592 39.419914 curveto
137.77592 42.208000 lineto
137.77592 42.527011 138.02657 42.701164 138.52788 42.730461 curveto
138.49858 42.950188 lineto
136.38921 42.950188 lineto
136.36967 42.911125 lineto
136.39897 42.759758 lineto
136.60405 42.759758 136.77006 42.676750 136.89702 42.510735 curveto
137.01421 42.360996 137.07280 42.180332 137.07280 41.968742 curveto
137.07280 39.278313 lineto
137.07280 39.161129 136.97026 39.068356 136.76518 38.999992 curveto
136.73914 38.990231 136.58289 38.954423 136.29643 38.892570 curveto
136.29643 38.770500 lineto
136.44292 38.750973 136.67566 38.672848 136.99467 38.536125 curveto
137.29415 38.405921 137.49435 38.300127 137.59526 38.218742 curveto
137.77592 38.350578 lineto
137.77592 39.229485 lineto
138.73621 38.624020 139.39864 38.321286 139.76323 38.321281 curveto
140.11804 38.321286 140.39311 38.482419 140.58842 38.804680 curveto
140.75444 39.074866 140.83744 39.397131 140.83745 39.771477 curveto
140.83745 42.310539 lineto
140.83744 42.577467 141.09298 42.710930 141.60405 42.710930 curveto
141.63335 42.950188 lineto
fill
0.0000000 0.0000000 0.0000000 setrgbcolor
newpath
145.72514 41.749016 moveto
145.32149 42.608391 144.68185 43.038078 143.80620 43.038078 curveto
143.24305 43.038078 142.76779 42.792310 142.38042 42.300774 curveto
142.01909 41.841790 141.83842 41.324213 141.83842 40.748039 curveto
141.83842 40.093745 142.02397 39.543616 142.39507 39.097649 curveto
142.79220 38.622393 143.31140 38.384763 143.95268 38.384758 curveto
144.46375 38.384763 144.87716 38.539385 145.19292 38.848625 curveto
145.51192 39.157874 145.67143 39.569657 145.67143 40.083977 curveto
142.51714 40.083977 lineto
142.50086 40.220698 142.49272 40.360672 142.49272 40.503899 curveto
142.49272 40.988927 142.64083 41.434890 142.93706 41.841789 curveto
143.26258 42.294264 143.65971 42.520501 144.12846 42.520500 curveto
144.74044 42.520501 145.20593 42.245436 145.52495 41.695305 curveto
145.56401 41.695305 lineto
145.63562 41.692051 145.68933 41.709955 145.72514 41.749016 curveto
144.92436 39.805656 moveto
144.91134 39.473629 144.79578 39.203447 144.57768 38.995110 curveto
144.35958 38.783525 144.08289 38.677731 143.74760 38.677727 curveto
143.47091 38.677731 143.22514 38.799801 143.01030 39.043938 curveto
142.82150 39.258785 142.69292 39.512691 142.62456 39.805656 curveto
144.92436 39.805656 lineto
fill
0.0000000 0.0000000 0.0000000 setrgbcolor
newpath
149.00639 42.090813 moveto
148.71668 42.663730 148.31791 42.950188 147.81010 42.950188 curveto
147.50737 42.950188 147.25346 42.857414 147.04839 42.671867 curveto
146.83354 42.476555 146.72612 42.229160 146.72612 41.929680 curveto
146.72612 38.868156 lineto
146.25249 38.868156 lineto
146.17924 38.628899 lineto
146.53406 38.495440 146.79285 38.295244 146.95561 38.028313 curveto
147.07605 37.833005 147.18348 37.517250 147.27788 37.081047 curveto
147.44878 37.081047 lineto
147.44878 38.482414 lineto
149.00639 38.482414 lineto
148.80132 38.868156 lineto
147.44878 38.868156 lineto
147.44878 41.631828 lineto
147.44877 41.801100 147.53667 41.983392 147.71245 42.178703 curveto
147.88823 42.374016 148.06075 42.471673 148.23003 42.471672 curveto
148.34396 42.471673 148.48556 42.382154 148.65483 42.203117 curveto
148.82735 42.020827 148.91362 41.929681 148.91362 41.929680 curveto
148.97872 41.929681 149.00965 41.983392 149.00639 42.090813 curveto
fill
0.0000000 0.0000000 0.0000000 setrgbcolor
[] 0 setdash
0.34431064 setlinewidth
0 setlinejoin
0 setlinecap
newpath
95.675843 59.068958 moveto
25.110288 59.068958 25.110288 59.068958 25.110288 59.068958 curveto
stroke
gsave [-0.20658638 2.5298700e-17 -2.5298700e-17 -0.20658638 94.023152 59.068958] concat
0.0000000 0.0000000 0.0000000 setrgbcolor
newpath
0.0000000 0.0000000 moveto
5.0000000 -5.0000000 lineto
-12.500000 0.0000000 lineto
5.0000000 5.0000000 lineto
0.0000000 0.0000000 lineto
closepath
eofill
0.0000000 0.0000000 0.0000000 setrgbcolor
[] 0 setdash
1.2500000 setlinewidth
0 setlinejoin
0 setlinecap
newpath
0.0000000 0.0000000 moveto
5.0000000 -5.0000000 lineto
-12.500000 0.0000000 lineto
5.0000000 5.0000000 lineto
0.0000000 0.0000000 lineto
closepath
stroke
0.0000000 0.0000000 0.0000000 setrgbcolor
[] 0 setdash
1.5000000 setlinewidth
0 setlinejoin
0 setlinecap
newpath
-14.759949 -7.0000000 moveto
-14.759949 65.000000 lineto
stroke
grestore
gsave [0.20658638 -2.5298700e-17 -2.5298700e-17 -0.20658638 26.762979 59.068958] concat
0.0000000 0.0000000 0.0000000 setrgbcolor
newpath
0.0000000 0.0000000 moveto
5.0000000 -5.0000000 lineto
-12.500000 0.0000000 lineto
5.0000000 5.0000000 lineto
0.0000000 0.0000000 lineto
closepath
eofill
0.0000000 0.0000000 0.0000000 setrgbcolor
[] 0 setdash
1.2500000 setlinewidth
0 setlinejoin
0 setlinecap
newpath
0.0000000 0.0000000 moveto
5.0000000 -5.0000000 lineto
-12.500000 0.0000000 lineto
5.0000000 5.0000000 lineto
0.0000000 0.0000000 lineto
closepath
stroke
0.0000000 0.0000000 0.0000000 setrgbcolor
[] 0 setdash
1.5000000 setlinewidth
0 setlinejoin
0 setlinecap
newpath
-14.759949 -7.0000000 moveto
-14.759949 65.000000 lineto
stroke
grestore
0.0000000 0.0000000 0.0000000 setrgbcolor
newpath
52.539009 56.133389 moveto
49.692329 56.133389 lineto
49.692329 55.962490 lineto
50.382432 55.962490 50.727484 55.684170 50.727486 55.127529 curveto
50.727486 49.971279 lineto
50.551703 50.075452 50.377549 50.179618 50.205025 50.283779 curveto
49.996690 50.400972 49.812771 50.480725 49.653267 50.523037 curveto
49.560493 50.308193 lineto
50.214789 49.982679 50.776312 49.585544 51.245064 49.116787 curveto
51.538033 49.116787 lineto
51.538033 55.127529 lineto
51.538030 55.462816 51.624293 55.690681 51.796822 55.811123 curveto
51.936793 55.912035 52.184188 55.962490 52.539009 55.962490 curveto
52.539009 56.133389 lineto
fill
0.0000000 0.0000000 0.0000000 setrgbcolor
newpath
55.029243 56.123623 moveto
55.029242 55.863207 54.964138 55.641853 54.833931 55.459560 curveto
54.690700 55.251228 54.493760 55.147061 54.243111 55.147060 curveto
54.070584 55.147061 53.919217 55.192634 53.789009 55.283779 curveto
53.649035 55.384691 53.579048 55.518155 53.579048 55.684170 curveto
53.579048 55.824144 53.618110 55.944587 53.696236 56.045498 curveto
53.784126 56.159430 53.893175 56.216396 54.023384 56.216396 curveto
54.062446 56.216396 54.116157 56.209886 54.184517 56.196865 curveto
54.256130 56.187099 54.309841 56.182217 54.345650 56.182217 curveto
54.479112 56.182217 54.545844 56.273362 54.545845 56.455654 curveto
54.545844 56.924403 54.261013 57.308518 53.691353 57.607998 curveto
53.727160 57.725184 53.761339 57.783777 53.793892 57.783779 curveto
53.855740 57.783777 53.969672 57.726811 54.135689 57.612881 curveto
54.288682 57.508713 54.389594 57.427333 54.438423 57.368740 curveto
54.656521 57.105067 54.796494 56.916265 54.858345 56.802334 curveto
54.972276 56.600510 55.029242 56.374274 55.029243 56.123623 curveto
fill
0.0000000 0.0000000 0.0000000 setrgbcolor
newpath
60.205025 53.809170 moveto
60.205020 54.512296 59.942976 55.107999 59.418892 55.596279 curveto
58.907821 56.071540 58.297470 56.309170 57.587837 56.309170 curveto
57.262315 56.309170 56.964464 56.252204 56.694283 56.138271 curveto
56.339464 55.991787 56.162056 55.780199 56.162056 55.503506 curveto
56.162056 55.389574 56.199491 55.293546 56.274361 55.215420 curveto
56.352485 55.137296 56.448514 55.098233 56.562447 55.098232 curveto
56.614529 55.098233 56.705675 55.169848 56.835884 55.313076 curveto
57.005154 55.505134 57.143500 55.640225 57.250923 55.718349 curveto
57.446234 55.864834 57.651312 55.938076 57.866158 55.938076 curveto
58.266546 55.938076 58.639267 55.677660 58.984322 55.156826 curveto
59.296818 54.684822 59.453068 54.237232 59.453072 53.814053 curveto
59.453068 53.368092 59.280542 52.956308 58.935493 52.578701 curveto
58.583928 52.188080 58.186793 51.992768 57.744087 51.992764 curveto
57.555283 51.992768 57.338812 52.067637 57.094673 52.217373 curveto
57.006781 52.272715 56.798448 52.422455 56.469673 52.666592 curveto
57.031197 49.214443 lineto
59.453072 49.214443 lineto
59.602807 49.214450 59.695581 49.126560 59.731392 48.950771 curveto
59.916939 49.009365 lineto
59.609322 49.912685 lineto
57.309517 49.912685 lineto
56.997017 51.807217 lineto
57.306260 51.579357 57.721299 51.465424 58.242134 51.465420 curveto
58.841089 51.465424 59.326115 51.711192 59.697212 52.202724 curveto
60.035750 52.651947 60.205020 53.187428 60.205025 53.809170 curveto
fill
0.0000000 0.0000000 0.0000000 setrgbcolor
newpath
fill
0.0000000 0.0000000 0.0000000 setrgbcolor
newpath
71.787056 56.138271 moveto
69.623970 56.138271 lineto
69.623970 55.918545 lineto
70.066672 55.918545 70.288026 55.698819 70.288033 55.259365 curveto
70.288033 53.037685 lineto
70.288026 52.760996 70.221294 52.518483 70.087837 52.310146 curveto
69.931581 52.069265 69.721620 51.948822 69.457954 51.948818 curveto
69.054303 51.948822 68.574160 52.152273 68.017525 52.559170 curveto
68.017525 55.498623 lineto
68.017520 55.765550 68.277937 55.899014 68.798775 55.899014 curveto
68.823189 56.138271 lineto
66.664986 56.138271 lineto
66.664986 55.918545 lineto
67.104435 55.918545 67.324162 55.698819 67.324165 55.259365 curveto
67.324165 53.037685 lineto
67.324162 52.757741 67.267196 52.516856 67.153267 52.315029 curveto
67.013290 52.070893 66.813094 51.948822 66.552681 51.948818 curveto
66.142522 51.948822 65.639593 52.168549 65.043892 52.607998 curveto
65.043892 55.396084 lineto
65.043890 55.715095 65.289658 55.889248 65.781197 55.918545 curveto
65.751900 56.138271 lineto
63.686470 56.138271 lineto
63.666939 56.099209 lineto
63.696236 55.947842 lineto
63.898058 55.947842 64.060819 55.864834 64.184517 55.698818 curveto
64.298449 55.545824 64.355415 55.365160 64.355415 55.156826 curveto
64.355415 52.466396 lineto
64.355415 52.349213 64.254503 52.256439 64.052681 52.188076 curveto
64.026639 52.178314 63.873644 52.142507 63.593697 52.080654 curveto
63.593697 51.958584 lineto
63.626249 51.922781 63.666939 51.896739 63.715767 51.880459 curveto
63.972928 51.792573 64.357042 51.634695 64.868111 51.406826 curveto
65.043892 51.538662 lineto
65.043892 52.417568 lineto
65.984645 51.812104 66.634058 51.509370 66.992134 51.509365 curveto
67.210229 51.509370 67.413680 51.610281 67.602486 51.812099 curveto
67.761987 51.984630 67.877547 52.186452 67.949165 52.417568 curveto
68.889915 51.812104 69.539329 51.509370 69.897408 51.509365 curveto
70.245708 51.509370 70.524028 51.670502 70.732368 51.992764 curveto
70.914653 52.272715 71.005799 52.594981 71.005806 52.959560 curveto
71.005806 55.498623 lineto
71.005799 55.765550 71.256449 55.899014 71.757759 55.899014 curveto
71.787056 56.138271 lineto
fill
gsave [1.0000000 0.0000000 0.0000000 1.0000000 0.39821300 43.770920] concat
0.0000000 0.0000000 0.0000000 setrgbcolor
[] 0 setdash
0.35433072 setlinewidth
0 setlinejoin
0 setlinecap
newpath
25.329501 38.554156 moveto
16.746777 45.252867 lineto
25.120166 50.276900 lineto
stroke
0.0000000 0.0000000 0.0000000 setrgbcolor
[] 0 setdash
0.35433072 setlinewidth
0 setlinejoin
0 setlinecap
newpath
23.654823 39.810164 moveto
23.654823 39.810164 27.632182 45.043532 23.864158 49.439561 curveto
stroke
grestore
0.0000000 0.0000000 0.0000000 setrgbcolor
[1.4173229 2.8346457] 0.0000000 setdash
0.35433072 setlinewidth
0 setlinejoin
0 setlinecap
newpath
15.950367 89.131359 moveto
190.91205 89.131359 189.61604 89.131359 189.61604 89.131359 curveto
stroke
0.0000000 0.0000000 0.0000000 setrgbcolor
[] 0 setdash
0.35433072 setlinewidth
0 setlinejoin
0 setlinecap
newpath
100.66955 82.115744 moveto
97.529525 82.115744 lineto
97.529525 95.722499 lineto
100.66955 95.722499 lineto
stroke
0.0000000 0.0000000 0.0000000 setrgbcolor
[] 0 setdash
1.1934248 setlinewidth
0 setlinejoin
0 setlinecap
newpath
58.595519 89.233129 moveto
188.58787 89.233129 lineto
stroke
0.0000000 0.0000000 0.0000000 setrgbcolor
newpath
142.03156 86.721107 moveto
139.82941 86.721107 lineto
139.82941 86.501381 lineto
140.27862 86.501381 140.50323 86.281655 140.50323 85.842201 curveto
140.50323 83.620522 lineto
140.50323 83.337322 140.44464 83.094809 140.32745 82.892982 curveto
140.18422 82.652101 139.98077 82.531659 139.71710 82.531654 curveto
139.29718 82.531659 138.78286 82.751385 138.17413 83.190834 curveto
138.17413 85.978920 lineto
138.17413 86.297931 138.42478 86.472084 138.92609 86.501381 curveto
138.89679 86.721107 lineto
136.78741 86.721107 lineto
136.76788 86.682045 lineto
136.79718 86.530678 lineto
137.00226 86.530678 137.16827 86.447670 137.29523 86.281654 curveto
137.41241 86.131915 137.47101 85.951251 137.47101 85.739662 curveto
137.47101 83.049232 lineto
137.47101 82.932049 137.36847 82.839275 137.16339 82.770912 curveto
137.13735 82.761151 136.98110 82.725343 136.69464 82.663490 curveto
136.69464 82.541420 lineto
136.84113 82.521893 137.07387 82.443768 137.39288 82.307045 curveto
137.69236 82.176841 137.89256 82.071047 137.99347 81.989662 curveto
138.17413 82.121498 lineto
138.17413 83.000404 lineto
139.13442 82.394940 139.79685 82.092206 140.16144 82.092201 curveto
140.51625 82.092206 140.79132 82.253339 140.98663 82.575600 curveto
141.15264 82.845786 141.23565 83.168051 141.23566 83.542397 curveto
141.23566 86.081459 lineto
141.23565 86.348387 141.49119 86.481850 142.00226 86.481850 curveto
142.03156 86.721107 lineto
fill
0.0000000 0.0000000 0.0000000 setrgbcolor
newpath
146.12335 85.519936 moveto
145.71970 86.379311 145.08005 86.808998 144.20441 86.808998 curveto
143.64125 86.808998 143.16599 86.563230 142.77863 86.071693 curveto
142.41730 85.612710 142.23663 85.095133 142.23663 84.518959 curveto
142.23663 83.864665 142.42218 83.314535 142.79327 82.868568 curveto
143.19041 82.393312 143.70961 82.155682 144.35089 82.155678 curveto
144.86196 82.155682 145.27537 82.310305 145.59113 82.619545 curveto
145.91013 82.928794 146.06964 83.340577 146.06964 83.854897 curveto
142.91534 83.854897 lineto
142.89907 83.991618 142.89093 84.131592 142.89093 84.274818 curveto
142.89093 84.759846 143.03904 85.205810 143.33527 85.612709 curveto
143.66079 86.065184 144.05792 86.291420 144.52667 86.291420 curveto
145.13865 86.291420 145.60414 86.016356 145.92316 85.466225 curveto
145.96222 85.466225 lineto
146.03383 85.462971 146.08754 85.480874 146.12335 85.519936 curveto
145.32257 83.576576 moveto
145.30955 83.244548 145.19399 82.974366 144.97589 82.766029 curveto
144.75779 82.554445 144.48110 82.448651 144.14581 82.448647 curveto
143.86912 82.448651 143.62335 82.570721 143.40851 82.814857 curveto
143.21971 83.029705 143.09112 83.283611 143.02277 83.576576 curveto
145.32257 83.576576 lineto
fill
0.0000000 0.0000000 0.0000000 setrgbcolor
newpath
149.40460 85.861732 moveto
149.11489 86.434649 148.71612 86.721107 148.20831 86.721107 curveto
147.90558 86.721107 147.65167 86.628334 147.44659 86.442787 curveto
147.23175 86.247475 147.12433 86.000080 147.12433 85.700600 curveto
147.12433 82.639076 lineto
146.65070 82.639076 lineto
146.57745 82.399818 lineto
146.93227 82.266359 147.19106 82.066164 147.35382 81.799232 curveto
147.47426 81.603925 147.58168 81.288170 147.67609 80.851967 curveto
147.84698 80.851967 lineto
147.84698 82.253334 lineto
149.40460 82.253334 lineto
149.19952 82.639076 lineto
147.84698 82.639076 lineto
147.84698 85.402748 lineto
147.84698 85.572020 147.93487 85.754312 148.11066 85.949623 curveto
148.28644 86.144936 148.45896 86.242592 148.62823 86.242592 curveto
148.74216 86.242592 148.88377 86.153074 149.05304 85.974037 curveto
149.22556 85.791746 149.31183 85.700601 149.31183 85.700600 curveto
149.37693 85.700601 149.40785 85.754312 149.40460 85.861732 curveto
fill
0.0000000 0.0000000 0.0000000 setrgbcolor
[] 0 setdash
0.35433072 setlinewidth
0 setlinejoin
0 setlinecap
newpath
62.067745 82.409777 moveto
58.927720 82.409777 lineto
58.927720 96.016537 lineto
62.067745 96.016537 lineto
stroke
0.0000000 0.0000000 0.0000000 setrgbcolor
[] 0 setdash
0.25000000 setlinewidth
0 setlinejoin
0 setlinecap
newpath
64.056422 78.118417 moveto
64.056422 78.118417 79.128522 62.836983 95.456630 78.327752 curveto
stroke
gsave [0.14044270 -0.14239329 0.14239329 0.14044270 64.056422 78.118417] concat
0.0000000 0.0000000 0.0000000 setrgbcolor
newpath
0.0000000 0.0000000 moveto
5.0000000 -5.0000000 lineto
-12.500000 0.0000000 lineto
5.0000000 5.0000000 lineto
0.0000000 0.0000000 lineto
closepath
eofill
0.0000000 0.0000000 0.0000000 setrgbcolor
[] 0 setdash
1.2500000 setlinewidth
0 setlinejoin
0 setlinecap
newpath
0.0000000 0.0000000 moveto
5.0000000 -5.0000000 lineto
-12.500000 0.0000000 lineto
5.0000000 5.0000000 lineto
0.0000000 0.0000000 lineto
closepath
stroke
grestore
gsave [-0.19950252 -0.18927162 0.18927162 -0.19950252 96.454143 79.274110] concat
0.0000000 0.0000000 0.0000000 setrgbcolor
newpath
8.7185878 4.0337352 moveto
-2.2072895 0.016013256 lineto
8.7185884 -4.0017078 lineto
6.9730900 -1.6296469 6.9831476 1.6157441 8.7185878 4.0337352 curveto
closepath
eofill
grestore
0.0000000 0.0000000 0.0000000 setrgbcolor
[] 0 setdash
0.50000000 setlinewidth
0 setlinejoin
0 setlinecap
newpath
28.888191 80.839769 moveto
28.888191 80.839769 24.492162 88.794488 29.097525 97.167876 curveto
stroke
0.0000000 0.0000000 0.0000000 setrgbcolor
[] 0 setdash
0.50000000 setlinewidth
0 setlinejoin
0 setlinecap
newpath
28.883591 80.839764 moveto
28.883591 80.839764 33.279620 88.794484 28.674257 97.167874 curveto
stroke
0.0000000 0.0000000 0.0000000 setrgbcolor
[] 0 setdash
0.33811414 setlinewidth
0 setlinejoin
0 setlinecap
newpath
57.373740 102.40124 moveto
25.732141 102.40124 lineto
stroke
gsave [-0.20286849 2.4843404e-17 -2.4843404e-17 -0.20286849 55.750792 102.40124] concat
0.0000000 0.0000000 0.0000000 setrgbcolor
newpath
0.0000000 0.0000000 moveto
5.0000000 -5.0000000 lineto
-12.500000 0.0000000 lineto
5.0000000 5.0000000 lineto
0.0000000 0.0000000 lineto
closepath
eofill
0.0000000 0.0000000 0.0000000 setrgbcolor
[] 0 setdash
1.2500000 setlinewidth
0 setlinejoin
0 setlinecap
newpath
0.0000000 0.0000000 moveto
5.0000000 -5.0000000 lineto
-12.500000 0.0000000 lineto
5.0000000 5.0000000 lineto
0.0000000 0.0000000 lineto
closepath
stroke
0.0000000 0.0000000 0.0000000 setrgbcolor
[] 0 setdash
1.5000000 setlinewidth
0 setlinejoin
0 setlinecap
newpath
-14.759949 -7.0000000 moveto
-14.759949 65.000000 lineto
stroke
grestore
gsave [0.20286849 -2.4843404e-17 -2.4843404e-17 -0.20286849 27.355089 102.40124] concat
0.0000000 0.0000000 0.0000000 setrgbcolor
newpath
0.0000000 0.0000000 moveto
5.0000000 -5.0000000 lineto
-12.500000 0.0000000 lineto
5.0000000 5.0000000 lineto
0.0000000 0.0000000 lineto
closepath
eofill
0.0000000 0.0000000 0.0000000 setrgbcolor
[] 0 setdash
1.2500000 setlinewidth
0 setlinejoin
0 setlinecap
newpath
0.0000000 0.0000000 moveto
5.0000000 -5.0000000 lineto
-12.500000 0.0000000 lineto
5.0000000 5.0000000 lineto
0.0000000 0.0000000 lineto
closepath
stroke
0.0000000 0.0000000 0.0000000 setrgbcolor
[] 0 setdash
1.5000000 setlinewidth
0 setlinejoin
0 setlinecap
newpath
-14.759949 -7.0000000 moveto
-14.759949 65.000000 lineto
stroke
grestore
0.0000000 0.0000000 0.0000000 setrgbcolor
[] 0 setdash
0.48379377 setlinewidth
0 setlinejoin
0 setlinecap
newpath
95.609931 108.05328 moveto
30.828237 108.05328 lineto
stroke
gsave [-0.29027626 3.5547415e-17 -3.5547415e-17 -0.29027626 93.287721 108.05328] concat
0.0000000 0.0000000 0.0000000 setrgbcolor
newpath
0.0000000 0.0000000 moveto
5.0000000 -5.0000000 lineto
-12.500000 0.0000000 lineto
5.0000000 5.0000000 lineto
0.0000000 0.0000000 lineto
closepath
eofill
0.0000000 0.0000000 0.0000000 setrgbcolor
[] 0 setdash
1.2500000 setlinewidth
0 setlinejoin
0 setlinecap
newpath
0.0000000 0.0000000 moveto
5.0000000 -5.0000000 lineto
-12.500000 0.0000000 lineto
5.0000000 5.0000000 lineto
0.0000000 0.0000000 lineto
closepath
stroke
0.0000000 0.0000000 0.0000000 setrgbcolor
[] 0 setdash
1.5000000 setlinewidth
0 setlinejoin
0 setlinecap
newpath
-14.759949 -7.0000000 moveto
-14.759949 65.000000 lineto
stroke
grestore
gsave [0.29027626 -3.5547415e-17 -3.5547415e-17 -0.29027626 33.150447 108.05328] concat
0.0000000 0.0000000 0.0000000 setrgbcolor
newpath
0.0000000 0.0000000 moveto
5.0000000 -5.0000000 lineto
-12.500000 0.0000000 lineto
5.0000000 5.0000000 lineto
0.0000000 0.0000000 lineto
closepath
eofill
0.0000000 0.0000000 0.0000000 setrgbcolor
[] 0 setdash
1.2500000 setlinewidth
0 setlinejoin
0 setlinecap
newpath
0.0000000 0.0000000 moveto
5.0000000 -5.0000000 lineto
-12.500000 0.0000000 lineto
5.0000000 5.0000000 lineto
0.0000000 0.0000000 lineto
closepath
stroke
0.0000000 0.0000000 0.0000000 setrgbcolor
[] 0 setdash
1.5000000 setlinewidth
0 setlinejoin
0 setlinecap
newpath
-14.759949 -7.0000000 moveto
-14.759949 65.000000 lineto
stroke
grestore
0.0000000 0.0000000 0.0000000 setrgbcolor
[] 0 setdash
0.31520560 setlinewidth
0 setlinejoin
0 setlinecap
newpath
30.210706 75.815733 moveto
57.709875 75.815733 lineto
stroke
gsave [0.18912336 0.0000000 0.0000000 0.18912336 31.723693 75.815733] concat
0.0000000 0.0000000 0.0000000 setrgbcolor
newpath
0.0000000 0.0000000 moveto
5.0000000 -5.0000000 lineto
-12.500000 0.0000000 lineto
5.0000000 5.0000000 lineto
0.0000000 0.0000000 lineto
closepath
eofill
0.0000000 0.0000000 0.0000000 setrgbcolor
[] 0 setdash
1.2500000 setlinewidth
0 setlinejoin
0 setlinecap
newpath
0.0000000 0.0000000 moveto
5.0000000 -5.0000000 lineto
-12.500000 0.0000000 lineto
5.0000000 5.0000000 lineto
0.0000000 0.0000000 lineto
closepath
stroke
0.0000000 0.0000000 0.0000000 setrgbcolor
[] 0 setdash
1.5000000 setlinewidth
0 setlinejoin
0 setlinecap
newpath
-14.759949 -7.0000000 moveto
-14.759949 65.000000 lineto
stroke
grestore
gsave [-0.18912336 -0.0000000 0.0000000 0.18912336 56.196888 75.815733] concat
0.0000000 0.0000000 0.0000000 setrgbcolor
newpath
0.0000000 0.0000000 moveto
5.0000000 -5.0000000 lineto
-12.500000 0.0000000 lineto
5.0000000 5.0000000 lineto
0.0000000 0.0000000 lineto
closepath
eofill
0.0000000 0.0000000 0.0000000 setrgbcolor
[] 0 setdash
1.2500000 setlinewidth
0 setlinejoin
0 setlinecap
newpath
0.0000000 0.0000000 moveto
5.0000000 -5.0000000 lineto
-12.500000 0.0000000 lineto
5.0000000 5.0000000 lineto
0.0000000 0.0000000 lineto
closepath
stroke
0.0000000 0.0000000 0.0000000 setrgbcolor
[] 0 setdash
1.5000000 setlinewidth
0 setlinejoin
0 setlinecap
newpath
-14.759949 -7.0000000 moveto
-14.759949 65.000000 lineto
stroke
grestore
0.0000000 0.0000000 0.0000000 setrgbcolor
newpath
36.204433 99.872261 moveto
36.204430 99.921741 36.089846 100.29283 35.860683 100.98554 curveto
32.591152 100.98554 lineto
32.516933 100.75507 lineto
34.256515 99.351429 35.126306 98.075389 35.126308 96.926949 curveto
35.126306 96.255078 34.821618 95.919141 34.212246 95.919136 curveto
33.535161 95.919141 33.019537 96.238151 32.665371 96.876167 curveto
32.493496 96.801949 lineto
32.634121 96.413932 32.873704 96.087110 33.212246 95.821480 curveto
33.569015 95.540235 33.946619 95.399610 34.345058 95.399605 curveto
34.712243 95.399610 35.020837 95.511589 35.270840 95.735542 curveto
35.531253 95.969922 35.661461 96.268099 35.661465 96.630074 curveto
35.661461 97.788931 34.876306 99.066273 33.305996 100.46210 curveto
35.442715 100.46210 lineto
35.585941 100.46211 35.722659 100.35143 35.852871 100.13007 curveto
35.983076 99.908720 36.042971 99.798043 36.032558 99.798042 curveto
36.053388 99.798043 36.083336 99.809762 36.122402 99.833199 curveto
36.161461 99.854033 36.188805 99.867054 36.204433 99.872261 curveto
fill
0.0000000 0.0000000 0.0000000 setrgbcolor
newpath
39.981777 99.122261 moveto
39.981774 99.684762 39.772139 100.16132 39.352871 100.55195 curveto
38.944014 100.93216 38.455734 101.12226 37.888027 101.12226 curveto
37.627609 101.12226 37.389328 101.07669 37.173183 100.98554 curveto
36.889329 100.86835 36.747402 100.69908 36.747402 100.47773 curveto
36.747402 100.38658 36.777350 100.30976 36.837246 100.24726 curveto
36.899746 100.18476 36.976568 100.15351 37.067715 100.15351 curveto
37.109381 100.15351 37.182297 100.21080 37.286465 100.32539 curveto
37.421880 100.47903 37.532557 100.58711 37.618496 100.64960 curveto
37.774745 100.76679 37.938807 100.82539 38.110683 100.82539 curveto
38.430994 100.82539 38.729171 100.61705 39.005215 100.20039 curveto
39.255212 99.822783 39.380212 99.464710 39.380215 99.126167 curveto
39.380212 98.769399 39.242191 98.439972 38.966152 98.137886 curveto
38.684900 97.825389 38.367192 97.669139 38.013027 97.669136 curveto
37.861984 97.669139 37.688807 97.729035 37.493496 97.848824 curveto
37.423183 97.893097 37.256516 98.012889 36.993496 98.208199 curveto
37.442715 95.446480 lineto
39.380215 95.446480 lineto
39.500003 95.446485 39.574222 95.376173 39.602871 95.235542 curveto
39.751308 95.282417 lineto
39.505215 96.005074 lineto
37.665371 96.005074 lineto
37.415371 97.520699 lineto
37.662766 97.338411 37.994797 97.247265 38.411465 97.247261 curveto
38.890629 97.247265 39.278649 97.443879 39.575527 97.837105 curveto
39.846357 98.196483 39.981774 98.624868 39.981777 99.122261 curveto
fill
0.0000000 0.0000000 0.0000000 setrgbcolor
newpath
fill
0.0000000 0.0000000 0.0000000 setrgbcolor
newpath
45.891933 100.02460 moveto
45.569014 100.71211 45.057296 101.05585 44.356777 101.05585 curveto
43.906255 101.05585 43.524745 100.87487 43.212246 100.51289 curveto
42.912767 100.16653 42.763027 99.764189 42.763027 99.305855 curveto
42.763027 98.732940 42.960944 98.260285 43.356777 97.887886 curveto
43.744797 97.523306 44.227869 97.341015 44.805996 97.341011 curveto
44.977869 97.341015 45.178389 97.394400 45.407558 97.501167 curveto
45.670576 97.618358 45.802087 97.744660 45.802090 97.880074 curveto
45.802087 98.127472 45.684899 98.251170 45.450527 98.251167 curveto
45.304691 98.251170 45.209639 98.192576 45.165371 98.075386 curveto
45.123702 97.966014 45.083337 97.856639 45.044277 97.747261 curveto
44.958337 97.627473 44.792973 97.567577 44.548183 97.567574 curveto
44.154953 97.567577 43.847661 97.745962 43.626308 98.102730 curveto
43.441412 98.404816 43.348964 98.765492 43.348965 99.184761 curveto
43.348964 99.533721 43.471360 99.859241 43.716152 100.16132 curveto
43.976568 100.48164 44.276046 100.64179 44.614590 100.64179 curveto
45.101566 100.64179 45.473962 100.42174 45.731777 99.981636 curveto
45.838545 99.979033 45.891930 99.993356 45.891933 100.02460 curveto
fill
0.0000000 0.0000000 0.0000000 setrgbcolor
newpath
52.825527 100.98554 moveto
51.095058 100.98554 lineto
51.095058 100.80976 lineto
51.449220 100.80976 51.626303 100.63398 51.626308 100.28242 curveto
51.626308 98.505074 lineto
51.626303 98.283722 51.572918 98.089712 51.466152 97.923042 curveto
51.341147 97.730337 51.173179 97.633983 50.962246 97.633980 curveto
50.639325 97.633983 50.255211 97.796743 49.809902 98.122261 curveto
49.809902 100.47382 lineto
49.809899 100.68737 50.018232 100.79414 50.434902 100.79414 curveto
50.454433 100.98554 lineto
48.727871 100.98554 lineto
48.727871 100.80976 lineto
49.079431 100.80976 49.255212 100.63398 49.255215 100.28242 curveto
49.255215 98.505074 lineto
49.255212 98.281118 49.209639 98.088410 49.118496 97.926949 curveto
49.006514 97.731639 48.846358 97.633983 48.638027 97.633980 curveto
48.309900 97.633983 47.907557 97.809764 47.430996 98.161324 curveto
47.430996 100.39179 lineto
47.430995 100.64700 47.627609 100.78632 48.020840 100.80976 curveto
47.997402 100.98554 lineto
46.345058 100.98554 lineto
46.329433 100.95429 lineto
46.352871 100.83320 lineto
46.514329 100.83320 46.644537 100.76679 46.743496 100.63398 curveto
46.834641 100.51158 46.880214 100.36705 46.880215 100.20039 curveto
46.880215 98.048042 lineto
46.880214 97.954295 46.799485 97.880077 46.638027 97.825386 curveto
46.617194 97.817577 46.494798 97.788931 46.270840 97.739449 curveto
46.270840 97.641792 lineto
46.296881 97.613150 46.329433 97.592317 46.368496 97.579292 curveto
46.574225 97.508983 46.881516 97.382681 47.290371 97.200386 curveto
47.430996 97.305855 lineto
47.430996 98.008980 lineto
48.183598 97.524608 48.703129 97.282421 48.989590 97.282417 curveto
49.164066 97.282421 49.326826 97.363150 49.477871 97.524605 curveto
49.605472 97.662629 49.697920 97.824087 49.755215 98.008980 curveto
50.507815 97.524608 51.027345 97.282421 51.313808 97.282417 curveto
51.592449 97.282421 51.815105 97.411327 51.981777 97.669136 curveto
52.127605 97.893097 52.200521 98.150910 52.200527 98.442574 curveto
52.200527 100.47382 lineto
52.200521 100.68737 52.401042 100.79414 52.802090 100.79414 curveto
52.825527 100.98554 lineto
fill
0.0000000 0.0000000 0.0000000 setrgbcolor
newpath
37.714546 81.486450 moveto
37.714542 81.535930 37.599959 81.907024 37.370796 82.599731 curveto
34.101265 82.599731 lineto
34.027046 82.369263 lineto
35.766628 80.965618 36.636418 79.689578 36.636421 78.541138 curveto
36.636418 77.869267 36.331731 77.533330 35.722359 77.533325 curveto
35.045274 77.533330 34.529650 77.852340 34.175484 78.490356 curveto
34.003609 78.416138 lineto
34.144233 78.028121 34.383816 77.701299 34.722359 77.435669 curveto
35.079128 77.154424 35.456732 77.013800 35.855171 77.013794 curveto
36.222356 77.013800 36.530950 77.125779 36.780952 77.349731 curveto
37.041366 77.584111 37.171574 77.882288 37.171577 78.244263 curveto
37.171574 79.403120 36.386419 80.680463 34.816109 82.076294 curveto
36.952827 82.076294 lineto
37.096053 82.076294 37.232772 81.965617 37.362984 81.744263 curveto
37.493188 81.522910 37.553084 81.412233 37.542671 81.412231 curveto
37.563501 81.412233 37.593449 81.423951 37.632515 81.447388 curveto
37.671574 81.468222 37.698917 81.481243 37.714546 81.486450 curveto
fill
0.0000000 0.0000000 0.0000000 setrgbcolor
newpath
41.472359 80.748169 moveto
41.472355 81.453899 41.279647 81.957805 40.894234 82.259888 curveto
40.550481 82.530721 40.015325 82.666138 39.288765 82.666138 curveto
39.077826 82.666138 38.886420 82.629679 38.714546 82.556763 curveto
38.490587 82.457805 38.378608 82.315878 38.378609 82.130981 curveto
38.378608 82.045045 38.408556 81.973430 38.468452 81.916138 curveto
38.528348 81.856243 38.602566 81.826295 38.691109 81.826294 curveto
38.870795 81.826295 39.059597 81.913534 39.257515 82.088013 curveto
39.458034 82.262492 39.657253 82.349732 39.855171 82.349731 curveto
40.555690 82.349732 40.905950 81.858847 40.905952 80.877075 curveto
40.905950 80.608848 40.839543 80.356244 40.706734 80.119263 curveto
40.550481 79.840620 40.347356 79.701297 40.097359 79.701294 curveto
39.834336 79.701297 39.556993 79.775516 39.265327 79.923950 curveto
39.191109 79.724731 lineto
39.417670 79.662234 39.688503 79.487755 40.003609 79.201294 curveto
40.344752 78.891402 40.515325 78.633590 40.515327 78.427856 curveto
40.515325 78.188278 40.424179 77.981246 40.241890 77.806763 curveto
40.059596 77.632288 39.848659 77.545049 39.609077 77.545044 curveto
39.322618 77.545049 38.938504 77.774215 38.456734 78.232544 curveto
38.335640 78.181763 lineto
38.598660 77.780726 38.822618 77.502080 39.007515 77.345825 curveto
39.283555 77.119268 39.614284 77.005987 39.999702 77.005981 curveto
40.330429 77.005987 40.614283 77.110154 40.851265 77.318481 curveto
41.101262 77.537237 41.226262 77.809372 41.226265 78.134888 curveto
41.226262 78.413538 41.140324 78.645308 40.968452 78.830200 curveto
40.853866 78.955204 40.645533 79.098433 40.343452 79.259888 curveto
40.697616 79.283329 40.980168 79.452599 41.191109 79.767700 curveto
41.378605 80.048953 41.472355 80.375775 41.472359 80.748169 curveto
fill
0.0000000 0.0000000 0.0000000 setrgbcolor
newpath
fill
0.0000000 0.0000000 0.0000000 setrgbcolor
newpath
47.230171 81.638794 moveto
46.907252 82.326294 46.395533 82.670044 45.695015 82.670044 curveto
45.244493 82.670044 44.862983 82.489054 44.550484 82.127075 curveto
44.251004 81.780722 44.101265 81.378378 44.101265 80.920044 curveto
44.101265 80.347130 44.299181 79.874474 44.695015 79.502075 curveto
45.083035 79.137495 45.566107 78.955204 46.144234 78.955200 curveto
46.316106 78.955204 46.516627 79.008589 46.745796 79.115356 curveto
47.008814 79.232547 47.140324 79.358849 47.140327 79.494263 curveto
47.140324 79.741661 47.023137 79.865359 46.788765 79.865356 curveto
46.642929 79.865359 46.547877 79.806765 46.503609 79.689575 curveto
46.461940 79.580203 46.421575 79.470828 46.382515 79.361450 curveto
46.296575 79.241662 46.131211 79.181766 45.886421 79.181763 curveto
45.493191 79.181766 45.185899 79.360151 44.964546 79.716919 curveto
44.779650 80.019005 44.687202 80.379682 44.687202 80.798950 curveto
44.687202 81.147910 44.809598 81.473430 45.054390 81.775513 curveto
45.314805 82.095826 45.614284 82.255982 45.952827 82.255981 curveto
46.439804 82.255982 46.812200 82.035930 47.070015 81.595825 curveto
47.176783 81.593222 47.230168 81.607545 47.230171 81.638794 curveto
fill
0.0000000 0.0000000 0.0000000 setrgbcolor
newpath
54.163765 82.599731 moveto
52.433296 82.599731 lineto
52.433296 82.423950 lineto
52.787458 82.423950 52.964541 82.248169 52.964546 81.896606 curveto
52.964546 80.119263 lineto
52.964541 79.897911 52.911156 79.703901 52.804390 79.537231 curveto
52.679385 79.344526 52.511416 79.248172 52.300484 79.248169 curveto
51.977563 79.248172 51.593449 79.410933 51.148140 79.736450 curveto
51.148140 82.088013 lineto
51.148136 82.301555 51.356470 82.408325 51.773140 82.408325 curveto
51.792671 82.599731 lineto
50.066109 82.599731 lineto
50.066109 82.423950 lineto
50.417668 82.423950 50.593450 82.248169 50.593452 81.896606 curveto
50.593452 80.119263 lineto
50.593450 79.895307 50.547877 79.702599 50.456734 79.541138 curveto
50.344752 79.345828 50.184596 79.248172 49.976265 79.248169 curveto
49.648138 79.248172 49.245795 79.423953 48.769234 79.775513 curveto
48.769234 82.005981 lineto
48.769233 82.261190 48.965847 82.400513 49.359077 82.423950 curveto
49.335640 82.599731 lineto
47.683296 82.599731 lineto
47.667671 82.568481 lineto
47.691109 82.447388 lineto
47.852567 82.447388 47.982775 82.380982 48.081734 82.248169 curveto
48.172879 82.125774 48.218452 81.981242 48.218452 81.814575 curveto
48.218452 79.662231 lineto
48.218452 79.568484 48.137723 79.494266 47.976265 79.439575 curveto
47.955431 79.431766 47.833036 79.403120 47.609077 79.353638 curveto
47.609077 79.255981 lineto
47.635119 79.227339 47.667671 79.206506 47.706734 79.193481 curveto
47.912463 79.123172 48.219754 78.996870 48.628609 78.814575 curveto
48.769234 78.920044 lineto
48.769234 79.623169 lineto
49.521836 79.138797 50.041367 78.896610 50.327827 78.896606 curveto
50.502304 78.896610 50.665064 78.977339 50.816109 79.138794 curveto
50.943710 79.276818 51.036157 79.438276 51.093452 79.623169 curveto
51.846052 79.138797 52.365583 78.896610 52.652046 78.896606 curveto
52.930687 78.896610 53.153343 79.025516 53.320015 79.283325 curveto
53.465842 79.507287 53.538759 79.765099 53.538765 80.056763 curveto
53.538765 82.088013 lineto
53.538759 82.301555 53.739280 82.408325 54.140327 82.408325 curveto
54.163765 82.599731 lineto
fill
0.0000000 0.0000000 0.0000000 setrgbcolor
newpath
52.362968 116.26210 moveto
49.516289 116.26210 lineto
49.516289 116.09120 lineto
50.206392 116.09120 50.551443 115.81288 50.551445 115.25624 curveto
50.551445 110.09999 lineto
50.375662 110.20416 50.201509 110.30833 50.028984 110.41249 curveto
49.820650 110.52968 49.636731 110.60944 49.477226 110.65175 curveto
49.384453 110.43690 lineto
50.038748 110.11139 50.600271 109.71426 51.069023 109.24550 curveto
51.361992 109.24550 lineto
51.361992 115.25624 lineto
51.361989 115.59153 51.448252 115.81939 51.620781 115.93983 curveto
51.760752 116.04075 52.008148 116.09120 52.362968 116.09120 curveto
52.362968 116.26210 lineto
fill
0.0000000 0.0000000 0.0000000 setrgbcolor
newpath
54.853203 116.25233 moveto
54.853201 115.99192 54.788097 115.77056 54.657890 115.58827 curveto
54.514660 115.37994 54.317720 115.27577 54.067070 115.27577 curveto
53.894543 115.27577 53.743176 115.32135 53.612968 115.41249 curveto
53.472994 115.51340 53.403007 115.64687 53.403008 115.81288 curveto
53.403007 115.95286 53.442070 116.07330 53.520195 116.17421 curveto
53.608085 116.28814 53.717134 116.34511 53.847343 116.34511 curveto
53.886405 116.34511 53.940116 116.33860 54.008476 116.32558 curveto
54.080090 116.31581 54.133801 116.31093 54.169609 116.31093 curveto
54.303071 116.31093 54.369803 116.40207 54.369804 116.58437 curveto
54.369803 117.05312 54.084973 117.43723 53.515312 117.73671 curveto
53.551119 117.85390 53.585299 117.91249 53.617851 117.91249 curveto
53.679700 117.91249 53.793632 117.85552 53.959648 117.74159 curveto
54.112642 117.63742 54.213553 117.55604 54.262383 117.49745 curveto
54.480480 117.23378 54.620454 117.04498 54.682304 116.93105 curveto
54.796235 116.72922 54.853201 116.50299 54.853203 116.25233 curveto
fill
0.0000000 0.0000000 0.0000000 setrgbcolor
newpath
60.502617 114.26015 moveto
59.364922 114.26015 lineto
59.364922 116.26698 lineto
58.691093 116.26698 lineto
58.691093 114.26015 lineto
55.834648 114.26015 lineto
55.834648 113.95253 lineto
59.120781 109.22597 lineto
59.364922 109.22597 lineto
59.364922 113.64491 lineto
60.502617 113.64491 lineto
60.502617 114.26015 lineto
58.691093 110.36366 moveto
56.449883 113.64491 lineto
58.691093 113.64491 lineto
58.691093 110.36366 lineto
fill
0.0000000 0.0000000 0.0000000 setrgbcolor
newpath
64.960625 114.72890 moveto
64.947599 115.23346 64.711597 115.64036 64.252617 115.94960 curveto
63.829436 116.23280 63.319997 116.37440 62.724297 116.37440 curveto
61.490572 116.37440 60.859062 115.81614 60.829765 114.69960 curveto
60.819999 114.26991 60.986015 113.87278 61.327812 113.50819 curveto
61.532889 113.29335 61.868175 113.03782 62.333672 112.74159 curveto
61.829113 112.32818 61.547538 112.09218 61.488945 112.03358 curveto
61.173189 111.69830 61.015312 111.34511 61.015312 110.97401 curveto
61.015312 110.48574 61.169934 110.08209 61.479179 109.76308 curveto
61.788423 109.44082 62.203462 109.26341 62.724297 109.23085 curveto
63.258148 109.20156 63.712249 109.32038 64.086601 109.58730 curveto
64.464201 109.85423 64.653003 110.20254 64.653008 110.63222 curveto
64.653003 110.96751 64.509774 111.31907 64.223320 111.68690 curveto
63.985686 111.99290 63.691090 112.26796 63.339531 112.51210 curveto
63.892913 112.92226 64.268889 113.24290 64.467461 113.47401 curveto
64.809253 113.86790 64.973641 114.28619 64.960625 114.72890 curveto
63.905937 110.68105 moveto
63.905934 110.34902 63.798512 110.07721 63.583672 109.86562 curveto
63.368825 109.65078 63.093760 109.54336 62.758476 109.54335 curveto
62.419933 109.54336 62.149751 109.66217 61.947929 109.89980 curveto
61.762381 110.12441 61.669608 110.40924 61.669609 110.75429 curveto
61.669608 111.06028 61.829113 111.35488 62.148125 111.63808 curveto
62.154633 111.64459 62.441092 111.85292 63.007500 112.26308 curveto
63.606455 111.75852 63.905934 111.23118 63.905937 110.68105 curveto
64.247734 114.72890 moveto
64.221689 114.46197 64.003590 114.14459 63.593437 113.77675 curveto
63.258148 113.50657 62.924489 113.23639 62.592461 112.96620 curveto
62.000011 113.39264 61.671236 113.91835 61.606133 114.54335 curveto
61.599621 114.62473 61.596366 114.70286 61.596367 114.77773 curveto
61.596366 115.17486 61.700532 115.49387 61.908867 115.73476 curveto
62.120454 115.97564 62.413422 116.09608 62.787773 116.09608 curveto
63.201182 116.09608 63.555999 115.95448 63.852226 115.67128 curveto
64.148447 115.38808 64.280282 115.07395 64.247734 114.72890 curveto
fill
0.0000000 0.0000000 0.0000000 setrgbcolor
newpath
fill
0.0000000 0.0000000 0.0000000 setrgbcolor
newpath
76.357109 116.26698 moveto
74.194023 116.26698 lineto
74.194023 116.04726 lineto
74.636725 116.04726 74.858079 115.82753 74.858086 115.38808 curveto
74.858086 113.16640 lineto
74.858079 112.88971 74.791347 112.64719 74.657890 112.43886 curveto
74.501634 112.19798 74.291673 112.07753 74.028008 112.07753 curveto
73.624356 112.07753 73.144214 112.28098 72.587578 112.68788 curveto
72.587578 115.62733 lineto
72.587573 115.89426 72.847990 116.02773 73.368828 116.02773 curveto
73.393242 116.26698 lineto
71.235039 116.26698 lineto
71.235039 116.04726 lineto
71.674488 116.04726 71.894215 115.82753 71.894218 115.38808 curveto
71.894218 113.16640 lineto
71.894215 112.88645 71.837249 112.64557 71.723320 112.44374 curveto
71.583343 112.19960 71.383148 112.07753 71.122734 112.07753 curveto
70.712575 112.07753 70.209646 112.29726 69.613945 112.73671 curveto
69.613945 115.52480 lineto
69.613944 115.84381 69.859712 116.01796 70.351250 116.04726 curveto
70.321953 116.26698 lineto
68.256523 116.26698 lineto
68.236992 116.22792 lineto
68.266289 116.07655 lineto
68.468111 116.07655 68.630872 115.99355 68.754570 115.82753 curveto
68.868502 115.67454 68.925468 115.49387 68.925468 115.28554 curveto
68.925468 112.59511 lineto
68.925468 112.47792 68.824556 112.38515 68.622734 112.31679 curveto
68.596692 112.30703 68.443697 112.27122 68.163750 112.20937 curveto
68.163750 112.08730 lineto
68.196302 112.05149 68.236992 112.02545 68.285820 112.00917 curveto
68.542981 111.92128 68.927095 111.76341 69.438164 111.53554 curveto
69.613945 111.66737 lineto
69.613945 112.54628 lineto
70.554698 111.94082 71.204111 111.63808 71.562187 111.63808 curveto
71.780283 111.63808 71.983733 111.73899 72.172539 111.94081 curveto
72.332040 112.11334 72.447600 112.31516 72.519218 112.54628 curveto
73.459968 111.94082 74.109382 111.63808 74.467461 111.63808 curveto
74.815761 111.63808 75.094081 111.79921 75.302422 112.12148 curveto
75.484706 112.40143 75.575852 112.72369 75.575859 113.08827 curveto
75.575859 115.62733 lineto
75.575852 115.89426 75.826502 116.02773 76.327812 116.02773 curveto
76.357109 116.26698 lineto
fill
grestore
showpage
