%!PS-Adobe-2.0 EPSF-2.0
%%Title: Loupe.fig
%%Creator: fig2dev Version 3.2 Patchlevel 5-alpha5
%%CreationDate: Thu Jul  7 13:33:32 2005
%%For: guyotv@debian ()
%%BoundingBox: 0 0 149 86
%Magnification: 1.0000
%%EndComments
/$F2psDict 200 dict def
$F2psDict begin
$F2psDict /mtrx matrix put
/col-1 {0 setgray} bind def
/col0 {0.000 0.000 0.000 srgb} bind def
/col1 {0.000 0.000 1.000 srgb} bind def
/col2 {0.000 1.000 0.000 srgb} bind def
/col3 {0.000 1.000 1.000 srgb} bind def
/col4 {1.000 0.000 0.000 srgb} bind def
/col5 {1.000 0.000 1.000 srgb} bind def
/col6 {1.000 1.000 0.000 srgb} bind def
/col7 {1.000 1.000 1.000 srgb} bind def
/col8 {0.000 0.000 0.560 srgb} bind def
/col9 {0.000 0.000 0.690 srgb} bind def
/col10 {0.000 0.000 0.820 srgb} bind def
/col11 {0.530 0.810 1.000 srgb} bind def
/col12 {0.000 0.560 0.000 srgb} bind def
/col13 {0.000 0.690 0.000 srgb} bind def
/col14 {0.000 0.820 0.000 srgb} bind def
/col15 {0.000 0.560 0.560 srgb} bind def
/col16 {0.000 0.690 0.690 srgb} bind def
/col17 {0.000 0.820 0.820 srgb} bind def
/col18 {0.560 0.000 0.000 srgb} bind def
/col19 {0.690 0.000 0.000 srgb} bind def
/col20 {0.820 0.000 0.000 srgb} bind def
/col21 {0.560 0.000 0.560 srgb} bind def
/col22 {0.690 0.000 0.690 srgb} bind def
/col23 {0.820 0.000 0.820 srgb} bind def
/col24 {0.500 0.190 0.000 srgb} bind def
/col25 {0.630 0.250 0.000 srgb} bind def
/col26 {0.750 0.380 0.000 srgb} bind def
/col27 {1.000 0.500 0.500 srgb} bind def
/col28 {1.000 0.630 0.630 srgb} bind def
/col29 {1.000 0.750 0.750 srgb} bind def
/col30 {1.000 0.880 0.880 srgb} bind def
/col31 {1.000 0.840 0.000 srgb} bind def

end
save
newpath 0 86 moveto 0 0 lineto 149 0 lineto 149 86 lineto closepath clip newpath
-13.4 139.7 translate
1 -1 scale

/cp {closepath} bind def
/ef {eofill} bind def
/gr {grestore} bind def
/gs {gsave} bind def
/sa {save} bind def
/rs {restore} bind def
/l {lineto} bind def
/m {moveto} bind def
/rm {rmoveto} bind def
/n {newpath} bind def
/s {stroke} bind def
/sh {show} bind def
/slc {setlinecap} bind def
/slj {setlinejoin} bind def
/slw {setlinewidth} bind def
/srgb {setrgbcolor} bind def
/rot {rotate} bind def
/sc {scale} bind def
/sd {setdash} bind def
/ff {findfont} bind def
/sf {setfont} bind def
/scf {scalefont} bind def
/sw {stringwidth} bind def
/tr {translate} bind def
/tnt {dup dup currentrgbcolor
  4 -2 roll dup 1 exch sub 3 -1 roll mul add
  4 -2 roll dup 1 exch sub 3 -1 roll mul add
  4 -2 roll dup 1 exch sub 3 -1 roll mul add srgb}
  bind def
/shd {dup dup currentrgbcolor 4 -2 roll mul 4 -2 roll mul
  4 -2 roll mul srgb} bind def
 /DrawEllipse {
	/endangle exch def
	/startangle exch def
	/yrad exch def
	/xrad exch def
	/y exch def
	/x exch def
	/savematrix mtrx currentmatrix def
	x y tr xrad yrad sc 0 0 1 startangle endangle arc
	closepath
	savematrix setmatrix
	} def

/$F2psBegin {$F2psDict begin /$F2psEnteredState save def} def
/$F2psEnd {$F2psEnteredState restore end} def

$F2psBegin
10 setmiterlimit
0 slj 0 slc
 0.06299 0.06299 sc
%
% Fig objects follow
%
% 
% here starts figure with depth 50
% Arc
7.500 slw
0 slc
n 3723.4 1543.1 1473.7 155.2525 -159.8337 arc
gs col0 s gr

% Ellipse
n 1379 1575 15 15 0 360 DrawEllipse gs 0.00 setgray ef gr gs col0 s gr

% Ellipse
n 2305 1569 15 15 0 360 DrawEllipse gs 0.00 setgray ef gr gs col0 s gr

% Polyline
0 slj
n 225 1575 m
 2250 1575 l gs col0 s gr 
% Polyline
n 1845 1035 m
 1845 2160 l gs col0 s gr 
% Polyline
n 2250 990 m
 2520 1125 l gs col0 s gr 
% Polyline
n 2295 2205 m
 2565 2070 l gs col0 s gr 
% Polyline
n 1800 1125 m 1845 1035 l
 1890 1125 l gs col0 s gr 
% Polyline
n 1800 2070 m 1845 2160 l
 1890 2070 l gs col0 s gr 
% Polyline
n 1493 1504 m
 2256 1659 l gs col0 s gr 
% Polyline
 [45] 0 sd
n 2025 1612 m
 308 1265 l gs col0 s gr  [] 0 sd
% Polyline
 [45] 0 sd
n 2200 1553 m
 350 1305 l gs col0 s gr  [] 0 sd
% Polyline
n 1493 1507 m 1843 1507 l 2246 1559 l
 2249 1559 l gs col0 s gr 
% Polyline
15.000 slw
n 811 1370 m
 811 1578 l gs col0 s gr 
% Polyline
n 1493 1578 m
 1493 1497 l gs col0 s gr 
% Polyline
7.500 slw
n 1493 1504 m 1843 1367 l
 2256 1367 l gs col0 s gr 
% Polyline
 [45] 0 sd
n 452 1367 m
 1843 1367 l gs col0 s gr  [] 0 sd
/Times-Roman ff 158.75 scf sf
641 1705 m
gs 1 -1 sc (image) col0 sh gr
/Times-Roman ff 158.75 scf sf
470 1274 m
gs 1 -1 sc (rayons virtuels) col0 sh gr
/Times-Roman ff 158.75 scf sf
1466 1721 m
gs 1 -1 sc (objet) col0 sh gr
/Times-Roman ff 158.75 scf sf
1267 1718 m
gs 1 -1 sc (F) col0 sh gr
/Times-Roman ff 158.75 scf sf
2346 1696 m
gs 1 -1 sc (F) col0 sh gr
/Times-Roman ff 158.75 scf sf
2302 1323 m
gs 1 -1 sc (oeil) col0 sh gr
/Times-Roman ff 158.75 scf sf
1670 989 m
gs 1 -1 sc (loupe) col0 sh gr
/Times-Roman ff 158.75 scf sf
641 1848 m
gs 1 -1 sc (virtuelle) col0 sh gr
/Times-Roman ff 158.75 scf sf
641 1987 m
gs 1 -1 sc (grandie) col0 sh gr
% here ends figure;
$F2psEnd
rs
showpage
%%Trailer
%EOF
