%!PS-Adobe-2.0 EPSF-2.0
%%Title: Telescope.fig
%%Creator: fig2dev Version 3.2 Patchlevel 5-alpha5
%%CreationDate: Thu Jul  7 19:36:48 2005
%%For: guyotv@debian ()
%%BoundingBox: 0 0 196 136
%Magnification: 1.0000
%%EndComments
/$F2psDict 200 dict def
$F2psDict begin
$F2psDict /mtrx matrix put
/col-1 {0 setgray} bind def
/col0 {0.000 0.000 0.000 srgb} bind def
/col1 {0.000 0.000 1.000 srgb} bind def
/col2 {0.000 1.000 0.000 srgb} bind def
/col3 {0.000 1.000 1.000 srgb} bind def
/col4 {1.000 0.000 0.000 srgb} bind def
/col5 {1.000 0.000 1.000 srgb} bind def
/col6 {1.000 1.000 0.000 srgb} bind def
/col7 {1.000 1.000 1.000 srgb} bind def
/col8 {0.000 0.000 0.560 srgb} bind def
/col9 {0.000 0.000 0.690 srgb} bind def
/col10 {0.000 0.000 0.820 srgb} bind def
/col11 {0.530 0.810 1.000 srgb} bind def
/col12 {0.000 0.560 0.000 srgb} bind def
/col13 {0.000 0.690 0.000 srgb} bind def
/col14 {0.000 0.820 0.000 srgb} bind def
/col15 {0.000 0.560 0.560 srgb} bind def
/col16 {0.000 0.690 0.690 srgb} bind def
/col17 {0.000 0.820 0.820 srgb} bind def
/col18 {0.560 0.000 0.000 srgb} bind def
/col19 {0.690 0.000 0.000 srgb} bind def
/col20 {0.820 0.000 0.000 srgb} bind def
/col21 {0.560 0.000 0.560 srgb} bind def
/col22 {0.690 0.000 0.690 srgb} bind def
/col23 {0.820 0.000 0.820 srgb} bind def
/col24 {0.500 0.190 0.000 srgb} bind def
/col25 {0.630 0.250 0.000 srgb} bind def
/col26 {0.750 0.380 0.000 srgb} bind def
/col27 {1.000 0.500 0.500 srgb} bind def
/col28 {1.000 0.630 0.630 srgb} bind def
/col29 {1.000 0.750 0.750 srgb} bind def
/col30 {1.000 0.880 0.880 srgb} bind def
/col31 {1.000 0.840 0.000 srgb} bind def

end
save
newpath 0 136 moveto 0 0 lineto 196 0 lineto 196 136 lineto closepath clip newpath
-2.1 164.5 translate
1 -1 scale

/cp {closepath} bind def
/ef {eofill} bind def
/gr {grestore} bind def
/gs {gsave} bind def
/sa {save} bind def
/rs {restore} bind def
/l {lineto} bind def
/m {moveto} bind def
/rm {rmoveto} bind def
/n {newpath} bind def
/s {stroke} bind def
/sh {show} bind def
/slc {setlinecap} bind def
/slj {setlinejoin} bind def
/slw {setlinewidth} bind def
/srgb {setrgbcolor} bind def
/rot {rotate} bind def
/sc {scale} bind def
/sd {setdash} bind def
/ff {findfont} bind def
/sf {setfont} bind def
/scf {scalefont} bind def
/sw {stringwidth} bind def
/tr {translate} bind def
/tnt {dup dup currentrgbcolor
  4 -2 roll dup 1 exch sub 3 -1 roll mul add
  4 -2 roll dup 1 exch sub 3 -1 roll mul add
  4 -2 roll dup 1 exch sub 3 -1 roll mul add srgb}
  bind def
/shd {dup dup currentrgbcolor 4 -2 roll mul 4 -2 roll mul
  4 -2 roll mul srgb} bind def
 /DrawEllipse {
	/endangle exch def
	/startangle exch def
	/yrad exch def
	/xrad exch def
	/y exch def
	/x exch def
	/savematrix mtrx currentmatrix def
	x y tr xrad yrad sc 0 0 1 startangle endangle arc
	closepath
	savematrix setmatrix
	} def

/$F2psBegin {$F2psDict begin /$F2psEnteredState save def} def
/$F2psEnd {$F2psEnteredState restore end} def

$F2psBegin
10 setmiterlimit
0 slj 0 slc
 0.06299 0.06299 sc
%
% Fig objects follow
%
% 
% here starts figure with depth 50
% Arc
7.500 slw
0 slc
n 4626.8 1337.9 1859.2 155.8014 -155.5023 arc
gs col0 s gr

% Arc
gs  clippath
2053 1338 m 1985 1365 l 1996 1393 l 2064 1366 l 2064 1366 l 2024 1366 l 2053 1338 l cp
eoclip
n 1929.8 1141.8 244.1 -47.0795 72.0485 arc
gs col0 s gr
 gr

% arrowhead
0 slj
n 2053 1338 m 2024 1366 l 2064 1366 l 2051 1354 l 2053 1338 l 
 cp gs 0.00 setgray ef gr  col0 s
% Ellipse
n 1937 1301 21 21 0 360 DrawEllipse gs 0.00 setgray ef gr gs col0 s gr

% Ellipse
n 2540 1305 21 21 0 360 DrawEllipse gs 0.00 setgray ef gr gs col0 s gr

% Polyline
n 45 1305 m
 2764 1305 l gs col0 s gr 
% Polyline
n 720 630 m
 720 2070 l gs col0 s gr 
% Polyline
n 2250 630 m
 2250 2070 l gs col0 s gr 
% Polyline
n 675 720 m 720 630 l
 765 720 l gs col0 s gr 
% Polyline
n 2205 720 m 2250 630 l
 2295 720 l gs col0 s gr 
% Polyline
n 675 1980 m 720 2070 l
 765 1980 l gs col0 s gr 
% Polyline
n 2205 1980 m 2250 2070 l
 2295 1980 l gs col0 s gr 
% Polyline
n 45 900 m 720 900 l
 1980 1485 l gs col0 s gr 
% Polyline
n 1982 1484 m
 46 1207 l gs col0 s gr 
% Polyline
n 1982 1484 m
 1982 1305 l gs col0 s gr 
% Polyline
n 1982 1484 m
 2817 910 l gs col0 s gr 
% Polyline
 [45] 0 sd
n 2554 1092 m
 357 2600 l gs col0 s gr  [] 0 sd
% Polyline
n 1982 1484 m 2247 1484 l
 2772 1158 l gs col0 s gr 
% Polyline
 [45] 0 sd
n 2662 1232 m
 372 2589 l gs col0 s gr  [] 0 sd
% Polyline
n 372 2589 m
 372 1305 l gs col0 s gr 
% Polyline
n 2850 506 m
 3094 677 l gs col0 s gr 
% Polyline
n 2846 2149 m
 3119 1978 l gs col0 s gr 
% Polyline
gs  clippath
133 1114 m 60 1110 l 58 1139 l 131 1144 l 131 1144 l 95 1127 l 133 1114 l cp
eoclip
n 429 1150 m
 74 1126 l gs col0 s gr gr

% arrowhead
n 133 1114 m 95 1127 l 131 1144 l 124 1129 l 133 1114 l 
 cp gs 0.00 setgray ef gr  col0 s
/Times-Roman ff 158.75 scf sf
466 584 m
gs 1 -1 sc (objectif) col0 sh gr
/Times-Roman ff 158.75 scf sf
1949 576 m
gs 1 -1 sc (occulaire) col0 sh gr
/Times-Roman ff 158.75 scf sf
400 2251 m
gs 1 -1 sc (image) col0 sh gr
/Times-Roman ff 158.75 scf sf
2850 1089 m
gs 1 -1 sc (oeil) col0 sh gr
/Times-Roman ff 158.75 scf sf
1835 1236 m
gs 1 -1 sc (F) col0 sh gr
/Times-Roman ff 158.75 scf sf
1517 1236 m
gs 1 -1 sc (F) col0 sh gr
/Times-Roman ff 127.00 scf sf
1603 1251 m
gs 1 -1 sc (obj) col0 sh gr
/Times-Roman ff 127.00 scf sf
1920 1257 m
gs 1 -1 sc (occ) col0 sh gr
/Times-Roman ff 158.75 scf sf
2503 1480 m
gs 1 -1 sc (F) col0 sh gr
/Times-Roman ff 127.00 scf sf
2568 1526 m
gs 1 -1 sc (occ) col0 sh gr
/Times-Roman ff 158.75 scf sf
103 1032 m
gs 1 -1 sc (objet) col0 sh gr
/Times-Roman ff 127.00 scf sf
433 1088 m
gs 1 -1 sc (obj) col0 sh gr
/Times-Roman ff 158.75 scf sf
1529 868 m
gs 1 -1 sc (image ) col0 sh gr
/Times-Roman ff 158.75 scf sf
1571 1003 m
gs 1 -1 sc (objet ) col0 sh gr
/Times-Roman ff 127.00 scf sf
1933 908 m
gs 1 -1 sc (obj) col0 sh gr
/Times-Roman ff 127.00 scf sf
1899 1049 m
gs 1 -1 sc (occ) col0 sh gr
/Times-Roman ff 127.00 scf sf
465 2350 m
gs 1 -1 sc (occ) col0 sh gr
% here ends figure;
$F2psEnd
rs
showpage
%%Trailer
%EOF
