%!PS-Adobe-2.0
%%Creator: inkscape 0.41.1
%%Pages: 1
%%Orientation: Portrait
%%BoundingBox: 13 766 149 828
%%HiResBoundingBox: 13.908070 766.11579 148.40556 827.50389
%%EndComments
%%Page: 1 1
0 842 translate
0.80000000 -0.80000000 scale
gsave [1.0000000 0.0000000 0.0000000 1.0000000 0.0000000 0.0000000] concat
0.0000000 0.0000000 0.0000000 setrgbcolor
[1.4173229 2.8346457] 0.0000000 setdash
0.35433072 setlinewidth
0 setlinejoin
0 setlinecap
newpath
29.808288 60.912589 moveto
185.32979 60.912589 185.32979 60.912589 185.32979 60.912589 curveto
stroke
0.0000000 0.0000000 0.0000000 setrgbcolor
[] 0 setdash
0.35433072 setlinewidth
0 setlinejoin
0 setlinecap
newpath
91.364788 25.154761 moveto
91.364788 94.109319 91.364788 94.540285 91.364788 94.540285 curveto
stroke
gsave [2.3865361e-17 0.38976379 -0.38976379 2.3865361e-17 91.364788 23.205942] concat
0.0000000 0.0000000 0.0000000 setrgbcolor
newpath
8.7185878 4.0337352 moveto
-2.2072895 0.016013256 lineto
8.7185884 -4.0017078 lineto
6.9730900 -1.6296469 6.9831476 1.6157441 8.7185878 4.0337352 curveto
closepath
eofill
grestore
gsave [-2.3865361e-17 -0.38976379 0.38976379 -2.3865361e-17 91.364788 96.489104] concat
0.0000000 0.0000000 0.0000000 setrgbcolor
newpath
8.7185878 4.0337352 moveto
-2.2072895 0.016013256 lineto
8.7185884 -4.0017078 lineto
6.9730900 -1.6296469 6.9831476 1.6157441 8.7185878 4.0337352 curveto
closepath
eofill
grestore
0.0000000 0.0000000 0.0000000 setrgbcolor
[] 0 setdash
1.0000000 setlinewidth
0 setlinejoin
0 setlinecap
newpath
17.885088 61.355904 moveto
150.19165 61.355904 lineto
stroke
gsave [-0.30000000 0.0000000 0.0000000 -0.30000000 151.69165 61.355904] concat
0.0000000 0.0000000 0.0000000 setrgbcolor
newpath
8.7185878 4.0337352 moveto
-2.2072895 0.016013256 lineto
8.7185884 -4.0017078 lineto
6.9730900 -1.6296469 6.9831476 1.6157441 8.7185878 4.0337352 curveto
closepath
eofill
grestore
0.0000000 0.0000000 0.0000000 setrgbcolor
[] 0 setdash
1.0000000 setlinewidth
0 setlinejoin
0 setlinecap
newpath
18.316054 41.315986 moveto
91.149305 41.315986 lineto
134.03042 74.069401 lineto
stroke
gsave [-0.23840933 -0.18210160 0.18210160 -0.23840933 135.22247 74.979909] concat
0.0000000 0.0000000 0.0000000 setrgbcolor
newpath
8.7185878 4.0337352 moveto
-2.2072895 0.016013256 lineto
8.7185884 -4.0017078 lineto
6.9730900 -1.6296469 6.9831476 1.6157441 8.7185878 4.0337352 curveto
closepath
eofill
grestore
0.0000000 0.0000000 0.0000000 setrgbcolor
[] 0 setdash
0.33349445 setlinewidth
0 setlinejoin
0 setlinecap
newpath
115.73459 74.931332 moveto
92.637462 74.931332 lineto
stroke
gsave [-0.20009667 2.4503966e-17 -2.4503966e-17 -0.20009667 114.13382 74.931332] concat
0.0000000 0.0000000 0.0000000 setrgbcolor
newpath
0.0000000 0.0000000 moveto
5.0000000 -5.0000000 lineto
-12.500000 0.0000000 lineto
5.0000000 5.0000000 lineto
0.0000000 0.0000000 lineto
closepath
eofill
0.0000000 0.0000000 0.0000000 setrgbcolor
[] 0 setdash
1.2500000 setlinewidth
0 setlinejoin
0 setlinecap
newpath
0.0000000 0.0000000 moveto
5.0000000 -5.0000000 lineto
-12.500000 0.0000000 lineto
5.0000000 5.0000000 lineto
0.0000000 0.0000000 lineto
closepath
stroke
0.0000000 0.0000000 0.0000000 setrgbcolor
[] 0 setdash
1.5000000 setlinewidth
0 setlinejoin
0 setlinecap
newpath
-14.759949 -7.0000000 moveto
-14.759949 65.000000 lineto
stroke
grestore
gsave [0.20009667 -2.4503966e-17 -2.4503966e-17 -0.20009667 94.238235 74.931332] concat
0.0000000 0.0000000 0.0000000 setrgbcolor
newpath
0.0000000 0.0000000 moveto
5.0000000 -5.0000000 lineto
-12.500000 0.0000000 lineto
5.0000000 5.0000000 lineto
0.0000000 0.0000000 lineto
closepath
eofill
0.0000000 0.0000000 0.0000000 setrgbcolor
[] 0 setdash
1.2500000 setlinewidth
0 setlinejoin
0 setlinecap
newpath
0.0000000 0.0000000 moveto
5.0000000 -5.0000000 lineto
-12.500000 0.0000000 lineto
5.0000000 5.0000000 lineto
0.0000000 0.0000000 lineto
closepath
stroke
0.0000000 0.0000000 0.0000000 setrgbcolor
[] 0 setdash
1.5000000 setlinewidth
0 setlinejoin
0 setlinecap
newpath
-14.759949 -7.0000000 moveto
-14.759949 65.000000 lineto
stroke
grestore
0.0000000 0.0000000 0.0000000 setrgbcolor
[] 0 setdash
0.40314037 setlinewidth
0 setlinejoin
0 setlinecap
newpath
18.687544 32.050220 moveto
89.700400 32.050220 lineto
stroke
gsave [-0.24188422 -0.0000000 0.0000000 0.24188422 87.765326 32.050220] concat
0.0000000 0.0000000 0.0000000 setrgbcolor
newpath
0.0000000 0.0000000 moveto
5.0000000 -5.0000000 lineto
-12.500000 0.0000000 lineto
5.0000000 5.0000000 lineto
0.0000000 0.0000000 lineto
closepath
eofill
0.0000000 0.0000000 0.0000000 setrgbcolor
[] 0 setdash
1.2500000 setlinewidth
0 setlinejoin
0 setlinecap
newpath
0.0000000 0.0000000 moveto
5.0000000 -5.0000000 lineto
-12.500000 0.0000000 lineto
5.0000000 5.0000000 lineto
0.0000000 0.0000000 lineto
closepath
stroke
0.0000000 0.0000000 0.0000000 setrgbcolor
[] 0 setdash
1.5000000 setlinewidth
0 setlinejoin
0 setlinecap
newpath
-14.759949 -7.0000000 moveto
-14.759949 65.000000 lineto
stroke
grestore
0.0000000 0.0000000 0.0000000 setrgbcolor
newpath
26.014154 28.123974 moveto
25.786285 28.202099 25.556793 28.281852 25.325678 28.363232 curveto
25.062002 28.464143 24.843903 28.566682 24.671381 28.670849 curveto
24.642080 28.690380 24.611156 28.700146 24.578608 28.700146 curveto
24.520010 28.700146 24.482575 28.638297 24.466303 28.514599 curveto
24.453278 28.426708 24.450023 28.304638 24.456537 28.148388 curveto
24.469555 27.933545 24.476065 27.845654 24.476068 27.884716 curveto
24.202628 28.053987 23.929190 28.224886 23.655756 28.397411 curveto
23.356274 28.566682 23.040519 28.651318 22.708490 28.651318 curveto
22.190911 28.651318 21.762851 28.407177 21.424311 27.918896 curveto
21.121576 27.482699 20.970209 26.996046 20.970209 26.458935 curveto
20.970209 25.759068 21.175287 25.195917 21.585443 24.769482 curveto
22.067213 24.271439 22.618970 24.022416 23.240717 24.022411 curveto
23.755037 24.022416 24.166820 24.110306 24.476068 24.286083 curveto
24.476068 22.347607 lineto
24.476065 22.100217 24.295401 21.976520 23.934076 21.976513 curveto
23.930818 21.976520 23.825024 21.981402 23.616693 21.991161 curveto
23.616693 21.820263 lineto
24.121248 21.755166 24.629060 21.587523 25.140131 21.317333 curveto
25.140131 27.660107 lineto
25.140127 27.741488 25.172679 27.817985 25.237787 27.889599 curveto
25.302887 27.957959 25.374502 27.992139 25.452631 27.992138 curveto
25.517731 27.992139 25.612131 27.985628 25.735834 27.972607 curveto
25.859527 27.959586 25.952300 27.953076 26.014154 27.953075 curveto
26.014154 28.123974 lineto
24.476068 27.694286 moveto
24.476068 25.179638 lineto
24.251456 24.860631 24.043123 24.644160 23.851068 24.530224 curveto
23.636222 24.406530 23.343254 24.344681 22.972162 24.344677 curveto
22.506666 24.344681 22.166497 24.593704 21.951654 25.091747 curveto
21.798659 25.449823 21.722161 25.894159 21.722162 26.424755 curveto
21.722161 26.841424 21.850742 27.230421 22.107904 27.591747 curveto
22.391106 27.985628 22.732903 28.182568 23.133295 28.182568 curveto
23.409985 28.182568 23.857576 28.019808 24.476068 27.694286 curveto
fill
0.0000000 0.0000000 0.0000000 setrgbcolor
newpath
fill
0.0000000 0.0000000 0.0000000 setrgbcolor
newpath
33.660639 24.427685 moveto
29.607904 24.427685 lineto
29.607904 23.968700 lineto
33.660639 23.968700 lineto
33.660639 24.427685 lineto
33.660639 26.268505 moveto
29.607904 26.268505 lineto
29.607904 25.804638 lineto
33.660639 25.804638 lineto
33.660639 26.268505 lineto
fill
0.0000000 0.0000000 0.0000000 setrgbcolor
newpath
38.465326 26.288036 moveto
38.465322 27.170199 38.224437 27.800081 37.742670 28.177685 curveto
37.312979 28.516227 36.644035 28.685497 35.735834 28.685497 curveto
35.472161 28.685497 35.232903 28.639924 35.018061 28.548779 curveto
34.738112 28.425081 34.598138 28.247672 34.598139 28.016552 curveto
34.598138 27.909131 34.635573 27.819613 34.710443 27.747997 curveto
34.785313 27.673128 34.878086 27.635694 34.988764 27.635693 curveto
35.213372 27.635694 35.449375 27.744743 35.696772 27.962841 curveto
35.947421 28.180940 36.196444 28.289990 36.443842 28.289989 curveto
37.319490 28.289990 37.757315 27.676384 37.757318 26.449169 curveto
37.757315 26.113885 37.674307 25.798130 37.508295 25.501904 curveto
37.312979 25.153600 37.059073 24.979446 36.746576 24.979443 curveto
36.417798 24.979446 36.071119 25.072220 35.706537 25.257763 curveto
35.613764 25.008739 lineto
35.896965 24.930618 36.235507 24.712519 36.629389 24.354443 curveto
37.055818 23.967077 37.269034 23.644812 37.269037 23.387646 curveto
37.269034 23.088172 37.155102 22.829383 36.927240 22.611279 curveto
36.699373 22.393186 36.435702 22.284136 36.136225 22.284130 curveto
35.778150 22.284136 35.298007 22.570594 34.695795 23.143505 curveto
34.544428 23.080029 lineto
34.873203 22.578732 35.153151 22.230426 35.384272 22.035107 curveto
35.729322 21.751910 36.142733 21.610309 36.624506 21.610302 curveto
37.037915 21.610309 37.392732 21.740517 37.688959 22.000927 curveto
38.001455 22.274371 38.157705 22.614540 38.157709 23.021435 curveto
38.157705 23.369747 38.050283 23.659461 37.835443 23.890575 curveto
37.692211 24.046830 37.431794 24.225866 37.054193 24.427685 curveto
37.496899 24.456986 37.850088 24.668574 38.113764 25.062450 curveto
38.348135 25.414016 38.465322 25.822544 38.465326 26.288036 curveto
fill
0.0000000 0.0000000 0.0000000 setrgbcolor
newpath
40.520990 28.587841 moveto
40.520989 28.327425 40.455884 28.106071 40.325678 27.923779 curveto
40.182447 27.715446 39.985507 27.611280 39.734858 27.611279 curveto
39.562331 27.611280 39.410964 27.656852 39.280756 27.747997 curveto
39.140782 27.848909 39.070795 27.982373 39.070795 28.148388 curveto
39.070795 28.288362 39.109857 28.408805 39.187983 28.509716 curveto
39.275873 28.623648 39.384922 28.680614 39.515131 28.680614 curveto
39.554193 28.680614 39.607904 28.674104 39.676264 28.661083 curveto
39.747877 28.651318 39.801588 28.646435 39.837397 28.646435 curveto
39.970859 28.646435 40.037591 28.737580 40.037592 28.919872 curveto
40.037591 29.388621 39.752760 29.772736 39.183100 30.072216 curveto
39.218907 30.189402 39.253086 30.247996 39.285639 30.247997 curveto
39.347487 30.247996 39.461419 30.191030 39.627436 30.077099 curveto
39.780429 29.972931 39.881341 29.891551 39.930170 29.832958 curveto
40.148268 29.569285 40.288241 29.380483 40.350092 29.266552 curveto
40.464022 29.064729 40.520989 28.838492 40.520990 28.587841 curveto
fill
0.0000000 0.0000000 0.0000000 setrgbcolor
newpath
45.843256 27.064404 moveto
45.830231 27.568962 45.594228 27.975862 45.135248 28.285107 curveto
44.712068 28.568310 44.202628 28.709911 43.606928 28.709911 curveto
42.373203 28.709911 41.741693 28.151644 41.712397 27.035107 curveto
41.702631 26.605421 41.868646 26.208286 42.210443 25.843700 curveto
42.415521 25.628860 42.750807 25.373326 43.216303 25.077099 curveto
42.711744 24.663691 42.430169 24.427689 42.371576 24.369091 curveto
42.055820 24.033809 41.897943 23.680619 41.897943 23.309521 curveto
41.897943 22.821245 42.052565 22.417600 42.361811 22.098583 curveto
42.671054 21.776324 43.086093 21.598916 43.606928 21.566357 curveto
44.140779 21.537067 44.594880 21.655882 44.969233 21.922802 curveto
45.346833 22.189735 45.535635 22.538042 45.535639 22.967724 curveto
45.535635 23.303016 45.392406 23.654578 45.105951 24.022411 curveto
44.868318 24.328405 44.573722 24.603470 44.222162 24.847607 curveto
44.775544 25.257766 45.151520 25.578404 45.350092 25.809521 curveto
45.691885 26.203403 45.856272 26.621697 45.843256 27.064404 curveto
44.788568 23.016552 moveto
44.788565 22.684527 44.681143 22.412717 44.466303 22.201122 curveto
44.251456 21.986285 43.976391 21.878863 43.641108 21.878857 curveto
43.302564 21.878863 43.032382 21.997678 42.830561 22.235302 curveto
42.645013 22.459917 42.552239 22.744748 42.552240 23.089794 curveto
42.552239 23.395789 42.711744 23.690385 43.030756 23.973583 curveto
43.037265 23.980098 43.323723 24.188431 43.890131 24.598583 curveto
44.489086 24.094030 44.788565 23.566687 44.788568 23.016552 curveto
45.130365 27.064404 moveto
45.104320 26.797478 44.886221 26.480096 44.476068 26.112255 curveto
44.140779 25.842076 43.807121 25.571894 43.475092 25.301708 curveto
42.882643 25.728143 42.553867 26.253859 42.488764 26.878857 curveto
42.482252 26.960239 42.478997 27.038363 42.478998 27.113232 curveto
42.478997 27.510368 42.583164 27.829378 42.791498 28.070263 curveto
43.003085 28.311149 43.296054 28.431591 43.670404 28.431591 curveto
44.083813 28.431591 44.438631 28.289990 44.734858 28.006786 curveto
45.031078 27.723584 45.162914 27.409457 45.130365 27.064404 curveto
fill
0.0000000 0.0000000 0.0000000 setrgbcolor
newpath
50.857904 26.595654 moveto
49.720209 26.595654 lineto
49.720209 28.602489 lineto
49.046381 28.602489 lineto
49.046381 26.595654 lineto
46.189936 26.595654 lineto
46.189936 26.288036 lineto
49.476068 21.561474 lineto
49.720209 21.561474 lineto
49.720209 25.980419 lineto
50.857904 25.980419 lineto
50.857904 26.595654 lineto
49.046381 22.699169 moveto
46.805170 25.980419 lineto
49.046381 25.980419 lineto
49.046381 22.699169 lineto
fill
0.0000000 0.0000000 0.0000000 setrgbcolor
newpath
55.643061 26.595654 moveto
54.505365 26.595654 lineto
54.505365 28.602489 lineto
53.831537 28.602489 lineto
53.831537 26.595654 lineto
50.975092 26.595654 lineto
50.975092 26.288036 lineto
54.261225 21.561474 lineto
54.505365 21.561474 lineto
54.505365 25.980419 lineto
55.643061 25.980419 lineto
55.643061 26.595654 lineto
53.831537 22.699169 moveto
51.590326 25.980419 lineto
53.831537 25.980419 lineto
53.831537 22.699169 lineto
fill
0.0000000 0.0000000 0.0000000 setrgbcolor
newpath
57.874506 24.745068 moveto
57.874504 24.885045 57.824048 25.005488 57.723139 25.106396 curveto
57.625481 25.204055 57.508293 25.252883 57.371576 25.252880 curveto
57.231601 25.252883 57.111158 25.204055 57.010248 25.106396 curveto
56.912591 25.005488 56.863763 24.885045 56.863764 24.745068 curveto
56.863763 24.608353 56.912591 24.491165 57.010248 24.393505 curveto
57.111158 24.292598 57.231601 24.242142 57.371576 24.242138 curveto
57.508293 24.242142 57.625481 24.292598 57.723139 24.393505 curveto
57.824048 24.491165 57.874504 24.608353 57.874506 24.745068 curveto
fill
0.0000000 0.0000000 0.0000000 setrgbcolor
newpath
62.327631 28.597607 moveto
59.480951 28.597607 lineto
59.480951 28.426708 lineto
60.171054 28.426708 60.516106 28.148388 60.516108 27.591747 curveto
60.516108 22.435497 lineto
60.340325 22.539670 60.166171 22.643837 59.993647 22.747997 curveto
59.785312 22.865191 59.601393 22.944943 59.441889 22.987255 curveto
59.349115 22.772411 lineto
60.003411 22.446897 60.564934 22.049762 61.033686 21.581005 curveto
61.326654 21.581005 lineto
61.326654 27.591747 lineto
61.326652 27.927034 61.412915 28.154899 61.585443 28.275341 curveto
61.725415 28.376253 61.972810 28.426708 62.327631 28.426708 curveto
62.327631 28.597607 lineto
fill
0.0000000 0.0000000 0.0000000 setrgbcolor
newpath
67.762201 25.077099 moveto
67.762197 25.868117 67.594553 26.616814 67.259272 27.323193 curveto
66.842601 28.205354 66.281078 28.646435 65.574701 28.646435 curveto
64.842278 28.646435 64.272617 28.211865 63.865717 27.342724 curveto
63.546706 26.662387 63.387201 25.907180 63.387201 25.077099 curveto
63.387201 24.286088 63.554844 23.537390 63.890131 22.831005 curveto
64.306796 21.952105 64.868319 21.512653 65.574701 21.512646 curveto
66.307120 21.512653 66.875153 21.945595 67.278803 22.811474 curveto
67.601064 23.495073 67.762197 24.250280 67.762201 25.077099 curveto
67.044428 25.296825 moveto
67.044424 22.956336 66.554515 21.786090 65.574701 21.786083 curveto
64.594882 21.786090 64.104974 22.811480 64.104975 24.862255 curveto
64.104974 27.199496 64.594882 28.368115 65.574701 28.368114 curveto
66.554515 28.368115 67.044424 27.344353 67.044428 25.296825 curveto
fill
0.0000000 0.0000000 0.0000000 setrgbcolor
newpath
fill
0.0000000 0.0000000 0.0000000 setrgbcolor
newpath
fill
0.0000000 0.0000000 0.0000000 setrgbcolor
newpath
82.708490 28.602489 moveto
80.545404 28.602489 lineto
80.545404 28.382763 lineto
80.988106 28.382763 81.209460 28.163037 81.209467 27.723583 curveto
81.209467 25.501904 lineto
81.209460 25.225214 81.142729 24.982701 81.009272 24.774364 curveto
80.853015 24.533483 80.643055 24.413041 80.379389 24.413036 curveto
79.975738 24.413041 79.495595 24.616491 78.938959 25.023388 curveto
78.938959 27.962841 lineto
78.938955 28.229768 79.199371 28.363232 79.720209 28.363232 curveto
79.744623 28.602489 lineto
77.586420 28.602489 lineto
77.586420 28.382763 lineto
78.025870 28.382763 78.245596 28.163037 78.245600 27.723583 curveto
78.245600 25.501904 lineto
78.245596 25.221959 78.188630 24.981074 78.074701 24.779247 curveto
77.934724 24.535111 77.734529 24.413041 77.474115 24.413036 curveto
77.063957 24.413041 76.561027 24.632767 75.965326 25.072216 curveto
75.965326 27.860302 lineto
75.965325 28.179313 76.211093 28.353466 76.702631 28.382763 curveto
76.673334 28.602489 lineto
74.607904 28.602489 lineto
74.588373 28.563427 lineto
74.617670 28.412060 lineto
74.819493 28.412060 74.982253 28.329052 75.105951 28.163036 curveto
75.219883 28.010042 75.276849 27.829378 75.276850 27.621044 curveto
75.276850 24.930614 lineto
75.276849 24.813431 75.175938 24.720657 74.974115 24.652294 curveto
74.948073 24.642532 74.795079 24.606725 74.515131 24.544872 curveto
74.515131 24.422802 lineto
74.547683 24.386999 74.588373 24.360957 74.637201 24.344677 curveto
74.894362 24.256791 75.278477 24.098913 75.789545 23.871044 curveto
75.965326 24.002880 lineto
75.965326 24.881786 lineto
76.906079 24.276322 77.555493 23.973588 77.913568 23.973583 curveto
78.131664 23.973588 78.335114 24.074499 78.523920 24.276318 curveto
78.683421 24.448848 78.798981 24.650671 78.870600 24.881786 curveto
79.811350 24.276322 80.460763 23.973588 80.818842 23.973583 curveto
81.167143 23.973588 81.445463 24.134721 81.653803 24.456982 curveto
81.836087 24.736933 81.927233 25.059199 81.927240 25.423779 curveto
81.927240 27.962841 lineto
81.927233 28.229768 82.177884 28.363232 82.679193 28.363232 curveto
82.708490 28.602489 lineto
fill
0.0000000 0.0000000 0.0000000 setrgbcolor
newpath
107.18481 66.987411 moveto
106.69653 67.446396 lineto
106.59236 66.984163 106.26358 66.753043 105.71020 66.753036 curveto
105.39118 66.753043 105.10473 66.849072 104.85082 67.041122 curveto
104.57738 67.249462 104.44066 67.509878 104.44067 67.822372 curveto
104.44067 68.979599 lineto
105.58813 68.979599 lineto
105.58813 69.350693 lineto
104.44067 69.350693 lineto
104.44067 72.583115 lineto
104.44066 72.999782 104.67016 73.208115 105.12914 73.208115 curveto
105.16495 73.208115 105.21703 73.208115 105.28539 73.208115 curveto
105.35375 73.204860 105.40421 73.203232 105.43676 73.203232 curveto
105.43676 73.422958 lineto
103.05883 73.422958 lineto
103.03442 73.281357 lineto
103.30134 73.199977 103.45922 73.146266 103.50805 73.120224 curveto
103.67081 73.032334 103.75219 72.900498 103.75219 72.724716 curveto
103.75219 69.350693 lineto
103.66104 69.360462 103.37621 69.337676 102.89770 69.282333 curveto
102.89770 69.091904 lineto
103.30134 69.091908 103.53572 69.054473 103.60082 68.979599 curveto
103.75219 68.979599 lineto
103.75219 68.833115 lineto
103.75219 68.309031 103.80915 67.931427 103.92309 67.700302 curveto
104.01098 67.527782 104.24535 67.257600 104.62621 66.889755 curveto
104.95824 66.570752 105.43676 66.411247 106.06176 66.411240 curveto
106.39704 66.411247 106.77139 66.603304 107.18481 66.987411 curveto
fill
0.0000000 0.0000000 0.0000000 setrgbcolor
newpath
30.211443 28.545103 moveto
30.211439 29.086771 30.038262 29.526875 29.691912 29.865416 curveto
29.348159 30.203957 28.904149 30.373228 28.359880 30.373228 curveto
27.867692 30.373228 27.441911 30.200051 27.082537 29.853697 curveto
26.725766 29.504739 26.547380 29.085469 26.547380 28.595884 curveto
26.547380 28.035991 26.711443 27.580262 27.039568 27.228697 curveto
27.370296 26.877138 27.814306 26.701357 28.371599 26.701353 curveto
28.902847 26.701357 29.341648 26.875836 29.688005 27.224791 curveto
30.036960 27.573752 30.211439 28.013855 30.211443 28.545103 curveto
29.504412 28.888853 moveto
29.504409 28.373230 29.423680 27.942241 29.262224 27.595884 curveto
29.046076 27.132346 28.710139 26.900575 28.254412 26.900572 curveto
27.845556 26.900575 27.563004 27.064638 27.406755 27.392759 curveto
27.297380 27.621929 27.242692 27.966980 27.242693 28.427916 curveto
27.242692 28.849792 27.345557 29.230000 27.551287 29.568541 curveto
27.790869 29.961770 28.108577 30.158384 28.504412 30.158384 curveto
29.171076 30.158384 29.504409 29.735208 29.504412 28.888853 curveto
fill
0.0000000 0.0000000 0.0000000 setrgbcolor
newpath
71.870613 22.415913 moveto
71.860193 22.819559 71.671391 23.145080 71.304207 23.392475 curveto
70.965663 23.619038 70.558111 23.732319 70.081551 23.732319 curveto
69.094571 23.732319 68.589363 23.285705 68.565926 22.392475 curveto
68.558113 22.048727 68.690925 21.731019 68.964363 21.439350 curveto
69.128425 21.267478 69.396654 21.063051 69.769051 20.826069 curveto
69.365404 20.495343 69.140144 20.306541 69.093269 20.259663 curveto
68.840665 19.991437 68.714363 19.708885 68.714363 19.412006 curveto
68.714363 19.021386 68.838060 18.698470 69.085457 18.443256 curveto
69.332852 18.185449 69.664883 18.043522 70.081551 18.017475 curveto
70.508632 17.994043 70.871913 18.089095 71.171394 18.302631 curveto
71.473475 18.516178 71.624516 18.794824 71.624519 19.138569 curveto
71.624516 19.406802 71.509933 19.688052 71.280769 19.982319 curveto
71.090662 20.227114 70.854986 20.447166 70.573738 20.642475 curveto
71.016444 20.970603 71.317225 21.227113 71.476082 21.412006 curveto
71.749516 21.727112 71.881026 22.061748 71.870613 22.415913 curveto
71.026863 19.177631 moveto
71.026860 18.912011 70.940923 18.694563 70.769051 18.525288 curveto
70.597173 18.353418 70.377121 18.267481 70.108894 18.267475 curveto
69.838059 18.267481 69.621914 18.362532 69.460457 18.552631 curveto
69.312018 18.732324 69.237800 18.960188 69.237801 19.236225 curveto
69.237800 19.481021 69.365404 19.716698 69.620613 19.943256 curveto
69.625820 19.948468 69.854987 20.115135 70.308113 20.443256 curveto
70.787277 20.039614 71.026860 19.617740 71.026863 19.177631 curveto
71.300301 22.415913 moveto
71.279464 22.202372 71.104985 21.948466 70.776863 21.654194 curveto
70.508632 21.438050 70.241705 21.221905 69.976082 21.005756 curveto
69.502122 21.346905 69.239102 21.767477 69.187019 22.267475 curveto
69.181810 22.332581 69.179206 22.395081 69.179207 22.454975 curveto
69.179206 22.772684 69.262539 23.027892 69.429207 23.220600 curveto
69.598476 23.413309 69.832851 23.509663 70.132332 23.509663 curveto
70.463059 23.509663 70.746913 23.396382 70.983894 23.169819 curveto
71.220871 22.943257 71.326339 22.691955 71.300301 22.415913 curveto
fill
grestore
showpage
