%!PS-Adobe-2.0
%%Creator: inkscape 0.41.1
%%Pages: 1
%%Orientation: Portrait
%%BoundingBox: 34 761 148 809
%%HiResBoundingBox: 34.072999 761.56267 147.36909 808.01332
%%EndComments
%%Page: 1 1
0 842 translate
0.80000000 -0.80000000 scale
gsave [1.0000000 0.0000000 0.0000000 1.0000000 0.0000000 0.0000000] concat
0.0000000 0.0000000 0.0000000 setrgbcolor
[] 0 setdash
0.35433072 setlinewidth
0 setlinejoin
0 setlinecap
newpath
42.768414 67.392652 moveto
185.32979 67.392652 184.03378 67.392652 184.03378 67.392652 curveto
stroke
0.0000000 0.0000000 0.0000000 setrgbcolor
[0.70866144 2.1259843] 0.0000000 setdash
0.35433072 setlinewidth
0 setlinejoin
0 setlinecap
newpath
112.42201 42.522703 moveto
112.42201 95.795849 112.42201 95.795849 112.42201 95.795849 curveto
stroke
0.0000000 0.0000000 0.0000000 setrgbcolor
[] 0 setdash
1.0000000 setlinewidth
0 setlinejoin
0 setlinecap
newpath
89.310862 99.908846 moveto
112.42201 67.396561 lineto
153.55201 67.396561 lineto
stroke
gsave [-0.60000000 0.0000000 0.0000000 -0.60000000 156.55201 67.396561] concat
0.0000000 0.0000000 0.0000000 setrgbcolor
newpath
8.7185878 4.0337352 moveto
-2.2072895 0.016013256 lineto
8.7185884 -4.0017078 lineto
6.9730900 -1.6296469 6.9831476 1.6157441 8.7185878 4.0337352 curveto
closepath
eofill
grestore
0.0000000 0.0000000 0.0000000 setrgbcolor
[] 0 setdash
0.35433072 setlinewidth
0 setlinejoin
0 setlinecap
newpath
103.80430 79.539705 moveto
103.80430 79.539705 107.72143 82.673419 112.22615 82.869276 curveto
stroke
0.0000000 0.0000000 0.0000000 setrgbcolor
newpath
56.942844 63.774567 moveto
56.617319 64.012197 56.451304 64.134267 56.444798 64.140778 curveto
56.233205 64.270986 56.037893 64.336090 55.858860 64.336090 curveto
55.578909 64.336090 55.386852 64.122874 55.282688 63.696442 curveto
54.888806 63.982900 54.670707 64.137523 54.628391 64.160309 curveto
54.413546 64.280752 54.166150 64.340973 53.886204 64.340973 curveto
53.609510 64.340973 53.375135 64.246572 53.183079 64.057770 curveto
52.994276 63.865713 52.899875 63.632966 52.899876 63.359528 curveto
52.899875 63.017732 53.034966 62.737784 53.305149 62.519684 curveto
53.464653 62.392733 53.749484 62.244621 54.159641 62.075348 curveto
55.263157 61.621246 lineto
55.263157 60.893707 lineto
55.263154 60.636549 55.170381 60.420078 54.984837 60.244293 curveto
54.802543 60.068516 54.581189 59.980626 54.320774 59.980621 curveto
53.907361 59.980626 53.700656 60.200352 53.700657 60.639801 curveto
53.700656 60.669101 53.707166 60.708164 53.720188 60.756989 curveto
53.733208 60.805820 53.739718 60.843255 53.739719 60.869293 curveto
53.739718 60.989739 53.648572 61.097161 53.466282 61.191559 curveto
53.306776 61.276197 53.160292 61.318515 53.026829 61.318512 curveto
52.971490 61.318515 52.943820 61.272942 52.943821 61.181793 curveto
52.943820 60.748854 53.126112 60.394037 53.490696 60.117340 curveto
53.822726 59.863438 54.213350 59.736485 54.662571 59.736481 curveto
55.111787 59.736485 55.440563 59.819493 55.648899 59.985504 curveto
55.880015 60.167800 55.995575 60.477044 55.995579 60.913239 curveto
55.995579 63.427887 lineto
55.995575 63.707835 56.091604 63.847809 56.283665 63.847809 curveto
56.404103 63.847809 56.620575 63.756664 56.933079 63.574371 curveto
56.942844 63.774567 lineto
55.268040 63.369293 moveto
55.263157 61.904449 lineto
54.271946 62.339020 lineto
53.825981 62.534334 53.603000 62.848461 53.603001 63.281403 curveto
53.603000 63.466950 53.663221 63.615062 53.783665 63.725739 curveto
53.904106 63.836416 54.057101 63.891755 54.242649 63.891754 curveto
54.434704 63.891755 54.620251 63.838044 54.799290 63.730621 curveto
54.877412 63.681794 55.033662 63.561351 55.268040 63.369293 curveto
fill
0.0000000 0.0000000 0.0000000 setrgbcolor
newpath
59.354954 64.262848 moveto
57.113743 64.262848 lineto
57.094212 64.223785 lineto
57.123508 64.072418 lineto
57.354628 64.072418 57.519016 64.039866 57.616673 63.974762 curveto
57.737114 63.893382 57.797336 63.737132 57.797337 63.506012 curveto
57.797337 60.590973 lineto
57.797336 60.353347 57.680148 60.234532 57.445774 60.234528 curveto
57.357883 60.234532 57.255344 60.249180 57.138157 60.278473 curveto
57.016087 60.083160 lineto
57.634575 59.910639 58.098442 59.726720 58.407688 59.531403 curveto
58.588352 59.663239 lineto
58.588352 63.520660 lineto
58.588351 63.839671 58.837374 64.013825 59.335423 64.043121 curveto
59.354954 64.262848 lineto
58.646946 58.012848 moveto
58.646944 58.152828 58.598116 58.273271 58.500462 58.374176 curveto
58.402804 58.471838 58.283989 58.520666 58.144016 58.520660 curveto
58.004041 58.520666 57.885226 58.471838 57.787571 58.374176 curveto
57.689914 58.273271 57.641086 58.152828 57.641087 58.012848 curveto
57.641086 57.872880 57.689914 57.754065 57.787571 57.656403 curveto
57.885226 57.558753 58.004041 57.509925 58.144016 57.509918 curveto
58.283989 57.509925 58.402804 57.558753 58.500462 57.656403 curveto
58.598116 57.754065 58.646944 57.872880 58.646946 58.012848 curveto
fill
0.0000000 0.0000000 0.0000000 setrgbcolor
newpath
63.075657 59.902496 moveto
63.065888 60.088047 62.964976 60.338698 62.772923 60.654449 curveto
62.369274 60.446120 62.090954 60.341953 61.937962 60.341949 curveto
61.742647 60.341953 61.570121 60.436354 61.420383 60.625153 curveto
61.306449 60.797682 61.194145 60.970208 61.083469 61.142731 curveto
61.083469 63.564606 lineto
61.083468 63.916169 61.303194 64.091950 61.742649 64.091949 curveto
61.784965 64.091950 61.845186 64.090322 61.923313 64.087067 curveto
62.001436 64.083812 62.056774 64.082184 62.089329 64.082184 curveto
62.108860 64.262848 lineto
59.691868 64.262848 lineto
59.691868 64.121246 lineto
60.150852 64.108226 60.380344 63.922679 60.380344 63.564606 curveto
60.380344 60.703278 lineto
60.380344 60.511224 60.145969 60.364740 59.677219 60.263824 curveto
59.677219 60.083160 lineto
59.963677 60.050613 60.368950 59.884597 60.893040 59.585114 curveto
61.083469 59.624176 lineto
61.083469 60.776520 lineto
61.474093 60.047357 61.822399 59.682774 62.128391 59.682770 curveto
62.284639 59.682774 62.600393 59.756016 63.075657 59.902496 curveto
fill
0.0000000 0.0000000 0.0000000 setrgbcolor
newpath
55.551727 82.477562 moveto
53.388641 82.477562 lineto
53.388641 82.257835 lineto
53.831343 82.257836 54.052697 82.038109 54.052704 81.598656 curveto
54.052704 79.376976 lineto
54.052697 79.100287 53.985965 78.857774 53.852509 78.649437 curveto
53.696252 78.408556 53.486292 78.288113 53.222626 78.288109 curveto
52.818974 78.288113 52.338832 78.491563 51.782196 78.898460 curveto
51.782196 81.837914 lineto
51.782192 82.104841 52.042608 82.238304 52.563446 82.238304 curveto
52.587860 82.477562 lineto
50.429657 82.477562 lineto
50.429657 82.257835 lineto
50.869107 82.257836 51.088833 82.038109 51.088837 81.598656 curveto
51.088837 79.376976 lineto
51.088833 79.097031 51.031867 78.856146 50.917938 78.654320 curveto
50.777961 78.410183 50.577766 78.288113 50.317352 78.288109 curveto
49.907194 78.288113 49.404264 78.507839 48.808563 78.947289 curveto
48.808563 81.735374 lineto
48.808562 82.054385 49.054330 82.228539 49.545868 82.257835 curveto
49.516571 82.477562 lineto
47.451141 82.477562 lineto
47.431610 82.438499 lineto
47.460907 82.287132 lineto
47.662730 82.287132 47.825490 82.204125 47.949188 82.038109 curveto
48.063120 81.885115 48.120086 81.704451 48.120087 81.496117 curveto
48.120087 78.805687 lineto
48.120086 78.688503 48.019175 78.595730 47.817352 78.527367 curveto
47.791310 78.517605 47.638316 78.481798 47.358368 78.419945 curveto
47.358368 78.297874 lineto
47.390920 78.262071 47.431610 78.236030 47.480438 78.219749 curveto
47.737599 78.131863 48.121714 77.973986 48.632782 77.746117 curveto
48.808563 77.877953 lineto
48.808563 78.756859 lineto
49.749316 78.151394 50.398730 77.848660 50.756805 77.848656 curveto
50.974901 77.848660 51.178351 77.949572 51.367157 78.151390 curveto
51.526658 78.323920 51.642218 78.525743 51.713837 78.756859 curveto
52.654587 78.151394 53.304000 77.848660 53.662079 77.848656 curveto
54.010380 77.848660 54.288700 78.009793 54.497040 78.332054 curveto
54.679324 78.612006 54.770470 78.934271 54.770477 79.298851 curveto
54.770477 81.837914 lineto
54.770470 82.104841 55.021121 82.238304 55.522430 82.238304 curveto
55.551727 82.477562 lineto
fill
0.0000000 0.0000000 0.0000000 setrgbcolor
newpath
58.227509 82.477562 moveto
55.986298 82.477562 lineto
55.966766 82.438499 lineto
55.996063 82.287132 lineto
56.227183 82.287132 56.391570 82.254580 56.489227 82.189476 curveto
56.609669 82.108096 56.669890 81.951846 56.669891 81.720726 curveto
56.669891 78.805687 lineto
56.669890 78.568061 56.552703 78.449246 56.318329 78.449242 curveto
56.230438 78.449246 56.127899 78.463894 56.010712 78.493187 curveto
55.888641 78.297874 lineto
56.507130 78.125353 56.970997 77.941434 57.280243 77.746117 curveto
57.460907 77.877953 lineto
57.460907 81.735374 lineto
57.460905 82.054385 57.709928 82.228539 58.207977 82.257835 curveto
58.227509 82.477562 lineto
57.519501 76.227562 moveto
57.519499 76.367542 57.470671 76.487985 57.373016 76.588890 curveto
57.275359 76.686552 57.156544 76.735380 57.016571 76.735374 curveto
56.876596 76.735380 56.757781 76.686552 56.660126 76.588890 curveto
56.562469 76.487985 56.513641 76.367542 56.513641 76.227562 curveto
56.513641 76.087594 56.562469 75.968779 56.660126 75.871117 curveto
56.757781 75.773467 56.876596 75.724639 57.016571 75.724632 curveto
57.156544 75.724639 57.275359 75.773467 57.373016 75.871117 curveto
57.470671 75.968779 57.519499 76.087594 57.519501 76.227562 curveto
fill
0.0000000 0.0000000 0.0000000 setrgbcolor
newpath
60.873993 82.257835 moveto
60.844696 82.477562 lineto
58.735321 82.477562 lineto
58.715790 82.438499 lineto
58.745087 82.287132 lineto
58.950164 82.287132 59.114552 82.204125 59.238251 82.038109 curveto
59.352182 81.888370 59.409148 81.707706 59.409149 81.496117 curveto
59.409149 76.286156 lineto
59.409148 76.168975 59.347299 76.071318 59.223602 75.993187 curveto
59.119435 75.928089 59.003875 75.895537 58.876923 75.895531 curveto
58.876922 75.895537 58.795542 75.911813 58.632782 75.944359 curveto
58.632782 75.928089 58.634409 75.903675 58.637665 75.871117 curveto
58.640920 75.838571 58.642547 75.812530 58.642548 75.792992 curveto
58.642547 75.747425 58.689748 75.708363 58.784149 75.675804 curveto
59.038055 75.597686 59.412403 75.451202 59.907196 75.236351 curveto
60.122040 75.236351 lineto
60.122040 81.735374 lineto
60.122038 82.054385 60.372689 82.228539 60.873993 82.257835 curveto
fill
0.0000000 0.0000000 0.0000000 setrgbcolor
newpath
63.559540 82.477562 moveto
61.318329 82.477562 lineto
61.298798 82.438499 lineto
61.328094 82.287132 lineto
61.559214 82.287132 61.723602 82.254580 61.821259 82.189476 curveto
61.941700 82.108096 62.001922 81.951846 62.001923 81.720726 curveto
62.001923 78.805687 lineto
62.001922 78.568061 61.884734 78.449246 61.650360 78.449242 curveto
61.562469 78.449246 61.459930 78.463894 61.342743 78.493187 curveto
61.220673 78.297874 lineto
61.839161 78.125353 62.303028 77.941434 62.612274 77.746117 curveto
62.792938 77.877953 lineto
62.792938 81.735374 lineto
62.792937 82.054385 63.041960 82.228539 63.540009 82.257835 curveto
63.559540 82.477562 lineto
62.851532 76.227562 moveto
62.851530 76.367542 62.802702 76.487985 62.705048 76.588890 curveto
62.607390 76.686552 62.488575 76.735380 62.348602 76.735374 curveto
62.208627 76.735380 62.089812 76.686552 61.992157 76.588890 curveto
61.894500 76.487985 61.845672 76.367542 61.845673 76.227562 curveto
61.845672 76.087594 61.894500 75.968779 61.992157 75.871117 curveto
62.089812 75.773467 62.208627 75.724639 62.348602 75.724632 curveto
62.488575 75.724639 62.607390 75.773467 62.705048 75.871117 curveto
62.802702 75.968779 62.851530 76.087594 62.851532 76.227562 curveto
fill
0.0000000 0.0000000 0.0000000 setrgbcolor
newpath
67.763641 81.276390 moveto
67.359992 82.135765 66.720344 82.565452 65.844696 82.565453 curveto
65.281544 82.565452 64.806284 82.319685 64.418915 81.828148 curveto
64.057586 81.369165 63.876923 80.851587 63.876923 80.275414 curveto
63.876923 79.621119 64.062469 79.070990 64.433563 78.625023 curveto
64.830698 78.149767 65.349903 77.912137 65.991180 77.912132 curveto
66.502245 77.912137 66.915656 78.066759 67.231415 78.375999 curveto
67.550421 78.685248 67.709927 79.097031 67.709930 79.611351 curveto
64.555634 79.611351 lineto
64.539357 79.748072 64.531219 79.888046 64.531219 80.031273 curveto
64.531219 80.516301 64.679331 80.962264 64.975555 81.369164 curveto
65.301075 81.821638 65.698210 82.047875 66.166962 82.047874 curveto
66.778938 82.047875 67.244432 81.772810 67.563446 81.222679 curveto
67.602509 81.222679 lineto
67.674119 81.219425 67.727830 81.237329 67.763641 81.276390 curveto
66.962860 79.333031 moveto
66.949836 79.001003 66.834276 78.730821 66.616180 78.522484 curveto
66.398079 78.310899 66.121386 78.205105 65.786102 78.205101 curveto
65.509408 78.205105 65.263640 78.327175 65.048798 78.571312 curveto
64.859994 78.786159 64.731414 79.040065 64.663055 79.333031 curveto
66.962860 79.333031 lineto
fill
0.0000000 0.0000000 0.0000000 setrgbcolor
newpath
73.383759 81.876976 moveto
73.373993 82.077171 lineto
71.894501 82.497093 lineto
71.894501 81.618187 lineto
71.285774 82.223656 70.623339 82.526390 69.907196 82.526390 curveto
69.197560 82.526390 68.842742 82.042992 68.842743 81.076195 curveto
68.842743 78.917992 lineto
68.842742 78.719428 68.774383 78.563178 68.637665 78.449242 curveto
68.500946 78.335313 68.331675 78.278347 68.129852 78.278343 curveto
68.110321 78.078148 lineto
69.565399 77.819359 lineto
69.565399 80.998070 lineto
69.565398 81.278019 69.654916 81.515649 69.833954 81.710960 curveto
70.016244 81.916039 70.245736 82.018578 70.522430 82.018578 curveto
70.799120 82.018578 71.256477 81.787458 71.894501 81.325218 curveto
71.894501 78.639671 lineto
71.894497 78.395535 71.580370 78.255561 70.952118 78.219749 curveto
70.952118 78.058617 lineto
72.592743 77.755882 lineto
72.592743 81.569359 lineto
72.592738 81.813500 72.729457 81.935570 73.002899 81.935570 curveto
73.074509 81.935570 73.201462 81.916039 73.383759 81.876976 curveto
fill
0.0000000 0.0000000 0.0000000 setrgbcolor
newpath
102.24389 93.588814 moveto
102.24388 94.204050 102.01927 94.744414 101.57006 95.209908 curveto
101.12084 95.672147 100.59024 95.903267 99.978264 95.903267 curveto
99.226309 95.903267 98.635489 95.566353 98.205803 94.892525 curveto
97.834709 94.309844 97.649162 93.622996 97.649162 92.831978 curveto
97.649162 91.787060 98.021883 90.888623 98.767326 90.136665 curveto
99.392324 89.508416 100.25170 89.008742 101.34545 88.637642 curveto
101.43822 88.857368 lineto
99.797598 89.436802 98.827546 90.530551 98.528069 92.138618 curveto
98.863354 91.861930 99.109122 91.681266 99.265373 91.596626 curveto
99.542064 91.440381 99.835032 91.362256 100.14428 91.362251 curveto
100.69441 91.362256 101.18431 91.596630 101.61401 92.065376 curveto
102.03392 92.524364 102.24388 93.032176 102.24389 93.588814 curveto
101.40893 93.520454 moveto
101.40892 93.054962 101.30313 92.643179 101.09155 92.285103 curveto
100.84089 91.858674 100.50072 91.645459 100.07104 91.645454 curveto
99.794342 91.645459 99.509512 91.731721 99.216545 91.904243 curveto
99.115632 91.962841 98.871492 92.140250 98.484123 92.436470 curveto
98.474357 92.550406 98.469474 92.669221 98.469475 92.792915 curveto
98.469474 94.723255 98.995189 95.688423 100.04662 95.688423 curveto
100.60001 95.688423 100.98249 95.447538 101.19408 94.965767 curveto
101.33731 94.636992 101.40892 94.155222 101.40893 93.520454 curveto
fill
0.0000000 0.0000000 0.0000000 setrgbcolor
newpath
107.13158 92.270454 moveto
107.13158 93.061473 106.96394 93.810170 106.62865 94.516548 curveto
106.21198 95.398710 105.65046 95.839790 104.94408 95.839790 curveto
104.21166 95.839790 103.64200 95.405220 103.23510 94.536079 curveto
102.91609 93.855743 102.75658 93.100535 102.75658 92.270454 curveto
102.75658 91.479443 102.92423 90.730746 103.25951 90.024361 curveto
103.67618 89.145461 104.23770 88.706008 104.94408 88.706001 curveto
105.67650 88.706008 106.24454 89.138951 106.64819 90.004829 curveto
106.97045 90.688428 107.13158 91.443636 107.13158 92.270454 curveto
106.41381 92.490181 moveto
106.41381 90.149692 105.92390 88.979446 104.94408 88.979439 curveto
103.96426 88.979446 103.47436 90.004835 103.47436 92.055611 curveto
103.47436 94.392852 103.96426 95.561470 104.94408 95.561470 curveto
105.92390 95.561470 106.41381 94.537708 106.41381 92.490181 curveto
fill
0.0000000 0.0000000 0.0000000 setrgbcolor
newpath
111.50170 90.551704 moveto
111.50170 90.978142 111.35033 91.342724 111.04760 91.645454 curveto
110.74486 91.948193 110.37865 92.099560 109.94897 92.099556 curveto
109.52253 92.099560 109.15795 91.948193 108.85522 91.645454 curveto
108.55248 91.342724 108.40111 90.978142 108.40112 90.551704 curveto
108.40111 90.122023 108.55248 89.755812 108.85522 89.453072 curveto
109.15795 89.150344 109.52253 88.998977 109.94897 88.998970 curveto
110.37865 88.998977 110.74486 89.150344 111.04760 89.453072 curveto
111.35033 89.755812 111.50170 90.122023 111.50170 90.551704 curveto
110.94506 90.561470 moveto
110.94506 90.288038 110.84740 90.055291 110.65209 89.863228 curveto
110.46003 89.667921 110.22566 89.570265 109.94897 89.570259 curveto
109.67553 89.570265 109.44115 89.667921 109.24584 89.863228 curveto
109.05378 90.055291 108.95775 90.288038 108.95776 90.561470 curveto
108.95775 90.838168 109.05378 91.074170 109.24584 91.269478 curveto
109.44115 91.461539 109.67553 91.557568 109.94897 91.557564 curveto
110.22566 91.557568 110.46003 91.461539 110.65209 91.269478 curveto
110.84740 91.074170 110.94506 90.838168 110.94506 90.561470 curveto
fill
0.0000000 0.0000000 0.0000000 setrgbcolor
[] 0 setdash
0.35433072 setlinewidth
0 setlinejoin
0 setlinecap
newpath
43.480288 67.592419 moveto
47.789145 72.684705 lineto
stroke
0.0000000 0.0000000 0.0000000 setrgbcolor
[] 0 setdash
0.35433072 setlinewidth
0 setlinejoin
0 setlinecap
newpath
48.180860 67.396564 moveto
52.489717 72.488844 lineto
stroke
0.0000000 0.0000000 0.0000000 setrgbcolor
[] 0 setdash
0.35433072 setlinewidth
0 setlinejoin
0 setlinecap
newpath
52.685574 67.396562 moveto
56.994431 72.488848 lineto
stroke
0.0000000 0.0000000 0.0000000 setrgbcolor
[] 0 setdash
0.35433072 setlinewidth
0 setlinejoin
0 setlinecap
newpath
57.190289 67.396562 moveto
61.499146 72.488848 lineto
stroke
0.0000000 0.0000000 0.0000000 setrgbcolor
[] 0 setdash
0.35433072 setlinewidth
0 setlinejoin
0 setlinecap
newpath
61.695004 67.592418 moveto
66.003861 72.684704 lineto
stroke
0.0000000 0.0000000 0.0000000 setrgbcolor
[] 0 setdash
0.35433072 setlinewidth
0 setlinejoin
0 setlinecap
newpath
66.199718 67.396561 moveto
70.508575 72.488847 lineto
stroke
0.0000000 0.0000000 0.0000000 setrgbcolor
[] 0 setdash
0.35433072 setlinewidth
0 setlinejoin
0 setlinecap
newpath
70.704433 67.396562 moveto
75.013290 72.488848 lineto
stroke
0.0000000 0.0000000 0.0000000 setrgbcolor
[] 0 setdash
0.35433072 setlinewidth
0 setlinejoin
0 setlinecap
newpath
75.209146 67.396561 moveto
79.518003 72.488851 lineto
stroke
0.0000000 0.0000000 0.0000000 setrgbcolor
[] 0 setdash
0.35433072 setlinewidth
0 setlinejoin
0 setlinecap
newpath
79.713861 67.396561 moveto
84.022718 72.488847 lineto
stroke
0.0000000 0.0000000 0.0000000 setrgbcolor
[] 0 setdash
0.35433072 setlinewidth
0 setlinejoin
0 setlinecap
newpath
84.218576 67.396562 moveto
88.527433 72.488850 lineto
stroke
0.0000000 0.0000000 0.0000000 setrgbcolor
[] 0 setdash
0.35433072 setlinewidth
0 setlinejoin
0 setlinecap
newpath
88.723290 67.396558 moveto
93.032147 72.488848 lineto
stroke
0.0000000 0.0000000 0.0000000 setrgbcolor
[] 0 setdash
0.35433072 setlinewidth
0 setlinejoin
0 setlinecap
newpath
93.228005 67.396562 moveto
97.536862 72.488850 lineto
stroke
0.0000000 0.0000000 0.0000000 setrgbcolor
[] 0 setdash
0.35433072 setlinewidth
0 setlinejoin
0 setlinecap
newpath
97.732719 67.396561 moveto
102.04158 72.488847 lineto
stroke
0.0000000 0.0000000 0.0000000 setrgbcolor
[] 0 setdash
0.35433072 setlinewidth
0 setlinejoin
0 setlinecap
newpath
102.23743 67.592415 moveto
106.54629 72.684705 lineto
stroke
0.0000000 0.0000000 0.0000000 setrgbcolor
[] 0 setdash
0.35433072 setlinewidth
0 setlinejoin
0 setlinecap
newpath
115.35986 67.396564 moveto
119.66872 72.488844 lineto
stroke
0.0000000 0.0000000 0.0000000 setrgbcolor
[] 0 setdash
0.35433072 setlinewidth
0 setlinejoin
0 setlinecap
newpath
119.66872 67.494496 moveto
123.97758 72.586776 lineto
stroke
0.0000000 0.0000000 0.0000000 setrgbcolor
[] 0 setdash
0.35433072 setlinewidth
0 setlinejoin
0 setlinecap
newpath
124.36929 67.298636 moveto
128.67815 72.390916 lineto
stroke
0.0000000 0.0000000 0.0000000 setrgbcolor
[] 0 setdash
0.35433072 setlinewidth
0 setlinejoin
0 setlinecap
newpath
128.87401 67.298636 moveto
133.18287 72.390916 lineto
stroke
0.0000000 0.0000000 0.0000000 setrgbcolor
[] 0 setdash
0.35433072 setlinewidth
0 setlinejoin
0 setlinecap
newpath
133.37872 67.298636 moveto
137.68758 72.390916 lineto
stroke
0.0000000 0.0000000 0.0000000 setrgbcolor
[] 0 setdash
0.35433072 setlinewidth
0 setlinejoin
0 setlinecap
newpath
137.88344 67.494486 moveto
142.19230 72.586776 lineto
stroke
0.0000000 0.0000000 0.0000000 setrgbcolor
[] 0 setdash
0.35433072 setlinewidth
0 setlinejoin
0 setlinecap
newpath
142.38815 67.298636 moveto
146.69701 72.390916 lineto
stroke
0.0000000 0.0000000 0.0000000 setrgbcolor
[] 0 setdash
0.35433072 setlinewidth
0 setlinejoin
0 setlinecap
newpath
146.89287 67.298636 moveto
151.20172 72.390916 lineto
stroke
0.0000000 0.0000000 0.0000000 setrgbcolor
[] 0 setdash
0.35433072 setlinewidth
0 setlinejoin
0 setlinecap
newpath
151.39758 67.298636 moveto
155.70644 72.390926 lineto
stroke
0.0000000 0.0000000 0.0000000 setrgbcolor
[] 0 setdash
0.35433072 setlinewidth
0 setlinejoin
0 setlinecap
newpath
155.90230 67.298636 moveto
160.21115 72.390916 lineto
stroke
0.0000000 0.0000000 0.0000000 setrgbcolor
[] 0 setdash
0.35433072 setlinewidth
0 setlinejoin
0 setlinecap
newpath
160.40701 67.298636 moveto
164.71587 72.390926 lineto
stroke
0.0000000 0.0000000 0.0000000 setrgbcolor
[] 0 setdash
0.35433072 setlinewidth
0 setlinejoin
0 setlinecap
newpath
164.91172 67.298626 moveto
169.22058 72.390916 lineto
stroke
0.0000000 0.0000000 0.0000000 setrgbcolor
[] 0 setdash
0.35433072 setlinewidth
0 setlinejoin
0 setlinecap
newpath
169.41644 67.298636 moveto
173.72530 72.390926 lineto
stroke
0.0000000 0.0000000 0.0000000 setrgbcolor
[] 0 setdash
0.35433072 setlinewidth
0 setlinejoin
0 setlinecap
newpath
173.92115 67.298636 moveto
178.23001 72.390916 lineto
stroke
0.0000000 0.0000000 0.0000000 setrgbcolor
[] 0 setdash
0.35433072 setlinewidth
0 setlinejoin
0 setlinecap
newpath
178.42586 67.494486 moveto
182.73472 72.586776 lineto
stroke
grestore
showpage
