%!PS-Adobe-2.0
%%Creator: inkscape 0.41.1
%%Pages: 1
%%Orientation: Portrait
%%BoundingBox: 34 760 148 809
%%HiResBoundingBox: 34.072999 760.15250 147.36909 808.01332
%%EndComments
%%Page: 1 1
0 842 translate
0.80000000 -0.80000000 scale
gsave [1.0000000 0.0000000 0.0000000 1.0000000 0.0000000 0.0000000] concat
0.0000000 0.0000000 0.0000000 setrgbcolor
[] 0 setdash
0.35433072 setlinewidth
0 setlinejoin
0 setlinecap
newpath
42.768414 67.392652 moveto
185.32979 67.392652 184.03378 67.392652 184.03378 67.392652 curveto
stroke
0.0000000 0.0000000 0.0000000 setrgbcolor
[0.70866144 2.1259843] 0.0000000 setdash
0.35433072 setlinewidth
0 setlinejoin
0 setlinecap
newpath
112.42201 42.522703 moveto
112.42201 95.795849 112.42201 95.795849 112.42201 95.795849 curveto
stroke
0.0000000 0.0000000 0.0000000 setrgbcolor
[] 0 setdash
1.0000000 setlinewidth
0 setlinejoin
0 setlinecap
newpath
98.124434 101.67156 moveto
112.42201 67.396561 lineto
147.28458 43.697846 lineto
stroke
gsave [-0.49620773 0.33730978 -0.33730978 -0.49620773 149.76562 42.011297] concat
0.0000000 0.0000000 0.0000000 setrgbcolor
newpath
8.7185878 4.0337352 moveto
-2.2072895 0.016013256 lineto
8.7185884 -4.0017078 lineto
6.9730900 -1.6296469 6.9831476 1.6157441 8.7185878 4.0337352 curveto
closepath
eofill
grestore
0.0000000 0.0000000 0.0000000 setrgbcolor
[] 0 setdash
0.35433072 setlinewidth
0 setlinejoin
0 setlinecap
newpath
106.93801 80.714848 moveto
106.93801 80.714848 109.87586 83.652705 112.22615 82.477562 curveto
stroke
0.0000000 0.0000000 0.0000000 setrgbcolor
[] 0 setdash
0.35433072 setlinewidth
0 setlinejoin
0 setlinecap
newpath
112.22615 54.274132 moveto
112.22615 54.274132 119.86458 54.078275 122.80243 59.953990 curveto
stroke
0.0000000 0.0000000 0.0000000 setrgbcolor
newpath
56.449680 63.061676 moveto
56.046031 63.921051 55.406383 64.350738 54.530735 64.350739 curveto
53.967582 64.350738 53.492323 64.104970 53.104954 63.613434 curveto
52.743625 63.154451 52.562962 62.636873 52.562962 62.060699 curveto
52.562962 61.406405 52.748508 60.856276 53.119602 60.410309 curveto
53.516737 59.935053 54.035942 59.697423 54.677219 59.697418 curveto
55.188284 59.697423 55.601695 59.852045 55.917454 60.161285 curveto
56.236460 60.470534 56.395965 60.882317 56.395969 61.396637 curveto
53.241673 61.396637 lineto
53.225396 61.533358 53.217258 61.673332 53.217258 61.816559 curveto
53.217258 62.301587 53.365370 62.747550 53.661594 63.154449 curveto
53.987114 63.606924 54.384249 63.833161 54.853001 63.833160 curveto
55.464977 63.833161 55.930471 63.558096 56.249485 63.007965 curveto
56.288548 63.007965 lineto
56.360158 63.004711 56.413869 63.022615 56.449680 63.061676 curveto
55.648899 61.118317 moveto
55.635875 60.786289 55.520315 60.516107 55.302219 60.307770 curveto
55.084118 60.096185 54.807425 59.990391 54.472141 59.990387 curveto
54.195447 59.990391 53.949679 60.112461 53.734837 60.356598 curveto
53.546033 60.571445 53.417453 60.825351 53.349094 61.118317 curveto
55.648899 61.118317 lineto
fill
0.0000000 0.0000000 0.0000000 setrgbcolor
newpath
61.278782 63.774567 moveto
60.953257 64.012197 60.787241 64.134267 60.780735 64.140778 curveto
60.569143 64.270986 60.373830 64.336090 60.194798 64.336090 curveto
59.914847 64.336090 59.722789 64.122874 59.618626 63.696442 curveto
59.224743 63.982900 59.006644 64.137523 58.964329 64.160309 curveto
58.749483 64.280752 58.502088 64.340973 58.222141 64.340973 curveto
57.945447 64.340973 57.711073 64.246572 57.519016 64.057770 curveto
57.330214 63.865713 57.235813 63.632966 57.235813 63.359528 curveto
57.235813 63.017732 57.370904 62.737784 57.641087 62.519684 curveto
57.800591 62.392733 58.085421 62.244621 58.495579 62.075348 curveto
59.599094 61.621246 lineto
59.599094 60.893707 lineto
59.599092 60.636549 59.506318 60.420078 59.320774 60.244293 curveto
59.138480 60.068516 58.917126 59.980626 58.656712 59.980621 curveto
58.243299 59.980626 58.036593 60.200352 58.036594 60.639801 curveto
58.036593 60.669101 58.043104 60.708164 58.056126 60.756989 curveto
58.069145 60.805820 58.075656 60.843255 58.075657 60.869293 curveto
58.075656 60.989739 57.984510 61.097161 57.802219 61.191559 curveto
57.642713 61.276197 57.496229 61.318515 57.362766 61.318512 curveto
57.307427 61.318515 57.279758 61.272942 57.279758 61.181793 curveto
57.279758 60.748854 57.462049 60.394037 57.826633 60.117340 curveto
58.158663 59.863438 58.549288 59.736485 58.998508 59.736481 curveto
59.447725 59.736485 59.776500 59.819493 59.984837 59.985504 curveto
60.215953 60.167800 60.331513 60.477044 60.331516 60.913239 curveto
60.331516 63.427887 lineto
60.331513 63.707835 60.427541 63.847809 60.619602 63.847809 curveto
60.740041 63.847809 60.956512 63.756664 61.269016 63.574371 curveto
61.278782 63.774567 lineto
59.603977 63.369293 moveto
59.599094 61.904449 lineto
58.607883 62.339020 lineto
58.161919 62.534334 57.938937 62.848461 57.938938 63.281403 curveto
57.938937 63.466950 57.999158 63.615062 58.119602 63.725739 curveto
58.240043 63.836416 58.393038 63.891755 58.578587 63.891754 curveto
58.770642 63.891755 58.956189 63.838044 59.135227 63.730621 curveto
59.213350 63.681794 59.369600 63.561351 59.603977 63.369293 curveto
fill
0.0000000 0.0000000 0.0000000 setrgbcolor
newpath
66.483860 63.662262 moveto
66.474094 63.862457 lineto
64.994602 64.282379 lineto
64.994602 63.403473 lineto
64.385875 64.008942 63.723441 64.311676 63.007298 64.311676 curveto
62.297661 64.311676 61.942844 63.828278 61.942844 62.861481 curveto
61.942844 60.703278 lineto
61.942844 60.504714 61.874484 60.348464 61.737766 60.234528 curveto
61.601047 60.120599 61.431776 60.063633 61.229954 60.063629 curveto
61.210423 59.863434 lineto
62.665501 59.604645 lineto
62.665501 62.783356 lineto
62.665499 63.063305 62.755017 63.300935 62.934055 63.496246 curveto
63.116345 63.701325 63.345837 63.803864 63.622532 63.803864 curveto
63.899222 63.803864 64.356578 63.572744 64.994602 63.110504 curveto
64.994602 60.424957 lineto
64.994598 60.180821 64.680471 60.040847 64.052219 60.005035 curveto
64.052219 59.843903 lineto
65.692844 59.541168 lineto
65.692844 63.354645 lineto
65.692840 63.598786 65.829559 63.720856 66.103001 63.720856 curveto
66.174610 63.720856 66.301563 63.701325 66.483860 63.662262 curveto
fill
0.0000000 0.0000000 0.0000000 setrgbcolor
newpath
55.551727 82.477562 moveto
53.388641 82.477562 lineto
53.388641 82.257835 lineto
53.831343 82.257836 54.052697 82.038109 54.052704 81.598656 curveto
54.052704 79.376976 lineto
54.052697 79.100287 53.985965 78.857774 53.852509 78.649437 curveto
53.696252 78.408556 53.486292 78.288113 53.222626 78.288109 curveto
52.818974 78.288113 52.338832 78.491563 51.782196 78.898460 curveto
51.782196 81.837914 lineto
51.782192 82.104841 52.042608 82.238304 52.563446 82.238304 curveto
52.587860 82.477562 lineto
50.429657 82.477562 lineto
50.429657 82.257835 lineto
50.869107 82.257836 51.088833 82.038109 51.088837 81.598656 curveto
51.088837 79.376976 lineto
51.088833 79.097031 51.031867 78.856146 50.917938 78.654320 curveto
50.777961 78.410183 50.577766 78.288113 50.317352 78.288109 curveto
49.907194 78.288113 49.404264 78.507839 48.808563 78.947289 curveto
48.808563 81.735374 lineto
48.808562 82.054385 49.054330 82.228539 49.545868 82.257835 curveto
49.516571 82.477562 lineto
47.451141 82.477562 lineto
47.431610 82.438499 lineto
47.460907 82.287132 lineto
47.662730 82.287132 47.825490 82.204125 47.949188 82.038109 curveto
48.063120 81.885115 48.120086 81.704451 48.120087 81.496117 curveto
48.120087 78.805687 lineto
48.120086 78.688503 48.019175 78.595730 47.817352 78.527367 curveto
47.791310 78.517605 47.638316 78.481798 47.358368 78.419945 curveto
47.358368 78.297874 lineto
47.390920 78.262071 47.431610 78.236030 47.480438 78.219749 curveto
47.737599 78.131863 48.121714 77.973986 48.632782 77.746117 curveto
48.808563 77.877953 lineto
48.808563 78.756859 lineto
49.749316 78.151394 50.398730 77.848660 50.756805 77.848656 curveto
50.974901 77.848660 51.178351 77.949572 51.367157 78.151390 curveto
51.526658 78.323920 51.642218 78.525743 51.713837 78.756859 curveto
52.654587 78.151394 53.304000 77.848660 53.662079 77.848656 curveto
54.010380 77.848660 54.288700 78.009793 54.497040 78.332054 curveto
54.679324 78.612006 54.770470 78.934271 54.770477 79.298851 curveto
54.770477 81.837914 lineto
54.770470 82.104841 55.021121 82.238304 55.522430 82.238304 curveto
55.551727 82.477562 lineto
fill
0.0000000 0.0000000 0.0000000 setrgbcolor
newpath
58.227509 82.477562 moveto
55.986298 82.477562 lineto
55.966766 82.438499 lineto
55.996063 82.287132 lineto
56.227183 82.287132 56.391570 82.254580 56.489227 82.189476 curveto
56.609669 82.108096 56.669890 81.951846 56.669891 81.720726 curveto
56.669891 78.805687 lineto
56.669890 78.568061 56.552703 78.449246 56.318329 78.449242 curveto
56.230438 78.449246 56.127899 78.463894 56.010712 78.493187 curveto
55.888641 78.297874 lineto
56.507130 78.125353 56.970997 77.941434 57.280243 77.746117 curveto
57.460907 77.877953 lineto
57.460907 81.735374 lineto
57.460905 82.054385 57.709928 82.228539 58.207977 82.257835 curveto
58.227509 82.477562 lineto
57.519501 76.227562 moveto
57.519499 76.367542 57.470671 76.487985 57.373016 76.588890 curveto
57.275359 76.686552 57.156544 76.735380 57.016571 76.735374 curveto
56.876596 76.735380 56.757781 76.686552 56.660126 76.588890 curveto
56.562469 76.487985 56.513641 76.367542 56.513641 76.227562 curveto
56.513641 76.087594 56.562469 75.968779 56.660126 75.871117 curveto
56.757781 75.773467 56.876596 75.724639 57.016571 75.724632 curveto
57.156544 75.724639 57.275359 75.773467 57.373016 75.871117 curveto
57.470671 75.968779 57.519499 76.087594 57.519501 76.227562 curveto
fill
0.0000000 0.0000000 0.0000000 setrgbcolor
newpath
60.873993 82.257835 moveto
60.844696 82.477562 lineto
58.735321 82.477562 lineto
58.715790 82.438499 lineto
58.745087 82.287132 lineto
58.950164 82.287132 59.114552 82.204125 59.238251 82.038109 curveto
59.352182 81.888370 59.409148 81.707706 59.409149 81.496117 curveto
59.409149 76.286156 lineto
59.409148 76.168975 59.347299 76.071318 59.223602 75.993187 curveto
59.119435 75.928089 59.003875 75.895537 58.876923 75.895531 curveto
58.876922 75.895537 58.795542 75.911813 58.632782 75.944359 curveto
58.632782 75.928089 58.634409 75.903675 58.637665 75.871117 curveto
58.640920 75.838571 58.642547 75.812530 58.642548 75.792992 curveto
58.642547 75.747425 58.689748 75.708363 58.784149 75.675804 curveto
59.038055 75.597686 59.412403 75.451202 59.907196 75.236351 curveto
60.122040 75.236351 lineto
60.122040 81.735374 lineto
60.122038 82.054385 60.372689 82.228539 60.873993 82.257835 curveto
fill
0.0000000 0.0000000 0.0000000 setrgbcolor
newpath
63.559540 82.477562 moveto
61.318329 82.477562 lineto
61.298798 82.438499 lineto
61.328094 82.287132 lineto
61.559214 82.287132 61.723602 82.254580 61.821259 82.189476 curveto
61.941700 82.108096 62.001922 81.951846 62.001923 81.720726 curveto
62.001923 78.805687 lineto
62.001922 78.568061 61.884734 78.449246 61.650360 78.449242 curveto
61.562469 78.449246 61.459930 78.463894 61.342743 78.493187 curveto
61.220673 78.297874 lineto
61.839161 78.125353 62.303028 77.941434 62.612274 77.746117 curveto
62.792938 77.877953 lineto
62.792938 81.735374 lineto
62.792937 82.054385 63.041960 82.228539 63.540009 82.257835 curveto
63.559540 82.477562 lineto
62.851532 76.227562 moveto
62.851530 76.367542 62.802702 76.487985 62.705048 76.588890 curveto
62.607390 76.686552 62.488575 76.735380 62.348602 76.735374 curveto
62.208627 76.735380 62.089812 76.686552 61.992157 76.588890 curveto
61.894500 76.487985 61.845672 76.367542 61.845673 76.227562 curveto
61.845672 76.087594 61.894500 75.968779 61.992157 75.871117 curveto
62.089812 75.773467 62.208627 75.724639 62.348602 75.724632 curveto
62.488575 75.724639 62.607390 75.773467 62.705048 75.871117 curveto
62.802702 75.968779 62.851530 76.087594 62.851532 76.227562 curveto
fill
0.0000000 0.0000000 0.0000000 setrgbcolor
newpath
67.763641 81.276390 moveto
67.359992 82.135765 66.720344 82.565452 65.844696 82.565453 curveto
65.281544 82.565452 64.806284 82.319685 64.418915 81.828148 curveto
64.057586 81.369165 63.876923 80.851587 63.876923 80.275414 curveto
63.876923 79.621119 64.062469 79.070990 64.433563 78.625023 curveto
64.830698 78.149767 65.349903 77.912137 65.991180 77.912132 curveto
66.502245 77.912137 66.915656 78.066759 67.231415 78.375999 curveto
67.550421 78.685248 67.709927 79.097031 67.709930 79.611351 curveto
64.555634 79.611351 lineto
64.539357 79.748072 64.531219 79.888046 64.531219 80.031273 curveto
64.531219 80.516301 64.679331 80.962264 64.975555 81.369164 curveto
65.301075 81.821638 65.698210 82.047875 66.166962 82.047874 curveto
66.778938 82.047875 67.244432 81.772810 67.563446 81.222679 curveto
67.602509 81.222679 lineto
67.674119 81.219425 67.727830 81.237329 67.763641 81.276390 curveto
66.962860 79.333031 moveto
66.949836 79.001003 66.834276 78.730821 66.616180 78.522484 curveto
66.398079 78.310899 66.121386 78.205105 65.786102 78.205101 curveto
65.509408 78.205105 65.263640 78.327175 65.048798 78.571312 curveto
64.859994 78.786159 64.731414 79.040065 64.663055 79.333031 curveto
66.962860 79.333031 lineto
fill
0.0000000 0.0000000 0.0000000 setrgbcolor
newpath
73.383759 81.876976 moveto
73.373993 82.077171 lineto
71.894501 82.497093 lineto
71.894501 81.618187 lineto
71.285774 82.223656 70.623339 82.526390 69.907196 82.526390 curveto
69.197560 82.526390 68.842742 82.042992 68.842743 81.076195 curveto
68.842743 78.917992 lineto
68.842742 78.719428 68.774383 78.563178 68.637665 78.449242 curveto
68.500946 78.335313 68.331675 78.278347 68.129852 78.278343 curveto
68.110321 78.078148 lineto
69.565399 77.819359 lineto
69.565399 80.998070 lineto
69.565398 81.278019 69.654916 81.515649 69.833954 81.710960 curveto
70.016244 81.916039 70.245736 82.018578 70.522430 82.018578 curveto
70.799120 82.018578 71.256477 81.787458 71.894501 81.325218 curveto
71.894501 78.639671 lineto
71.894497 78.395535 71.580370 78.255561 70.952118 78.219749 curveto
70.952118 78.058617 lineto
72.592743 77.755882 lineto
72.592743 81.569359 lineto
72.592738 81.813500 72.729457 81.935570 73.002899 81.935570 curveto
73.074509 81.935570 73.201462 81.916039 73.383759 81.876976 curveto
fill
0.0000000 0.0000000 0.0000000 setrgbcolor
newpath
118.90585 89.899536 moveto
118.90585 89.961386 118.76262 90.425253 118.47617 91.291138 curveto
114.38925 91.291138 lineto
114.29648 91.003052 lineto
116.47095 89.248497 117.55819 87.653446 117.55820 86.217896 curveto
117.55819 85.378058 117.17733 84.958136 116.41562 84.958130 curveto
115.56926 84.958136 114.92473 85.356899 114.48203 86.154419 curveto
114.26718 86.061646 lineto
114.44296 85.576625 114.74244 85.168097 115.16562 84.836060 curveto
115.61158 84.484504 116.08359 84.308723 116.58163 84.308716 curveto
117.04062 84.308723 117.42636 84.448697 117.73886 84.728638 curveto
118.06438 85.021613 118.22714 85.394334 118.22714 85.846802 curveto
118.22714 87.295373 117.24569 88.892052 115.28281 90.636841 curveto
117.95370 90.636841 lineto
118.13274 90.636841 118.30364 90.498495 118.46640 90.221802 curveto
118.62916 89.945110 118.70403 89.806764 118.69101 89.806763 curveto
118.71705 89.806764 118.75448 89.821413 118.80331 89.850708 curveto
118.85214 89.876751 118.88632 89.893027 118.90585 89.899536 curveto
fill
0.0000000 0.0000000 0.0000000 setrgbcolor
newpath
124.09140 87.765747 moveto
124.09140 88.556765 123.92375 89.305463 123.58847 90.011841 curveto
123.17180 90.894003 122.61028 91.335083 121.90390 91.335083 curveto
121.17148 91.335083 120.60182 90.900513 120.19492 90.031372 curveto
119.87590 89.351035 119.71640 88.595828 119.71640 87.765747 curveto
119.71640 86.974736 119.88404 86.226039 120.21933 85.519653 curveto
120.63600 84.640754 121.19752 84.201301 121.90390 84.201294 curveto
122.63632 84.201301 123.20435 84.634243 123.60800 85.500122 curveto
123.93026 86.183721 124.09140 86.938929 124.09140 87.765747 curveto
123.37363 87.985474 moveto
123.37362 85.644984 122.88371 84.474738 121.90390 84.474731 curveto
120.92408 84.474738 120.43417 85.500128 120.43417 87.550903 curveto
120.43417 89.888144 120.92408 91.056763 121.90390 91.056763 curveto
122.88371 91.056763 123.37362 90.033001 123.37363 87.985474 curveto
fill
0.0000000 0.0000000 0.0000000 setrgbcolor
newpath
128.46152 86.046997 moveto
128.46151 86.473434 128.31015 86.838017 128.00742 87.140747 curveto
127.70468 87.443485 127.33847 87.594852 126.90878 87.594849 curveto
126.48235 87.594852 126.11777 87.443485 125.81503 87.140747 curveto
125.51230 86.838017 125.36093 86.473434 125.36093 86.046997 curveto
125.36093 85.617315 125.51230 85.251105 125.81503 84.948364 curveto
126.11777 84.645637 126.48235 84.494269 126.90878 84.494263 curveto
127.33847 84.494269 127.70468 84.645637 128.00742 84.948364 curveto
128.31015 85.251105 128.46151 85.617315 128.46152 86.046997 curveto
127.90488 86.056763 moveto
127.90487 85.783331 127.80722 85.550584 127.61191 85.358521 curveto
127.41985 85.163214 127.18547 85.065558 126.90878 85.065552 curveto
126.63534 85.065558 126.40097 85.163214 126.20566 85.358521 curveto
126.01360 85.550584 125.91757 85.783331 125.91757 86.056763 curveto
125.91757 86.333460 126.01360 86.569463 126.20566 86.764771 curveto
126.40097 86.956832 126.63534 87.052861 126.90878 87.052856 curveto
127.18547 87.052861 127.41985 86.956832 127.61191 86.764771 curveto
127.80722 86.569463 127.90487 86.333460 127.90488 86.056763 curveto
fill
0.0000000 0.0000000 0.0000000 setrgbcolor
newpath
120.14014 51.483868 moveto
119.00244 51.483868 lineto
119.00244 53.490704 lineto
118.32861 53.490704 lineto
118.32861 51.483868 lineto
115.47217 51.483868 lineto
115.47217 51.176250 lineto
118.75830 46.449688 lineto
119.00244 46.449688 lineto
119.00244 50.868633 lineto
120.14014 50.868633 lineto
120.14014 51.483868 lineto
118.32861 47.587383 moveto
116.08740 50.868633 lineto
118.32861 50.868633 lineto
118.32861 47.587383 lineto
fill
0.0000000 0.0000000 0.0000000 setrgbcolor
newpath
124.45166 51.161602 moveto
124.45166 51.864729 124.18961 52.460431 123.66553 52.948711 curveto
123.15446 53.423972 122.54411 53.661602 121.83447 53.661602 curveto
121.50895 53.661602 121.21110 53.604636 120.94092 53.490704 curveto
120.58610 53.344219 120.40869 53.132631 120.40869 52.855938 curveto
120.40869 52.742006 120.44613 52.645978 120.52100 52.567852 curveto
120.59912 52.489728 120.69515 52.450666 120.80908 52.450665 curveto
120.86116 52.450666 120.95231 52.522280 121.08252 52.665508 curveto
121.25179 52.857566 121.39014 52.992657 121.49756 53.070782 curveto
121.69287 53.217266 121.89795 53.290508 122.11279 53.290508 curveto
122.51318 53.290508 122.88590 53.030092 123.23096 52.509258 curveto
123.54345 52.037255 123.69970 51.589664 123.69971 51.166485 curveto
123.69970 50.720524 123.52718 50.308741 123.18213 49.931133 curveto
122.83056 49.540512 122.43343 49.345200 121.99072 49.345196 curveto
121.80192 49.345200 121.58545 49.420070 121.34131 49.569805 curveto
121.25342 49.625148 121.04508 49.774887 120.71631 50.019024 curveto
121.27783 46.566875 lineto
123.69971 46.566875 lineto
123.84944 46.566882 123.94222 46.478992 123.97803 46.303204 curveto
124.16357 46.361797 lineto
123.85596 47.265118 lineto
121.55615 47.265118 lineto
121.24365 49.159649 lineto
121.55290 48.931789 121.96793 48.817857 122.48877 48.817852 curveto
123.08772 48.817857 123.57275 49.063625 123.94385 49.555157 curveto
124.28239 50.004379 124.45166 50.539860 124.45166 51.161602 curveto
fill
0.0000000 0.0000000 0.0000000 setrgbcolor
newpath
128.46533 48.246563 moveto
128.46533 48.673000 128.31396 49.037583 128.01123 49.340313 curveto
127.70849 49.643051 127.34228 49.794418 126.91260 49.794415 curveto
126.48616 49.794418 126.12158 49.643051 125.81885 49.340313 curveto
125.51611 49.037583 125.36475 48.673000 125.36475 48.246563 curveto
125.36475 47.816881 125.51611 47.450671 125.81885 47.147930 curveto
126.12158 46.845202 126.48616 46.693835 126.91260 46.693829 curveto
127.34228 46.693835 127.70849 46.845202 128.01123 47.147930 curveto
128.31396 47.450671 128.46533 47.816881 128.46533 48.246563 curveto
127.90869 48.256329 moveto
127.90869 47.982897 127.81103 47.750149 127.61572 47.558086 curveto
127.42366 47.362780 127.18929 47.265124 126.91260 47.265118 curveto
126.63916 47.265124 126.40478 47.362780 126.20947 47.558086 curveto
126.01741 47.750149 125.92139 47.982897 125.92139 48.256329 curveto
125.92139 48.533026 126.01741 48.769029 126.20947 48.964336 curveto
126.40478 49.156398 126.63916 49.252427 126.91260 49.252422 curveto
127.18929 49.252427 127.42366 49.156398 127.61572 48.964336 curveto
127.81103 48.769029 127.90869 48.533026 127.90869 48.256329 curveto
fill
0.0000000 0.0000000 0.0000000 setrgbcolor
[] 0 setdash
0.35433072 setlinewidth
0 setlinejoin
0 setlinecap
newpath
43.480288 67.592419 moveto
47.789145 72.684705 lineto
stroke
0.0000000 0.0000000 0.0000000 setrgbcolor
[] 0 setdash
0.35433072 setlinewidth
0 setlinejoin
0 setlinecap
newpath
48.180860 67.396564 moveto
52.489717 72.488844 lineto
stroke
0.0000000 0.0000000 0.0000000 setrgbcolor
[] 0 setdash
0.35433072 setlinewidth
0 setlinejoin
0 setlinecap
newpath
52.685574 67.396562 moveto
56.994431 72.488848 lineto
stroke
0.0000000 0.0000000 0.0000000 setrgbcolor
[] 0 setdash
0.35433072 setlinewidth
0 setlinejoin
0 setlinecap
newpath
57.190289 67.396562 moveto
61.499146 72.488848 lineto
stroke
0.0000000 0.0000000 0.0000000 setrgbcolor
[] 0 setdash
0.35433072 setlinewidth
0 setlinejoin
0 setlinecap
newpath
61.695004 67.592418 moveto
66.003861 72.684704 lineto
stroke
0.0000000 0.0000000 0.0000000 setrgbcolor
[] 0 setdash
0.35433072 setlinewidth
0 setlinejoin
0 setlinecap
newpath
66.199718 67.396561 moveto
70.508575 72.488847 lineto
stroke
0.0000000 0.0000000 0.0000000 setrgbcolor
[] 0 setdash
0.35433072 setlinewidth
0 setlinejoin
0 setlinecap
newpath
70.704433 67.396562 moveto
75.013290 72.488848 lineto
stroke
0.0000000 0.0000000 0.0000000 setrgbcolor
[] 0 setdash
0.35433072 setlinewidth
0 setlinejoin
0 setlinecap
newpath
75.209146 67.396561 moveto
79.518003 72.488851 lineto
stroke
0.0000000 0.0000000 0.0000000 setrgbcolor
[] 0 setdash
0.35433072 setlinewidth
0 setlinejoin
0 setlinecap
newpath
79.713861 67.396561 moveto
84.022718 72.488847 lineto
stroke
0.0000000 0.0000000 0.0000000 setrgbcolor
[] 0 setdash
0.35433072 setlinewidth
0 setlinejoin
0 setlinecap
newpath
84.218576 67.396562 moveto
88.527433 72.488850 lineto
stroke
0.0000000 0.0000000 0.0000000 setrgbcolor
[] 0 setdash
0.35433072 setlinewidth
0 setlinejoin
0 setlinecap
newpath
88.723290 67.396558 moveto
93.032147 72.488848 lineto
stroke
0.0000000 0.0000000 0.0000000 setrgbcolor
[] 0 setdash
0.35433072 setlinewidth
0 setlinejoin
0 setlinecap
newpath
93.228005 67.396562 moveto
97.536862 72.488850 lineto
stroke
0.0000000 0.0000000 0.0000000 setrgbcolor
[] 0 setdash
0.35433072 setlinewidth
0 setlinejoin
0 setlinecap
newpath
97.732719 67.396561 moveto
102.04158 72.488847 lineto
stroke
0.0000000 0.0000000 0.0000000 setrgbcolor
[] 0 setdash
0.35433072 setlinewidth
0 setlinejoin
0 setlinecap
newpath
102.23743 67.592415 moveto
106.54629 72.684705 lineto
stroke
0.0000000 0.0000000 0.0000000 setrgbcolor
[] 0 setdash
0.35433072 setlinewidth
0 setlinejoin
0 setlinecap
newpath
115.35986 67.396564 moveto
119.66872 72.488844 lineto
stroke
0.0000000 0.0000000 0.0000000 setrgbcolor
[] 0 setdash
0.35433072 setlinewidth
0 setlinejoin
0 setlinecap
newpath
119.66872 67.494496 moveto
123.97758 72.586776 lineto
stroke
0.0000000 0.0000000 0.0000000 setrgbcolor
[] 0 setdash
0.35433072 setlinewidth
0 setlinejoin
0 setlinecap
newpath
124.36929 67.298636 moveto
128.67815 72.390916 lineto
stroke
0.0000000 0.0000000 0.0000000 setrgbcolor
[] 0 setdash
0.35433072 setlinewidth
0 setlinejoin
0 setlinecap
newpath
128.87401 67.298636 moveto
133.18287 72.390916 lineto
stroke
0.0000000 0.0000000 0.0000000 setrgbcolor
[] 0 setdash
0.35433072 setlinewidth
0 setlinejoin
0 setlinecap
newpath
133.37872 67.298636 moveto
137.68758 72.390916 lineto
stroke
0.0000000 0.0000000 0.0000000 setrgbcolor
[] 0 setdash
0.35433072 setlinewidth
0 setlinejoin
0 setlinecap
newpath
137.88344 67.494486 moveto
142.19230 72.586776 lineto
stroke
0.0000000 0.0000000 0.0000000 setrgbcolor
[] 0 setdash
0.35433072 setlinewidth
0 setlinejoin
0 setlinecap
newpath
142.38815 67.298636 moveto
146.69701 72.390916 lineto
stroke
0.0000000 0.0000000 0.0000000 setrgbcolor
[] 0 setdash
0.35433072 setlinewidth
0 setlinejoin
0 setlinecap
newpath
146.89287 67.298636 moveto
151.20172 72.390916 lineto
stroke
0.0000000 0.0000000 0.0000000 setrgbcolor
[] 0 setdash
0.35433072 setlinewidth
0 setlinejoin
0 setlinecap
newpath
151.39758 67.298636 moveto
155.70644 72.390926 lineto
stroke
0.0000000 0.0000000 0.0000000 setrgbcolor
[] 0 setdash
0.35433072 setlinewidth
0 setlinejoin
0 setlinecap
newpath
155.90230 67.298636 moveto
160.21115 72.390916 lineto
stroke
0.0000000 0.0000000 0.0000000 setrgbcolor
[] 0 setdash
0.35433072 setlinewidth
0 setlinejoin
0 setlinecap
newpath
160.40701 67.298636 moveto
164.71587 72.390926 lineto
stroke
0.0000000 0.0000000 0.0000000 setrgbcolor
[] 0 setdash
0.35433072 setlinewidth
0 setlinejoin
0 setlinecap
newpath
164.91172 67.298626 moveto
169.22058 72.390916 lineto
stroke
0.0000000 0.0000000 0.0000000 setrgbcolor
[] 0 setdash
0.35433072 setlinewidth
0 setlinejoin
0 setlinecap
newpath
169.41644 67.298636 moveto
173.72530 72.390926 lineto
stroke
0.0000000 0.0000000 0.0000000 setrgbcolor
[] 0 setdash
0.35433072 setlinewidth
0 setlinejoin
0 setlinecap
newpath
173.92115 67.298636 moveto
178.23001 72.390916 lineto
stroke
0.0000000 0.0000000 0.0000000 setrgbcolor
[] 0 setdash
0.35433072 setlinewidth
0 setlinejoin
0 setlinecap
newpath
178.42586 67.494486 moveto
182.73472 72.586776 lineto
stroke
grestore
showpage
