%!PS-Adobe-2.0 EPSF-2.0
%%Title: Mince.fig
%%Creator: fig2dev Version 3.2 Patchlevel 5-alpha5
%%CreationDate: Tue Jul  5 10:28:16 2005
%%For: guyotv@debian ()
%%BoundingBox: 0 0 148 141
%Magnification: 1.0000
%%EndComments
/$F2psDict 200 dict def
$F2psDict begin
$F2psDict /mtrx matrix put
/col-1 {0 setgray} bind def
/col0 {0.000 0.000 0.000 srgb} bind def
/col1 {0.000 0.000 1.000 srgb} bind def
/col2 {0.000 1.000 0.000 srgb} bind def
/col3 {0.000 1.000 1.000 srgb} bind def
/col4 {1.000 0.000 0.000 srgb} bind def
/col5 {1.000 0.000 1.000 srgb} bind def
/col6 {1.000 1.000 0.000 srgb} bind def
/col7 {1.000 1.000 1.000 srgb} bind def
/col8 {0.000 0.000 0.560 srgb} bind def
/col9 {0.000 0.000 0.690 srgb} bind def
/col10 {0.000 0.000 0.820 srgb} bind def
/col11 {0.530 0.810 1.000 srgb} bind def
/col12 {0.000 0.560 0.000 srgb} bind def
/col13 {0.000 0.690 0.000 srgb} bind def
/col14 {0.000 0.820 0.000 srgb} bind def
/col15 {0.000 0.560 0.560 srgb} bind def
/col16 {0.000 0.690 0.690 srgb} bind def
/col17 {0.000 0.820 0.820 srgb} bind def
/col18 {0.560 0.000 0.000 srgb} bind def
/col19 {0.690 0.000 0.000 srgb} bind def
/col20 {0.820 0.000 0.000 srgb} bind def
/col21 {0.560 0.000 0.560 srgb} bind def
/col22 {0.690 0.000 0.690 srgb} bind def
/col23 {0.820 0.000 0.820 srgb} bind def
/col24 {0.500 0.190 0.000 srgb} bind def
/col25 {0.630 0.250 0.000 srgb} bind def
/col26 {0.750 0.380 0.000 srgb} bind def
/col27 {1.000 0.500 0.500 srgb} bind def
/col28 {1.000 0.630 0.630 srgb} bind def
/col29 {1.000 0.750 0.750 srgb} bind def
/col30 {1.000 0.880 0.880 srgb} bind def
/col31 {1.000 0.840 0.000 srgb} bind def

end
save
newpath 0 141 moveto 0 0 lineto 148 0 lineto 148 141 lineto closepath clip newpath
-13.4 156.7 translate
1 -1 scale

/cp {closepath} bind def
/ef {eofill} bind def
/gr {grestore} bind def
/gs {gsave} bind def
/sa {save} bind def
/rs {restore} bind def
/l {lineto} bind def
/m {moveto} bind def
/rm {rmoveto} bind def
/n {newpath} bind def
/s {stroke} bind def
/sh {show} bind def
/slc {setlinecap} bind def
/slj {setlinejoin} bind def
/slw {setlinewidth} bind def
/srgb {setrgbcolor} bind def
/rot {rotate} bind def
/sc {scale} bind def
/sd {setdash} bind def
/ff {findfont} bind def
/sf {setfont} bind def
/scf {scalefont} bind def
/sw {stringwidth} bind def
/tr {translate} bind def
/tnt {dup dup currentrgbcolor
  4 -2 roll dup 1 exch sub 3 -1 roll mul add
  4 -2 roll dup 1 exch sub 3 -1 roll mul add
  4 -2 roll dup 1 exch sub 3 -1 roll mul add srgb}
  bind def
/shd {dup dup currentrgbcolor 4 -2 roll mul 4 -2 roll mul
  4 -2 roll mul srgb} bind def
/$F2psBegin {$F2psDict begin /$F2psEnteredState save def} def
/$F2psEnd {$F2psEnteredState restore end} def

$F2psBegin
10 setmiterlimit
0 slj 0 slc
 0.06299 0.06299 sc
%
% Fig objects follow
%
% 
% here starts figure with depth 50
% Arc
7.500 slw
0 slc
n 1011.7 1229.5 122.1 -130.7432 164.5618 arcn
gs col0 s gr

% Arc
n 1237.8 1284.8 47.1 50.0922 -28.9696 arcn
gs col0 s gr

% Arc
n 1618.5 1458.2 58.5 153.8002 -144.2723 arc
gs col0 s gr

% Arc
n 1816.7 1519.5 77.0 -27.4601 53.0177 arc
gs col0 s gr

% Polyline
0 slj
n 1080 270 m
 1078 2453 l gs col0 s gr 
% Polyline
n 1755 270 m
 1755 2475 l gs col0 s gr 
% Polyline
 [15 45] 45 sd
n 1305 1260 m 1080 1260 l
 855 1260 l gs col0 s gr  [] 0 sd
% Polyline
 [15 45] 45 sd
n 1980 1485 m 1755 1485 l
 1530 1485 l gs col0 s gr  [] 0 sd
% Polyline
gs  clippath
2455 2157 m 2541 2236 l 2572 2203 l 2485 2124 l 2485 2124 l 2526 2192 l 2455 2157 l cp
eoclip
n 225 495 m 1080 1260 l 1755 1485 l
 2546 2210 l gs col0 s gr gr

% arrowhead
n 2455 2157 m 2526 2192 l 2485 2124 l 2481 2151 l 2455 2157 l 
 cp gs 0.00 setgray ef gr  col0 s
/Times-Roman ff 158.75 scf sf
363 1538 m
gs 1 -1 sc (n) col0 sh gr
/Times-Roman ff 158.75 scf sf
1214 1895 m
gs 1 -1 sc (n) col0 sh gr
/Times-Roman ff 158.75 scf sf
1999 2031 m
gs 1 -1 sc (n) col0 sh gr
/Times-Roman ff 127.00 scf sf
439 1608 m
gs 1 -1 sc (1) col0 sh gr
/Times-Roman ff 127.00 scf sf
1306 1966 m
gs 1 -1 sc (2) col0 sh gr
/Times-Roman ff 127.00 scf sf
2086 2097 m
gs 1 -1 sc (1) col0 sh gr
/Symbol ff 158.75 scf sf
731 1208 m
gs 1 -1 sc (a) col0 sh gr
/Symbol ff 158.75 scf sf
1576 1652 m
gs 1 -1 sc (b) col0 sh gr
/Symbol ff 158.75 scf sf
1224 1197 m
gs 1 -1 sc (b) col0 sh gr
/Symbol ff 158.75 scf sf
1982 1614 m
gs 1 -1 sc (g) col0 sh gr
% here ends figure;
$F2psEnd
rs
showpage
%%Trailer
%EOF
