%!PS-Adobe-2.0 EPSF-2.0
%%Title: MiroirSph.fig
%%Creator: fig2dev Version 3.2 Patchlevel 5-alpha5
%%CreationDate: Tue May 16 14:08:03 2006
%%For: guyotv@debian ()
%%BoundingBox: 0 0 117 103
%Magnification: 1.0000
%%EndComments
/$F2psDict 200 dict def
$F2psDict begin
$F2psDict /mtrx matrix put
/col-1 {0 setgray} bind def
/col0 {0.000 0.000 0.000 srgb} bind def
/col1 {0.000 0.000 1.000 srgb} bind def
/col2 {0.000 1.000 0.000 srgb} bind def
/col3 {0.000 1.000 1.000 srgb} bind def
/col4 {1.000 0.000 0.000 srgb} bind def
/col5 {1.000 0.000 1.000 srgb} bind def
/col6 {1.000 1.000 0.000 srgb} bind def
/col7 {1.000 1.000 1.000 srgb} bind def
/col8 {0.000 0.000 0.560 srgb} bind def
/col9 {0.000 0.000 0.690 srgb} bind def
/col10 {0.000 0.000 0.820 srgb} bind def
/col11 {0.530 0.810 1.000 srgb} bind def
/col12 {0.000 0.560 0.000 srgb} bind def
/col13 {0.000 0.690 0.000 srgb} bind def
/col14 {0.000 0.820 0.000 srgb} bind def
/col15 {0.000 0.560 0.560 srgb} bind def
/col16 {0.000 0.690 0.690 srgb} bind def
/col17 {0.000 0.820 0.820 srgb} bind def
/col18 {0.560 0.000 0.000 srgb} bind def
/col19 {0.690 0.000 0.000 srgb} bind def
/col20 {0.820 0.000 0.000 srgb} bind def
/col21 {0.560 0.000 0.560 srgb} bind def
/col22 {0.690 0.000 0.690 srgb} bind def
/col23 {0.820 0.000 0.820 srgb} bind def
/col24 {0.500 0.190 0.000 srgb} bind def
/col25 {0.630 0.250 0.000 srgb} bind def
/col26 {0.750 0.380 0.000 srgb} bind def
/col27 {1.000 0.500 0.500 srgb} bind def
/col28 {1.000 0.630 0.630 srgb} bind def
/col29 {1.000 0.750 0.750 srgb} bind def
/col30 {1.000 0.880 0.880 srgb} bind def
/col31 {1.000 0.840 0.000 srgb} bind def

end
save
newpath 0 103 moveto 0 0 lineto 117 0 lineto 117 103 lineto closepath clip newpath
-42.3 155.0 translate
1 -1 scale

/cp {closepath} bind def
/ef {eofill} bind def
/gr {grestore} bind def
/gs {gsave} bind def
/sa {save} bind def
/rs {restore} bind def
/l {lineto} bind def
/m {moveto} bind def
/rm {rmoveto} bind def
/n {newpath} bind def
/s {stroke} bind def
/sh {show} bind def
/slc {setlinecap} bind def
/slj {setlinejoin} bind def
/slw {setlinewidth} bind def
/srgb {setrgbcolor} bind def
/rot {rotate} bind def
/sc {scale} bind def
/sd {setdash} bind def
/ff {findfont} bind def
/sf {setfont} bind def
/scf {scalefont} bind def
/sw {stringwidth} bind def
/tr {translate} bind def
/tnt {dup dup currentrgbcolor
  4 -2 roll dup 1 exch sub 3 -1 roll mul add
  4 -2 roll dup 1 exch sub 3 -1 roll mul add
  4 -2 roll dup 1 exch sub 3 -1 roll mul add srgb}
  bind def
/shd {dup dup currentrgbcolor 4 -2 roll mul 4 -2 roll mul
  4 -2 roll mul srgb} bind def
/$F2psBegin {$F2psDict begin /$F2psEnteredState save def} def
/$F2psEnd {$F2psEnteredState restore end} def

$F2psBegin
10 setmiterlimit
0 slj 0 slc
 0.06299 0.06299 sc
%
% Fig objects follow
%
% 
% here starts figure with depth 50
% Arc
30.000 slw
0 slc
n 1575.0 1574.0 675.0 -89.9155 89.7457 arcn
gs col0 s gr

% Polyline
0 slj
7.500 slw
 [60] 0 sd
n 856 1574 m
 2516 1574 l gs col0 s gr  [] 0 sd
% Polyline
n 2443 1034 m 1178 1034 l
 975 1726 l gs col0 s gr 
% Polyline
 [60] 0 sd
n 1310 1211 m 1177 1029 l
 1044 847 l gs col0 s gr  [] 0 sd
% Polyline
 [60] 0 sd
n 1184 1351 m 988 1240 l
 792 1129 l gs col0 s gr  [] 0 sd
% Polyline
n 2435 1239 m 986 1239 l
 1326 1771 l gs col0 s gr 
% Polyline
 [60] 0 sd
n 1129 1514 m 906 1484 l
 683 1454 l gs col0 s gr  [] 0 sd
% Polyline
n 2423 1485 m 904 1485 l
 2065 1773 l gs col0 s gr 
% Polyline
 [60] 0 sd
n 1157 1740 m 948 1823 l
 739 1906 l gs col0 s gr  [] 0 sd
% Polyline
n 2415 1823 m 945 1823 l
 1447 1339 l gs col0 s gr 
% Polyline
n 2410 2229 m 1416 2229 l
 1135 2049 l gs col0 s gr 
% Polyline
 [60] 0 sd
n 1470 2011 m 1417 2230 l
 1364 2449 l gs col0 s gr  [] 0 sd
% here ends figure;
$F2psEnd
rs
showpage
%%Trailer
%EOF
