%!PS-Adobe-2.0
%%Creator: inkscape 0.41.1
%%Pages: 1
%%Orientation: Portrait
%%BoundingBox: 14 763 155 827
%%HiResBoundingBox: 14.229134 763.70238 154.08278 826.13114
%%EndComments
%%Page: 1 1
0 842 translate
0.80000000 -0.80000000 scale
gsave [1.0000000 0.0000000 0.0000000 1.0000000 0.0000000 0.0000000] concat
0.0000000 0.0000000 0.0000000 setrgbcolor
[2.8346457 1.4173229] 0.0000000 setdash
0.35433072 setlinewidth
0 setlinejoin
0 setlinecap
newpath
171.30898 40.885020 moveto
19.824435 67.389427 lineto
stroke
0.0000000 0.0000000 0.0000000 setrgbcolor
[1.4702169 2.9404337] 0.0000000 setdash
0.36755422 setlinewidth
0 setlinejoin
0 setlinecap
newpath
17.970194 60.912589 moveto
185.31632 60.912589 185.31632 60.912589 185.31632 60.912589 curveto
stroke
0.0000000 0.0000000 0.0000000 setrgbcolor
[] 0 setdash
0.35433072 setlinewidth
0 setlinejoin
0 setlinecap
newpath
58.395890 27.525074 moveto
58.395890 96.479632 58.395890 96.910598 58.395890 96.910598 curveto
stroke
gsave [2.3865361e-17 0.38976379 -0.38976379 2.3865361e-17 58.395890 25.576255] concat
0.0000000 0.0000000 0.0000000 setrgbcolor
newpath
8.7185878 4.0337352 moveto
-2.2072895 0.016013256 lineto
8.7185884 -4.0017078 lineto
6.9730900 -1.6296469 6.9831476 1.6157441 8.7185878 4.0337352 curveto
closepath
eofill
grestore
gsave [-2.3865361e-17 -0.38976379 0.38976379 -2.3865361e-17 58.395890 98.859417] concat
0.0000000 0.0000000 0.0000000 setrgbcolor
newpath
8.7185878 4.0337352 moveto
-2.2072895 0.016013256 lineto
8.7185884 -4.0017078 lineto
6.9730900 -1.6296469 6.9831476 1.6157441 8.7185878 4.0337352 curveto
closepath
eofill
grestore
0.0000000 0.0000000 0.0000000 setrgbcolor
[] 0 setdash
0.82194132 setlinewidth
0 setlinejoin
0 setlinecap
newpath
19.524645 67.519471 moveto
58.854689 67.519471 lineto
123.52783 51.335944 lineto
186.90807 22.438922 lineto
stroke
gsave [-0.22436308 0.10229411 -0.10229411 -0.22436308 188.02989 21.927451] concat
0.0000000 0.0000000 0.0000000 setrgbcolor
newpath
8.7185878 4.0337352 moveto
-2.2072895 0.016013256 lineto
8.7185884 -4.0017078 lineto
6.9730900 -1.6296469 6.9831476 1.6157441 8.7185878 4.0337352 curveto
closepath
eofill
grestore
0.0000000 0.0000000 0.0000000 setrgbcolor
[] 0 setdash
0.19749571 setlinewidth
0 setlinejoin
0 setlinecap
newpath
19.608955 67.712534 moveto
19.608955 60.817316 lineto
stroke
0.0000000 0.0000000 0.0000000 setrgbcolor
[] 0 setdash
0.45941776 setlinewidth
0 setlinejoin
0 setlinecap
newpath
121.57714 73.853917 moveto
77.744629 73.853917 lineto
stroke
gsave [-0.27565066 3.3756355e-17 -3.3756355e-17 -0.27565066 119.37193 73.853917] concat
0.0000000 0.0000000 0.0000000 setrgbcolor
newpath
0.0000000 0.0000000 moveto
5.0000000 -5.0000000 lineto
-12.500000 0.0000000 lineto
5.0000000 5.0000000 lineto
0.0000000 0.0000000 lineto
closepath
eofill
0.0000000 0.0000000 0.0000000 setrgbcolor
[] 0 setdash
1.2500000 setlinewidth
0 setlinejoin
0 setlinecap
newpath
0.0000000 0.0000000 moveto
5.0000000 -5.0000000 lineto
-12.500000 0.0000000 lineto
5.0000000 5.0000000 lineto
0.0000000 0.0000000 lineto
closepath
stroke
0.0000000 0.0000000 0.0000000 setrgbcolor
[] 0 setdash
1.5000000 setlinewidth
0 setlinejoin
0 setlinecap
newpath
-14.759949 -7.0000000 moveto
-14.759949 65.000000 lineto
stroke
grestore
gsave [0.27565066 -3.3756355e-17 -3.3756355e-17 -0.27565066 79.949834 73.853917] concat
0.0000000 0.0000000 0.0000000 setrgbcolor
newpath
0.0000000 0.0000000 moveto
5.0000000 -5.0000000 lineto
-12.500000 0.0000000 lineto
5.0000000 5.0000000 lineto
0.0000000 0.0000000 lineto
closepath
eofill
0.0000000 0.0000000 0.0000000 setrgbcolor
[] 0 setdash
1.2500000 setlinewidth
0 setlinejoin
0 setlinecap
newpath
0.0000000 0.0000000 moveto
5.0000000 -5.0000000 lineto
-12.500000 0.0000000 lineto
5.0000000 5.0000000 lineto
0.0000000 0.0000000 lineto
closepath
stroke
0.0000000 0.0000000 0.0000000 setrgbcolor
[] 0 setdash
1.5000000 setlinewidth
0 setlinejoin
0 setlinecap
newpath
-14.759949 -7.0000000 moveto
-14.759949 65.000000 lineto
stroke
grestore
0.0000000 0.0000000 0.0000000 setrgbcolor
newpath
87.575851 77.330597 moveto
87.087570 77.789581 lineto
86.983400 77.327348 86.654624 77.096229 86.101242 77.096222 curveto
85.782229 77.096229 85.495771 77.192257 85.241867 77.384308 curveto
84.968428 77.592647 84.831709 77.853064 84.831711 78.165558 curveto
84.831711 79.322784 lineto
85.979172 79.322784 lineto
85.979172 79.693878 lineto
84.831711 79.693878 lineto
84.831711 82.926300 lineto
84.831709 83.342967 85.061201 83.551300 85.520187 83.551300 curveto
85.555992 83.551300 85.608076 83.551300 85.676437 83.551300 curveto
85.744794 83.548045 85.795250 83.546417 85.827805 83.546417 curveto
85.827805 83.766144 lineto
83.449875 83.766144 lineto
83.425461 83.624542 lineto
83.692387 83.543162 83.850265 83.489451 83.899094 83.463409 curveto
84.061853 83.375519 84.143233 83.243683 84.143234 83.067902 curveto
84.143234 79.693878 lineto
84.052088 79.703648 83.767257 79.680861 83.288742 79.625519 curveto
83.288742 79.435089 lineto
83.692387 79.435093 83.926762 79.397659 83.991867 79.322784 curveto
84.143234 79.322784 lineto
84.143234 79.176300 lineto
84.143233 78.652217 84.200199 78.274613 84.314133 78.043488 curveto
84.402022 77.870967 84.636397 77.600785 85.017258 77.232941 curveto
85.349287 76.913937 85.827802 76.754432 86.452805 76.754425 curveto
86.788087 76.754432 87.162436 76.946489 87.575851 77.330597 curveto
fill
0.0000000 0.0000000 0.0000000 setrgbcolor
newpath
91.521164 79.591339 moveto
87.468430 79.591339 lineto
87.468430 79.132355 lineto
91.521164 79.132355 lineto
91.521164 79.591339 lineto
91.521164 81.432159 moveto
87.468430 81.432159 lineto
87.468430 80.968292 lineto
91.521164 80.968292 lineto
91.521164 81.432159 lineto
fill
0.0000000 0.0000000 0.0000000 setrgbcolor
newpath
96.325851 81.451691 moveto
96.325847 82.333854 96.084962 82.963736 95.603195 83.341339 curveto
95.173505 83.679881 94.504560 83.849152 93.596359 83.849152 curveto
93.332686 83.849152 93.093429 83.803579 92.878586 83.712433 curveto
92.598637 83.588735 92.458664 83.411326 92.458664 83.180206 curveto
92.458664 83.072785 92.496098 82.983267 92.570969 82.911652 curveto
92.645838 82.836783 92.738611 82.799348 92.849289 82.799347 curveto
93.073897 82.799348 93.309900 82.908397 93.557297 83.126495 curveto
93.807946 83.344595 94.056969 83.453644 94.304367 83.453644 curveto
95.180015 83.453644 95.617840 82.840038 95.617844 81.612823 curveto
95.617840 81.277540 95.534832 80.961785 95.368820 80.665558 curveto
95.173505 80.317254 94.919599 80.143101 94.607101 80.143097 curveto
94.278323 80.143101 93.931644 80.235874 93.567062 80.421417 curveto
93.474289 80.172394 lineto
93.757490 80.094272 94.096032 79.876174 94.489914 79.518097 curveto
94.916343 79.130732 95.129559 78.808466 95.129562 78.551300 curveto
95.129559 78.251826 95.015627 77.993038 94.787766 77.774933 curveto
94.559898 77.556840 94.296227 77.447791 93.996750 77.447784 curveto
93.638675 77.447791 93.158533 77.734249 92.556320 78.307159 curveto
92.404953 78.243683 lineto
92.733728 77.742387 93.013676 77.394080 93.244797 77.198761 curveto
93.589847 76.915565 94.003258 76.773963 94.485031 76.773956 curveto
94.898440 76.773963 95.253257 76.904171 95.549484 77.164581 curveto
95.861980 77.438025 96.018230 77.778194 96.018234 78.185089 curveto
96.018230 78.533402 95.910809 78.823115 95.695969 79.054230 curveto
95.552736 79.210484 95.292320 79.389521 94.914719 79.591339 curveto
95.357424 79.620640 95.710613 79.832228 95.974289 80.226105 curveto
96.208660 80.577670 96.325847 80.986199 96.325851 81.451691 curveto
fill
0.0000000 0.0000000 0.0000000 setrgbcolor
newpath
100.86198 81.437042 moveto
100.86198 82.140169 100.59994 82.735871 100.07585 83.224152 curveto
99.564781 83.699412 98.954430 83.937042 98.244797 83.937042 curveto
97.919275 83.937042 97.621423 83.880076 97.351242 83.766144 curveto
96.996424 83.619660 96.819015 83.408071 96.819016 83.131378 curveto
96.819015 83.017447 96.856450 82.921418 96.931320 82.843292 curveto
97.009445 82.765168 97.105473 82.726106 97.219406 82.726105 curveto
97.271489 82.726106 97.362634 82.797720 97.492844 82.940948 curveto
97.662113 83.133006 97.800460 83.268097 97.907883 83.346222 curveto
98.103194 83.492707 98.308272 83.565949 98.523117 83.565948 curveto
98.923505 83.565949 99.296226 83.305532 99.641281 82.784698 curveto
99.953778 82.312695 100.11003 81.865104 100.11003 81.441925 curveto
100.11003 80.995964 99.937502 80.584181 99.592453 80.206573 curveto
99.240888 79.815952 98.843753 79.620640 98.401047 79.620636 curveto
98.212243 79.620640 97.995772 79.695510 97.751633 79.845245 curveto
97.663741 79.900588 97.455408 80.050327 97.126633 80.294464 curveto
97.688156 76.842316 lineto
100.11003 76.842316 lineto
100.25977 76.842323 100.35254 76.754432 100.38835 76.578644 curveto
100.57390 76.637238 lineto
100.26628 77.540558 lineto
97.966476 77.540558 lineto
97.653976 79.435089 lineto
97.963220 79.207229 98.378258 79.093297 98.899094 79.093292 curveto
99.498049 79.093297 99.983075 79.339065 100.35417 79.830597 curveto
100.69271 80.279819 100.86198 80.815300 100.86198 81.437042 curveto
fill
0.0000000 0.0000000 0.0000000 setrgbcolor
newpath
fill
0.0000000 0.0000000 0.0000000 setrgbcolor
newpath
108.24968 82.564972 moveto
107.84603 83.424347 107.20638 83.854034 106.33073 83.854034 curveto
105.76758 83.854034 105.29069 83.627798 104.90007 83.175323 curveto
104.52572 82.742382 104.33855 82.239453 104.33855 81.666534 curveto
104.33855 80.950391 104.58594 80.359572 105.08073 79.894073 curveto
105.56576 79.438349 106.16960 79.210484 106.89226 79.210480 curveto
107.10710 79.210484 107.35775 79.277216 107.64421 79.410675 curveto
107.97298 79.557164 108.13737 79.715041 108.13737 79.884308 curveto
108.13737 80.193556 107.99089 80.348178 107.69792 80.348175 curveto
107.51563 80.348178 107.39681 80.274936 107.34148 80.128448 curveto
107.28939 79.991734 107.23893 79.855015 107.19011 79.718292 curveto
107.08268 79.568557 106.87598 79.493687 106.56999 79.493683 curveto
106.07845 79.493687 105.69434 79.716669 105.41765 80.162628 curveto
105.18653 80.540236 105.07097 80.991081 105.07097 81.515167 curveto
105.07097 81.951367 105.22396 82.358268 105.52995 82.735870 curveto
105.85547 83.136262 106.22982 83.336457 106.65300 83.336456 curveto
107.26172 83.336457 107.72722 83.061392 108.04948 82.511261 curveto
108.18294 82.508007 108.24968 82.525911 108.24968 82.564972 curveto
fill
0.0000000 0.0000000 0.0000000 setrgbcolor
newpath
116.91667 83.766144 moveto
114.75359 83.766144 lineto
114.75359 83.546417 lineto
115.19629 83.546417 115.41764 83.326691 115.41765 82.887238 curveto
115.41765 80.665558 lineto
115.41764 80.388869 115.35091 80.146356 115.21745 79.938019 curveto
115.06120 79.697137 114.85124 79.576695 114.58757 79.576691 curveto
114.18392 79.576695 113.70378 79.780145 113.14714 80.187042 curveto
113.14714 83.126495 lineto
113.14714 83.393423 113.40755 83.526886 113.92839 83.526886 curveto
113.95280 83.766144 lineto
111.79460 83.766144 lineto
111.79460 83.546417 lineto
112.23405 83.546417 112.45378 83.326691 112.45378 82.887238 curveto
112.45378 80.665558 lineto
112.45378 80.385613 112.39681 80.144728 112.28288 79.942902 curveto
112.14291 79.698765 111.94271 79.576695 111.68230 79.576691 curveto
111.27214 79.576695 110.76921 79.796421 110.17351 80.235870 curveto
110.17351 83.023956 lineto
110.17351 83.342967 110.41927 83.517121 110.91081 83.546417 curveto
110.88152 83.766144 lineto
108.81609 83.766144 lineto
108.79655 83.727081 lineto
108.82585 83.575714 lineto
109.02767 83.575714 109.19043 83.492707 109.31413 83.326691 curveto
109.42806 83.173696 109.48503 82.993033 109.48503 82.784698 curveto
109.48503 80.094269 lineto
109.48503 79.977085 109.38412 79.884312 109.18230 79.815948 curveto
109.15625 79.806187 109.00326 79.770380 108.72331 79.708527 curveto
108.72331 79.586456 lineto
108.75586 79.550653 108.79655 79.524612 108.84538 79.508331 curveto
109.10254 79.420445 109.48666 79.262568 109.99773 79.034698 curveto
110.17351 79.166534 lineto
110.17351 80.045441 lineto
111.11426 79.439976 111.76367 79.137242 112.12175 79.137238 curveto
112.33985 79.137242 112.54330 79.238154 112.73210 79.439972 curveto
112.89160 79.612502 113.00716 79.814325 113.07878 80.045441 curveto
114.01953 79.439976 114.66894 79.137242 115.02702 79.137238 curveto
115.37532 79.137242 115.65364 79.298375 115.86198 79.620636 curveto
116.04427 79.900588 116.13541 80.222853 116.13542 80.587433 curveto
116.13542 83.126495 lineto
116.13541 83.393423 116.38607 83.526886 116.88737 83.526886 curveto
116.91667 83.766144 lineto
fill
0.0000000 0.0000000 0.0000000 setrgbcolor
[] 0 setdash
1.0629921 setlinewidth
0 setlinejoin
0 setlinecap
newpath
186.17729 22.999932 moveto
123.36401 49.181115 lineto
19.608951 67.604911 lineto
stroke
0.0000000 0.0000000 0.0000000 setrgbcolor
[] 0 setdash
0.35433072 setlinewidth
0 setlinejoin
0 setlinecap
newpath
123.47175 28.171523 moveto
123.47175 97.126083 123.47175 97.557043 123.47175 97.557043 curveto
stroke
gsave [-2.3865361e-17 -0.38976379 0.38976379 -2.3865361e-17 123.47175 30.120342] concat
0.0000000 0.0000000 0.0000000 setrgbcolor
newpath
8.7185878 4.0337352 moveto
-2.2072895 0.016013256 lineto
8.7185884 -4.0017078 lineto
6.9730900 -1.6296469 6.9831476 1.6157441 8.7185878 4.0337352 curveto
closepath
eofill
grestore
gsave [2.3865361e-17 0.38976379 -0.38976379 2.3865361e-17 123.47175 95.608224] concat
0.0000000 0.0000000 0.0000000 setrgbcolor
newpath
8.7185878 4.0337352 moveto
-2.2072895 0.016013256 lineto
8.7185884 -4.0017078 lineto
6.9730900 -1.6296469 6.9831476 1.6157441 8.7185878 4.0337352 curveto
closepath
eofill
grestore
0.0000000 0.0000000 0.0000000 setrgbcolor
[2.8346457 1.4173229] 0.0000000 setdash
0.35433072 setlinewidth
0 setlinejoin
0 setlinecap
newpath
163.22837 40.992761 moveto
58.288149 67.712656 lineto
stroke
0.0000000 0.0000000 0.0000000 setrgbcolor
[] 0 setdash
0.29795012 setlinewidth
0 setlinejoin
0 setlinecap
newpath
147.17488 60.798818 moveto
147.17488 45.105318 lineto
stroke
0.0000000 0.0000000 0.0000000 setrgbcolor
[2.8346457 1.4173229] 0.0000000 setdash
0.35433072 setlinewidth
0 setlinejoin
0 setlinecap
newpath
184.77667 19.875428 moveto
123.57950 60.817195 lineto
stroke
0.0000000 0.0000000 0.0000000 setrgbcolor
[2.8346457 1.4173229] 0.0000000 setdash
0.35433072 setlinewidth
0 setlinejoin
0 setlinecap
newpath
146.95940 45.194680 moveto
123.25627 45.410162 lineto
stroke
0.0000000 0.0000000 0.0000000 setrgbcolor
[2.8346457 1.4173229] 0.0000000 setdash
0.35433072 setlinewidth
0 setlinejoin
0 setlinecap
newpath
192.42631 23.215415 moveto
76.065495 60.493967 lineto
stroke
0.0000000 0.0000000 0.0000000 setrgbcolor
[] 0 setdash
0.41245300 setlinewidth
0 setlinejoin
0 setlinecap
newpath
169.36963 61.093275 moveto
169.36963 31.019945 lineto
stroke
0.0000000 0.0000000 0.0000000 setrgbcolor
[] 0 setdash
0.31953213 setlinewidth
0 setlinejoin
0 setlinecap
newpath
145.92514 65.665564 moveto
124.72153 65.665564 lineto
stroke
gsave [-0.19171928 2.3478064e-17 -2.3478064e-17 -0.19171928 144.39139 65.665564] concat
0.0000000 0.0000000 0.0000000 setrgbcolor
newpath
0.0000000 0.0000000 moveto
5.0000000 -5.0000000 lineto
-12.500000 0.0000000 lineto
5.0000000 5.0000000 lineto
0.0000000 0.0000000 lineto
closepath
eofill
0.0000000 0.0000000 0.0000000 setrgbcolor
[] 0 setdash
1.2500000 setlinewidth
0 setlinejoin
0 setlinecap
newpath
0.0000000 0.0000000 moveto
5.0000000 -5.0000000 lineto
-12.500000 0.0000000 lineto
5.0000000 5.0000000 lineto
0.0000000 0.0000000 lineto
closepath
stroke
0.0000000 0.0000000 0.0000000 setrgbcolor
[] 0 setdash
1.5000000 setlinewidth
0 setlinejoin
0 setlinecap
newpath
-14.759949 -7.0000000 moveto
-14.759949 65.000000 lineto
stroke
grestore
gsave [0.19171928 -2.3478064e-17 -2.3478064e-17 -0.19171928 126.25528 65.665564] concat
0.0000000 0.0000000 0.0000000 setrgbcolor
newpath
0.0000000 0.0000000 moveto
5.0000000 -5.0000000 lineto
-12.500000 0.0000000 lineto
5.0000000 5.0000000 lineto
0.0000000 0.0000000 lineto
closepath
eofill
0.0000000 0.0000000 0.0000000 setrgbcolor
[] 0 setdash
1.2500000 setlinewidth
0 setlinejoin
0 setlinecap
newpath
0.0000000 0.0000000 moveto
5.0000000 -5.0000000 lineto
-12.500000 0.0000000 lineto
5.0000000 5.0000000 lineto
0.0000000 0.0000000 lineto
closepath
stroke
0.0000000 0.0000000 0.0000000 setrgbcolor
[] 0 setdash
1.5000000 setlinewidth
0 setlinejoin
0 setlinecap
newpath
-14.759949 -7.0000000 moveto
-14.759949 65.000000 lineto
stroke
grestore
0.0000000 0.0000000 0.0000000 setrgbcolor
newpath
130.94997 72.585724 moveto
130.94996 72.635204 130.83538 73.006297 130.60622 73.699005 curveto
127.33669 73.699005 lineto
127.26247 73.468536 lineto
129.00205 72.064892 129.87184 70.788852 129.87184 69.640411 curveto
129.87184 68.968541 129.56715 68.632604 128.95778 68.632599 curveto
128.28069 68.632604 127.76507 68.951614 127.41090 69.589630 curveto
127.23903 69.515411 lineto
127.37965 69.127395 127.61924 68.800573 127.95778 68.534943 curveto
128.31455 68.253698 128.69215 68.113073 129.09059 68.113068 curveto
129.45778 68.113073 129.76637 68.225052 130.01637 68.449005 curveto
130.27679 68.683385 130.40699 68.981562 130.40700 69.343536 curveto
130.40699 70.502394 129.62184 71.779736 128.05153 73.175568 curveto
130.18825 73.175568 lineto
130.33147 73.175568 130.46819 73.064891 130.59840 72.843536 curveto
130.72861 72.622183 130.78850 72.511506 130.77809 72.511505 curveto
130.79892 72.511506 130.82887 72.523225 130.86794 72.546661 curveto
130.90699 72.567496 130.93434 72.580517 130.94997 72.585724 curveto
fill
0.0000000 0.0000000 0.0000000 setrgbcolor
newpath
134.70778 71.847443 moveto
134.70778 72.553173 134.51507 73.057079 134.12965 73.359161 curveto
133.78590 73.629995 133.25075 73.765411 132.52419 73.765411 curveto
132.31325 73.765411 132.12184 73.728953 131.94997 73.656036 curveto
131.72601 73.557078 131.61403 73.415151 131.61403 73.230255 curveto
131.61403 73.144318 131.64398 73.072704 131.70387 73.015411 curveto
131.76377 72.955516 131.83799 72.925568 131.92653 72.925568 curveto
132.10622 72.925568 132.29502 73.012808 132.49294 73.187286 curveto
132.69345 73.361766 132.89267 73.449005 133.09059 73.449005 curveto
133.79111 73.449005 134.14137 72.958120 134.14137 71.976349 curveto
134.14137 71.708122 134.07496 71.455518 133.94215 71.218536 curveto
133.78590 70.939893 133.58278 70.800571 133.33278 70.800568 curveto
133.06976 70.800571 132.79241 70.874789 132.50075 71.023224 curveto
132.42653 70.824005 lineto
132.65309 70.761508 132.92392 70.587029 133.23903 70.300568 curveto
133.58017 69.990676 133.75075 69.732863 133.75075 69.527130 curveto
133.75075 69.287551 133.65960 69.080520 133.47731 68.906036 curveto
133.29502 68.731562 133.08408 68.644323 132.84450 68.644318 curveto
132.55804 68.644323 132.17392 68.873489 131.69215 69.331818 curveto
131.57106 69.281036 lineto
131.83408 68.880000 132.05804 68.601354 132.24294 68.445099 curveto
132.51898 68.218542 132.84970 68.105261 133.23512 68.105255 curveto
133.56585 68.105261 133.84970 68.209427 134.08669 68.417755 curveto
134.33668 68.636510 134.46168 68.908645 134.46169 69.234161 curveto
134.46168 69.512811 134.37574 69.744582 134.20387 69.929474 curveto
134.08929 70.054478 133.88095 70.197707 133.57887 70.359161 curveto
133.93304 70.382602 134.21559 70.551873 134.42653 70.866974 curveto
134.61403 71.148226 134.70778 71.475049 134.70778 71.847443 curveto
fill
0.0000000 0.0000000 0.0000000 setrgbcolor
newpath
136.35231 73.687286 moveto
136.35231 73.478953 136.30023 73.301870 136.19606 73.156036 curveto
136.08148 72.989370 135.92392 72.906037 135.72340 72.906036 curveto
135.58538 72.906037 135.46429 72.942495 135.36012 73.015411 curveto
135.24814 73.096141 135.19215 73.202912 135.19215 73.335724 curveto
135.19215 73.447703 135.22340 73.544057 135.28590 73.624786 curveto
135.35622 73.715932 135.44346 73.761505 135.54762 73.761505 curveto
135.57887 73.761505 135.62184 73.756297 135.67653 73.745880 curveto
135.73382 73.738068 135.77679 73.734161 135.80544 73.734161 curveto
135.91220 73.734161 135.96559 73.807078 135.96559 73.952911 curveto
135.96559 74.327911 135.73773 74.635202 135.28200 74.874786 curveto
135.31064 74.968535 135.33799 75.015410 135.36403 75.015411 curveto
135.41351 75.015410 135.50465 74.969837 135.63747 74.878693 curveto
135.75986 74.795358 135.84059 74.730254 135.87965 74.683380 curveto
136.05413 74.472442 136.16611 74.321400 136.21559 74.230255 curveto
136.30674 74.068796 136.35231 73.887807 136.35231 73.687286 curveto
fill
0.0000000 0.0000000 0.0000000 setrgbcolor
newpath
140.47340 71.847443 moveto
140.47340 72.553173 140.28069 73.057079 139.89528 73.359161 curveto
139.55153 73.629995 139.01637 73.765411 138.28981 73.765411 curveto
138.07887 73.765411 137.88747 73.728953 137.71559 73.656036 curveto
137.49163 73.557078 137.37965 73.415151 137.37965 73.230255 curveto
137.37965 73.144318 137.40960 73.072704 137.46950 73.015411 curveto
137.52939 72.955516 137.60361 72.925568 137.69215 72.925568 curveto
137.87184 72.925568 138.06064 73.012808 138.25856 73.187286 curveto
138.45908 73.361766 138.65830 73.449005 138.85622 73.449005 curveto
139.55673 73.449005 139.90699 72.958120 139.90700 71.976349 curveto
139.90699 71.708122 139.84059 71.455518 139.70778 71.218536 curveto
139.55153 70.939893 139.34840 70.800571 139.09840 70.800568 curveto
138.83538 70.800571 138.55804 70.874789 138.26637 71.023224 curveto
138.19215 70.824005 lineto
138.41872 70.761508 138.68955 70.587029 139.00465 70.300568 curveto
139.34580 69.990676 139.51637 69.732863 139.51637 69.527130 curveto
139.51637 69.287551 139.42522 69.080520 139.24294 68.906036 curveto
139.06064 68.731562 138.84970 68.644323 138.61012 68.644318 curveto
138.32366 68.644323 137.93955 68.873489 137.45778 69.331818 curveto
137.33669 69.281036 lineto
137.59971 68.880000 137.82366 68.601354 138.00856 68.445099 curveto
138.28460 68.218542 138.61533 68.105261 139.00075 68.105255 curveto
139.33147 68.105261 139.61533 68.209427 139.85231 68.417755 curveto
140.10231 68.636510 140.22731 68.908645 140.22731 69.234161 curveto
140.22731 69.512811 140.14137 69.744582 139.96950 69.929474 curveto
139.85491 70.054478 139.64658 70.197707 139.34450 70.359161 curveto
139.69866 70.382602 139.98121 70.551873 140.19215 70.866974 curveto
140.37965 71.148226 140.47340 71.475049 140.47340 71.847443 curveto
fill
0.0000000 0.0000000 0.0000000 setrgbcolor
newpath
144.08278 71.847443 moveto
144.08278 72.553173 143.89007 73.057079 143.50465 73.359161 curveto
143.16090 73.629995 142.62575 73.765411 141.89919 73.765411 curveto
141.68825 73.765411 141.49684 73.728953 141.32497 73.656036 curveto
141.10101 73.557078 140.98903 73.415151 140.98903 73.230255 curveto
140.98903 73.144318 141.01898 73.072704 141.07887 73.015411 curveto
141.13877 72.955516 141.21299 72.925568 141.30153 72.925568 curveto
141.48122 72.925568 141.67002 73.012808 141.86794 73.187286 curveto
142.06845 73.361766 142.26767 73.449005 142.46559 73.449005 curveto
143.16611 73.449005 143.51637 72.958120 143.51637 71.976349 curveto
143.51637 71.708122 143.44996 71.455518 143.31715 71.218536 curveto
143.16090 70.939893 142.95778 70.800571 142.70778 70.800568 curveto
142.44476 70.800571 142.16741 70.874789 141.87575 71.023224 curveto
141.80153 70.824005 lineto
142.02809 70.761508 142.29892 70.587029 142.61403 70.300568 curveto
142.95517 69.990676 143.12575 69.732863 143.12575 69.527130 curveto
143.12575 69.287551 143.03460 69.080520 142.85231 68.906036 curveto
142.67002 68.731562 142.45908 68.644323 142.21950 68.644318 curveto
141.93304 68.644323 141.54892 68.873489 141.06715 69.331818 curveto
140.94606 69.281036 lineto
141.20908 68.880000 141.43304 68.601354 141.61794 68.445099 curveto
141.89398 68.218542 142.22470 68.105261 142.61012 68.105255 curveto
142.94085 68.105261 143.22470 68.209427 143.46169 68.417755 curveto
143.71168 68.636510 143.83668 68.908645 143.83669 69.234161 curveto
143.83668 69.512811 143.75074 69.744582 143.57887 69.929474 curveto
143.46429 70.054478 143.25595 70.197707 142.95387 70.359161 curveto
143.30804 70.382602 143.59059 70.551873 143.80153 70.866974 curveto
143.98903 71.148226 144.08278 71.475049 144.08278 71.847443 curveto
fill
0.0000000 0.0000000 0.0000000 setrgbcolor
newpath
fill
0.0000000 0.0000000 0.0000000 setrgbcolor
newpath
149.84059 72.738068 moveto
149.51767 73.425568 149.00595 73.769318 148.30544 73.769318 curveto
147.85491 73.769318 147.47340 73.588328 147.16090 73.226349 curveto
146.86142 72.879996 146.71169 72.477652 146.71169 72.019318 curveto
146.71169 71.446403 146.90960 70.973747 147.30544 70.601349 curveto
147.69345 70.236769 148.17653 70.054478 148.75465 70.054474 curveto
148.92653 70.054478 149.12705 70.107863 149.35622 70.214630 curveto
149.61923 70.331821 149.75074 70.458123 149.75075 70.593536 curveto
149.75074 70.840935 149.63356 70.964633 149.39919 70.964630 curveto
149.25335 70.964633 149.15830 70.906039 149.11403 70.788849 curveto
149.07236 70.679477 149.03200 70.570102 148.99294 70.460724 curveto
148.90700 70.340936 148.74163 70.281040 148.49684 70.281036 curveto
148.10361 70.281040 147.79632 70.459425 147.57497 70.816193 curveto
147.39007 71.118279 147.29762 71.478955 147.29762 71.898224 curveto
147.29762 72.247184 147.42002 72.572704 147.66481 72.874786 curveto
147.92523 73.195099 148.22470 73.355255 148.56325 73.355255 curveto
149.05022 73.355255 149.42262 73.135204 149.68044 72.695099 curveto
149.78720 72.692496 149.84059 72.706819 149.84059 72.738068 curveto
fill
0.0000000 0.0000000 0.0000000 setrgbcolor
newpath
156.77419 73.699005 moveto
155.04372 73.699005 lineto
155.04372 73.523224 lineto
155.39788 73.523224 155.57496 73.347443 155.57497 72.995880 curveto
155.57497 71.218536 lineto
155.57496 70.997185 155.52158 70.803175 155.41481 70.636505 curveto
155.28981 70.443800 155.12184 70.347446 154.91090 70.347443 curveto
154.58798 70.347446 154.20387 70.510206 153.75856 70.835724 curveto
153.75856 73.187286 lineto
153.75856 73.400828 153.96689 73.507599 154.38356 73.507599 curveto
154.40309 73.699005 lineto
152.67653 73.699005 lineto
152.67653 73.523224 lineto
153.02809 73.523224 153.20387 73.347443 153.20387 72.995880 curveto
153.20387 71.218536 lineto
153.20387 70.994581 153.15830 70.801873 153.06715 70.640411 curveto
152.95517 70.445102 152.79502 70.347446 152.58669 70.347443 curveto
152.25856 70.347446 151.85621 70.523227 151.37965 70.874786 curveto
151.37965 73.105255 lineto
151.37965 73.360464 151.57627 73.499787 151.96950 73.523224 curveto
151.94606 73.699005 lineto
150.29372 73.699005 lineto
150.27809 73.667755 lineto
150.30153 73.546661 lineto
150.46299 73.546662 150.59320 73.480255 150.69215 73.347443 curveto
150.78330 73.225047 150.82887 73.080516 150.82887 72.913849 curveto
150.82887 70.761505 lineto
150.82887 70.667758 150.74814 70.593539 150.58669 70.538849 curveto
150.56585 70.531040 150.44346 70.502394 150.21950 70.452911 curveto
150.21950 70.355255 lineto
150.24554 70.326613 150.27809 70.305779 150.31715 70.292755 curveto
150.52288 70.222446 150.83017 70.096144 151.23903 69.913849 curveto
151.37965 70.019318 lineto
151.37965 70.722443 lineto
152.13226 70.238071 152.65179 69.995884 152.93825 69.995880 curveto
153.11272 69.995884 153.27548 70.076613 153.42653 70.238068 curveto
153.55413 70.376092 153.64658 70.537550 153.70387 70.722443 curveto
154.45647 70.238071 154.97600 69.995884 155.26247 69.995880 curveto
155.54111 69.995884 155.76376 70.124790 155.93044 70.382599 curveto
156.07626 70.606560 156.14918 70.864373 156.14919 71.156036 curveto
156.14919 73.187286 lineto
156.14918 73.400828 156.34970 73.507599 156.75075 73.507599 curveto
156.77419 73.699005 lineto
fill
0.0000000 0.0000000 0.0000000 setrgbcolor
newpath
151.03258 52.047100 moveto
151.03257 52.453351 150.90269 52.783429 150.64293 53.037334 curveto
150.38511 53.291241 150.05211 53.418194 149.64391 53.418194 curveto
149.27476 53.418194 148.95543 53.288311 148.68590 53.028545 curveto
148.41832 52.766827 148.28453 52.452374 148.28453 52.085186 curveto
148.28453 51.665266 148.40758 51.323469 148.65367 51.059795 curveto
148.90172 50.796126 149.23472 50.664290 149.65269 50.664288 curveto
150.05113 50.664290 150.38023 50.795150 150.64000 51.056866 curveto
150.90172 51.318587 151.03257 51.648664 151.03258 52.047100 curveto
150.50230 52.304913 moveto
150.50230 51.918195 150.44176 51.594953 150.32066 51.335186 curveto
150.15855 50.987532 149.90660 50.813704 149.56480 50.813702 curveto
149.25816 50.813704 149.04625 50.936751 148.92906 51.182842 curveto
148.84703 51.354719 148.80601 51.613508 148.80602 51.959209 curveto
148.80601 52.275617 148.88316 52.560773 149.03746 52.814678 curveto
149.21715 53.109600 149.45543 53.257061 149.75230 53.257061 curveto
150.25230 53.257061 150.50230 52.939679 150.50230 52.304913 curveto
fill
0.0000000 0.0000000 0.0000000 setrgbcolor
newpath
153.92418 51.985577 moveto
153.92418 52.432843 153.77379 52.787335 153.47301 53.049053 curveto
153.18785 53.295147 152.81773 53.418194 152.36266 53.418194 curveto
152.07359 53.418194 151.75426 53.374249 151.40465 53.286358 curveto
151.40465 49.697491 lineto
151.40465 49.609604 151.35387 49.540268 151.25230 49.489483 curveto
151.16246 49.444565 151.05406 49.424057 150.92711 49.427959 curveto
150.91930 49.427963 150.91148 49.414292 150.90367 49.386944 curveto
150.89391 49.359604 150.88219 49.341049 150.86852 49.331280 curveto
151.19273 49.298081 151.51207 49.208237 151.82652 49.061749 curveto
151.82652 51.077374 lineto
152.10777 50.911360 152.27379 50.815657 152.32457 50.790264 curveto
152.51793 50.698470 152.70152 50.652572 152.87535 50.652569 curveto
153.20738 50.652572 153.47203 50.797103 153.66930 51.086163 curveto
153.83922 51.338118 153.92418 51.637922 153.92418 51.985577 curveto
153.45250 52.120342 moveto
153.45250 51.839094 153.38414 51.581282 153.24742 51.346905 curveto
153.08531 51.071516 152.87437 50.933821 152.61461 50.933819 curveto
152.50719 50.933821 152.36656 50.968001 152.19273 51.036358 curveto
152.00914 51.108626 151.88707 51.182844 151.82652 51.259014 curveto
151.82652 52.794170 lineto
151.82652 52.921124 151.92906 53.029522 152.13414 53.119366 curveto
152.30015 53.193585 152.45836 53.230694 152.60875 53.230694 curveto
152.88023 53.230694 153.09410 53.108624 153.25035 52.864483 curveto
153.38511 52.655499 153.45250 52.407453 153.45250 52.120342 curveto
fill
0.0000000 0.0000000 0.0000000 setrgbcolor
newpath
155.82262 53.681866 moveto
155.82262 53.990459 155.69469 54.282451 155.43883 54.557842 curveto
155.23765 54.774638 154.98375 54.883036 154.67711 54.883038 curveto
154.51891 54.883036 154.37730 54.858622 154.25230 54.809795 curveto
154.08043 54.745341 153.99352 54.648661 153.99156 54.519756 curveto
153.98961 54.472880 154.01500 54.419169 154.06773 54.358624 curveto
154.11852 54.298076 154.16930 54.267802 154.22008 54.267803 curveto
154.26500 54.267802 154.36852 54.327373 154.53062 54.446514 curveto
154.69273 54.567607 154.81676 54.628154 154.90269 54.628155 curveto
155.04723 54.628154 155.15953 54.570536 155.23961 54.455303 curveto
155.31187 54.351787 155.34801 54.225810 155.34801 54.077374 curveto
155.34801 51.179913 lineto
155.34801 51.037337 155.27769 50.966048 155.13707 50.966045 curveto
155.08433 50.966048 155.02281 50.974837 154.95250 50.992413 curveto
154.87926 50.875225 lineto
155.24840 50.771712 155.52672 50.661361 155.71422 50.544170 curveto
155.82262 50.623272 lineto
155.82262 53.681866 lineto
155.86070 49.633038 moveto
155.86070 49.717026 155.83140 49.789291 155.77281 49.849834 curveto
155.71422 49.908432 155.64293 49.937729 155.55894 49.937725 curveto
155.47496 49.937729 155.40367 49.908432 155.34508 49.849834 curveto
155.28648 49.789291 155.25719 49.717026 155.25719 49.633038 curveto
155.25719 49.549057 155.28648 49.477768 155.34508 49.419170 curveto
155.40367 49.360581 155.47496 49.331284 155.55894 49.331280 curveto
155.64293 49.331284 155.71422 49.360581 155.77281 49.419170 curveto
155.83140 49.477768 155.86070 49.549057 155.86070 49.633038 curveto
fill
0.0000000 0.0000000 0.0000000 setrgbcolor
newpath
159.03062 52.662334 moveto
158.78843 53.177960 158.40465 53.435772 157.87926 53.435772 curveto
157.54137 53.435772 157.25621 53.288311 157.02379 52.993389 curveto
156.80699 52.717999 156.69859 52.407453 156.69859 52.061749 curveto
156.69859 51.669172 156.80992 51.339094 157.03258 51.071514 curveto
157.27086 50.786360 157.58238 50.643782 157.96715 50.643780 curveto
158.27379 50.643782 158.52183 50.736556 158.71129 50.922100 curveto
158.90269 51.107649 158.99840 51.354719 158.99840 51.663311 curveto
157.10582 51.663311 lineto
157.09605 51.745344 157.09117 51.829328 157.09117 51.915264 curveto
157.09117 52.206281 157.18004 52.473859 157.35777 52.717999 curveto
157.55308 52.989483 157.79137 53.125225 158.07262 53.125225 curveto
158.43980 53.125225 158.71910 52.960186 158.91051 52.630108 curveto
158.93394 52.630108 lineto
158.97691 52.628156 159.00914 52.638898 159.03062 52.662334 curveto
158.55016 51.496319 moveto
158.54234 51.297102 158.47301 51.134993 158.34215 51.009991 curveto
158.21129 50.883040 158.04527 50.819564 157.84410 50.819561 curveto
157.67808 50.819564 157.53062 50.892806 157.40172 51.039288 curveto
157.28844 51.168196 157.21129 51.320540 157.17027 51.496319 curveto
158.55016 51.496319 lineto
fill
0.0000000 0.0000000 0.0000000 setrgbcolor
newpath
160.99937 52.867413 moveto
160.82554 53.211163 160.58629 53.383038 160.28160 53.383038 curveto
160.09996 53.383038 159.94762 53.327374 159.82457 53.216045 curveto
159.69566 53.098858 159.63121 52.950421 159.63121 52.770733 curveto
159.63121 50.933819 lineto
159.34703 50.933819 lineto
159.30309 50.790264 lineto
159.51598 50.710189 159.67125 50.590072 159.76891 50.429913 curveto
159.84117 50.312728 159.90562 50.123275 159.96227 49.861553 curveto
160.06480 49.861553 lineto
160.06480 50.702374 lineto
160.99937 50.702374 lineto
160.87633 50.933819 lineto
160.06480 50.933819 lineto
160.06480 52.592022 lineto
160.06480 52.693585 160.11754 52.802960 160.22301 52.920147 curveto
160.32847 53.037335 160.43199 53.095928 160.53355 53.095928 curveto
160.60191 53.095928 160.68687 53.042218 160.78844 52.934795 curveto
160.89195 52.825421 160.94371 52.770733 160.94371 52.770733 curveto
160.98277 52.770733 161.00133 52.802960 160.99937 52.867413 curveto
fill
0.0000000 0.0000000 0.0000000 setrgbcolor
newpath
151.31969 56.702374 moveto
151.30797 56.807842 lineto
151.20836 56.807845 151.10972 56.853743 151.01207 56.945538 curveto
150.92808 57.023665 150.86363 57.114485 150.81871 57.217999 curveto
149.85484 59.412334 lineto
149.69664 59.412334 lineto
148.72105 57.159405 lineto
148.61754 56.925032 148.44566 56.807845 148.20543 56.807842 curveto
148.20543 56.702374 lineto
149.54137 56.702374 lineto
149.54137 56.807842 lineto
149.25621 56.807845 149.11363 56.860579 149.11363 56.966045 curveto
149.11363 56.997298 149.35484 57.591047 149.83727 58.747295 curveto
149.85094 58.778546 149.86558 58.794171 149.88121 58.794170 curveto
149.90269 58.794171 149.92222 58.774640 149.93980 58.735577 curveto
150.57848 57.311749 lineto
150.61949 57.219954 150.64000 57.139876 150.64000 57.071514 curveto
150.64000 56.887923 150.48668 56.796126 150.18004 56.796124 curveto
150.21227 56.702374 lineto
151.31969 56.702374 lineto
fill
0.0000000 0.0000000 0.0000000 setrgbcolor
newpath
152.80504 59.383038 moveto
151.46031 59.383038 lineto
151.44859 59.359600 lineto
151.46617 59.268780 lineto
151.60484 59.268780 151.70348 59.249249 151.76207 59.210186 curveto
151.83433 59.161358 151.87047 59.067608 151.87047 58.928936 curveto
151.87047 57.179913 lineto
151.87047 57.037337 151.80016 56.966048 151.65953 56.966045 curveto
151.60680 56.966048 151.54527 56.974837 151.47496 56.992413 curveto
151.40172 56.875225 lineto
151.77281 56.771712 152.05113 56.661361 152.23668 56.544170 curveto
152.34508 56.623272 lineto
152.34508 58.937725 lineto
152.34508 59.129132 152.49449 59.233624 152.79332 59.251202 curveto
152.80504 59.383038 lineto
152.38023 55.633038 moveto
152.38023 55.717026 152.35094 55.789291 152.29234 55.849834 curveto
152.23375 55.908432 152.16246 55.937729 152.07848 55.937725 curveto
151.99449 55.937729 151.92320 55.908432 151.86461 55.849834 curveto
151.80601 55.789291 151.77672 55.717026 151.77672 55.633038 curveto
151.77672 55.549057 151.80601 55.477768 151.86461 55.419170 curveto
151.92320 55.360581 151.99449 55.331284 152.07848 55.331280 curveto
152.16246 55.331284 152.23375 55.360581 152.29234 55.419170 curveto
152.35094 55.477768 152.38023 55.549057 152.38023 55.633038 curveto
fill
0.0000000 0.0000000 0.0000000 setrgbcolor
newpath
155.03746 56.766827 moveto
155.03160 56.878157 154.97105 57.028548 154.85582 57.217999 curveto
154.61363 57.093001 154.44664 57.030501 154.35484 57.030499 curveto
154.23765 57.030501 154.13414 57.087141 154.04430 57.200420 curveto
153.97594 57.303938 153.90855 57.407454 153.84215 57.510967 curveto
153.84215 58.964092 lineto
153.84215 59.175030 153.97398 59.280499 154.23766 59.280499 curveto
154.26304 59.280499 154.29918 59.279522 154.34605 59.277569 curveto
154.39293 59.275616 154.42613 59.274639 154.44566 59.274639 curveto
154.45738 59.383038 lineto
153.00719 59.383038 lineto
153.00719 59.298077 lineto
153.28258 59.290264 153.42027 59.178936 153.42027 58.964092 curveto
153.42027 57.247295 lineto
153.42027 57.132063 153.27965 57.044173 152.99840 56.983624 curveto
152.99840 56.875225 lineto
153.17027 56.855696 153.41344 56.756087 153.72789 56.576397 curveto
153.84215 56.599834 lineto
153.84215 57.291241 lineto
154.07652 56.853743 154.28551 56.634993 154.46910 56.634991 curveto
154.56285 56.634993 154.75230 56.678939 155.03746 56.766827 curveto
fill
0.0000000 0.0000000 0.0000000 setrgbcolor
newpath
156.93297 58.867413 moveto
156.75914 59.211163 156.51988 59.383038 156.21519 59.383038 curveto
156.03355 59.383038 155.88121 59.327374 155.75816 59.216045 curveto
155.62926 59.098858 155.56480 58.950421 155.56480 58.770733 curveto
155.56480 56.933819 lineto
155.28062 56.933819 lineto
155.23668 56.790264 lineto
155.44957 56.710189 155.60484 56.590072 155.70250 56.429913 curveto
155.77476 56.312728 155.83922 56.123275 155.89586 55.861553 curveto
155.99840 55.861553 lineto
155.99840 56.702374 lineto
156.93297 56.702374 lineto
156.80992 56.933819 lineto
155.99840 56.933819 lineto
155.99840 58.592022 lineto
155.99840 58.693585 156.05113 58.802960 156.15660 58.920147 curveto
156.26207 59.037335 156.36558 59.095928 156.46715 59.095928 curveto
156.53551 59.095928 156.62047 59.042218 156.72203 58.934795 curveto
156.82554 58.825421 156.87730 58.770733 156.87730 58.770733 curveto
156.91636 58.770733 156.93492 58.802960 156.93297 58.867413 curveto
fill
0.0000000 0.0000000 0.0000000 setrgbcolor
newpath
160.42223 59.022686 moveto
160.41637 59.142803 lineto
159.52867 59.394756 lineto
159.52867 58.867413 lineto
159.16344 59.230694 158.76597 59.412334 158.33629 59.412334 curveto
157.91051 59.412334 157.69762 59.122296 157.69762 58.542217 curveto
157.69762 57.247295 lineto
157.69762 57.128157 157.65660 57.034407 157.57457 56.966045 curveto
157.49254 56.897688 157.39098 56.863509 157.26988 56.863506 curveto
157.25816 56.743389 lineto
158.13121 56.588116 lineto
158.13121 58.495342 lineto
158.13121 58.663312 158.18492 58.805890 158.29234 58.923077 curveto
158.40172 59.046124 158.53941 59.107647 158.70543 59.107647 curveto
158.87144 59.107647 159.14586 58.968975 159.52867 58.691631 curveto
159.52867 57.080303 lineto
159.52867 56.933821 159.34019 56.849837 158.96324 56.828350 curveto
158.96324 56.731670 lineto
159.94762 56.550030 lineto
159.94762 58.838116 lineto
159.94761 58.984600 160.02965 59.057843 160.19371 59.057842 curveto
160.23668 59.057843 160.31285 59.046124 160.42223 59.022686 curveto
fill
0.0000000 0.0000000 0.0000000 setrgbcolor
newpath
163.07359 58.662334 moveto
162.83140 59.177960 162.44761 59.435772 161.92223 59.435772 curveto
161.58433 59.435772 161.29918 59.288311 161.06676 58.993389 curveto
160.84996 58.717999 160.74156 58.407453 160.74156 58.061749 curveto
160.74156 57.669172 160.85289 57.339094 161.07555 57.071514 curveto
161.31383 56.786360 161.62535 56.643782 162.01012 56.643780 curveto
162.31676 56.643782 162.56480 56.736556 162.75426 56.922100 curveto
162.94566 57.107649 163.04136 57.354719 163.04137 57.663311 curveto
161.14879 57.663311 lineto
161.13902 57.745344 161.13414 57.829328 161.13414 57.915264 curveto
161.13414 58.206281 161.22301 58.473859 161.40074 58.717999 curveto
161.59605 58.989483 161.83433 59.125225 162.11559 59.125225 curveto
162.48277 59.125225 162.76207 58.960186 162.95348 58.630108 curveto
162.97691 58.630108 lineto
163.01988 58.628156 163.05211 58.638898 163.07359 58.662334 curveto
162.59312 57.496319 moveto
162.58531 57.297102 162.51597 57.134993 162.38512 57.009991 curveto
162.25426 56.883040 162.08824 56.819564 161.88707 56.819561 curveto
161.72105 56.819564 161.57359 56.892806 161.44469 57.039288 curveto
161.33141 57.168196 161.25426 57.320540 161.21324 57.496319 curveto
162.59312 57.496319 lineto
fill
0.0000000 0.0000000 0.0000000 setrgbcolor
newpath
164.74059 59.251202 moveto
164.72301 59.383038 lineto
163.45738 59.383038 lineto
163.44566 59.359600 lineto
163.46324 59.268780 lineto
163.58629 59.268780 163.68492 59.218975 163.75914 59.119366 curveto
163.82750 59.029522 163.86168 58.921124 163.86168 58.794170 curveto
163.86168 55.668194 lineto
163.86168 55.597885 163.82457 55.539291 163.75035 55.492413 curveto
163.68785 55.453354 163.61851 55.433823 163.54234 55.433819 curveto
163.54234 55.433823 163.49351 55.443588 163.39586 55.463116 curveto
163.39586 55.453354 163.39684 55.438706 163.39879 55.419170 curveto
163.40074 55.399643 163.40172 55.384018 163.40172 55.372295 curveto
163.40172 55.344956 163.43004 55.321518 163.48668 55.301983 curveto
163.63902 55.255112 163.86363 55.167221 164.16051 55.038311 curveto
164.28941 55.038311 lineto
164.28941 58.937725 lineto
164.28941 59.129132 164.43980 59.233624 164.74059 59.251202 curveto
fill
0.0000000 0.0000000 0.0000000 setrgbcolor
newpath
171.91776 47.995960 moveto
170.57303 47.995960 lineto
170.56131 47.972523 lineto
170.57889 47.881702 lineto
170.71756 47.881703 170.81619 47.862171 170.87479 47.823109 curveto
170.94705 47.774281 170.98318 47.680531 170.98318 47.541859 curveto
170.98318 45.792835 lineto
170.98318 45.650259 170.91287 45.578970 170.77225 45.578968 curveto
170.71951 45.578970 170.65799 45.587760 170.58768 45.605335 curveto
170.51443 45.488148 lineto
170.88553 45.384635 171.16385 45.274283 171.34940 45.157093 curveto
171.45779 45.236195 lineto
171.45779 47.550648 lineto
171.45779 47.742054 171.60721 47.846546 171.90604 47.864124 curveto
171.91776 47.995960 lineto
171.49295 44.245960 moveto
171.49295 44.329948 171.46365 44.402214 171.40506 44.462757 curveto
171.34647 44.521354 171.27518 44.550651 171.19119 44.550648 curveto
171.10721 44.550651 171.03592 44.521354 170.97733 44.462757 curveto
170.91873 44.402214 170.88943 44.329948 170.88943 44.245960 curveto
170.88943 44.161980 170.91873 44.090691 170.97733 44.032093 curveto
171.03592 43.973503 171.10721 43.944206 171.19119 43.944202 curveto
171.27518 43.944206 171.34647 43.973503 171.40506 44.032093 curveto
171.46365 44.090691 171.49295 44.161980 171.49295 44.245960 curveto
fill
0.0000000 0.0000000 0.0000000 setrgbcolor
newpath
176.95682 47.995960 moveto
175.65897 47.995960 lineto
175.65897 47.864124 lineto
175.92459 47.864124 176.05740 47.732289 176.05740 47.468616 curveto
176.05740 46.135609 lineto
176.05740 45.969595 176.01736 45.824087 175.93729 45.699085 curveto
175.84353 45.554556 175.71756 45.482291 175.55936 45.482288 curveto
175.31717 45.482291 175.02908 45.604361 174.69510 45.848499 curveto
174.69510 47.612171 lineto
174.69510 47.772328 174.85135 47.852406 175.16385 47.852406 curveto
175.17850 47.995960 lineto
173.88358 47.995960 lineto
173.88358 47.864124 lineto
174.14725 47.864124 174.27908 47.732289 174.27908 47.468616 curveto
174.27908 46.135609 lineto
174.27908 45.967642 174.24490 45.823111 174.17654 45.702015 curveto
174.09256 45.555533 173.97244 45.482291 173.81619 45.482288 curveto
173.57010 45.482291 173.26834 45.614127 172.91092 45.877796 curveto
172.91092 47.550648 lineto
172.91092 47.742054 173.05838 47.846546 173.35330 47.864124 curveto
173.33572 47.995960 lineto
172.09647 47.995960 lineto
172.08475 47.972523 lineto
172.10233 47.881702 lineto
172.22342 47.881703 172.32108 47.831898 172.39529 47.732288 curveto
172.46365 47.640492 172.49783 47.532094 172.49783 47.407093 curveto
172.49783 45.792835 lineto
172.49783 45.722525 172.43729 45.666861 172.31619 45.625843 curveto
172.30057 45.619986 172.20877 45.598502 172.04080 45.561390 curveto
172.04080 45.488148 lineto
172.06033 45.466666 172.08475 45.451041 172.11404 45.441273 curveto
172.26834 45.388541 172.49881 45.293815 172.80545 45.157093 curveto
172.91092 45.236195 lineto
172.91092 45.763538 lineto
173.47537 45.400260 173.86502 45.218619 174.07986 45.218616 curveto
174.21072 45.218619 174.33279 45.279166 174.44608 45.400257 curveto
174.54178 45.503775 174.61111 45.624869 174.65408 45.763538 curveto
175.21853 45.400260 175.60818 45.218619 175.82303 45.218616 curveto
176.03201 45.218619 176.19900 45.315299 176.32401 45.508656 curveto
176.43338 45.676627 176.48806 45.869986 176.48807 46.088734 curveto
176.48807 47.612171 lineto
176.48806 47.772328 176.63845 47.852406 176.93924 47.852406 curveto
176.95682 47.995960 lineto
fill
0.0000000 0.0000000 0.0000000 setrgbcolor
newpath
179.76346 47.702991 moveto
179.56814 47.845570 179.46853 47.918812 179.46463 47.922718 curveto
179.33767 48.000843 179.22049 48.039906 179.11307 48.039906 curveto
178.94510 48.039906 178.82986 47.911976 178.76736 47.656116 curveto
178.53103 47.827992 178.40018 47.920765 178.37479 47.934437 curveto
178.24588 48.006702 178.09744 48.042835 177.92947 48.042835 curveto
177.76346 48.042835 177.62283 47.986195 177.50760 47.872913 curveto
177.39432 47.757679 177.33768 47.618031 177.33768 47.453968 curveto
177.33768 47.248891 177.41873 47.080922 177.58084 46.950062 curveto
177.67654 46.873891 177.84744 46.785024 178.09354 46.683460 curveto
178.75565 46.410999 lineto
178.75565 45.974476 lineto
178.75564 45.820181 178.69998 45.690298 178.58865 45.584827 curveto
178.47928 45.479361 178.34646 45.426627 178.19022 45.426624 curveto
177.94217 45.426627 177.81815 45.558463 177.81815 45.822132 curveto
177.81815 45.839712 177.82205 45.863150 177.82986 45.892445 curveto
177.83768 45.921744 177.84158 45.944204 177.84158 45.959827 curveto
177.84158 46.032095 177.78690 46.096548 177.67752 46.153187 curveto
177.58182 46.203970 177.49393 46.229360 177.41385 46.229359 curveto
177.38065 46.229360 177.36404 46.202017 177.36404 46.147327 curveto
177.36404 45.887564 177.47342 45.674673 177.69217 45.508656 curveto
177.89139 45.356314 178.12576 45.280143 178.39529 45.280140 curveto
178.66482 45.280143 178.86209 45.329947 178.98709 45.429554 curveto
179.12576 45.538931 179.19510 45.724478 179.19510 45.986195 curveto
179.19510 47.494984 lineto
179.19510 47.662953 179.25271 47.746937 179.36795 47.746937 curveto
179.44021 47.746937 179.57010 47.692250 179.75760 47.582874 curveto
179.76346 47.702991 lineto
178.75858 47.459827 moveto
178.75565 46.580921 lineto
178.16092 46.841663 lineto
177.89334 46.958852 177.75955 47.147328 177.75955 47.407093 curveto
177.75955 47.518422 177.79568 47.607289 177.86795 47.673695 curveto
177.94022 47.740101 178.03201 47.773304 178.14334 47.773304 curveto
178.25857 47.773304 178.36990 47.741078 178.47733 47.676624 curveto
178.52420 47.647328 178.61795 47.575062 178.75858 47.459827 curveto
fill
0.0000000 0.0000000 0.0000000 setrgbcolor
newpath
182.60233 45.789906 moveto
181.89334 45.713734 lineto
182.00076 45.875845 182.05447 46.058462 182.05447 46.261585 curveto
182.05447 46.525259 181.92850 46.736196 181.67654 46.894398 curveto
181.46170 47.029164 181.21365 47.096547 180.93240 47.096546 curveto
180.80740 47.096547 180.67557 47.082875 180.53690 47.055531 curveto
180.27518 47.194203 180.14432 47.318227 180.14432 47.427601 curveto
180.14432 47.552601 180.35428 47.628773 180.77420 47.656116 curveto
181.37967 47.697132 181.76932 47.742054 181.94315 47.790882 curveto
182.36307 47.908070 182.57303 48.139515 182.57303 48.485218 curveto
182.57303 48.784045 182.36014 49.033069 181.93436 49.232288 curveto
181.58279 49.398303 181.23709 49.481310 180.89725 49.481312 curveto
180.63357 49.481310 180.40115 49.447131 180.19998 49.378773 curveto
179.91287 49.279162 179.76932 49.124865 179.76932 48.915882 curveto
179.76932 48.620960 179.98221 48.321155 180.40799 48.016468 curveto
180.40018 47.998890 180.34158 47.975452 180.23221 47.946156 curveto
180.10135 47.912953 180.00565 47.875843 179.94510 47.834827 curveto
179.84354 47.766468 179.79276 47.673695 179.79276 47.556507 curveto
179.79276 47.437367 179.82986 47.346547 179.90408 47.284046 curveto
179.94510 47.248891 180.02908 47.207875 180.15604 47.160999 curveto
180.27518 47.116078 180.36111 47.069203 180.41385 47.020374 curveto
180.02518 46.893422 179.83084 46.628774 179.83084 46.226429 curveto
179.83084 45.945181 179.93826 45.708853 180.15311 45.517445 curveto
180.36014 45.333854 180.60623 45.242057 180.89139 45.242054 curveto
181.23123 45.242057 181.49881 45.331900 181.69412 45.511585 curveto
182.58475 45.452991 lineto
182.58670 45.519400 182.59256 45.631705 182.60233 45.789906 curveto
181.61502 46.249866 moveto
181.61502 46.036978 181.54861 45.845572 181.41580 45.675648 curveto
181.27127 45.492056 181.09549 45.400260 180.88846 45.400257 curveto
180.67752 45.400260 180.51639 45.495963 180.40506 45.687366 curveto
180.31326 45.845572 180.26736 46.037954 180.26736 46.264515 curveto
180.26736 46.715688 180.49295 46.941274 180.94412 46.941273 curveto
181.39139 46.941274 181.61502 46.710805 181.61502 46.249866 curveto
182.17752 48.546741 moveto
182.17752 48.343616 182.04373 48.202015 181.77615 48.121937 curveto
181.63553 48.080921 181.41873 48.053577 181.12576 48.039906 curveto
180.99686 48.028187 180.80252 48.016468 180.54276 48.004749 curveto
180.26736 48.223499 180.12967 48.489124 180.12967 48.801624 curveto
180.12967 49.092639 180.46756 49.238146 181.14334 49.238148 curveto
181.34646 49.238146 181.56228 49.173693 181.79080 49.044788 curveto
182.04861 48.898303 182.17752 48.732288 182.17752 48.546741 curveto
fill
0.0000000 0.0000000 0.0000000 setrgbcolor
newpath
185.20975 47.275257 moveto
184.96756 47.790882 184.58377 48.048695 184.05838 48.048695 curveto
183.72049 48.048695 183.43533 47.901234 183.20291 47.606312 curveto
182.98611 47.330922 182.87772 47.020375 182.87772 46.674671 curveto
182.87772 46.282095 182.98904 45.952017 183.21170 45.684437 curveto
183.44998 45.399283 183.76150 45.256705 184.14627 45.256702 curveto
184.45291 45.256705 184.70096 45.349479 184.89041 45.535023 curveto
185.08182 45.720572 185.17752 45.967642 185.17752 46.276234 curveto
183.28494 46.276234 lineto
183.27518 46.358267 183.27029 46.442251 183.27029 46.528187 curveto
183.27029 46.819204 183.35916 47.086781 183.53690 47.330921 curveto
183.73221 47.602406 183.97049 47.738148 184.25174 47.738148 curveto
184.61893 47.738148 184.89822 47.573109 185.08963 47.243031 curveto
185.11307 47.243031 lineto
185.15603 47.241078 185.18826 47.251820 185.20975 47.275257 curveto
184.72928 46.109241 moveto
184.72146 45.910025 184.65213 45.747916 184.52127 45.622913 curveto
184.39041 45.495963 184.22439 45.432486 184.02322 45.432484 curveto
183.85721 45.432486 183.70975 45.505728 183.58084 45.652210 curveto
183.46756 45.781119 183.39041 45.933462 183.34940 46.109241 curveto
184.72928 46.109241 lineto
fill
0.0000000 0.0000000 0.0000000 setrgbcolor
newpath
172.53299 51.379749 moveto
172.52713 51.491080 172.46658 51.641470 172.35135 51.830921 curveto
172.10916 51.705923 171.94217 51.643424 171.85037 51.643421 curveto
171.73318 51.643424 171.62967 51.700064 171.53983 51.813343 curveto
171.47147 51.916861 171.40408 52.020376 171.33768 52.123890 curveto
171.33768 53.577015 lineto
171.33768 53.787953 171.46951 53.893421 171.73318 53.893421 curveto
171.75857 53.893421 171.79471 53.892445 171.84158 53.890491 curveto
171.88846 53.888538 171.92166 53.887562 171.94119 53.887562 curveto
171.95291 53.995960 lineto
170.50272 53.995960 lineto
170.50272 53.910999 lineto
170.77811 53.903187 170.91580 53.791859 170.91580 53.577015 curveto
170.91580 51.860218 lineto
170.91580 51.744986 170.77518 51.657095 170.49393 51.596546 curveto
170.49393 51.488148 lineto
170.66580 51.468619 170.90897 51.369010 171.22342 51.189320 curveto
171.33768 51.212757 lineto
171.33768 51.904163 lineto
171.57205 51.466666 171.78104 51.247916 171.96463 51.247913 curveto
172.05838 51.247916 172.24783 51.291861 172.53299 51.379749 curveto
fill
0.0000000 0.0000000 0.0000000 setrgbcolor
newpath
175.06131 53.275257 moveto
174.81912 53.790882 174.43533 54.048695 173.90994 54.048695 curveto
173.57205 54.048695 173.28690 53.901234 173.05447 53.606312 curveto
172.83768 53.330922 172.72928 53.020375 172.72928 52.674671 curveto
172.72928 52.282095 172.84061 51.952017 173.06326 51.684437 curveto
173.30154 51.399283 173.61307 51.256705 173.99783 51.256702 curveto
174.30447 51.256705 174.55252 51.349479 174.74197 51.535023 curveto
174.93338 51.720572 175.02908 51.967642 175.02908 52.276234 curveto
173.13651 52.276234 lineto
173.12674 52.358267 173.12186 52.442251 173.12186 52.528187 curveto
173.12186 52.819204 173.21072 53.086781 173.38846 53.330921 curveto
173.58377 53.602406 173.82205 53.738148 174.10330 53.738148 curveto
174.47049 53.738148 174.74978 53.573109 174.94119 53.243031 curveto
174.96463 53.243031 lineto
175.00760 53.241078 175.03982 53.251820 175.06131 53.275257 curveto
174.58084 52.109241 moveto
174.57303 51.910025 174.50369 51.747916 174.37283 51.622913 curveto
174.24197 51.495963 174.07596 51.432486 173.87479 51.432484 curveto
173.70877 51.432486 173.56131 51.505728 173.43240 51.652210 curveto
173.31912 51.781119 173.24197 51.933462 173.20096 52.109241 curveto
174.58084 52.109241 lineto
174.66580 49.944202 moveto
173.77518 51.034046 lineto
173.70486 50.946156 lineto
174.15604 49.771351 lineto
174.66580 49.944202 lineto
fill
0.0000000 0.0000000 0.0000000 setrgbcolor
newpath
177.55740 53.275257 moveto
177.31521 53.790882 176.93143 54.048695 176.40604 54.048695 curveto
176.06814 54.048695 175.78299 53.901234 175.55057 53.606312 curveto
175.33377 53.330922 175.22537 53.020375 175.22537 52.674671 curveto
175.22537 52.282095 175.33670 51.952017 175.55936 51.684437 curveto
175.79764 51.399283 176.10916 51.256705 176.49393 51.256702 curveto
176.80057 51.256705 177.04861 51.349479 177.23807 51.535023 curveto
177.42947 51.720572 177.52517 51.967642 177.52518 52.276234 curveto
175.63260 52.276234 lineto
175.62283 52.358267 175.61795 52.442251 175.61795 52.528187 curveto
175.61795 52.819204 175.70682 53.086781 175.88455 53.330921 curveto
176.07986 53.602406 176.31814 53.738148 176.59940 53.738148 curveto
176.96658 53.738148 177.24588 53.573109 177.43729 53.243031 curveto
177.46072 53.243031 lineto
177.50369 53.241078 177.53592 53.251820 177.55740 53.275257 curveto
177.07693 52.109241 moveto
177.06912 51.910025 176.99978 51.747916 176.86893 51.622913 curveto
176.73807 51.495963 176.57205 51.432486 176.37088 51.432484 curveto
176.20486 51.432486 176.05740 51.505728 175.92850 51.652210 curveto
175.81522 51.781119 175.73807 51.933462 175.69705 52.109241 curveto
177.07693 52.109241 lineto
fill
0.0000000 0.0000000 0.0000000 setrgbcolor
newpath
179.22440 53.864124 moveto
179.20682 53.995960 lineto
177.94119 53.995960 lineto
177.92947 53.972523 lineto
177.94705 53.881702 lineto
178.07010 53.881703 178.16873 53.831898 178.24295 53.732288 curveto
178.31131 53.642445 178.34549 53.534047 178.34549 53.407093 curveto
178.34549 50.281116 lineto
178.34549 50.210808 178.30838 50.152214 178.23416 50.105335 curveto
178.17166 50.066277 178.10233 50.046745 178.02615 50.046741 curveto
178.02615 50.046745 177.97733 50.056511 177.87967 50.076038 curveto
177.87967 50.066277 177.88065 50.051628 177.88260 50.032093 curveto
177.88455 50.012566 177.88553 49.996941 177.88553 49.985218 curveto
177.88553 49.957878 177.91385 49.934441 177.97049 49.914906 curveto
178.12283 49.868035 178.34744 49.780144 178.64432 49.651234 curveto
178.77322 49.651234 lineto
178.77322 53.550648 lineto
178.77322 53.742054 178.92361 53.846546 179.22440 53.864124 curveto
fill
0.0000000 0.0000000 0.0000000 setrgbcolor
newpath
180.80643 53.864124 moveto
180.78885 53.995960 lineto
179.52322 53.995960 lineto
179.51151 53.972523 lineto
179.52908 53.881702 lineto
179.65213 53.881703 179.75076 53.831898 179.82498 53.732288 curveto
179.89334 53.642445 179.92752 53.534047 179.92752 53.407093 curveto
179.92752 50.281116 lineto
179.92752 50.210808 179.89041 50.152214 179.81619 50.105335 curveto
179.75369 50.066277 179.68436 50.046745 179.60818 50.046741 curveto
179.60818 50.046745 179.55936 50.056511 179.46170 50.076038 curveto
179.46170 50.066277 179.46268 50.051628 179.46463 50.032093 curveto
179.46658 50.012566 179.46756 49.996941 179.46756 49.985218 curveto
179.46756 49.957878 179.49588 49.934441 179.55252 49.914906 curveto
179.70486 49.868035 179.92947 49.780144 180.22635 49.651234 curveto
180.35526 49.651234 lineto
180.35526 53.550648 lineto
180.35525 53.742054 180.50564 53.846546 180.80643 53.864124 curveto
fill
0.0000000 0.0000000 0.0000000 setrgbcolor
newpath
183.32303 53.275257 moveto
183.08084 53.790882 182.69705 54.048695 182.17166 54.048695 curveto
181.83377 54.048695 181.54861 53.901234 181.31619 53.606312 curveto
181.09940 53.330922 180.99100 53.020375 180.99100 52.674671 curveto
180.99100 52.282095 181.10233 51.952017 181.32498 51.684437 curveto
181.56326 51.399283 181.87479 51.256705 182.25955 51.256702 curveto
182.56619 51.256705 182.81424 51.349479 183.00369 51.535023 curveto
183.19510 51.720572 183.29080 51.967642 183.29080 52.276234 curveto
181.39822 52.276234 lineto
181.38846 52.358267 181.38358 52.442251 181.38358 52.528187 curveto
181.38358 52.819204 181.47244 53.086781 181.65018 53.330921 curveto
181.84549 53.602406 182.08377 53.738148 182.36502 53.738148 curveto
182.73221 53.738148 183.01150 53.573109 183.20291 53.243031 curveto
183.22635 53.243031 lineto
183.26932 53.241078 183.30154 53.251820 183.32303 53.275257 curveto
182.84256 52.109241 moveto
182.83475 51.910025 182.76541 51.747916 182.63455 51.622913 curveto
182.50369 51.495963 182.33768 51.432486 182.13651 51.432484 curveto
181.97049 51.432486 181.82303 51.505728 181.69412 51.652210 curveto
181.58084 51.781119 181.50369 51.933462 181.46268 52.109241 curveto
182.84256 52.109241 lineto
fill
0.0000000 0.0000000 0.0000000 setrgbcolor
newpath
77.887230 49.599796 moveto
77.746605 49.599796 lineto
77.746601 49.081572 77.517435 48.822458 77.059105 48.822453 curveto
75.297386 48.822453 lineto
75.297386 50.920109 lineto
76.754417 50.920109 lineto
76.910664 50.920112 77.034362 50.858914 77.125511 50.736515 curveto
77.203633 50.629748 77.242695 50.493029 77.242699 50.326359 curveto
77.352074 50.326359 lineto
77.352074 51.849796 lineto
77.242699 51.849796 lineto
77.242695 51.422716 77.079935 51.209174 76.754417 51.209171 curveto
75.297386 51.209171 lineto
75.297386 53.330265 lineto
75.297385 53.679224 75.533062 53.853703 76.004417 53.853703 curveto
76.004417 54.029484 lineto
73.961449 54.029484 lineto
73.961449 53.853703 lineto
74.393740 53.853703 74.609885 53.663599 74.609886 53.283390 curveto
74.609886 49.072453 lineto
74.609885 48.788604 74.393740 48.647979 73.961449 48.650578 curveto
73.961449 48.482609 lineto
77.793480 48.482609 lineto
77.887230 49.599796 lineto
fill
0.0000000 0.0000000 0.0000000 setrgbcolor
newpath
176.07315 63.793831 moveto
175.93253 63.793831 lineto
175.93252 63.275607 175.70336 63.016492 175.24503 63.016487 curveto
173.48331 63.016487 lineto
173.48331 65.114143 lineto
174.94034 65.114143 lineto
175.09659 65.114146 175.22028 65.052949 175.31143 64.930550 curveto
175.38955 64.823782 175.42862 64.687064 175.42862 64.520393 curveto
175.53799 64.520393 lineto
175.53799 66.043831 lineto
175.42862 66.043831 lineto
175.42862 65.616750 175.26586 65.403209 174.94034 65.403206 curveto
173.48331 65.403206 lineto
173.48331 67.524300 lineto
173.48331 67.873258 173.71898 68.047737 174.19034 68.047737 curveto
174.19034 68.223518 lineto
172.14737 68.223518 lineto
172.14737 68.047737 lineto
172.57966 68.047737 172.79581 67.857633 172.79581 67.477425 curveto
172.79581 63.266487 lineto
172.79581 62.982638 172.57966 62.842013 172.14737 62.844612 curveto
172.14737 62.676643 lineto
175.97940 62.676643 lineto
176.07315 63.793831 lineto
fill
grestore
showpage
