%!PS-Adobe-2.0
%%Creator: inkscape 0.41.1
%%Pages: 1
%%Orientation: Portrait
%%BoundingBox: 23 765 149 822
%%HiResBoundingBox: 23.704898 765.85752 148.40556 821.90767
%%EndComments
%%Page: 1 1
0 842 translate
0.80000000 -0.80000000 scale
gsave [1.0000000 0.0000000 0.0000000 1.0000000 0.0000000 0.0000000] concat
0.0000000 0.0000000 0.0000000 setrgbcolor
[1.4173229 2.8346457] 0.0000000 setdash
0.35433072 setlinewidth
0 setlinejoin
0 setlinecap
newpath
29.808288 60.912589 moveto
185.32979 60.912589 185.32979 60.912589 185.32979 60.912589 curveto
stroke
0.0000000 0.0000000 0.0000000 setrgbcolor
[] 0 setdash
0.35433072 setlinewidth
0 setlinejoin
0 setlinecap
newpath
91.364788 25.154761 moveto
91.364788 94.109319 91.364788 94.540285 91.364788 94.540285 curveto
stroke
gsave [2.3865361e-17 0.38976379 -0.38976379 2.3865361e-17 91.364788 23.205942] concat
0.0000000 0.0000000 0.0000000 setrgbcolor
newpath
8.7185878 4.0337352 moveto
-2.2072895 0.016013256 lineto
8.7185884 -4.0017078 lineto
6.9730900 -1.6296469 6.9831476 1.6157441 8.7185878 4.0337352 curveto
closepath
eofill
grestore
gsave [-2.3865361e-17 -0.38976379 0.38976379 -2.3865361e-17 91.364788 96.489104] concat
0.0000000 0.0000000 0.0000000 setrgbcolor
newpath
8.7185878 4.0337352 moveto
-2.2072895 0.016013256 lineto
8.7185884 -4.0017078 lineto
6.9730900 -1.6296469 6.9831476 1.6157441 8.7185878 4.0337352 curveto
closepath
eofill
grestore
0.0000000 0.0000000 0.0000000 setrgbcolor
[] 0 setdash
0.35433072 setlinewidth
0 setlinejoin
0 setlinecap
newpath
43.096598 41.100503 moveto
43.096598 60.709455 43.096598 60.709455 43.096598 60.709455 curveto
stroke
0.0000000 0.0000000 0.0000000 setrgbcolor
[] 0 setdash
1.0000000 setlinewidth
0 setlinejoin
0 setlinecap
newpath
42.881115 41.315986 moveto
168.50770 91.954489 lineto
stroke
gsave [-0.27824579 -0.11215739 0.11215739 -0.27824579 169.89893 92.515276] concat
0.0000000 0.0000000 0.0000000 setrgbcolor
newpath
8.7185878 4.0337352 moveto
-2.2072895 0.016013256 lineto
8.7185884 -4.0017078 lineto
6.9730900 -1.6296469 6.9831476 1.6157441 8.7185878 4.0337352 curveto
closepath
eofill
grestore
0.0000000 0.0000000 0.0000000 setrgbcolor
[] 0 setdash
1.0000000 setlinewidth
0 setlinejoin
0 setlinecap
newpath
42.881115 41.315986 moveto
91.149305 41.315986 lineto
161.82773 94.540285 lineto
stroke
gsave [-0.23964884 -0.18046726 0.18046726 -0.23964884 163.02597 95.442621] concat
0.0000000 0.0000000 0.0000000 setrgbcolor
newpath
8.7185878 4.0337352 moveto
-2.2072895 0.016013256 lineto
8.7185884 -4.0017078 lineto
6.9730900 -1.6296469 6.9831476 1.6157441 8.7185878 4.0337352 curveto
closepath
eofill
grestore
0.0000000 0.0000000 0.0000000 setrgbcolor
[] 0 setdash
0.35433072 setlinewidth
0 setlinejoin
0 setlinecap
newpath
146.74392 83.119686 moveto
146.74392 60.924938 lineto
stroke
0.0000000 0.0000000 0.0000000 setrgbcolor
[] 0 setdash
0.33041319 setlinewidth
0 setlinejoin
0 setlinecap
newpath
92.634395 47.995958 moveto
115.30669 47.995958 lineto
stroke
gsave [0.19824792 0.0000000 0.0000000 0.19824792 94.220378 47.995958] concat
0.0000000 0.0000000 0.0000000 setrgbcolor
newpath
0.0000000 0.0000000 moveto
5.0000000 -5.0000000 lineto
-12.500000 0.0000000 lineto
5.0000000 5.0000000 lineto
0.0000000 0.0000000 lineto
closepath
eofill
0.0000000 0.0000000 0.0000000 setrgbcolor
[] 0 setdash
1.2500000 setlinewidth
0 setlinejoin
0 setlinecap
newpath
0.0000000 0.0000000 moveto
5.0000000 -5.0000000 lineto
-12.500000 0.0000000 lineto
5.0000000 5.0000000 lineto
0.0000000 0.0000000 lineto
closepath
stroke
0.0000000 0.0000000 0.0000000 setrgbcolor
[] 0 setdash
1.5000000 setlinewidth
0 setlinejoin
0 setlinecap
newpath
-14.759949 -7.0000000 moveto
-14.759949 65.000000 lineto
stroke
grestore
gsave [-0.19824792 -0.0000000 0.0000000 0.19824792 113.72071 47.995958] concat
0.0000000 0.0000000 0.0000000 setrgbcolor
newpath
0.0000000 0.0000000 moveto
5.0000000 -5.0000000 lineto
-12.500000 0.0000000 lineto
5.0000000 5.0000000 lineto
0.0000000 0.0000000 lineto
closepath
eofill
0.0000000 0.0000000 0.0000000 setrgbcolor
[] 0 setdash
1.2500000 setlinewidth
0 setlinejoin
0 setlinecap
newpath
0.0000000 0.0000000 moveto
5.0000000 -5.0000000 lineto
-12.500000 0.0000000 lineto
5.0000000 5.0000000 lineto
0.0000000 0.0000000 lineto
closepath
stroke
0.0000000 0.0000000 0.0000000 setrgbcolor
[] 0 setdash
1.5000000 setlinewidth
0 setlinejoin
0 setlinecap
newpath
-14.759949 -7.0000000 moveto
-14.759949 65.000000 lineto
stroke
grestore
0.0000000 0.0000000 0.0000000 setrgbcolor
newpath
125.71635 47.809422 moveto
125.22807 48.268406 lineto
125.12390 47.806173 124.79512 47.575053 124.24174 47.575047 curveto
123.92272 47.575053 123.63627 47.671082 123.38236 47.863132 curveto
123.10892 48.071472 122.97220 48.331888 122.97221 48.644382 curveto
122.97221 49.801609 lineto
124.11967 49.801609 lineto
124.11967 50.172703 lineto
122.97221 50.172703 lineto
122.97221 53.405125 lineto
122.97220 53.821792 123.20170 54.030125 123.66068 54.030125 curveto
123.69649 54.030125 123.74857 54.030125 123.81693 54.030125 curveto
123.88529 54.026870 123.93575 54.025242 123.96830 54.025242 curveto
123.96830 54.244968 lineto
121.59037 54.244968 lineto
121.56596 54.103367 lineto
121.83288 54.021987 121.99076 53.968276 122.03959 53.942234 curveto
122.20235 53.854344 122.28373 53.722508 122.28373 53.546726 curveto
122.28373 50.172703 lineto
122.19258 50.182472 121.90775 50.159686 121.42924 50.104343 curveto
121.42924 49.913914 lineto
121.83288 49.913918 122.06726 49.876483 122.13236 49.801609 curveto
122.28373 49.801609 lineto
122.28373 49.655125 lineto
122.28373 49.131041 122.34069 48.753437 122.45463 48.522312 curveto
122.54252 48.349792 122.77689 48.079610 123.15775 47.711765 curveto
123.48978 47.392762 123.96830 47.233257 124.59330 47.233250 curveto
124.92858 47.233257 125.30293 47.425314 125.71635 47.809422 curveto
fill
0.0000000 0.0000000 0.0000000 setrgbcolor
newpath
129.66166 50.070164 moveto
125.60892 50.070164 lineto
125.60892 49.611179 lineto
129.66166 49.611179 lineto
129.66166 50.070164 lineto
129.66166 51.910984 moveto
125.60892 51.910984 lineto
125.60892 51.447117 lineto
129.66166 51.447117 lineto
129.66166 51.910984 lineto
fill
0.0000000 0.0000000 0.0000000 setrgbcolor
newpath
134.46635 51.930515 moveto
134.46634 52.812678 134.22546 53.442560 133.74369 53.820164 curveto
133.31400 54.158705 132.64506 54.327976 131.73685 54.327976 curveto
131.47318 54.327976 131.23392 54.282403 131.01908 54.191257 curveto
130.73913 54.067560 130.59916 53.890151 130.59916 53.659031 curveto
130.59916 53.551610 130.63659 53.462092 130.71146 53.390476 curveto
130.78633 53.315607 130.87911 53.278173 130.98978 53.278172 curveto
131.21439 53.278173 131.45039 53.387222 131.69779 53.605320 curveto
131.94844 53.823419 132.19746 53.932469 132.44486 53.932468 curveto
133.32051 53.932469 133.75834 53.318863 133.75834 52.091648 curveto
133.75834 51.756364 133.67533 51.440609 133.50932 51.144382 curveto
133.31400 50.796079 133.06009 50.621925 132.74760 50.621922 curveto
132.41882 50.621925 132.07214 50.714699 131.70756 50.900242 curveto
131.61478 50.651218 lineto
131.89799 50.573097 132.23653 50.354998 132.63041 49.996922 curveto
133.05684 49.609556 133.27005 49.287291 133.27006 49.030125 curveto
133.27005 48.730651 133.15612 48.471862 132.92826 48.253757 curveto
132.70039 48.035665 132.43672 47.926615 132.13725 47.926609 curveto
131.77917 47.926615 131.29903 48.213073 130.69682 48.785984 curveto
130.54545 48.722507 lineto
130.87422 48.221211 131.15417 47.872904 131.38529 47.677586 curveto
131.73034 47.394389 132.14375 47.252788 132.62553 47.252781 curveto
133.03894 47.252788 133.39375 47.382996 133.68998 47.643406 curveto
134.00248 47.916850 134.15873 48.257019 134.15873 48.663914 curveto
134.15873 49.012226 134.05130 49.301940 133.83646 49.533054 curveto
133.69323 49.689309 133.43281 49.868345 133.05521 50.070164 curveto
133.49792 50.099465 133.85111 50.311053 134.11478 50.704929 curveto
134.34916 51.056495 134.46634 51.465023 134.46635 51.930515 curveto
fill
0.0000000 0.0000000 0.0000000 setrgbcolor
newpath
139.00248 51.915867 moveto
139.00248 52.618993 138.74043 53.214696 138.21635 53.702976 curveto
137.70528 54.178237 137.09493 54.415867 136.38529 54.415867 curveto
136.05977 54.415867 135.76192 54.358901 135.49174 54.244968 curveto
135.13692 54.098484 134.95951 53.886896 134.95951 53.610203 curveto
134.95951 53.496271 134.99695 53.400243 135.07182 53.322117 curveto
135.14994 53.243993 135.24597 53.204930 135.35990 53.204929 curveto
135.41198 53.204930 135.50313 53.276545 135.63334 53.419773 curveto
135.80261 53.611831 135.94095 53.746922 136.04838 53.825047 curveto
136.24369 53.971531 136.44877 54.044773 136.66361 54.044773 curveto
137.06400 54.044773 137.43672 53.784357 137.78178 53.263523 curveto
138.09427 52.791519 138.25052 52.343929 138.25053 51.920750 curveto
138.25052 51.474789 138.07800 51.063005 137.73295 50.685398 curveto
137.38138 50.294777 136.98425 50.099465 136.54154 50.099461 curveto
136.35274 50.099465 136.13627 50.174334 135.89213 50.324070 curveto
135.80424 50.379412 135.59590 50.529152 135.26713 50.773289 curveto
135.82865 47.321140 lineto
138.25053 47.321140 lineto
138.40026 47.321147 138.49304 47.233257 138.52885 47.057468 curveto
138.71439 47.116062 lineto
138.40678 48.019382 lineto
136.10697 48.019382 lineto
135.79447 49.913914 lineto
136.10372 49.686054 136.51875 49.572122 137.03959 49.572117 curveto
137.63854 49.572122 138.12357 49.817890 138.49467 50.309422 curveto
138.83320 50.758644 139.00248 51.294125 139.00248 51.915867 curveto
fill
0.0000000 0.0000000 0.0000000 setrgbcolor
newpath
fill
0.0000000 0.0000000 0.0000000 setrgbcolor
newpath
146.39017 53.043797 moveto
145.98653 53.903172 145.34688 54.332859 144.47123 54.332859 curveto
143.90808 54.332859 143.43119 54.106622 143.04057 53.654148 curveto
142.66622 53.221206 142.47904 52.718277 142.47904 52.145359 curveto
142.47904 51.429216 142.72644 50.838396 143.22123 50.372898 curveto
143.70625 49.917173 144.31009 49.689309 145.03275 49.689304 curveto
145.24759 49.689309 145.49824 49.756041 145.78471 49.889500 curveto
146.11348 50.035988 146.27787 50.193866 146.27787 50.363132 curveto
146.27787 50.672381 146.13138 50.827003 145.83842 50.827000 curveto
145.65612 50.827003 145.53731 50.753761 145.48197 50.607273 curveto
145.42989 50.470558 145.37943 50.333840 145.33060 50.197117 curveto
145.22318 50.047381 145.01647 49.972512 144.71049 49.972507 curveto
144.21895 49.972512 143.83483 50.195493 143.55814 50.641453 curveto
143.32702 51.019060 143.21146 51.469906 143.21146 51.993992 curveto
143.21146 52.430192 143.36446 52.837092 143.67045 53.214695 curveto
143.99597 53.615086 144.37032 53.815281 144.79350 53.815281 curveto
145.40222 53.815281 145.86771 53.540217 146.18998 52.990086 curveto
146.32344 52.986832 146.39017 53.004735 146.39017 53.043797 curveto
fill
0.0000000 0.0000000 0.0000000 setrgbcolor
newpath
155.05717 54.244968 moveto
152.89408 54.244968 lineto
152.89408 54.025242 lineto
153.33678 54.025242 153.55814 53.805516 153.55814 53.366062 curveto
153.55814 51.144382 lineto
153.55814 50.867693 153.49141 50.625180 153.35795 50.416843 curveto
153.20169 50.175962 152.99173 50.055519 152.72807 50.055515 curveto
152.32441 50.055519 151.84427 50.258970 151.28764 50.665867 curveto
151.28764 53.605320 lineto
151.28763 53.872247 151.54805 54.005711 152.06889 54.005711 curveto
152.09330 54.244968 lineto
149.93510 54.244968 lineto
149.93510 54.025242 lineto
150.37455 54.025242 150.59427 53.805516 150.59428 53.366062 curveto
150.59428 51.144382 lineto
150.59427 50.864438 150.53731 50.623553 150.42338 50.421726 curveto
150.28340 50.177590 150.08321 50.055519 149.82279 50.055515 curveto
149.41263 50.055519 148.90970 50.275246 148.31400 50.714695 curveto
148.31400 53.502781 lineto
148.31400 53.821792 148.55977 53.995945 149.05131 54.025242 curveto
149.02201 54.244968 lineto
146.95658 54.244968 lineto
146.93705 54.205906 lineto
146.96635 54.054539 lineto
147.16817 54.054539 147.33093 53.971531 147.45463 53.805515 curveto
147.56856 53.652521 147.62553 53.471857 147.62553 53.263523 curveto
147.62553 50.573093 lineto
147.62553 50.455910 147.52461 50.363136 147.32279 50.294773 curveto
147.29675 50.285011 147.14376 50.249204 146.86381 50.187351 curveto
146.86381 50.065281 lineto
146.89636 50.029478 146.93705 50.003436 146.98588 49.987156 curveto
147.24304 49.899270 147.62715 49.741392 148.13822 49.513523 curveto
148.31400 49.645359 lineto
148.31400 50.524265 lineto
149.25476 49.918801 149.90417 49.616067 150.26225 49.616062 curveto
150.48034 49.616067 150.68379 49.716978 150.87260 49.918797 curveto
151.03210 50.091327 151.14766 50.293149 151.21928 50.524265 curveto
152.16003 49.918801 152.80944 49.616067 153.16752 49.616062 curveto
153.51582 49.616067 153.79414 49.777199 154.00248 50.099461 curveto
154.18476 50.379412 154.27591 50.701678 154.27592 51.066257 curveto
154.27592 53.605320 lineto
154.27591 53.872247 154.52656 54.005711 155.02787 54.005711 curveto
155.05717 54.244968 lineto
fill
grestore
showpage
