%!PS-Adobe-2.0
%%Creator: inkscape 0.41.1
%%Pages: 1
%%Orientation: Portrait
%%BoundingBox: 11 766 149 822
%%HiResBoundingBox: 11.235769 766.11579 148.40008 821.90767
%%EndComments
%%Page: 1 1
0 842 translate
0.80000000 -0.80000000 scale
gsave [1.0000000 0.0000000 0.0000000 1.0000000 0.0000000 0.0000000] concat
0.0000000 0.0000000 0.0000000 setrgbcolor
[1.4702169 2.9404337] 0.0000000 setdash
0.36755422 setlinewidth
0 setlinejoin
0 setlinecap
newpath
17.970194 60.912589 moveto
185.31632 60.912589 185.31632 60.912589 185.31632 60.912589 curveto
stroke
0.0000000 0.0000000 0.0000000 setrgbcolor
[] 0 setdash
0.35433072 setlinewidth
0 setlinejoin
0 setlinecap
newpath
91.364788 25.154761 moveto
91.364788 94.109319 91.364788 94.540285 91.364788 94.540285 curveto
stroke
gsave [2.3865361e-17 0.38976379 -0.38976379 2.3865361e-17 91.364788 23.205942] concat
0.0000000 0.0000000 0.0000000 setrgbcolor
newpath
8.7185878 4.0337352 moveto
-2.2072895 0.016013256 lineto
8.7185884 -4.0017078 lineto
6.9730900 -1.6296469 6.9831476 1.6157441 8.7185878 4.0337352 curveto
closepath
eofill
grestore
gsave [-2.3865361e-17 -0.38976379 0.38976379 -2.3865361e-17 91.364788 96.489104] concat
0.0000000 0.0000000 0.0000000 setrgbcolor
newpath
8.7185878 4.0337352 moveto
-2.2072895 0.016013256 lineto
8.7185884 -4.0017078 lineto
6.9730900 -1.6296469 6.9831476 1.6157441 8.7185878 4.0337352 curveto
closepath
eofill
grestore
0.0000000 0.0000000 0.0000000 setrgbcolor
[] 0 setdash
0.25937867 setlinewidth
0 setlinejoin
0 setlinecap
newpath
65.075863 50.284042 moveto
65.075863 60.791685 65.075863 60.791685 65.075863 60.791685 curveto
stroke
0.0000000 0.0000000 0.0000000 setrgbcolor
[] 0 setdash
0.82264113 setlinewidth
0 setlinejoin
0 setlinecap
newpath
64.988225 50.492037 moveto
168.59534 92.044207 lineto
stroke
gsave [-0.22905750 -0.091864695 0.091864695 -0.22905750 169.74063 92.503530] concat
0.0000000 0.0000000 0.0000000 setrgbcolor
newpath
8.7185878 4.0337352 moveto
-2.2072895 0.016013256 lineto
8.7185884 -4.0017078 lineto
6.9730900 -1.6296469 6.9831476 1.6157441 8.7185878 4.0337352 curveto
closepath
eofill
grestore
0.0000000 0.0000000 0.0000000 setrgbcolor
[] 0 setdash
0.82194132 setlinewidth
0 setlinejoin
0 setlinecap
newpath
64.991556 50.496315 moveto
104.32160 50.496315 lineto
184.10679 66.612935 lineto
stroke
gsave [-0.24170052 -0.048823539 0.048823539 -0.24170052 185.31529 66.857053] concat
0.0000000 0.0000000 0.0000000 setrgbcolor
newpath
8.7185878 4.0337352 moveto
-2.2072895 0.016013256 lineto
8.7185884 -4.0017078 lineto
6.9730900 -1.6296469 6.9831476 1.6157441 8.7185878 4.0337352 curveto
closepath
eofill
grestore
0.0000000 0.0000000 0.0000000 setrgbcolor
[] 0 setdash
0.38980177 setlinewidth
0 setlinejoin
0 setlinecap
newpath
24.565064 60.887691 moveto
24.565064 34.026811 lineto
stroke
0.0000000 0.0000000 0.0000000 setrgbcolor
[] 0 setdash
0.53008175 setlinewidth
0 setlinejoin
0 setlinecap
newpath
93.540842 42.608883 moveto
151.89428 42.608883 lineto
stroke
gsave [0.31804905 0.0000000 0.0000000 0.31804905 96.085234 42.608883] concat
0.0000000 0.0000000 0.0000000 setrgbcolor
newpath
0.0000000 0.0000000 moveto
5.0000000 -5.0000000 lineto
-12.500000 0.0000000 lineto
5.0000000 5.0000000 lineto
0.0000000 0.0000000 lineto
closepath
eofill
0.0000000 0.0000000 0.0000000 setrgbcolor
[] 0 setdash
1.2500000 setlinewidth
0 setlinejoin
0 setlinecap
newpath
0.0000000 0.0000000 moveto
5.0000000 -5.0000000 lineto
-12.500000 0.0000000 lineto
5.0000000 5.0000000 lineto
0.0000000 0.0000000 lineto
closepath
stroke
0.0000000 0.0000000 0.0000000 setrgbcolor
[] 0 setdash
1.5000000 setlinewidth
0 setlinejoin
0 setlinecap
newpath
-14.759949 -7.0000000 moveto
-14.759949 65.000000 lineto
stroke
grestore
gsave [-0.31804905 -0.0000000 0.0000000 0.31804905 149.34989 42.608883] concat
0.0000000 0.0000000 0.0000000 setrgbcolor
newpath
0.0000000 0.0000000 moveto
5.0000000 -5.0000000 lineto
-12.500000 0.0000000 lineto
5.0000000 5.0000000 lineto
0.0000000 0.0000000 lineto
closepath
eofill
0.0000000 0.0000000 0.0000000 setrgbcolor
[] 0 setdash
1.2500000 setlinewidth
0 setlinejoin
0 setlinecap
newpath
0.0000000 0.0000000 moveto
5.0000000 -5.0000000 lineto
-12.500000 0.0000000 lineto
5.0000000 5.0000000 lineto
0.0000000 0.0000000 lineto
closepath
stroke
0.0000000 0.0000000 0.0000000 setrgbcolor
[] 0 setdash
1.5000000 setlinewidth
0 setlinejoin
0 setlinecap
newpath
-14.759949 -7.0000000 moveto
-14.759949 65.000000 lineto
stroke
grestore
0.0000000 0.0000000 0.0000000 setrgbcolor
newpath
110.20156 32.725616 moveto
109.71328 33.184601 lineto
109.60911 32.722368 109.28033 32.491248 108.72695 32.491241 curveto
108.40794 32.491248 108.12148 32.587277 107.86758 32.779327 curveto
107.59414 32.987667 107.45742 33.248083 107.45742 33.560577 curveto
107.45742 34.717804 lineto
108.60488 34.717804 lineto
108.60488 35.088898 lineto
107.45742 35.088898 lineto
107.45742 38.321320 lineto
107.45742 38.737987 107.68691 38.946320 108.14590 38.946320 curveto
108.18170 38.946320 108.23379 38.946320 108.30215 38.946320 curveto
108.37050 38.943065 108.42096 38.941437 108.45351 38.941437 curveto
108.45351 39.161163 lineto
106.07558 39.161163 lineto
106.05117 39.019562 lineto
106.31810 38.938182 106.47597 38.884471 106.52480 38.858429 curveto
106.68756 38.770539 106.76894 38.638703 106.76894 38.462921 curveto
106.76894 35.088898 lineto
106.67780 35.098667 106.39297 35.075881 105.91445 35.020538 curveto
105.91445 34.830109 lineto
106.31810 34.830113 106.55247 34.792678 106.61758 34.717804 curveto
106.76894 34.717804 lineto
106.76894 34.571320 lineto
106.76894 34.047236 106.82591 33.669632 106.93984 33.438507 curveto
107.02773 33.265987 107.26211 32.995805 107.64297 32.627960 curveto
107.97500 32.308957 108.45351 32.149452 109.07851 32.149445 curveto
109.41380 32.149452 109.78815 32.341509 110.20156 32.725616 curveto
fill
0.0000000 0.0000000 0.0000000 setrgbcolor
newpath
114.14687 34.986359 moveto
110.09414 34.986359 lineto
110.09414 34.527374 lineto
114.14687 34.527374 lineto
114.14687 34.986359 lineto
114.14687 36.827179 moveto
110.09414 36.827179 lineto
110.09414 36.363312 lineto
114.14687 36.363312 lineto
114.14687 36.827179 lineto
fill
0.0000000 0.0000000 0.0000000 setrgbcolor
newpath
118.95156 36.846710 moveto
118.95156 37.728873 118.71067 38.358755 118.22890 38.736359 curveto
117.79921 39.074900 117.13027 39.244171 116.22207 39.244171 curveto
115.95840 39.244171 115.71914 39.198598 115.50430 39.107452 curveto
115.22435 38.983755 115.08437 38.806346 115.08437 38.575226 curveto
115.08437 38.467805 115.12181 38.378287 115.19668 38.306671 curveto
115.27155 38.231802 115.36432 38.194367 115.47500 38.194366 curveto
115.69961 38.194367 115.93561 38.303417 116.18301 38.521515 curveto
116.43366 38.739614 116.68268 38.848664 116.93008 38.848663 curveto
117.80572 38.848664 118.24355 38.235057 118.24355 37.007843 curveto
118.24355 36.672559 118.16054 36.356804 117.99453 36.060577 curveto
117.79921 35.712274 117.54531 35.538120 117.23281 35.538116 curveto
116.90403 35.538120 116.55735 35.630893 116.19277 35.816437 curveto
116.10000 35.567413 lineto
116.38320 35.489292 116.72174 35.271193 117.11562 34.913116 curveto
117.54205 34.525751 117.75527 34.203486 117.75527 33.946320 curveto
117.75527 33.646846 117.64134 33.388057 117.41348 33.169952 curveto
117.18561 32.951860 116.92194 32.842810 116.62246 32.842804 curveto
116.26438 32.842810 115.78424 33.129268 115.18203 33.702179 curveto
115.03066 33.638702 lineto
115.35944 33.137406 115.63939 32.789099 115.87051 32.593781 curveto
116.21556 32.310584 116.62897 32.168983 117.11074 32.168976 curveto
117.52415 32.168983 117.87897 32.299191 118.17519 32.559601 curveto
118.48769 32.833045 118.64394 33.173214 118.64394 33.580109 curveto
118.64394 33.928421 118.53652 34.218134 118.32168 34.449249 curveto
118.17845 34.605504 117.91803 34.784540 117.54043 34.986359 curveto
117.98313 35.015660 118.33632 35.227248 118.60000 35.621124 curveto
118.83437 35.972690 118.95156 36.381218 118.95156 36.846710 curveto
fill
0.0000000 0.0000000 0.0000000 setrgbcolor
newpath
123.48769 36.832062 moveto
123.48769 37.535188 123.22565 38.130891 122.70156 38.619171 curveto
122.19049 39.094432 121.58014 39.332062 120.87051 39.332062 curveto
120.54498 39.332062 120.24713 39.275096 119.97695 39.161163 curveto
119.62213 39.014679 119.44472 38.803091 119.44473 38.526398 curveto
119.44472 38.412466 119.48216 38.316438 119.55703 38.238312 curveto
119.63515 38.160188 119.73118 38.121125 119.84512 38.121124 curveto
119.89720 38.121125 119.98834 38.192740 120.11855 38.335968 curveto
120.28782 38.528026 120.42617 38.663117 120.53359 38.741241 curveto
120.72890 38.887726 120.93398 38.960968 121.14883 38.960968 curveto
121.54921 38.960968 121.92194 38.700552 122.26699 38.179718 curveto
122.57949 37.707714 122.73574 37.260124 122.73574 36.836945 curveto
122.73574 36.390984 122.56321 35.979200 122.21816 35.601593 curveto
121.86660 35.210972 121.46946 35.015660 121.02676 35.015656 curveto
120.83795 35.015660 120.62148 35.090529 120.37734 35.240265 curveto
120.28945 35.295607 120.08112 35.445347 119.75234 35.689484 curveto
120.31387 32.237335 lineto
122.73574 32.237335 lineto
122.88548 32.237342 122.97825 32.149452 123.01406 31.973663 curveto
123.19961 32.032257 lineto
122.89199 32.935577 lineto
120.59219 32.935577 lineto
120.27969 34.830109 lineto
120.58893 34.602249 121.00397 34.488316 121.52480 34.488312 curveto
122.12376 34.488316 122.60878 34.734084 122.97988 35.225616 curveto
123.31842 35.674839 123.48769 36.210320 123.48769 36.832062 curveto
fill
0.0000000 0.0000000 0.0000000 setrgbcolor
newpath
fill
0.0000000 0.0000000 0.0000000 setrgbcolor
newpath
130.87539 37.959991 moveto
130.47174 38.819367 129.83209 39.249054 128.95644 39.249054 curveto
128.39329 39.249054 127.91640 39.022817 127.52578 38.570343 curveto
127.15143 38.137401 126.96426 37.634472 126.96426 37.061554 curveto
126.96426 36.345411 127.21165 35.754591 127.70644 35.289093 curveto
128.19147 34.833368 128.79531 34.605504 129.51797 34.605499 curveto
129.73281 34.605504 129.98346 34.672236 130.26992 34.805695 curveto
130.59869 34.952183 130.76308 35.110061 130.76308 35.279327 curveto
130.76308 35.588576 130.61660 35.743198 130.32363 35.743195 curveto
130.14134 35.743198 130.02252 35.669956 129.96719 35.523468 curveto
129.91510 35.386753 129.86464 35.250034 129.81582 35.113312 curveto
129.70839 34.963576 129.50169 34.888707 129.19570 34.888702 curveto
128.70416 34.888707 128.32005 35.111688 128.04336 35.557648 curveto
127.81224 35.935255 127.69668 36.386101 127.69668 36.910187 curveto
127.69668 37.346386 127.84967 37.753287 128.15566 38.130890 curveto
128.48118 38.531281 128.85553 38.731476 129.27871 38.731476 curveto
129.88743 38.731476 130.35292 38.456411 130.67519 37.906281 curveto
130.80865 37.903027 130.87539 37.920930 130.87539 37.959991 curveto
fill
0.0000000 0.0000000 0.0000000 setrgbcolor
newpath
139.54238 39.161163 moveto
137.37930 39.161163 lineto
137.37930 38.941437 lineto
137.82200 38.941437 138.04335 38.721711 138.04336 38.282257 curveto
138.04336 36.060577 lineto
138.04335 35.783888 137.97662 35.541375 137.84316 35.333038 curveto
137.68691 35.092157 137.47695 34.971714 137.21328 34.971710 curveto
136.80963 34.971714 136.32949 35.175165 135.77285 35.582062 curveto
135.77285 38.521515 lineto
135.77285 38.788442 136.03326 38.921906 136.55410 38.921906 curveto
136.57851 39.161163 lineto
134.42031 39.161163 lineto
134.42031 38.941437 lineto
134.85976 38.941437 135.07949 38.721711 135.07949 38.282257 curveto
135.07949 36.060577 lineto
135.07949 35.780633 135.02252 35.539748 134.90859 35.337921 curveto
134.76861 35.093785 134.56842 34.971714 134.30801 34.971710 curveto
133.89785 34.971714 133.39492 35.191441 132.79922 35.630890 curveto
132.79922 38.418976 lineto
132.79922 38.737987 133.04498 38.912140 133.53652 38.941437 curveto
133.50723 39.161163 lineto
131.44180 39.161163 lineto
131.42226 39.122101 lineto
131.45156 38.970734 lineto
131.65338 38.970734 131.81614 38.887726 131.93984 38.721710 curveto
132.05377 38.568716 132.11074 38.388052 132.11074 38.179718 curveto
132.11074 35.489288 lineto
132.11074 35.372105 132.00983 35.279331 131.80801 35.210968 curveto
131.78196 35.201206 131.62897 35.165399 131.34902 35.103546 curveto
131.34902 34.981476 lineto
131.38157 34.945673 131.42226 34.919631 131.47109 34.903351 curveto
131.72825 34.815465 132.11237 34.657587 132.62344 34.429718 curveto
132.79922 34.561554 lineto
132.79922 35.440460 lineto
133.73997 34.834996 134.38938 34.532262 134.74746 34.532257 curveto
134.96555 34.532262 135.16901 34.633173 135.35781 34.834991 curveto
135.51731 35.007522 135.63287 35.209344 135.70449 35.440460 curveto
136.64524 34.834996 137.29465 34.532262 137.65273 34.532257 curveto
138.00103 34.532262 138.27935 34.693394 138.48769 35.015656 curveto
138.66998 35.295607 138.76112 35.617873 138.76113 35.982452 curveto
138.76113 38.521515 lineto
138.76112 38.788442 139.01177 38.921906 139.51308 38.921906 curveto
139.54238 39.161163 lineto
fill
0.0000000 0.0000000 0.0000000 setrgbcolor
[2.8346457 1.4173229] 0.0000000 setdash
0.35433072 setlinewidth
0 setlinejoin
0 setlinecap
newpath
184.02247 66.527496 moveto
14.868326 32.050217 lineto
stroke
0.0000000 0.0000000 0.0000000 setrgbcolor
[2.8346457 1.4173229] 0.0000000 setdash
0.35433072 setlinewidth
0 setlinejoin
0 setlinecap
newpath
168.50770 91.954489 moveto
14.221877 29.895387 lineto
stroke
grestore
showpage
