%!PS-Adobe-2.0
%%Creator: inkscape 0.41.1
%%Pages: 1
%%Orientation: Portrait
%%BoundingBox: 14 763 149 839
%%HiResBoundingBox: 14.229134 763.70238 148.40008 838.39545
%%EndComments
%%Page: 1 1
0 842 translate
0.80000000 -0.80000000 scale
gsave [1.0000000 0.0000000 0.0000000 1.0000000 0.0000000 0.0000000] concat
0.0000000 0.0000000 0.0000000 setrgbcolor
[2.8346457 1.4173229] 0.0000000 setdash
0.35433072 setlinewidth
0 setlinejoin
0 setlinecap
newpath
171.30898 40.885020 moveto
19.824435 67.389427 lineto
stroke
0.0000000 0.0000000 0.0000000 setrgbcolor
[1.4702169 2.9404337] 0.0000000 setdash
0.36755422 setlinewidth
0 setlinejoin
0 setlinecap
newpath
17.970194 60.912589 moveto
185.31632 60.912589 185.31632 60.912589 185.31632 60.912589 curveto
stroke
0.0000000 0.0000000 0.0000000 setrgbcolor
[] 0 setdash
0.35433072 setlinewidth
0 setlinejoin
0 setlinecap
newpath
58.395890 27.525074 moveto
58.395890 96.479632 58.395890 96.910598 58.395890 96.910598 curveto
stroke
gsave [2.3865361e-17 0.38976379 -0.38976379 2.3865361e-17 58.395890 25.576255] concat
0.0000000 0.0000000 0.0000000 setrgbcolor
newpath
8.7185878 4.0337352 moveto
-2.2072895 0.016013256 lineto
8.7185884 -4.0017078 lineto
6.9730900 -1.6296469 6.9831476 1.6157441 8.7185878 4.0337352 curveto
closepath
eofill
grestore
gsave [-2.3865361e-17 -0.38976379 0.38976379 -2.3865361e-17 58.395890 98.859417] concat
0.0000000 0.0000000 0.0000000 setrgbcolor
newpath
8.7185878 4.0337352 moveto
-2.2072895 0.016013256 lineto
8.7185884 -4.0017078 lineto
6.9730900 -1.6296469 6.9831476 1.6157441 8.7185878 4.0337352 curveto
closepath
eofill
grestore
0.0000000 0.0000000 0.0000000 setrgbcolor
[] 0 setdash
0.82194132 setlinewidth
0 setlinejoin
0 setlinecap
newpath
19.524645 67.519471 moveto
58.854689 67.519471 lineto
123.52783 51.335944 lineto
156.52497 7.5705956 lineto
stroke
gsave [-0.14844744 0.19689143 -0.19689143 -0.14844744 157.26721 6.5861385] concat
0.0000000 0.0000000 0.0000000 setrgbcolor
newpath
8.7185878 4.0337352 moveto
-2.2072895 0.016013256 lineto
8.7185884 -4.0017078 lineto
6.9730900 -1.6296469 6.9831476 1.6157441 8.7185878 4.0337352 curveto
closepath
eofill
grestore
0.0000000 0.0000000 0.0000000 setrgbcolor
[] 0 setdash
0.19749571 setlinewidth
0 setlinejoin
0 setlinecap
newpath
19.608955 67.712534 moveto
19.608955 60.817316 lineto
stroke
0.0000000 0.0000000 0.0000000 setrgbcolor
newpath
119.03638 84.441544 moveto
118.54810 84.900528 lineto
118.44393 84.438295 118.11515 84.207175 117.56177 84.207169 curveto
117.24275 84.207175 116.95630 84.303204 116.70239 84.495255 curveto
116.42895 84.703594 116.29223 84.964010 116.29224 85.276505 curveto
116.29224 86.433731 lineto
117.43970 86.433731 lineto
117.43970 86.804825 lineto
116.29224 86.804825 lineto
116.29224 90.037247 lineto
116.29223 90.453914 116.52173 90.662247 116.98071 90.662247 curveto
117.01652 90.662247 117.06860 90.662247 117.13696 90.662247 curveto
117.20532 90.658992 117.25578 90.657364 117.28833 90.657364 curveto
117.28833 90.877090 lineto
114.91040 90.877090 lineto
114.88599 90.735489 lineto
115.15291 90.654109 115.31079 90.600398 115.35962 90.574356 curveto
115.52238 90.486466 115.60376 90.354630 115.60376 90.178848 curveto
115.60376 86.804825 lineto
115.51261 86.814595 115.22778 86.791808 114.74927 86.736465 curveto
114.74927 86.546036 lineto
115.15291 86.546040 115.38729 86.508605 115.45239 86.433731 curveto
115.60376 86.433731 lineto
115.60376 86.287247 lineto
115.60376 85.763163 115.66072 85.385559 115.77466 85.154434 curveto
115.86255 84.981914 116.09692 84.711732 116.47778 84.343887 curveto
116.80981 84.024884 117.28833 83.865379 117.91333 83.865372 curveto
118.24861 83.865379 118.62296 84.057436 119.03638 84.441544 curveto
fill
0.0000000 0.0000000 0.0000000 setrgbcolor
newpath
122.98169 86.702286 moveto
118.92896 86.702286 lineto
118.92896 86.243301 lineto
122.98169 86.243301 lineto
122.98169 86.702286 lineto
122.98169 88.543106 moveto
118.92896 88.543106 lineto
118.92896 88.079239 lineto
122.98169 88.079239 lineto
122.98169 88.543106 lineto
fill
0.0000000 0.0000000 0.0000000 setrgbcolor
newpath
127.78638 88.562637 moveto
127.78637 89.444800 127.54549 90.074682 127.06372 90.452286 curveto
126.63403 90.790828 125.96509 90.960098 125.05688 90.960098 curveto
124.79321 90.960098 124.55395 90.914525 124.33911 90.823380 curveto
124.05916 90.699682 123.91919 90.522273 123.91919 90.291153 curveto
123.91919 90.183732 123.95662 90.094214 124.03149 90.022598 curveto
124.10636 89.947729 124.19914 89.910295 124.30981 89.910294 curveto
124.53442 89.910295 124.77043 90.019344 125.01782 90.237442 curveto
125.26847 90.455541 125.51749 90.564591 125.76489 90.564590 curveto
126.64054 90.564591 127.07837 89.950985 127.07837 88.723770 curveto
127.07837 88.388486 126.99536 88.072731 126.82935 87.776505 curveto
126.63403 87.428201 126.38012 87.254047 126.06763 87.254044 curveto
125.73885 87.254047 125.39217 87.346821 125.02759 87.532364 curveto
124.93481 87.283340 lineto
125.21802 87.205219 125.55656 86.987120 125.95044 86.629044 curveto
126.37687 86.241678 126.59008 85.919413 126.59009 85.662247 curveto
126.59008 85.362773 126.47615 85.103984 126.24829 84.885880 curveto
126.02042 84.667787 125.75675 84.558737 125.45728 84.558731 curveto
125.09920 84.558737 124.61906 84.845195 124.01685 85.418106 curveto
123.86548 85.354630 lineto
124.19425 84.853333 124.47420 84.505027 124.70532 84.309708 curveto
125.05037 84.026511 125.46378 83.884910 125.94556 83.884903 curveto
126.35897 83.884910 126.71378 84.015118 127.01001 84.275528 curveto
127.32251 84.548972 127.47876 84.889141 127.47876 85.296036 curveto
127.47876 85.644348 127.37133 85.934062 127.15649 86.165176 curveto
127.01326 86.321431 126.75285 86.500467 126.37524 86.702286 curveto
126.81795 86.731587 127.17114 86.943175 127.43481 87.337051 curveto
127.66919 87.688617 127.78637 88.097145 127.78638 88.562637 curveto
fill
0.0000000 0.0000000 0.0000000 setrgbcolor
newpath
132.32251 88.547989 moveto
132.32251 89.251116 132.06046 89.846818 131.53638 90.335098 curveto
131.02531 90.810359 130.41496 91.047989 129.70532 91.047989 curveto
129.37980 91.047989 129.08195 90.991023 128.81177 90.877090 curveto
128.45695 90.730606 128.27954 90.519018 128.27954 90.242325 curveto
128.27954 90.128393 128.31698 90.032365 128.39185 89.954239 curveto
128.46997 89.876115 128.56600 89.837052 128.67993 89.837051 curveto
128.73201 89.837052 128.82316 89.908667 128.95337 90.051895 curveto
129.12264 90.243953 129.26099 90.379044 129.36841 90.457169 curveto
129.56372 90.603653 129.76880 90.676895 129.98364 90.676895 curveto
130.38403 90.676895 130.75675 90.416479 131.10181 89.895645 curveto
131.41430 89.423641 131.57055 88.976051 131.57056 88.552872 curveto
131.57055 88.106911 131.39803 87.695127 131.05298 87.317520 curveto
130.70141 86.926899 130.30428 86.731587 129.86157 86.731583 curveto
129.67277 86.731587 129.45630 86.806457 129.21216 86.956192 curveto
129.12427 87.011534 128.91593 87.161274 128.58716 87.405411 curveto
129.14868 83.953262 lineto
131.57056 83.953262 lineto
131.72029 83.953269 131.81307 83.865379 131.84888 83.689590 curveto
132.03442 83.748184 lineto
131.72681 84.651505 lineto
129.42700 84.651505 lineto
129.11450 86.546036 lineto
129.42375 86.318176 129.83878 86.204244 130.35962 86.204239 curveto
130.95857 86.204244 131.44360 86.450012 131.81470 86.941544 curveto
132.15323 87.390766 132.32251 87.926247 132.32251 88.547989 curveto
fill
0.0000000 0.0000000 0.0000000 setrgbcolor
newpath
fill
0.0000000 0.0000000 0.0000000 setrgbcolor
newpath
139.71021 89.675919 moveto
139.30656 90.535294 138.66691 90.964981 137.79126 90.964981 curveto
137.22811 90.964981 136.75122 90.738744 136.36060 90.286270 curveto
135.98625 89.853328 135.79907 89.350399 135.79907 88.777481 curveto
135.79907 88.061338 136.04647 87.470518 136.54126 87.005020 curveto
137.02628 86.549295 137.63013 86.321431 138.35278 86.321426 curveto
138.56762 86.321431 138.81827 86.388163 139.10474 86.521622 curveto
139.43351 86.668110 139.59790 86.825988 139.59790 86.995255 curveto
139.59790 87.304503 139.45141 87.459125 139.15845 87.459122 curveto
138.97615 87.459125 138.85734 87.385883 138.80200 87.239395 curveto
138.74992 87.102680 138.69946 86.965962 138.65063 86.829239 curveto
138.54321 86.679504 138.33650 86.604634 138.03052 86.604630 curveto
137.53898 86.604634 137.15487 86.827615 136.87817 87.273575 curveto
136.64705 87.651182 136.53149 88.102028 136.53149 88.626114 curveto
136.53149 89.062314 136.68449 89.469214 136.99048 89.846817 curveto
137.31600 90.247208 137.69035 90.447403 138.11353 90.447403 curveto
138.72225 90.447403 139.18774 90.172339 139.51001 89.622208 curveto
139.64347 89.618954 139.71020 89.636857 139.71021 89.675919 curveto
fill
0.0000000 0.0000000 0.0000000 setrgbcolor
newpath
148.37720 90.877090 moveto
146.21411 90.877090 lineto
146.21411 90.657364 lineto
146.65681 90.657364 146.87817 90.437638 146.87817 89.998184 curveto
146.87817 87.776505 lineto
146.87817 87.499815 146.81144 87.257302 146.67798 87.048965 curveto
146.52172 86.808084 146.31176 86.687642 146.04810 86.687637 curveto
145.64444 86.687642 145.16430 86.891092 144.60767 87.297989 curveto
144.60767 90.237442 lineto
144.60766 90.504369 144.86808 90.637833 145.38892 90.637833 curveto
145.41333 90.877090 lineto
143.25513 90.877090 lineto
143.25513 90.657364 lineto
143.69458 90.657364 143.91430 90.437638 143.91431 89.998184 curveto
143.91431 87.776505 lineto
143.91430 87.496560 143.85734 87.255675 143.74341 87.053848 curveto
143.60343 86.809712 143.40324 86.687642 143.14282 86.687637 curveto
142.73266 86.687642 142.22973 86.907368 141.63403 87.346817 curveto
141.63403 90.134903 lineto
141.63403 90.453914 141.87980 90.628067 142.37134 90.657364 curveto
142.34204 90.877090 lineto
140.27661 90.877090 lineto
140.25708 90.838028 lineto
140.28638 90.686661 lineto
140.48820 90.686661 140.65096 90.603653 140.77466 90.437637 curveto
140.88859 90.284643 140.94556 90.103979 140.94556 89.895645 curveto
140.94556 87.205215 lineto
140.94556 87.088032 140.84464 86.995258 140.64282 86.926895 curveto
140.61678 86.917133 140.46379 86.881326 140.18384 86.819473 curveto
140.18384 86.697403 lineto
140.21639 86.661600 140.25708 86.635558 140.30591 86.619278 curveto
140.56307 86.531392 140.94718 86.373514 141.45825 86.145645 curveto
141.63403 86.277481 lineto
141.63403 87.156387 lineto
142.57479 86.550923 143.22420 86.248189 143.58228 86.248184 curveto
143.80037 86.248189 144.00382 86.349100 144.19263 86.550919 curveto
144.35213 86.723449 144.46769 86.925271 144.53931 87.156387 curveto
145.48006 86.550923 146.12947 86.248189 146.48755 86.248184 curveto
146.83585 86.248189 147.11417 86.409321 147.32251 86.731583 curveto
147.50479 87.011534 147.59594 87.333800 147.59595 87.698380 curveto
147.59595 90.237442 lineto
147.59594 90.504369 147.84659 90.637833 148.34790 90.637833 curveto
148.37720 90.877090 lineto
fill
0.0000000 0.0000000 0.0000000 setrgbcolor
[] 0 setdash
1.0629921 setlinewidth
0 setlinejoin
0 setlinecap
newpath
150.62260 4.8993607 moveto
123.36401 49.181115 lineto
19.608951 67.604911 lineto
stroke
gsave [-0.16717025 0.27156915 -0.27156915 -0.16717025 151.45845 3.5415149] concat
0.0000000 0.0000000 0.0000000 setrgbcolor
newpath
8.7185878 4.0337352 moveto
-2.2072895 0.016013256 lineto
8.7185884 -4.0017078 lineto
6.9730900 -1.6296469 6.9831476 1.6157441 8.7185878 4.0337352 curveto
closepath
eofill
grestore
0.0000000 0.0000000 0.0000000 setrgbcolor
[] 0 setdash
0.35433072 setlinewidth
0 setlinejoin
0 setlinecap
newpath
123.47175 28.171523 moveto
123.47175 97.126083 123.47175 97.557043 123.47175 97.557043 curveto
stroke
gsave [-2.3865361e-17 -0.38976379 0.38976379 -2.3865361e-17 123.47175 30.120342] concat
0.0000000 0.0000000 0.0000000 setrgbcolor
newpath
8.7185878 4.0337352 moveto
-2.2072895 0.016013256 lineto
8.7185884 -4.0017078 lineto
6.9730900 -1.6296469 6.9831476 1.6157441 8.7185878 4.0337352 curveto
closepath
eofill
grestore
gsave [2.3865361e-17 0.38976379 -0.38976379 2.3865361e-17 123.47175 95.608224] concat
0.0000000 0.0000000 0.0000000 setrgbcolor
newpath
8.7185878 4.0337352 moveto
-2.2072895 0.016013256 lineto
8.7185884 -4.0017078 lineto
6.9730900 -1.6296469 6.9831476 1.6157441 8.7185878 4.0337352 curveto
closepath
eofill
grestore
0.0000000 0.0000000 0.0000000 setrgbcolor
[2.8346457 1.4173229] 0.0000000 setdash
0.35433072 setlinewidth
0 setlinejoin
0 setlinecap
newpath
163.22837 40.992761 moveto
58.288149 67.712656 lineto
stroke
0.0000000 0.0000000 0.0000000 setrgbcolor
[] 0 setdash
0.29795012 setlinewidth
0 setlinejoin
0 setlinecap
newpath
147.17488 60.798818 moveto
147.17488 45.105318 lineto
stroke
0.0000000 0.0000000 0.0000000 setrgbcolor
[2.8346457 1.4173229] 0.0000000 setdash
0.35433072 setlinewidth
0 setlinejoin
0 setlinecap
newpath
184.77667 19.875428 moveto
94.489296 80.641630 lineto
stroke
0.0000000 0.0000000 0.0000000 setrgbcolor
[2.8346457 1.4173229] 0.0000000 setdash
0.35433072 setlinewidth
0 setlinejoin
0 setlinecap
newpath
146.95940 45.194680 moveto
123.25627 45.410162 lineto
stroke
0.0000000 0.0000000 0.0000000 setrgbcolor
[2.8346457 1.4173229] 0.0000000 setdash
0.35433072 setlinewidth
0 setlinejoin
0 setlinecap
newpath
142.43426 8.7780546 moveto
101.27701 87.644824 lineto
stroke
0.0000000 0.0000000 0.0000000 setrgbcolor
[] 0 setdash
0.22864392 setlinewidth
0 setlinejoin
0 setlinecap
newpath
110.54277 70.070930 moveto
110.54277 60.829229 lineto
stroke
0.0000000 0.0000000 0.0000000 setrgbcolor
[] 0 setdash
0.31953213 setlinewidth
0 setlinejoin
0 setlinecap
newpath
145.92514 65.665564 moveto
124.72153 65.665564 lineto
stroke
gsave [-0.19171928 2.3478064e-17 -2.3478064e-17 -0.19171928 144.39139 65.665564] concat
0.0000000 0.0000000 0.0000000 setrgbcolor
newpath
0.0000000 0.0000000 moveto
5.0000000 -5.0000000 lineto
-12.500000 0.0000000 lineto
5.0000000 5.0000000 lineto
0.0000000 0.0000000 lineto
closepath
eofill
0.0000000 0.0000000 0.0000000 setrgbcolor
[] 0 setdash
1.2500000 setlinewidth
0 setlinejoin
0 setlinecap
newpath
0.0000000 0.0000000 moveto
5.0000000 -5.0000000 lineto
-12.500000 0.0000000 lineto
5.0000000 5.0000000 lineto
0.0000000 0.0000000 lineto
closepath
stroke
0.0000000 0.0000000 0.0000000 setrgbcolor
[] 0 setdash
1.5000000 setlinewidth
0 setlinejoin
0 setlinecap
newpath
-14.759949 -7.0000000 moveto
-14.759949 65.000000 lineto
stroke
grestore
gsave [0.19171928 -2.3478064e-17 -2.3478064e-17 -0.19171928 126.25528 65.665564] concat
0.0000000 0.0000000 0.0000000 setrgbcolor
newpath
0.0000000 0.0000000 moveto
5.0000000 -5.0000000 lineto
-12.500000 0.0000000 lineto
5.0000000 5.0000000 lineto
0.0000000 0.0000000 lineto
closepath
eofill
0.0000000 0.0000000 0.0000000 setrgbcolor
[] 0 setdash
1.2500000 setlinewidth
0 setlinejoin
0 setlinecap
newpath
0.0000000 0.0000000 moveto
5.0000000 -5.0000000 lineto
-12.500000 0.0000000 lineto
5.0000000 5.0000000 lineto
0.0000000 0.0000000 lineto
closepath
stroke
0.0000000 0.0000000 0.0000000 setrgbcolor
[] 0 setdash
1.5000000 setlinewidth
0 setlinejoin
0 setlinecap
newpath
-14.759949 -7.0000000 moveto
-14.759949 65.000000 lineto
stroke
grestore
0.0000000 0.0000000 0.0000000 setrgbcolor
newpath
130.84059 72.093536 moveto
129.93044 72.093536 lineto
129.93044 73.699005 lineto
129.39137 73.699005 lineto
129.39137 72.093536 lineto
127.10622 72.093536 lineto
127.10622 71.847443 lineto
129.73512 68.066193 lineto
129.93044 68.066193 lineto
129.93044 71.601349 lineto
130.84059 71.601349 lineto
130.84059 72.093536 lineto
129.39137 68.976349 moveto
127.59840 71.601349 lineto
129.39137 71.601349 lineto
129.39137 68.976349 lineto
fill
0.0000000 0.0000000 0.0000000 setrgbcolor
newpath
134.61012 71.933380 moveto
134.61012 72.425569 134.43043 72.857860 134.07106 73.230255 curveto
133.71168 73.600047 133.28720 73.784943 132.79762 73.784943 curveto
132.19606 73.784943 131.72340 73.515412 131.37965 72.976349 curveto
131.08278 72.510204 130.93434 71.960726 130.93434 71.327911 curveto
130.93434 70.491977 131.23252 69.773228 131.82887 69.171661 curveto
132.32887 68.669062 133.01637 68.269323 133.89137 67.972443 curveto
133.96559 68.148224 lineto
132.65309 68.611771 131.87705 69.486770 131.63747 70.773224 curveto
131.90569 70.551873 132.10231 70.407342 132.22731 70.339630 curveto
132.44866 70.214634 132.68304 70.152134 132.93044 70.152130 curveto
133.37054 70.152134 133.76246 70.339633 134.10622 70.714630 curveto
134.44215 71.081820 134.61012 71.488070 134.61012 71.933380 curveto
133.94215 71.878693 moveto
133.94215 71.506299 133.85752 71.176872 133.68825 70.890411 curveto
133.48772 70.549269 133.21559 70.378696 132.87184 70.378693 curveto
132.65049 70.378696 132.42262 70.447706 132.18825 70.585724 curveto
132.10752 70.632602 131.91220 70.774529 131.60231 71.011505 curveto
131.59450 71.102654 131.59059 71.197706 131.59059 71.296661 curveto
131.59059 72.840933 132.01116 73.613068 132.85231 73.613068 curveto
133.29502 73.613068 133.60101 73.420360 133.77028 73.034943 curveto
133.88486 72.771923 133.94215 72.386506 133.94215 71.878693 curveto
fill
0.0000000 0.0000000 0.0000000 setrgbcolor
newpath
136.16481 73.687286 moveto
136.16481 73.478953 136.11273 73.301870 136.00856 73.156036 curveto
135.89398 72.989370 135.73642 72.906037 135.53590 72.906036 curveto
135.39788 72.906037 135.27679 72.942495 135.17262 73.015411 curveto
135.06064 73.096141 135.00465 73.202912 135.00465 73.335724 curveto
135.00465 73.447703 135.03590 73.544057 135.09840 73.624786 curveto
135.16872 73.715932 135.25596 73.761505 135.36012 73.761505 curveto
135.39137 73.761505 135.43434 73.756297 135.48903 73.745880 curveto
135.54632 73.738068 135.58929 73.734161 135.61794 73.734161 curveto
135.72470 73.734161 135.77809 73.807078 135.77809 73.952911 curveto
135.77809 74.327911 135.55023 74.635202 135.09450 74.874786 curveto
135.12314 74.968535 135.15049 75.015410 135.17653 75.015411 curveto
135.22601 75.015410 135.31715 74.969837 135.44997 74.878693 curveto
135.57236 74.795358 135.65309 74.730254 135.69215 74.683380 curveto
135.86663 74.472442 135.97861 74.321400 136.02809 74.230255 curveto
136.11924 74.068796 136.16481 73.887807 136.16481 73.687286 curveto
fill
0.0000000 0.0000000 0.0000000 setrgbcolor
newpath
140.62575 71.933380 moveto
140.62574 72.425569 140.44606 72.857860 140.08669 73.230255 curveto
139.72731 73.600047 139.30283 73.784943 138.81325 73.784943 curveto
138.21168 73.784943 137.73903 73.515412 137.39528 72.976349 curveto
137.09840 72.510204 136.94997 71.960726 136.94997 71.327911 curveto
136.94997 70.491977 137.24814 69.773228 137.84450 69.171661 curveto
138.34450 68.669062 139.03200 68.269323 139.90700 67.972443 curveto
139.98122 68.148224 lineto
138.66871 68.611771 137.89267 69.486770 137.65309 70.773224 curveto
137.92132 70.551873 138.11793 70.407342 138.24294 70.339630 curveto
138.46429 70.214634 138.69866 70.152134 138.94606 70.152130 curveto
139.38616 70.152134 139.77809 70.339633 140.12184 70.714630 curveto
140.45778 71.081820 140.62574 71.488070 140.62575 71.933380 curveto
139.95778 71.878693 moveto
139.95778 71.506299 139.87314 71.176872 139.70387 70.890411 curveto
139.50335 70.549269 139.23121 70.378696 138.88747 70.378693 curveto
138.66611 70.378696 138.43825 70.447706 138.20387 70.585724 curveto
138.12314 70.632602 137.92783 70.774529 137.61794 71.011505 curveto
137.61012 71.102654 137.60622 71.197706 137.60622 71.296661 curveto
137.60622 72.840933 138.02679 73.613068 138.86794 73.613068 curveto
139.31064 73.613068 139.61663 73.420360 139.78590 73.034943 curveto
139.90048 72.771923 139.95778 72.386506 139.95778 71.878693 curveto
fill
0.0000000 0.0000000 0.0000000 setrgbcolor
newpath
144.47731 68.429474 moveto
142.50856 73.699005 lineto
142.06325 73.699005 lineto
143.93434 68.695099 lineto
141.86794 68.695099 lineto
141.70908 68.695104 141.54241 68.783645 141.36794 68.960724 curveto
141.20127 69.127395 141.10101 69.291457 141.06715 69.452911 curveto
140.94215 69.378693 lineto
141.26637 68.159943 lineto
144.47731 68.159943 lineto
144.47731 68.429474 lineto
fill
0.0000000 0.0000000 0.0000000 setrgbcolor
newpath
fill
0.0000000 0.0000000 0.0000000 setrgbcolor
newpath
150.04372 72.738068 moveto
149.72080 73.425568 149.20908 73.769318 148.50856 73.769318 curveto
148.05804 73.769318 147.67653 73.588328 147.36403 73.226349 curveto
147.06455 72.879996 146.91481 72.477652 146.91481 72.019318 curveto
146.91481 71.446403 147.11273 70.973747 147.50856 70.601349 curveto
147.89658 70.236769 148.37965 70.054478 148.95778 70.054474 curveto
149.12965 70.054478 149.33017 70.107863 149.55934 70.214630 curveto
149.82236 70.331821 149.95387 70.458123 149.95387 70.593536 curveto
149.95387 70.840935 149.83668 70.964633 149.60231 70.964630 curveto
149.45647 70.964633 149.36142 70.906039 149.31715 70.788849 curveto
149.27548 70.679477 149.23512 70.570102 149.19606 70.460724 curveto
149.11012 70.340936 148.94476 70.281040 148.69997 70.281036 curveto
148.30674 70.281040 147.99944 70.459425 147.77809 70.816193 curveto
147.59319 71.118279 147.50075 71.478955 147.50075 71.898224 curveto
147.50075 72.247184 147.62314 72.572704 147.86794 72.874786 curveto
148.12835 73.195099 148.42783 73.355255 148.76637 73.355255 curveto
149.25335 73.355255 149.62574 73.135204 149.88356 72.695099 curveto
149.99033 72.692496 150.04371 72.706819 150.04372 72.738068 curveto
fill
0.0000000 0.0000000 0.0000000 setrgbcolor
newpath
156.97731 73.699005 moveto
155.24684 73.699005 lineto
155.24684 73.523224 lineto
155.60100 73.523224 155.77809 73.347443 155.77809 72.995880 curveto
155.77809 71.218536 lineto
155.77809 70.997185 155.72470 70.803175 155.61794 70.636505 curveto
155.49293 70.443800 155.32496 70.347446 155.11403 70.347443 curveto
154.79111 70.347446 154.40699 70.510206 153.96169 70.835724 curveto
153.96169 73.187286 lineto
153.96168 73.400828 154.17001 73.507599 154.58669 73.507599 curveto
154.60622 73.699005 lineto
152.87965 73.699005 lineto
152.87965 73.523224 lineto
153.23121 73.523224 153.40699 73.347443 153.40700 72.995880 curveto
153.40700 71.218536 lineto
153.40699 70.994581 153.36142 70.801873 153.27028 70.640411 curveto
153.15830 70.445102 152.99814 70.347446 152.78981 70.347443 curveto
152.46168 70.347446 152.05934 70.523227 151.58278 70.874786 curveto
151.58278 73.105255 lineto
151.58278 73.360464 151.77939 73.499787 152.17262 73.523224 curveto
152.14919 73.699005 lineto
150.49684 73.699005 lineto
150.48122 73.667755 lineto
150.50465 73.546661 lineto
150.66611 73.546662 150.79632 73.480255 150.89528 73.347443 curveto
150.98642 73.225047 151.03200 73.080516 151.03200 72.913849 curveto
151.03200 70.761505 lineto
151.03200 70.667758 150.95127 70.593539 150.78981 70.538849 curveto
150.76898 70.531040 150.64658 70.502394 150.42262 70.452911 curveto
150.42262 70.355255 lineto
150.44866 70.326613 150.48122 70.305779 150.52028 70.292755 curveto
150.72601 70.222446 151.03330 70.096144 151.44215 69.913849 curveto
151.58278 70.019318 lineto
151.58278 70.722443 lineto
152.33538 70.238071 152.85491 69.995884 153.14137 69.995880 curveto
153.31585 69.995884 153.47861 70.076613 153.62965 70.238068 curveto
153.75725 70.376092 153.84970 70.537550 153.90700 70.722443 curveto
154.65960 70.238071 155.17913 69.995884 155.46559 69.995880 curveto
155.74423 69.995884 155.96689 70.124790 156.13356 70.382599 curveto
156.27939 70.606560 156.35230 70.864373 156.35231 71.156036 curveto
156.35231 73.187286 lineto
156.35230 73.400828 156.55282 73.507599 156.95387 73.507599 curveto
156.97731 73.699005 lineto
fill
0.0000000 0.0000000 0.0000000 setrgbcolor
newpath
151.03258 52.047100 moveto
151.03257 52.453351 150.90269 52.783429 150.64293 53.037334 curveto
150.38511 53.291241 150.05211 53.418194 149.64391 53.418194 curveto
149.27476 53.418194 148.95543 53.288311 148.68590 53.028545 curveto
148.41832 52.766827 148.28453 52.452374 148.28453 52.085186 curveto
148.28453 51.665266 148.40758 51.323469 148.65367 51.059795 curveto
148.90172 50.796126 149.23472 50.664290 149.65269 50.664288 curveto
150.05113 50.664290 150.38023 50.795150 150.64000 51.056866 curveto
150.90172 51.318587 151.03257 51.648664 151.03258 52.047100 curveto
150.50230 52.304913 moveto
150.50230 51.918195 150.44176 51.594953 150.32066 51.335186 curveto
150.15855 50.987532 149.90660 50.813704 149.56480 50.813702 curveto
149.25816 50.813704 149.04625 50.936751 148.92906 51.182842 curveto
148.84703 51.354719 148.80601 51.613508 148.80602 51.959209 curveto
148.80601 52.275617 148.88316 52.560773 149.03746 52.814678 curveto
149.21715 53.109600 149.45543 53.257061 149.75230 53.257061 curveto
150.25230 53.257061 150.50230 52.939679 150.50230 52.304913 curveto
fill
0.0000000 0.0000000 0.0000000 setrgbcolor
newpath
153.92418 51.985577 moveto
153.92418 52.432843 153.77379 52.787335 153.47301 53.049053 curveto
153.18785 53.295147 152.81773 53.418194 152.36266 53.418194 curveto
152.07359 53.418194 151.75426 53.374249 151.40465 53.286358 curveto
151.40465 49.697491 lineto
151.40465 49.609604 151.35387 49.540268 151.25230 49.489483 curveto
151.16246 49.444565 151.05406 49.424057 150.92711 49.427959 curveto
150.91930 49.427963 150.91148 49.414292 150.90367 49.386944 curveto
150.89391 49.359604 150.88219 49.341049 150.86852 49.331280 curveto
151.19273 49.298081 151.51207 49.208237 151.82652 49.061749 curveto
151.82652 51.077374 lineto
152.10777 50.911360 152.27379 50.815657 152.32457 50.790264 curveto
152.51793 50.698470 152.70152 50.652572 152.87535 50.652569 curveto
153.20738 50.652572 153.47203 50.797103 153.66930 51.086163 curveto
153.83922 51.338118 153.92418 51.637922 153.92418 51.985577 curveto
153.45250 52.120342 moveto
153.45250 51.839094 153.38414 51.581282 153.24742 51.346905 curveto
153.08531 51.071516 152.87437 50.933821 152.61461 50.933819 curveto
152.50719 50.933821 152.36656 50.968001 152.19273 51.036358 curveto
152.00914 51.108626 151.88707 51.182844 151.82652 51.259014 curveto
151.82652 52.794170 lineto
151.82652 52.921124 151.92906 53.029522 152.13414 53.119366 curveto
152.30015 53.193585 152.45836 53.230694 152.60875 53.230694 curveto
152.88023 53.230694 153.09410 53.108624 153.25035 52.864483 curveto
153.38511 52.655499 153.45250 52.407453 153.45250 52.120342 curveto
fill
0.0000000 0.0000000 0.0000000 setrgbcolor
newpath
155.82262 53.681866 moveto
155.82262 53.990459 155.69469 54.282451 155.43883 54.557842 curveto
155.23765 54.774638 154.98375 54.883036 154.67711 54.883038 curveto
154.51891 54.883036 154.37730 54.858622 154.25230 54.809795 curveto
154.08043 54.745341 153.99352 54.648661 153.99156 54.519756 curveto
153.98961 54.472880 154.01500 54.419169 154.06773 54.358624 curveto
154.11852 54.298076 154.16930 54.267802 154.22008 54.267803 curveto
154.26500 54.267802 154.36852 54.327373 154.53062 54.446514 curveto
154.69273 54.567607 154.81676 54.628154 154.90269 54.628155 curveto
155.04723 54.628154 155.15953 54.570536 155.23961 54.455303 curveto
155.31187 54.351787 155.34801 54.225810 155.34801 54.077374 curveto
155.34801 51.179913 lineto
155.34801 51.037337 155.27769 50.966048 155.13707 50.966045 curveto
155.08433 50.966048 155.02281 50.974837 154.95250 50.992413 curveto
154.87926 50.875225 lineto
155.24840 50.771712 155.52672 50.661361 155.71422 50.544170 curveto
155.82262 50.623272 lineto
155.82262 53.681866 lineto
155.86070 49.633038 moveto
155.86070 49.717026 155.83140 49.789291 155.77281 49.849834 curveto
155.71422 49.908432 155.64293 49.937729 155.55894 49.937725 curveto
155.47496 49.937729 155.40367 49.908432 155.34508 49.849834 curveto
155.28648 49.789291 155.25719 49.717026 155.25719 49.633038 curveto
155.25719 49.549057 155.28648 49.477768 155.34508 49.419170 curveto
155.40367 49.360581 155.47496 49.331284 155.55894 49.331280 curveto
155.64293 49.331284 155.71422 49.360581 155.77281 49.419170 curveto
155.83140 49.477768 155.86070 49.549057 155.86070 49.633038 curveto
fill
0.0000000 0.0000000 0.0000000 setrgbcolor
newpath
159.03062 52.662334 moveto
158.78843 53.177960 158.40465 53.435772 157.87926 53.435772 curveto
157.54137 53.435772 157.25621 53.288311 157.02379 52.993389 curveto
156.80699 52.717999 156.69859 52.407453 156.69859 52.061749 curveto
156.69859 51.669172 156.80992 51.339094 157.03258 51.071514 curveto
157.27086 50.786360 157.58238 50.643782 157.96715 50.643780 curveto
158.27379 50.643782 158.52183 50.736556 158.71129 50.922100 curveto
158.90269 51.107649 158.99840 51.354719 158.99840 51.663311 curveto
157.10582 51.663311 lineto
157.09605 51.745344 157.09117 51.829328 157.09117 51.915264 curveto
157.09117 52.206281 157.18004 52.473859 157.35777 52.717999 curveto
157.55308 52.989483 157.79137 53.125225 158.07262 53.125225 curveto
158.43980 53.125225 158.71910 52.960186 158.91051 52.630108 curveto
158.93394 52.630108 lineto
158.97691 52.628156 159.00914 52.638898 159.03062 52.662334 curveto
158.55016 51.496319 moveto
158.54234 51.297102 158.47301 51.134993 158.34215 51.009991 curveto
158.21129 50.883040 158.04527 50.819564 157.84410 50.819561 curveto
157.67808 50.819564 157.53062 50.892806 157.40172 51.039288 curveto
157.28844 51.168196 157.21129 51.320540 157.17027 51.496319 curveto
158.55016 51.496319 lineto
fill
0.0000000 0.0000000 0.0000000 setrgbcolor
newpath
160.99937 52.867413 moveto
160.82554 53.211163 160.58629 53.383038 160.28160 53.383038 curveto
160.09996 53.383038 159.94762 53.327374 159.82457 53.216045 curveto
159.69566 53.098858 159.63121 52.950421 159.63121 52.770733 curveto
159.63121 50.933819 lineto
159.34703 50.933819 lineto
159.30309 50.790264 lineto
159.51598 50.710189 159.67125 50.590072 159.76891 50.429913 curveto
159.84117 50.312728 159.90562 50.123275 159.96227 49.861553 curveto
160.06480 49.861553 lineto
160.06480 50.702374 lineto
160.99937 50.702374 lineto
160.87633 50.933819 lineto
160.06480 50.933819 lineto
160.06480 52.592022 lineto
160.06480 52.693585 160.11754 52.802960 160.22301 52.920147 curveto
160.32847 53.037335 160.43199 53.095928 160.53355 53.095928 curveto
160.60191 53.095928 160.68687 53.042218 160.78844 52.934795 curveto
160.89195 52.825421 160.94371 52.770733 160.94371 52.770733 curveto
160.98277 52.770733 161.00133 52.802960 160.99937 52.867413 curveto
fill
0.0000000 0.0000000 0.0000000 setrgbcolor
newpath
151.31969 56.702374 moveto
151.30797 56.807842 lineto
151.20836 56.807845 151.10972 56.853743 151.01207 56.945538 curveto
150.92808 57.023665 150.86363 57.114485 150.81871 57.217999 curveto
149.85484 59.412334 lineto
149.69664 59.412334 lineto
148.72105 57.159405 lineto
148.61754 56.925032 148.44566 56.807845 148.20543 56.807842 curveto
148.20543 56.702374 lineto
149.54137 56.702374 lineto
149.54137 56.807842 lineto
149.25621 56.807845 149.11363 56.860579 149.11363 56.966045 curveto
149.11363 56.997298 149.35484 57.591047 149.83727 58.747295 curveto
149.85094 58.778546 149.86558 58.794171 149.88121 58.794170 curveto
149.90269 58.794171 149.92222 58.774640 149.93980 58.735577 curveto
150.57848 57.311749 lineto
150.61949 57.219954 150.64000 57.139876 150.64000 57.071514 curveto
150.64000 56.887923 150.48668 56.796126 150.18004 56.796124 curveto
150.21227 56.702374 lineto
151.31969 56.702374 lineto
fill
0.0000000 0.0000000 0.0000000 setrgbcolor
newpath
152.80504 59.383038 moveto
151.46031 59.383038 lineto
151.44859 59.359600 lineto
151.46617 59.268780 lineto
151.60484 59.268780 151.70348 59.249249 151.76207 59.210186 curveto
151.83433 59.161358 151.87047 59.067608 151.87047 58.928936 curveto
151.87047 57.179913 lineto
151.87047 57.037337 151.80016 56.966048 151.65953 56.966045 curveto
151.60680 56.966048 151.54527 56.974837 151.47496 56.992413 curveto
151.40172 56.875225 lineto
151.77281 56.771712 152.05113 56.661361 152.23668 56.544170 curveto
152.34508 56.623272 lineto
152.34508 58.937725 lineto
152.34508 59.129132 152.49449 59.233624 152.79332 59.251202 curveto
152.80504 59.383038 lineto
152.38023 55.633038 moveto
152.38023 55.717026 152.35094 55.789291 152.29234 55.849834 curveto
152.23375 55.908432 152.16246 55.937729 152.07848 55.937725 curveto
151.99449 55.937729 151.92320 55.908432 151.86461 55.849834 curveto
151.80601 55.789291 151.77672 55.717026 151.77672 55.633038 curveto
151.77672 55.549057 151.80601 55.477768 151.86461 55.419170 curveto
151.92320 55.360581 151.99449 55.331284 152.07848 55.331280 curveto
152.16246 55.331284 152.23375 55.360581 152.29234 55.419170 curveto
152.35094 55.477768 152.38023 55.549057 152.38023 55.633038 curveto
fill
0.0000000 0.0000000 0.0000000 setrgbcolor
newpath
155.03746 56.766827 moveto
155.03160 56.878157 154.97105 57.028548 154.85582 57.217999 curveto
154.61363 57.093001 154.44664 57.030501 154.35484 57.030499 curveto
154.23765 57.030501 154.13414 57.087141 154.04430 57.200420 curveto
153.97594 57.303938 153.90855 57.407454 153.84215 57.510967 curveto
153.84215 58.964092 lineto
153.84215 59.175030 153.97398 59.280499 154.23766 59.280499 curveto
154.26304 59.280499 154.29918 59.279522 154.34605 59.277569 curveto
154.39293 59.275616 154.42613 59.274639 154.44566 59.274639 curveto
154.45738 59.383038 lineto
153.00719 59.383038 lineto
153.00719 59.298077 lineto
153.28258 59.290264 153.42027 59.178936 153.42027 58.964092 curveto
153.42027 57.247295 lineto
153.42027 57.132063 153.27965 57.044173 152.99840 56.983624 curveto
152.99840 56.875225 lineto
153.17027 56.855696 153.41344 56.756087 153.72789 56.576397 curveto
153.84215 56.599834 lineto
153.84215 57.291241 lineto
154.07652 56.853743 154.28551 56.634993 154.46910 56.634991 curveto
154.56285 56.634993 154.75230 56.678939 155.03746 56.766827 curveto
fill
0.0000000 0.0000000 0.0000000 setrgbcolor
newpath
156.93297 58.867413 moveto
156.75914 59.211163 156.51988 59.383038 156.21519 59.383038 curveto
156.03355 59.383038 155.88121 59.327374 155.75816 59.216045 curveto
155.62926 59.098858 155.56480 58.950421 155.56480 58.770733 curveto
155.56480 56.933819 lineto
155.28062 56.933819 lineto
155.23668 56.790264 lineto
155.44957 56.710189 155.60484 56.590072 155.70250 56.429913 curveto
155.77476 56.312728 155.83922 56.123275 155.89586 55.861553 curveto
155.99840 55.861553 lineto
155.99840 56.702374 lineto
156.93297 56.702374 lineto
156.80992 56.933819 lineto
155.99840 56.933819 lineto
155.99840 58.592022 lineto
155.99840 58.693585 156.05113 58.802960 156.15660 58.920147 curveto
156.26207 59.037335 156.36558 59.095928 156.46715 59.095928 curveto
156.53551 59.095928 156.62047 59.042218 156.72203 58.934795 curveto
156.82554 58.825421 156.87730 58.770733 156.87730 58.770733 curveto
156.91636 58.770733 156.93492 58.802960 156.93297 58.867413 curveto
fill
0.0000000 0.0000000 0.0000000 setrgbcolor
newpath
160.42223 59.022686 moveto
160.41637 59.142803 lineto
159.52867 59.394756 lineto
159.52867 58.867413 lineto
159.16344 59.230694 158.76597 59.412334 158.33629 59.412334 curveto
157.91051 59.412334 157.69762 59.122296 157.69762 58.542217 curveto
157.69762 57.247295 lineto
157.69762 57.128157 157.65660 57.034407 157.57457 56.966045 curveto
157.49254 56.897688 157.39098 56.863509 157.26988 56.863506 curveto
157.25816 56.743389 lineto
158.13121 56.588116 lineto
158.13121 58.495342 lineto
158.13121 58.663312 158.18492 58.805890 158.29234 58.923077 curveto
158.40172 59.046124 158.53941 59.107647 158.70543 59.107647 curveto
158.87144 59.107647 159.14586 58.968975 159.52867 58.691631 curveto
159.52867 57.080303 lineto
159.52867 56.933821 159.34019 56.849837 158.96324 56.828350 curveto
158.96324 56.731670 lineto
159.94762 56.550030 lineto
159.94762 58.838116 lineto
159.94761 58.984600 160.02965 59.057843 160.19371 59.057842 curveto
160.23668 59.057843 160.31285 59.046124 160.42223 59.022686 curveto
fill
0.0000000 0.0000000 0.0000000 setrgbcolor
newpath
163.07359 58.662334 moveto
162.83140 59.177960 162.44761 59.435772 161.92223 59.435772 curveto
161.58433 59.435772 161.29918 59.288311 161.06676 58.993389 curveto
160.84996 58.717999 160.74156 58.407453 160.74156 58.061749 curveto
160.74156 57.669172 160.85289 57.339094 161.07555 57.071514 curveto
161.31383 56.786360 161.62535 56.643782 162.01012 56.643780 curveto
162.31676 56.643782 162.56480 56.736556 162.75426 56.922100 curveto
162.94566 57.107649 163.04136 57.354719 163.04137 57.663311 curveto
161.14879 57.663311 lineto
161.13902 57.745344 161.13414 57.829328 161.13414 57.915264 curveto
161.13414 58.206281 161.22301 58.473859 161.40074 58.717999 curveto
161.59605 58.989483 161.83433 59.125225 162.11559 59.125225 curveto
162.48277 59.125225 162.76207 58.960186 162.95348 58.630108 curveto
162.97691 58.630108 lineto
163.01988 58.628156 163.05211 58.638898 163.07359 58.662334 curveto
162.59312 57.496319 moveto
162.58531 57.297102 162.51597 57.134993 162.38512 57.009991 curveto
162.25426 56.883040 162.08824 56.819564 161.88707 56.819561 curveto
161.72105 56.819564 161.57359 56.892806 161.44469 57.039288 curveto
161.33141 57.168196 161.25426 57.320540 161.21324 57.496319 curveto
162.59312 57.496319 lineto
fill
0.0000000 0.0000000 0.0000000 setrgbcolor
newpath
164.74059 59.251202 moveto
164.72301 59.383038 lineto
163.45738 59.383038 lineto
163.44566 59.359600 lineto
163.46324 59.268780 lineto
163.58629 59.268780 163.68492 59.218975 163.75914 59.119366 curveto
163.82750 59.029522 163.86168 58.921124 163.86168 58.794170 curveto
163.86168 55.668194 lineto
163.86168 55.597885 163.82457 55.539291 163.75035 55.492413 curveto
163.68785 55.453354 163.61851 55.433823 163.54234 55.433819 curveto
163.54234 55.433823 163.49351 55.443588 163.39586 55.463116 curveto
163.39586 55.453354 163.39684 55.438706 163.39879 55.419170 curveto
163.40074 55.399643 163.40172 55.384018 163.40172 55.372295 curveto
163.40172 55.344956 163.43004 55.321518 163.48668 55.301983 curveto
163.63902 55.255112 163.86363 55.167221 164.16051 55.038311 curveto
164.28941 55.038311 lineto
164.28941 58.937725 lineto
164.28941 59.129132 164.43980 59.233624 164.74059 59.251202 curveto
fill
0.0000000 0.0000000 0.0000000 setrgbcolor
newpath
93.792961 65.234604 moveto
92.448235 65.234604 lineto
92.436516 65.211166 lineto
92.454094 65.120346 lineto
92.592766 65.120346 92.691398 65.100815 92.749992 65.061752 curveto
92.822257 65.012924 92.858390 64.919175 92.858391 64.780502 curveto
92.858391 63.031479 lineto
92.858390 62.888903 92.788078 62.817614 92.647453 62.817612 curveto
92.594719 62.817614 92.533195 62.826403 92.462883 62.843979 curveto
92.389641 62.726791 lineto
92.760734 62.623278 93.039054 62.512927 93.224602 62.395737 curveto
93.333000 62.474838 lineto
93.333000 64.789291 lineto
93.332999 64.980698 93.482413 65.085190 93.781242 65.102768 curveto
93.792961 65.234604 lineto
93.368156 61.484604 moveto
93.368155 61.568592 93.338859 61.640857 93.280266 61.701401 curveto
93.221671 61.759998 93.150382 61.789295 93.066399 61.789291 curveto
92.982414 61.789295 92.911125 61.759998 92.852531 61.701401 curveto
92.793937 61.640857 92.764640 61.568592 92.764641 61.484604 curveto
92.764640 61.400623 92.793937 61.329334 92.852531 61.270737 curveto
92.911125 61.212147 92.982414 61.182850 93.066399 61.182846 curveto
93.150382 61.182850 93.221671 61.212147 93.280266 61.270737 curveto
93.338859 61.329334 93.368155 61.400623 93.368156 61.484604 curveto
fill
0.0000000 0.0000000 0.0000000 setrgbcolor
newpath
98.832024 65.234604 moveto
97.534172 65.234604 lineto
97.534172 65.102768 lineto
97.799793 65.102768 97.932606 64.970932 97.932610 64.707260 curveto
97.932610 63.374252 lineto
97.932606 63.208239 97.892567 63.062731 97.812492 62.937729 curveto
97.718739 62.793200 97.592762 62.720935 97.434563 62.720932 curveto
97.192372 62.720935 96.904286 62.843005 96.570305 63.087143 curveto
96.570305 64.850815 lineto
96.570302 65.010971 96.726552 65.091049 97.039055 65.091049 curveto
97.053703 65.234604 lineto
95.758781 65.234604 lineto
95.758781 65.102768 lineto
96.022451 65.102768 96.154287 64.970932 96.154289 64.707260 curveto
96.154289 63.374252 lineto
96.154287 63.206286 96.120107 63.061754 96.051750 62.940659 curveto
95.967764 62.794177 95.847647 62.720935 95.691399 62.720932 curveto
95.445303 62.720935 95.143546 62.852770 94.786125 63.116440 curveto
94.786125 64.789291 lineto
94.786124 64.980698 94.933585 65.085190 95.228508 65.102768 curveto
95.210930 65.234604 lineto
93.971672 65.234604 lineto
93.959953 65.211166 lineto
93.977531 65.120346 lineto
94.098625 65.120346 94.196281 65.070542 94.270500 64.970932 curveto
94.338859 64.879135 94.373039 64.770737 94.373039 64.645737 curveto
94.373039 63.031479 lineto
94.373039 62.961169 94.312492 62.905505 94.191399 62.864487 curveto
94.175773 62.858630 94.083977 62.837145 93.916008 62.800034 curveto
93.916008 62.726791 lineto
93.935539 62.705310 93.959953 62.689685 93.989250 62.679916 curveto
94.143547 62.627185 94.374015 62.532458 94.680656 62.395737 curveto
94.786125 62.474838 lineto
94.786125 63.002182 lineto
95.350577 62.638903 95.740225 62.457263 95.955070 62.457260 curveto
96.085928 62.457263 96.207998 62.517810 96.321281 62.638901 curveto
96.416982 62.742419 96.486318 62.863513 96.529289 63.002182 curveto
97.093739 62.638903 97.483387 62.457263 97.698235 62.457260 curveto
97.907215 62.457263 98.074207 62.553942 98.199211 62.747299 curveto
98.308582 62.915270 98.363269 63.108629 98.363274 63.327377 curveto
98.363274 64.850815 lineto
98.363269 65.010971 98.513660 65.091049 98.814445 65.091049 curveto
98.832024 65.234604 lineto
fill
0.0000000 0.0000000 0.0000000 setrgbcolor
newpath
101.63866 64.941635 moveto
101.44335 65.084213 101.34374 65.157456 101.33984 65.161362 curveto
101.21288 65.239487 101.09569 65.278549 100.98827 65.278549 curveto
100.82030 65.278549 100.70507 65.150620 100.64257 64.894760 curveto
100.40624 65.066635 100.27538 65.159409 100.24999 65.173080 curveto
100.12108 65.245346 99.972648 65.281479 99.804680 65.281479 curveto
99.638664 65.281479 99.498039 65.224838 99.382805 65.111557 curveto
99.269523 64.996323 99.212883 64.856675 99.212883 64.692612 curveto
99.212883 64.487534 99.293937 64.319566 99.456047 64.188705 curveto
99.551750 64.112535 99.722648 64.023668 99.968742 63.922104 curveto
100.63085 63.649643 lineto
100.63085 63.213120 lineto
100.63085 63.058825 100.57519 62.928942 100.46386 62.823471 curveto
100.35448 62.718005 100.22167 62.665271 100.06542 62.665268 curveto
99.817374 62.665271 99.693351 62.797106 99.693352 63.060776 curveto
99.693351 63.078356 99.697257 63.101794 99.705070 63.131088 curveto
99.712882 63.160387 99.716788 63.182848 99.716789 63.198471 curveto
99.716788 63.270739 99.662101 63.335192 99.552727 63.391830 curveto
99.457023 63.442613 99.369133 63.468004 99.289055 63.468002 curveto
99.255851 63.468004 99.239250 63.440660 99.239250 63.385971 curveto
99.239250 63.126208 99.348625 62.913317 99.567375 62.747299 curveto
99.766593 62.594958 100.00097 62.518786 100.27050 62.518784 curveto
100.54003 62.518786 100.73730 62.568591 100.86230 62.668198 curveto
101.00097 62.777575 101.07030 62.963122 101.07030 63.224838 curveto
101.07030 64.733627 lineto
101.07030 64.901596 101.12792 64.985581 101.24316 64.985580 curveto
101.31542 64.985581 101.44530 64.930893 101.63280 64.821518 curveto
101.63866 64.941635 lineto
100.63378 64.698471 moveto
100.63085 63.819565 lineto
100.03613 64.080307 lineto
99.768546 64.197496 99.634757 64.385972 99.634758 64.645737 curveto
99.634757 64.757065 99.670890 64.845932 99.743156 64.912338 curveto
99.815421 64.978745 99.907218 65.011948 100.01855 65.011948 curveto
100.13378 65.011948 100.24511 64.979721 100.35253 64.915268 curveto
100.39941 64.885971 100.49315 64.813706 100.63378 64.698471 curveto
fill
0.0000000 0.0000000 0.0000000 setrgbcolor
newpath
104.47753 63.028549 moveto
103.76855 62.952377 lineto
103.87597 63.114489 103.92968 63.297106 103.92968 63.500229 curveto
103.92968 63.763902 103.80370 63.974840 103.55175 64.133041 curveto
103.33690 64.267808 103.08886 64.335191 102.80761 64.335190 curveto
102.68261 64.335191 102.55077 64.321519 102.41210 64.294174 curveto
102.15038 64.432847 102.01952 64.556870 102.01952 64.666245 curveto
102.01952 64.791245 102.22948 64.867417 102.64941 64.894760 curveto
103.25487 64.935776 103.64452 64.980698 103.81835 65.029526 curveto
104.23827 65.146713 104.44823 65.378158 104.44823 65.723862 curveto
104.44823 66.022689 104.23534 66.271712 103.80956 66.470932 curveto
103.45800 66.636946 103.11230 66.719954 102.77245 66.719955 curveto
102.50878 66.719954 102.27636 66.685774 102.07519 66.617416 curveto
101.78808 66.517806 101.64452 66.363509 101.64452 66.154526 curveto
101.64452 65.859603 101.85741 65.559799 102.28320 65.255112 curveto
102.27538 65.237534 102.21679 65.214096 102.10741 65.184799 curveto
101.97655 65.151596 101.88085 65.114487 101.82030 65.073471 curveto
101.71874 65.005112 101.66796 64.912339 101.66796 64.795151 curveto
101.66796 64.676011 101.70507 64.585190 101.77929 64.522690 curveto
101.82030 64.487534 101.90429 64.446519 102.03124 64.399643 curveto
102.15038 64.354722 102.23632 64.307847 102.28905 64.259018 curveto
101.90038 64.132066 101.70605 63.867418 101.70605 63.465073 curveto
101.70605 63.183825 101.81347 62.947497 102.02831 62.756088 curveto
102.23534 62.572497 102.48144 62.480700 102.76659 62.480698 curveto
103.10644 62.480700 103.37401 62.570544 103.56933 62.750229 curveto
104.45995 62.691635 lineto
104.46190 62.758044 104.46776 62.870348 104.47753 63.028549 curveto
103.49023 63.488510 moveto
103.49022 63.275621 103.42382 63.084215 103.29101 62.914291 curveto
103.14648 62.730700 102.97069 62.638903 102.76366 62.638901 curveto
102.55273 62.638903 102.39159 62.734606 102.28027 62.926010 curveto
102.18847 63.084215 102.14257 63.276598 102.14257 63.503159 curveto
102.14257 63.954332 102.36816 64.179917 102.81933 64.179916 curveto
103.26659 64.179917 103.49022 63.949449 103.49023 63.488510 curveto
104.05273 65.785385 moveto
104.05272 65.582260 103.91894 65.440658 103.65136 65.360580 curveto
103.51073 65.319565 103.29394 65.292221 103.00097 65.278549 curveto
102.87206 65.266830 102.67773 65.255112 102.41796 65.243393 curveto
102.14257 65.462143 102.00487 65.727767 102.00488 66.040268 curveto
102.00487 66.331282 102.34277 66.476790 103.01855 66.476791 curveto
103.22167 66.476790 103.43749 66.412337 103.66601 66.283432 curveto
103.92382 66.136947 104.05272 65.970931 104.05273 65.785385 curveto
fill
0.0000000 0.0000000 0.0000000 setrgbcolor
newpath
107.08495 64.513901 moveto
106.84276 65.029526 106.45897 65.287338 105.93359 65.287338 curveto
105.59569 65.287338 105.31054 65.139877 105.07812 64.844955 curveto
104.86132 64.569565 104.75292 64.259019 104.75292 63.913315 curveto
104.75292 63.520738 104.86425 63.190661 105.08691 62.923080 curveto
105.32519 62.637927 105.63671 62.495349 106.02148 62.495346 curveto
106.32812 62.495349 106.57616 62.588122 106.76562 62.773666 curveto
106.95702 62.959216 107.05272 63.206286 107.05273 63.514877 curveto
105.16015 63.514877 lineto
105.15038 63.596910 105.14550 63.680894 105.14550 63.766830 curveto
105.14550 64.057847 105.23437 64.325425 105.41210 64.569565 curveto
105.60741 64.841050 105.84569 64.976792 106.12695 64.976791 curveto
106.49413 64.976792 106.77343 64.811753 106.96484 64.481674 curveto
106.98827 64.481674 lineto
107.03124 64.479722 107.06347 64.490464 107.08495 64.513901 curveto
106.60448 63.347885 moveto
106.59667 63.148668 106.52733 62.986559 106.39648 62.861557 curveto
106.26562 62.734606 106.09960 62.671130 105.89843 62.671127 curveto
105.73241 62.671130 105.58495 62.744372 105.45605 62.890854 curveto
105.34277 63.019762 105.26562 63.172106 105.22460 63.347885 curveto
106.60448 63.347885 lineto
fill
0.0000000 0.0000000 0.0000000 setrgbcolor
newpath
89.565422 68.553940 moveto
89.553703 68.659409 lineto
89.454091 68.659411 89.355458 68.705310 89.257805 68.797104 curveto
89.173818 68.875231 89.109365 68.966051 89.064445 69.069565 curveto
88.100578 71.263901 lineto
87.942375 71.263901 lineto
86.966789 69.010971 lineto
86.863273 68.776599 86.691398 68.659411 86.451164 68.659409 curveto
86.451164 68.553940 lineto
87.787102 68.553940 lineto
87.787102 68.659409 lineto
87.501944 68.659411 87.359367 68.712145 87.359367 68.817612 curveto
87.359367 68.848864 87.600577 69.442613 88.083000 70.598862 curveto
88.096670 70.630112 88.111319 70.645737 88.126945 70.645737 curveto
88.148428 70.645737 88.167959 70.626206 88.185539 70.587143 curveto
88.824211 69.163315 lineto
88.865224 69.071520 88.885732 68.991442 88.885735 68.923080 curveto
88.885732 68.739489 88.732412 68.647692 88.425774 68.647690 curveto
88.458000 68.553940 lineto
89.565422 68.553940 lineto
fill
0.0000000 0.0000000 0.0000000 setrgbcolor
newpath
91.050774 71.234604 moveto
89.706047 71.234604 lineto
89.694328 71.211166 lineto
89.711906 71.120346 lineto
89.850578 71.120346 89.949211 71.100815 90.007805 71.061752 curveto
90.080070 71.012924 90.116203 70.919175 90.116203 70.780502 curveto
90.116203 69.031479 lineto
90.116203 68.888903 90.045890 68.817614 89.905266 68.817612 curveto
89.852531 68.817614 89.791008 68.826403 89.720695 68.843979 curveto
89.647453 68.726791 lineto
90.018547 68.623278 90.296867 68.512927 90.482414 68.395737 curveto
90.590813 68.474838 lineto
90.590813 70.789291 lineto
90.590812 70.980698 90.740226 71.085190 91.039055 71.102768 curveto
91.050774 71.234604 lineto
90.625969 67.484604 moveto
90.625968 67.568592 90.596671 67.640857 90.538078 67.701401 curveto
90.479484 67.759998 90.408195 67.789295 90.324211 67.789291 curveto
90.240226 67.789295 90.168937 67.759998 90.110344 67.701401 curveto
90.051750 67.640857 90.022453 67.568592 90.022453 67.484604 curveto
90.022453 67.400623 90.051750 67.329334 90.110344 67.270737 curveto
90.168937 67.212147 90.240226 67.182850 90.324211 67.182846 curveto
90.408195 67.182850 90.479484 67.212147 90.538078 67.270737 curveto
90.596671 67.329334 90.625968 67.400623 90.625969 67.484604 curveto
fill
0.0000000 0.0000000 0.0000000 setrgbcolor
newpath
93.283195 68.618393 moveto
93.277334 68.729724 93.216787 68.880114 93.101555 69.069565 curveto
92.859366 68.944567 92.692374 68.882067 92.600578 68.882065 curveto
92.483390 68.882067 92.379874 68.938708 92.290031 69.051987 curveto
92.221671 69.155504 92.154288 69.259020 92.087883 69.362534 curveto
92.087883 70.815659 lineto
92.087882 71.026596 92.219718 71.132065 92.483391 71.132065 curveto
92.508780 71.132065 92.544913 71.131088 92.591789 71.129135 curveto
92.638663 71.127182 92.671866 71.126206 92.691399 71.126205 curveto
92.703117 71.234604 lineto
91.252922 71.234604 lineto
91.252922 71.149643 lineto
91.528312 71.141831 91.666008 71.030503 91.666008 70.815659 curveto
91.666008 69.098862 lineto
91.666008 68.983630 91.525383 68.895739 91.244133 68.835190 curveto
91.244133 68.726791 lineto
91.416008 68.707263 91.659172 68.607653 91.973625 68.427963 curveto
92.087883 68.451401 lineto
92.087883 69.142807 lineto
92.322257 68.705310 92.531241 68.486560 92.714836 68.486557 curveto
92.808585 68.486560 92.998037 68.530505 93.283195 68.618393 curveto
fill
0.0000000 0.0000000 0.0000000 setrgbcolor
newpath
95.178703 70.718979 moveto
95.004874 71.062729 94.765616 71.234604 94.460930 71.234604 curveto
94.279288 71.234604 94.126945 71.178940 94.003899 71.067612 curveto
93.874992 70.950424 93.810539 70.801987 93.810539 70.622299 curveto
93.810539 68.785385 lineto
93.526360 68.785385 lineto
93.482414 68.641830 lineto
93.695305 68.561755 93.850578 68.441638 93.948235 68.281479 curveto
94.020500 68.164294 94.084953 67.974842 94.141594 67.713120 curveto
94.244133 67.713120 lineto
94.244133 68.553940 lineto
95.178703 68.553940 lineto
95.055656 68.785385 lineto
94.244133 68.785385 lineto
94.244133 70.443588 lineto
94.244132 70.545151 94.296867 70.654526 94.402336 70.771713 curveto
94.507804 70.888901 94.611319 70.947495 94.712883 70.947495 curveto
94.781241 70.947495 94.866202 70.893784 94.967766 70.786362 curveto
95.071280 70.676987 95.123038 70.622300 95.123039 70.622299 curveto
95.162100 70.622300 95.180655 70.654526 95.178703 70.718979 curveto
fill
0.0000000 0.0000000 0.0000000 setrgbcolor
newpath
98.667961 70.874252 moveto
98.662102 70.994370 lineto
97.774406 71.246323 lineto
97.774406 70.718979 lineto
97.409170 71.082260 97.011710 71.263901 96.582024 71.263901 curveto
96.156242 71.263901 95.943351 70.973862 95.943352 70.393784 curveto
95.943352 69.098862 lineto
95.943351 68.979723 95.902336 68.885973 95.820305 68.817612 curveto
95.738273 68.749255 95.636711 68.715075 95.515617 68.715073 curveto
95.503899 68.594955 lineto
96.376945 68.439682 lineto
96.376945 70.346909 lineto
96.376945 70.514878 96.430656 70.657456 96.538078 70.774643 curveto
96.647452 70.897690 96.785147 70.959214 96.951164 70.959213 curveto
97.117178 70.959214 97.391592 70.820542 97.774406 70.543198 curveto
97.774406 68.931870 lineto
97.774404 68.785388 97.585928 68.701403 97.208977 68.679916 curveto
97.208977 68.583237 lineto
98.193352 68.401596 lineto
98.193352 70.689682 lineto
98.193349 70.836167 98.275380 70.909409 98.439445 70.909409 curveto
98.482411 70.909409 98.558583 70.897690 98.667961 70.874252 curveto
fill
0.0000000 0.0000000 0.0000000 setrgbcolor
newpath
101.31933 70.513901 moveto
101.07714 71.029526 100.69335 71.287338 100.16796 71.287338 curveto
99.830070 71.287338 99.544914 71.139877 99.312492 70.844955 curveto
99.095695 70.569565 98.987297 70.259019 98.987297 69.913315 curveto
98.987297 69.520738 99.098625 69.190661 99.321281 68.923080 curveto
99.559562 68.637927 99.871085 68.495349 100.25585 68.495346 curveto
100.56249 68.495349 100.81054 68.588122 100.99999 68.773666 curveto
101.19140 68.959216 101.28710 69.206286 101.28710 69.514877 curveto
99.394524 69.514877 lineto
99.384758 69.596910 99.379875 69.680894 99.379875 69.766830 curveto
99.379875 70.057847 99.468742 70.325425 99.646477 70.569565 curveto
99.841788 70.841050 100.08007 70.976792 100.36132 70.976791 curveto
100.72851 70.976792 101.00780 70.811753 101.19921 70.481674 curveto
101.22265 70.481674 lineto
101.26562 70.479722 101.29784 70.490464 101.31933 70.513901 curveto
100.83886 69.347885 moveto
100.83105 69.148668 100.76171 68.986559 100.63085 68.861557 curveto
100.49999 68.734606 100.33398 68.671130 100.13280 68.671127 curveto
99.966788 68.671130 99.819327 68.744372 99.690422 68.890854 curveto
99.577140 69.019762 99.499992 69.172106 99.458977 69.347885 curveto
100.83886 69.347885 lineto
fill
0.0000000 0.0000000 0.0000000 setrgbcolor
newpath
102.98632 71.102768 moveto
102.96874 71.234604 lineto
101.70312 71.234604 lineto
101.69140 71.211166 lineto
101.70898 71.120346 lineto
101.83202 71.120346 101.93066 71.070542 102.00488 70.970932 curveto
102.07323 70.881089 102.10741 70.772690 102.10741 70.645737 curveto
102.10741 67.519760 lineto
102.10741 67.449451 102.07030 67.390858 101.99609 67.343979 curveto
101.93359 67.304920 101.86425 67.285389 101.78808 67.285385 curveto
101.78808 67.285389 101.73925 67.295155 101.64159 67.314682 curveto
101.64159 67.304920 101.64257 67.290272 101.64452 67.270737 curveto
101.64648 67.251209 101.64745 67.235584 101.64745 67.223862 curveto
101.64745 67.196522 101.67577 67.173085 101.73241 67.153549 curveto
101.88476 67.106678 102.10937 67.018788 102.40624 66.889877 curveto
102.53515 66.889877 lineto
102.53515 70.789291 lineto
102.53515 70.980698 102.68554 71.085190 102.98632 71.102768 curveto
fill
0.0000000 0.0000000 0.0000000 setrgbcolor
newpath
104.56835 71.102768 moveto
104.55077 71.234604 lineto
103.28515 71.234604 lineto
103.27343 71.211166 lineto
103.29101 71.120346 lineto
103.41405 71.120346 103.51269 71.070542 103.58691 70.970932 curveto
103.65527 70.881089 103.68944 70.772690 103.68945 70.645737 curveto
103.68945 67.519760 lineto
103.68944 67.449451 103.65234 67.390858 103.57812 67.343979 curveto
103.51562 67.304920 103.44628 67.285389 103.37011 67.285385 curveto
103.37011 67.285389 103.32128 67.295155 103.22363 67.314682 curveto
103.22363 67.304920 103.22460 67.290272 103.22655 67.270737 curveto
103.22851 67.251209 103.22948 67.235584 103.22948 67.223862 curveto
103.22948 67.196522 103.25780 67.173085 103.31445 67.153549 curveto
103.46679 67.106678 103.69140 67.018788 103.98827 66.889877 curveto
104.11718 66.889877 lineto
104.11718 70.789291 lineto
104.11718 70.980698 104.26757 71.085190 104.56835 71.102768 curveto
fill
0.0000000 0.0000000 0.0000000 setrgbcolor
newpath
107.08495 70.513901 moveto
106.84276 71.029526 106.45897 71.287338 105.93359 71.287338 curveto
105.59569 71.287338 105.31054 71.139877 105.07812 70.844955 curveto
104.86132 70.569565 104.75292 70.259019 104.75292 69.913315 curveto
104.75292 69.520738 104.86425 69.190661 105.08691 68.923080 curveto
105.32519 68.637927 105.63671 68.495349 106.02148 68.495346 curveto
106.32812 68.495349 106.57616 68.588122 106.76562 68.773666 curveto
106.95702 68.959216 107.05272 69.206286 107.05273 69.514877 curveto
105.16015 69.514877 lineto
105.15038 69.596910 105.14550 69.680894 105.14550 69.766830 curveto
105.14550 70.057847 105.23437 70.325425 105.41210 70.569565 curveto
105.60741 70.841050 105.84569 70.976792 106.12695 70.976791 curveto
106.49413 70.976792 106.77343 70.811753 106.96484 70.481674 curveto
106.98827 70.481674 lineto
107.03124 70.479722 107.06347 70.490464 107.08495 70.513901 curveto
106.60448 69.347885 moveto
106.59667 69.148668 106.52733 68.986559 106.39648 68.861557 curveto
106.26562 68.734606 106.09960 68.671130 105.89843 68.671127 curveto
105.73241 68.671130 105.58495 68.744372 105.45605 68.890854 curveto
105.34277 69.019762 105.26562 69.172106 105.22460 69.347885 curveto
106.60448 69.347885 lineto
fill
0.0000000 0.0000000 0.0000000 setrgbcolor
newpath
114.81809 56.309776 moveto
114.71262 56.309776 lineto
114.71262 55.921108 114.54075 55.726772 114.19700 55.726768 curveto
112.87571 55.726768 lineto
112.87571 57.300011 lineto
113.96848 57.300011 lineto
114.08567 57.300013 114.17844 57.254115 114.24680 57.162315 curveto
114.30539 57.082240 114.33469 56.979701 114.33469 56.854698 curveto
114.41673 56.854698 lineto
114.41673 57.997276 lineto
114.33469 57.997276 lineto
114.33469 57.676966 114.21262 57.516810 113.96848 57.516808 curveto
112.87571 57.516808 lineto
112.87571 59.107628 lineto
112.87571 59.369347 113.05247 59.500206 113.40598 59.500206 curveto
113.40598 59.632042 lineto
111.87376 59.632042 lineto
111.87376 59.500206 lineto
112.19797 59.500206 112.36008 59.357628 112.36008 59.072472 curveto
112.36008 55.914268 lineto
112.36008 55.701382 112.19797 55.595913 111.87376 55.597862 curveto
111.87376 55.471886 lineto
114.74778 55.471886 lineto
114.81809 56.309776 lineto
fill
0.0000000 0.0000000 0.0000000 setrgbcolor
newpath
134.56821 56.928383 moveto
134.46274 56.928383 lineto
134.46274 56.539715 134.29086 56.345379 133.94711 56.345375 curveto
132.62582 56.345375 lineto
132.62582 57.918617 lineto
133.71860 57.918617 lineto
133.83578 57.918620 133.92856 57.872721 133.99692 57.780922 curveto
134.05551 57.700846 134.08481 57.598307 134.08481 57.473305 curveto
134.16684 57.473305 lineto
134.16684 58.615883 lineto
134.08481 58.615883 lineto
134.08481 58.295572 133.96274 58.135416 133.71860 58.135414 curveto
132.62582 58.135414 lineto
132.62582 59.726234 lineto
132.62582 59.987953 132.80258 60.118813 133.15610 60.118813 curveto
133.15610 60.250648 lineto
131.62387 60.250648 lineto
131.62387 60.118813 lineto
131.94809 60.118813 132.11020 59.976235 132.11020 59.691078 curveto
132.11020 56.532875 lineto
132.11020 56.319988 131.94809 56.214520 131.62387 56.216469 curveto
131.62387 56.090492 lineto
134.49789 56.090492 lineto
134.56821 56.928383 lineto
fill
grestore
showpage
