%!PS-Adobe-2.0
%%Creator: inkscape 0.41.1
%%Pages: 1
%%Orientation: Portrait
%%BoundingBox: 2 761 180 831
%%HiResBoundingBox: 2.7888370 761.80613 179.33708 830.18222
%%EndComments
%%Page: 1 1
0 842 translate
0.80000000 -0.80000000 scale
gsave [1.0000000 0.0000000 0.0000000 1.0000000 0.0000000 0.0000000] concat
0.0000000 0.0000000 0.0000000 setrgbcolor
[1.4173229 2.8346457] 0.0000000 setdash
0.35433072 setlinewidth
0 setlinejoin
0 setlinecap
newpath
5.4587096 66.299664 moveto
160.98021 66.299664 222.60835 66.299664 222.60835 66.299664 curveto
stroke
0.0000000 0.0000000 0.0000000 setrgbcolor
[] 0 setdash
0.35433072 setlinewidth
0 setlinejoin
0 setlinecap
newpath
128.64335 30.541836 moveto
128.64335 99.496394 128.64335 99.927360 128.64335 99.927360 curveto
stroke
gsave [2.3865361e-17 0.38976379 -0.38976379 2.3865361e-17 128.64335 28.593017] concat
0.0000000 0.0000000 0.0000000 setrgbcolor
newpath
8.7185878 4.0337352 moveto
-2.2072895 0.016013256 lineto
8.7185884 -4.0017078 lineto
6.9730900 -1.6296469 6.9831476 1.6157441 8.7185878 4.0337352 curveto
closepath
eofill
grestore
gsave [-2.3865361e-17 -0.38976379 0.38976379 -2.3865361e-17 128.64335 101.87618] concat
0.0000000 0.0000000 0.0000000 setrgbcolor
newpath
8.7185878 4.0337352 moveto
-2.2072895 0.016013256 lineto
8.7185884 -4.0017078 lineto
6.9730900 -1.6296469 6.9831476 1.6157441 8.7185878 4.0337352 curveto
closepath
eofill
grestore
0.0000000 0.0000000 0.0000000 setrgbcolor
[] 0 setdash
0.35433072 setlinewidth
0 setlinejoin
0 setlinecap
newpath
80.375156 46.487578 moveto
80.375156 66.096530 80.375156 66.096530 80.375156 66.096530 curveto
stroke
0.0000000 0.0000000 0.0000000 setrgbcolor
[] 0 setdash
1.0000000 setlinewidth
0 setlinejoin
0 setlinecap
newpath
80.159673 46.703061 moveto
163.55159 80.749374 lineto
stroke
gsave [-0.27774404 -0.11339421 0.11339421 -0.27774404 164.94031 81.316345] concat
0.0000000 0.0000000 0.0000000 setrgbcolor
newpath
8.7185878 4.0337352 moveto
-2.2072895 0.016013256 lineto
8.7185884 -4.0017078 lineto
6.9730900 -1.6296469 6.9831476 1.6157441 8.7185878 4.0337352 curveto
closepath
eofill
grestore
0.0000000 0.0000000 0.0000000 setrgbcolor
[] 0 setdash
1.0000000 setlinewidth
0 setlinejoin
0 setlinecap
newpath
80.159673 46.703061 moveto
128.42786 46.703061 lineto
223.67135 69.544258 lineto
stroke
gsave [-0.29172817 -0.069961953 0.069961953 -0.29172817 225.12999 69.894068] concat
0.0000000 0.0000000 0.0000000 setrgbcolor
newpath
8.7185878 4.0337352 moveto
-2.2072895 0.016013256 lineto
8.7185884 -4.0017078 lineto
6.9730900 -1.6296469 6.9831476 1.6157441 8.7185878 4.0337352 curveto
closepath
eofill
grestore
0.0000000 0.0000000 0.0000000 setrgbcolor
[] 0 setdash
0.60405475 setlinewidth
0 setlinejoin
0 setlinecap
newpath
206.93455 86.351931 moveto
131.15826 86.351931 lineto
stroke
gsave [-0.36243285 4.4383757e-17 -4.4383757e-17 -0.36243285 204.03509 86.351931] concat
0.0000000 0.0000000 0.0000000 setrgbcolor
newpath
0.0000000 0.0000000 moveto
5.0000000 -5.0000000 lineto
-12.500000 0.0000000 lineto
5.0000000 5.0000000 lineto
0.0000000 0.0000000 lineto
closepath
eofill
0.0000000 0.0000000 0.0000000 setrgbcolor
[] 0 setdash
1.2500000 setlinewidth
0 setlinejoin
0 setlinecap
newpath
0.0000000 0.0000000 moveto
5.0000000 -5.0000000 lineto
-12.500000 0.0000000 lineto
5.0000000 5.0000000 lineto
0.0000000 0.0000000 lineto
closepath
stroke
0.0000000 0.0000000 0.0000000 setrgbcolor
[] 0 setdash
1.5000000 setlinewidth
0 setlinejoin
0 setlinecap
newpath
-14.759949 -7.0000000 moveto
-14.759949 65.000000 lineto
stroke
grestore
gsave [0.36243285 -4.4383757e-17 -4.4383757e-17 -0.36243285 134.05772 86.351931] concat
0.0000000 0.0000000 0.0000000 setrgbcolor
newpath
0.0000000 0.0000000 moveto
5.0000000 -5.0000000 lineto
-12.500000 0.0000000 lineto
5.0000000 5.0000000 lineto
0.0000000 0.0000000 lineto
closepath
eofill
0.0000000 0.0000000 0.0000000 setrgbcolor
[] 0 setdash
1.2500000 setlinewidth
0 setlinejoin
0 setlinecap
newpath
0.0000000 0.0000000 moveto
5.0000000 -5.0000000 lineto
-12.500000 0.0000000 lineto
5.0000000 5.0000000 lineto
0.0000000 0.0000000 lineto
closepath
stroke
0.0000000 0.0000000 0.0000000 setrgbcolor
[] 0 setdash
1.5000000 setlinewidth
0 setlinejoin
0 setlinecap
newpath
-14.759949 -7.0000000 moveto
-14.759949 65.000000 lineto
stroke
grestore
0.0000000 0.0000000 0.0000000 setrgbcolor
[] 0 setdash
0.40314037 setlinewidth
0 setlinejoin
0 setlinecap
newpath
126.97896 78.379063 moveto
82.039544 78.379063 lineto
stroke
gsave [-0.24188422 2.9621295e-17 -2.9621295e-17 -0.24188422 125.04389 78.379063] concat
0.0000000 0.0000000 0.0000000 setrgbcolor
newpath
0.0000000 0.0000000 moveto
5.0000000 -5.0000000 lineto
-12.500000 0.0000000 lineto
5.0000000 5.0000000 lineto
0.0000000 0.0000000 lineto
closepath
eofill
0.0000000 0.0000000 0.0000000 setrgbcolor
[] 0 setdash
1.2500000 setlinewidth
0 setlinejoin
0 setlinecap
newpath
0.0000000 0.0000000 moveto
5.0000000 -5.0000000 lineto
-12.500000 0.0000000 lineto
5.0000000 5.0000000 lineto
0.0000000 0.0000000 lineto
closepath
stroke
0.0000000 0.0000000 0.0000000 setrgbcolor
[] 0 setdash
1.5000000 setlinewidth
0 setlinejoin
0 setlinecap
newpath
-14.759949 -7.0000000 moveto
-14.759949 65.000000 lineto
stroke
grestore
gsave [0.24188422 -2.9621295e-17 -2.9621295e-17 -0.24188422 83.974618 78.379063] concat
0.0000000 0.0000000 0.0000000 setrgbcolor
newpath
0.0000000 0.0000000 moveto
5.0000000 -5.0000000 lineto
-12.500000 0.0000000 lineto
5.0000000 5.0000000 lineto
0.0000000 0.0000000 lineto
closepath
eofill
0.0000000 0.0000000 0.0000000 setrgbcolor
[] 0 setdash
1.2500000 setlinewidth
0 setlinejoin
0 setlinecap
newpath
0.0000000 0.0000000 moveto
5.0000000 -5.0000000 lineto
-12.500000 0.0000000 lineto
5.0000000 5.0000000 lineto
0.0000000 0.0000000 lineto
closepath
stroke
0.0000000 0.0000000 0.0000000 setrgbcolor
[] 0 setdash
1.5000000 setlinewidth
0 setlinejoin
0 setlinecap
newpath
-14.759949 -7.0000000 moveto
-14.759949 65.000000 lineto
stroke
grestore
0.0000000 0.0000000 0.0000000 setrgbcolor
newpath
95.350449 88.286400 moveto
92.503769 88.286400 lineto
92.503769 88.115501 lineto
93.193872 88.115502 93.538923 87.837182 93.538925 87.280540 curveto
93.538925 82.124290 lineto
93.363142 82.228463 93.188989 82.332630 93.016464 82.436790 curveto
92.808130 82.553984 92.624211 82.633736 92.464706 82.676048 curveto
92.371933 82.461205 lineto
93.026229 82.135690 93.587752 81.738555 94.056503 81.269798 curveto
94.349472 81.269798 lineto
94.349472 87.280540 lineto
94.349469 87.615828 94.435732 87.843692 94.608261 87.964134 curveto
94.748232 88.065046 94.995628 88.115502 95.350449 88.115501 curveto
95.350449 88.286400 lineto
fill
0.0000000 0.0000000 0.0000000 setrgbcolor
newpath
97.840683 88.276634 moveto
97.840681 88.016218 97.775577 87.794864 97.645370 87.612572 curveto
97.502140 87.404239 97.305200 87.300073 97.054550 87.300072 curveto
96.882023 87.300073 96.730656 87.345646 96.600449 87.436790 curveto
96.460474 87.537703 96.390487 87.671166 96.390488 87.837181 curveto
96.390487 87.977155 96.429550 88.097598 96.507675 88.198509 curveto
96.595565 88.312441 96.704615 88.369408 96.834824 88.369408 curveto
96.873885 88.369408 96.927596 88.362897 96.995956 88.349876 curveto
97.067570 88.340111 97.121281 88.335228 97.157089 88.335228 curveto
97.290551 88.335228 97.357283 88.426374 97.357285 88.608665 curveto
97.357283 89.077415 97.072453 89.461529 96.502792 89.761009 curveto
96.538599 89.878195 96.572779 89.936789 96.605331 89.936790 curveto
96.667180 89.936789 96.781112 89.879823 96.947128 89.765892 curveto
97.100122 89.661724 97.201033 89.580344 97.249863 89.521751 curveto
97.467960 89.258079 97.607934 89.069277 97.669785 88.955345 curveto
97.783715 88.753522 97.840681 88.527285 97.840683 88.276634 curveto
fill
0.0000000 0.0000000 0.0000000 setrgbcolor
newpath
103.01646 85.962181 moveto
103.01646 86.665308 102.75442 87.261010 102.23033 87.749290 curveto
101.71926 88.224551 101.10891 88.462181 100.39928 88.462181 curveto
100.07375 88.462181 99.775903 88.405215 99.505722 88.291283 curveto
99.150904 88.144798 98.973495 87.933210 98.973495 87.656517 curveto
98.973495 87.542585 99.010930 87.446557 99.085800 87.368431 curveto
99.163925 87.290307 99.259953 87.251245 99.373886 87.251244 curveto
99.425969 87.251245 99.517114 87.322859 99.647324 87.466087 curveto
99.816593 87.658145 99.954940 87.793236 100.06236 87.871361 curveto
100.25767 88.017845 100.46275 88.091088 100.67760 88.091087 curveto
101.07799 88.091088 101.45071 87.830671 101.79576 87.309837 curveto
102.10826 86.837834 102.26451 86.390243 102.26451 85.967064 curveto
102.26451 85.521103 102.09198 85.109320 101.74693 84.731712 curveto
101.39537 84.341091 100.99823 84.145779 100.55553 84.145775 curveto
100.36672 84.145779 100.15025 84.220649 99.906113 84.370384 curveto
99.818221 84.425727 99.609888 84.575466 99.281113 84.819603 curveto
99.842636 81.367455 lineto
102.26451 81.367455 lineto
102.41425 81.367461 102.50702 81.279571 102.54283 81.103783 curveto
102.72838 81.162376 lineto
102.42076 82.065697 lineto
100.12096 82.065697 lineto
99.808456 83.960228 lineto
100.11770 83.732368 100.53274 83.618436 101.05357 83.618431 curveto
101.65253 83.618436 102.13755 83.864204 102.50865 84.355736 curveto
102.84719 84.804958 103.01646 85.340439 103.01646 85.962181 curveto
fill
0.0000000 0.0000000 0.0000000 setrgbcolor
newpath
fill
0.0000000 0.0000000 0.0000000 setrgbcolor
newpath
110.40416 87.090111 moveto
110.00051 87.949486 109.36086 88.379173 108.48521 88.379173 curveto
107.92206 88.379173 107.44517 88.152936 107.05455 87.700462 curveto
106.68020 87.267521 106.49303 86.764591 106.49303 86.191673 curveto
106.49303 85.475530 106.74042 84.884711 107.23521 84.419212 curveto
107.72024 83.963488 108.32408 83.735623 109.04674 83.735619 curveto
109.26158 83.735623 109.51223 83.802355 109.79869 83.935814 curveto
110.12746 84.082302 110.29185 84.240180 110.29185 84.409447 curveto
110.29185 84.718695 110.14537 84.873317 109.85240 84.873314 curveto
109.67011 84.873317 109.55129 84.800075 109.49596 84.653587 curveto
109.44387 84.516872 109.39341 84.380154 109.34459 84.243431 curveto
109.23716 84.093696 109.03046 84.018826 108.72447 84.018822 curveto
108.23293 84.018826 107.84882 84.241808 107.57213 84.687767 curveto
107.34101 85.065374 107.22545 85.516220 107.22545 86.040306 curveto
107.22545 86.476506 107.37844 86.883406 107.68443 87.261009 curveto
108.00995 87.661400 108.38430 87.861596 108.80748 87.861595 curveto
109.41620 87.861596 109.88170 87.586531 110.20396 87.036400 curveto
110.33742 87.033146 110.40416 87.051050 110.40416 87.090111 curveto
fill
0.0000000 0.0000000 0.0000000 setrgbcolor
newpath
119.07115 88.291283 moveto
116.90807 88.291283 lineto
116.90807 88.071556 lineto
117.35077 88.071556 117.57212 87.851830 117.57213 87.412376 curveto
117.57213 85.190697 lineto
117.57212 84.914007 117.50539 84.671495 117.37193 84.463158 curveto
117.21568 84.222276 117.00572 84.101834 116.74205 84.101830 curveto
116.33840 84.101834 115.85826 84.305284 115.30162 84.712181 curveto
115.30162 87.651634 lineto
115.30162 87.918562 115.56203 88.052025 116.08287 88.052025 curveto
116.10728 88.291283 lineto
113.94908 88.291283 lineto
113.94908 88.071556 lineto
114.38853 88.071556 114.60826 87.851830 114.60826 87.412376 curveto
114.60826 85.190697 lineto
114.60826 84.910752 114.55129 84.669867 114.43736 84.468040 curveto
114.29739 84.223904 114.09719 84.101834 113.83678 84.101830 curveto
113.42662 84.101834 112.92369 84.321560 112.32799 84.761009 curveto
112.32799 87.549095 lineto
112.32799 87.868106 112.57375 88.042259 113.06529 88.071556 curveto
113.03600 88.291283 lineto
110.97057 88.291283 lineto
110.95103 88.252220 lineto
110.98033 88.100853 lineto
111.18215 88.100853 111.34491 88.017845 111.46861 87.851830 curveto
111.58254 87.698835 111.63951 87.518171 111.63951 87.309837 curveto
111.63951 84.619408 lineto
111.63951 84.502224 111.53860 84.409451 111.33678 84.341087 curveto
111.31073 84.331326 111.15774 84.295518 110.87779 84.233665 curveto
110.87779 84.111595 lineto
110.91034 84.075792 110.95103 84.049750 110.99986 84.033470 curveto
111.25702 83.945584 111.64114 83.787706 112.15221 83.559837 curveto
112.32799 83.691673 lineto
112.32799 84.570580 lineto
113.26874 83.965115 113.91815 83.662381 114.27623 83.662376 curveto
114.49433 83.662381 114.69778 83.763292 114.88658 83.965111 curveto
115.04608 84.137641 115.16164 84.339464 115.23326 84.570580 curveto
116.17401 83.965115 116.82342 83.662381 117.18150 83.662376 curveto
117.52980 83.662381 117.80812 83.823514 118.01646 84.145775 curveto
118.19875 84.425727 118.28989 84.747992 118.28990 85.112572 curveto
118.28990 87.651634 lineto
118.28989 87.918562 118.54055 88.052025 119.04185 88.052025 curveto
119.07115 88.291283 lineto
fill
0.0000000 0.0000000 0.0000000 setrgbcolor
newpath
162.99490 89.828606 moveto
162.50662 90.287590 lineto
162.40245 89.825357 162.07368 89.594237 161.52029 89.594231 curveto
161.20128 89.594237 160.91482 89.690266 160.66092 89.882317 curveto
160.38748 90.090656 160.25076 90.351073 160.25076 90.663567 curveto
160.25076 91.820793 lineto
161.39822 91.820793 lineto
161.39822 92.191887 lineto
160.25076 92.191887 lineto
160.25076 95.424309 lineto
160.25076 95.840976 160.48025 96.049309 160.93924 96.049309 curveto
160.97504 96.049309 161.02713 96.049309 161.09549 96.049309 curveto
161.16385 96.046054 161.21430 96.044426 161.24686 96.044426 curveto
161.24686 96.264153 lineto
158.86893 96.264153 lineto
158.84451 96.122551 lineto
159.11144 96.041171 159.26932 95.987460 159.31815 95.961418 curveto
159.48091 95.873528 159.56229 95.741692 159.56229 95.565910 curveto
159.56229 92.191887 lineto
159.47114 92.201657 159.18631 92.178870 158.70779 92.123528 curveto
158.70779 91.933098 lineto
159.11144 91.933102 159.34581 91.895667 159.41092 91.820793 curveto
159.56229 91.820793 lineto
159.56229 91.674309 lineto
159.56229 91.150225 159.61925 90.772622 159.73318 90.541496 curveto
159.82107 90.368976 160.05545 90.098794 160.43631 89.730949 curveto
160.76834 89.411946 161.24685 89.252441 161.87186 89.252434 curveto
162.20714 89.252441 162.58149 89.444498 162.99490 89.828606 curveto
fill
0.0000000 0.0000000 0.0000000 setrgbcolor
newpath
166.94022 92.089348 moveto
162.88748 92.089348 lineto
162.88748 91.630363 lineto
166.94022 91.630363 lineto
166.94022 92.089348 lineto
166.94022 93.930168 moveto
162.88748 93.930168 lineto
162.88748 93.466301 lineto
166.94022 93.466301 lineto
166.94022 93.930168 lineto
fill
0.0000000 0.0000000 0.0000000 setrgbcolor
newpath
172.37967 94.872551 moveto
172.37966 94.934401 172.23644 95.398268 171.94998 96.264153 curveto
167.86307 96.264153 lineto
167.77029 95.976067 lineto
169.94477 94.221511 171.03201 92.626461 171.03201 91.190910 curveto
171.03201 90.351073 170.65115 89.931151 169.88943 89.931145 curveto
169.04308 89.931151 168.39855 90.329914 167.95584 91.127434 curveto
167.74100 91.034660 lineto
167.91678 90.549640 168.21626 90.141112 168.63943 89.809074 curveto
169.08540 89.457519 169.55740 89.281738 170.05545 89.281731 curveto
170.51443 89.281738 170.90017 89.421711 171.21268 89.701653 curveto
171.53819 89.994628 171.70095 90.367349 171.70096 90.819817 curveto
171.70095 92.268388 170.71951 93.865066 168.75662 95.609856 curveto
171.42752 95.609856 lineto
171.60655 95.609856 171.77745 95.471510 171.94022 95.194817 curveto
172.10297 94.918125 172.17784 94.779779 172.16483 94.779778 curveto
172.19086 94.779779 172.22830 94.794427 172.27713 94.823723 curveto
172.32595 94.849766 172.36013 94.866042 172.37967 94.872551 curveto
fill
0.0000000 0.0000000 0.0000000 setrgbcolor
newpath
fill
0.0000000 0.0000000 0.0000000 setrgbcolor
newpath
179.76248 95.062981 moveto
179.35883 95.922356 178.71918 96.352043 177.84354 96.352043 curveto
177.28038 96.352043 176.80350 96.125806 176.41287 95.673332 curveto
176.03852 95.240391 175.85135 94.737461 175.85135 94.164543 curveto
175.85135 93.448400 176.09874 92.857580 176.59354 92.392082 curveto
177.07856 91.936357 177.68240 91.708493 178.40506 91.708488 curveto
178.61990 91.708493 178.87055 91.775225 179.15701 91.908684 curveto
179.48579 92.055172 179.65017 92.213050 179.65018 92.382317 curveto
179.65017 92.691565 179.50369 92.846187 179.21072 92.846184 curveto
179.02843 92.846187 178.90961 92.772945 178.85428 92.626457 curveto
178.80219 92.489742 178.75174 92.353024 178.70291 92.216301 curveto
178.59549 92.066566 178.38878 91.991696 178.08279 91.991692 curveto
177.59126 91.991696 177.20714 92.214677 176.93045 92.660637 curveto
176.69933 93.038244 176.58377 93.489090 176.58377 94.013176 curveto
176.58377 94.449376 176.73676 94.856276 177.04276 95.233879 curveto
177.36827 95.634270 177.74262 95.834465 178.16580 95.834465 curveto
178.77452 95.834465 179.24002 95.559401 179.56229 95.009270 curveto
179.69575 95.006016 179.76248 95.023919 179.76248 95.062981 curveto
fill
0.0000000 0.0000000 0.0000000 setrgbcolor
newpath
188.42947 96.264153 moveto
186.26639 96.264153 lineto
186.26639 96.044426 lineto
186.70909 96.044426 186.93044 95.824700 186.93045 95.385246 curveto
186.93045 93.163567 lineto
186.93044 92.886877 186.86371 92.644364 186.73026 92.436028 curveto
186.57400 92.195146 186.36404 92.074704 186.10037 92.074699 curveto
185.69672 92.074704 185.21658 92.278154 184.65994 92.685051 curveto
184.65994 95.624504 lineto
184.65994 95.891432 184.92035 96.024895 185.44119 96.024895 curveto
185.46561 96.264153 lineto
183.30740 96.264153 lineto
183.30740 96.044426 lineto
183.74685 96.044426 183.96658 95.824700 183.96658 95.385246 curveto
183.96658 93.163567 lineto
183.96658 92.883622 183.90961 92.642737 183.79568 92.440910 curveto
183.65571 92.196774 183.45551 92.074704 183.19510 92.074699 curveto
182.78494 92.074704 182.28201 92.294430 181.68631 92.733879 curveto
181.68631 95.521965 lineto
181.68631 95.840976 181.93208 96.015129 182.42361 96.044426 curveto
182.39432 96.264153 lineto
180.32889 96.264153 lineto
180.30936 96.225090 lineto
180.33865 96.073723 lineto
180.54048 96.073723 180.70324 95.990715 180.82693 95.824699 curveto
180.94087 95.671705 180.99783 95.491041 180.99783 95.282707 curveto
180.99783 92.592278 lineto
180.99783 92.475094 180.89692 92.382320 180.69510 92.313957 curveto
180.66906 92.304196 180.51606 92.268388 180.23611 92.206535 curveto
180.23611 92.084465 lineto
180.26867 92.048662 180.30936 92.022620 180.35818 92.006340 curveto
180.61535 91.918454 180.99946 91.760576 181.51053 91.532707 curveto
181.68631 91.664543 lineto
181.68631 92.543449 lineto
182.62706 91.937985 183.27648 91.635251 183.63455 91.635246 curveto
183.85265 91.635251 184.05610 91.736162 184.24490 91.937981 curveto
184.40440 92.110511 184.51996 92.312334 184.59158 92.543449 curveto
185.53233 91.937985 186.18175 91.635251 186.53983 91.635246 curveto
186.88813 91.635251 187.16645 91.796384 187.37479 92.118645 curveto
187.55707 92.398596 187.64822 92.720862 187.64822 93.085442 curveto
187.64822 95.624504 lineto
187.64822 95.891432 187.89887 96.024895 188.40018 96.024895 curveto
188.42947 96.264153 lineto
fill
0.0000000 0.0000000 0.0000000 setrgbcolor
[1.4173229 2.8346457] 0.0000000 setdash
0.35433072 setlinewidth
0 setlinejoin
0 setlinecap
newpath
209.23399 66.096530 moveto
4.0941767 16.104476 lineto
stroke
0.0000000 0.0000000 0.0000000 setrgbcolor
[1.4173229 2.8346457] 0.0000000 setdash
0.35433072 setlinewidth
0 setlinejoin
0 setlinecap
newpath
163.55159 80.964856 moveto
3.6632116 14.811578 lineto
stroke
0.0000000 0.0000000 0.0000000 setrgbcolor
[] 0 setdash
0.35433072 setlinewidth
0 setlinejoin
0 setlinecap
newpath
10.558667 17.828340 moveto
10.558667 66.958462 lineto
stroke
0.0000000 0.0000000 0.0000000 setrgbcolor
newpath
61.952263 58.051926 moveto
61.952258 58.729011 61.735787 59.279140 61.302849 59.702316 curveto
60.873158 60.125494 60.318145 60.337082 59.637810 60.337082 curveto
59.022574 60.337082 58.490348 60.120611 58.041130 59.687668 curveto
57.595166 59.251471 57.372185 58.727383 57.372185 58.115402 curveto
57.372185 57.415535 57.577263 56.845874 57.987419 56.406418 curveto
58.400830 55.966969 58.955842 55.747243 59.652458 55.747238 curveto
60.316518 55.747243 60.865020 55.965341 61.297966 56.401535 curveto
61.734160 56.837736 61.952258 57.387866 61.952263 58.051926 curveto
61.068474 58.481613 moveto
61.068470 57.837084 60.967559 57.298348 60.765739 56.865402 curveto
60.495554 56.285979 60.075633 55.996266 59.505974 55.996262 curveto
58.994904 55.996266 58.641715 56.201344 58.446404 56.611496 curveto
58.309684 56.897958 58.241324 57.329272 58.241325 57.905441 curveto
58.241324 58.432787 58.369905 58.908047 58.627068 59.331223 curveto
58.926545 59.822759 59.323680 60.068527 59.818474 60.068527 curveto
60.651804 60.068527 61.068470 59.539557 61.068474 58.481613 curveto
fill
0.0000000 0.0000000 0.0000000 setrgbcolor
newpath
66.771599 57.949387 moveto
66.771594 58.694831 66.520944 59.285651 66.019646 59.721848 curveto
65.544382 60.132004 64.927521 60.337082 64.169060 60.337082 curveto
63.687287 60.337082 63.155061 60.263840 62.572380 60.117355 curveto
62.572380 54.135910 lineto
62.572380 53.989432 62.487744 53.873872 62.318474 53.789230 curveto
62.168734 53.714367 61.988070 53.680187 61.776482 53.686691 curveto
61.763461 53.686698 61.750440 53.663911 61.737419 53.618332 curveto
61.721144 53.572766 61.701612 53.541841 61.678825 53.525558 curveto
62.219190 53.470227 62.751416 53.320487 63.275505 53.076340 curveto
63.275505 56.435715 lineto
63.744254 56.159026 64.020946 55.999521 64.105583 55.957199 curveto
64.427847 55.804209 64.733836 55.727711 65.023552 55.727707 curveto
65.576934 55.727711 66.018014 55.968597 66.346794 56.450363 curveto
66.629993 56.870288 66.771594 57.369962 66.771599 57.949387 curveto
65.985466 58.173996 moveto
65.985462 57.705249 65.871530 57.275561 65.643669 56.884933 curveto
65.373484 56.425953 65.021922 56.196461 64.588982 56.196457 curveto
64.409943 56.196461 64.175568 56.253427 63.885857 56.367355 curveto
63.579866 56.487802 63.376415 56.611500 63.275505 56.738449 curveto
63.275505 59.297043 lineto
63.275504 59.508632 63.446402 59.689296 63.788200 59.839035 curveto
64.064891 59.962733 64.328563 60.024582 64.579216 60.024582 curveto
65.031687 60.024582 65.388132 59.821132 65.648552 59.414230 curveto
65.873158 59.065924 65.985462 58.652513 65.985466 58.173996 curveto
fill
0.0000000 0.0000000 0.0000000 setrgbcolor
newpath
69.935661 60.776535 moveto
69.935659 61.290857 69.722443 61.777510 69.296013 62.236496 curveto
68.960725 62.597822 68.537548 62.778486 68.026482 62.778488 curveto
67.762810 62.778486 67.526807 62.737796 67.318474 62.656418 curveto
67.032016 62.548994 66.887159 62.387861 66.883904 62.173019 curveto
66.880649 62.094893 66.922967 62.005374 67.010857 61.904465 curveto
67.095493 61.803552 67.180128 61.753096 67.264763 61.753098 curveto
67.339633 61.753096 67.512159 61.852380 67.782341 62.050949 curveto
68.052523 62.252770 68.259228 62.353681 68.402458 62.353683 curveto
68.643343 62.353681 68.830517 62.257653 68.963982 62.065598 curveto
69.084423 61.893070 69.144644 61.683109 69.144646 61.435715 curveto
69.144646 56.606613 lineto
69.144644 56.368987 69.027457 56.250172 68.793083 56.250168 curveto
68.705192 56.250172 68.602653 56.264820 68.485466 56.294113 curveto
68.363396 56.098801 lineto
68.978629 55.926279 69.442495 55.742360 69.754997 55.547043 curveto
69.935661 55.678879 lineto
69.935661 60.776535 lineto
69.999138 54.028488 moveto
69.999136 54.168468 69.950307 54.288911 69.852654 54.389816 curveto
69.754995 54.487478 69.636180 54.536306 69.496208 54.536301 curveto
69.356233 54.536306 69.237418 54.487478 69.139763 54.389816 curveto
69.042105 54.288911 68.993277 54.168468 68.993279 54.028488 curveto
68.993277 53.888521 69.042105 53.769706 69.139763 53.672043 curveto
69.237418 53.574393 69.356233 53.525565 69.496208 53.525558 curveto
69.636180 53.525565 69.754995 53.574393 69.852654 53.672043 curveto
69.950307 53.769706 69.999136 53.888521 69.999138 54.028488 curveto
fill
0.0000000 0.0000000 0.0000000 setrgbcolor
newpath
75.282341 59.077316 moveto
74.878692 59.936692 74.239044 60.366379 73.363396 60.366379 curveto
72.800243 60.366379 72.324983 60.120611 71.937614 59.629074 curveto
71.576286 59.170091 71.395622 58.652513 71.395622 58.076340 curveto
71.395622 57.422046 71.581169 56.871916 71.952263 56.425949 curveto
72.349397 55.950693 72.868602 55.713063 73.509880 55.713058 curveto
74.020945 55.713063 74.434356 55.867685 74.750114 56.176926 curveto
75.069121 56.486174 75.228626 56.897958 75.228630 57.412277 curveto
72.074333 57.412277 lineto
72.058056 57.548999 72.049918 57.688973 72.049919 57.832199 curveto
72.049918 58.317227 72.198030 58.763190 72.494255 59.170090 curveto
72.819774 59.622564 73.216909 59.848801 73.685661 59.848801 curveto
74.297638 59.848801 74.763132 59.573736 75.082146 59.023605 curveto
75.121208 59.023605 lineto
75.192819 59.020351 75.246530 59.038255 75.282341 59.077316 curveto
74.481560 57.133957 moveto
74.468536 56.801929 74.352976 56.531747 74.134880 56.323410 curveto
73.916779 56.111826 73.640086 56.006031 73.304802 56.006027 curveto
73.028108 56.006031 72.782340 56.128102 72.567497 56.372238 curveto
72.378694 56.587086 72.250114 56.840992 72.181755 57.133957 curveto
74.481560 57.133957 lineto
fill
0.0000000 0.0000000 0.0000000 setrgbcolor
newpath
78.563591 59.419113 moveto
78.273875 59.992030 77.875112 60.278488 77.367302 60.278488 curveto
77.064566 60.278488 76.810660 60.185715 76.605583 60.000168 curveto
76.390739 59.804856 76.283317 59.557460 76.283318 59.257980 curveto
76.283318 56.196457 lineto
75.809685 56.196457 lineto
75.736443 55.957199 lineto
76.091260 55.823740 76.350049 55.623545 76.512810 55.356613 curveto
76.633251 55.161306 76.740673 54.845551 76.835075 54.409348 curveto
77.005974 54.409348 lineto
77.005974 55.810715 lineto
78.563591 55.810715 lineto
78.358513 56.196457 lineto
77.005974 56.196457 lineto
77.005974 58.960129 lineto
77.005972 59.129401 77.093863 59.311692 77.269646 59.507004 curveto
77.445425 59.702317 77.617951 59.799973 77.787224 59.799973 curveto
77.901154 59.799973 78.042755 59.710455 78.212029 59.531418 curveto
78.384552 59.349127 78.470815 59.257981 78.470818 59.257980 curveto
78.535919 59.257981 78.566843 59.311692 78.563591 59.419113 curveto
fill
0.0000000 0.0000000 0.0000000 setrgbcolor
newpath
14.087254 42.608887 moveto
11.846043 42.608887 lineto
11.826511 42.569824 lineto
11.855808 42.418457 lineto
12.086928 42.418457 12.251315 42.385905 12.348972 42.320801 curveto
12.469414 42.239421 12.529635 42.083171 12.529636 41.852051 curveto
12.529636 38.937012 lineto
12.529635 38.699385 12.412448 38.580570 12.178074 38.580566 curveto
12.090183 38.580570 11.987644 38.595219 11.870457 38.624512 curveto
11.748386 38.429199 lineto
12.366875 38.256678 12.830742 38.072758 13.139988 37.877441 curveto
13.320652 38.009277 lineto
13.320652 41.866699 lineto
13.320650 42.185710 13.569674 42.359864 14.067722 42.389160 curveto
14.087254 42.608887 lineto
13.379246 36.358887 moveto
13.379244 36.498867 13.330416 36.619309 13.232761 36.720215 curveto
13.135104 36.817877 13.016289 36.866705 12.876316 36.866699 curveto
12.736341 36.866705 12.617526 36.817877 12.519871 36.720215 curveto
12.422214 36.619309 12.373386 36.498867 12.373386 36.358887 curveto
12.373386 36.218919 12.422214 36.100104 12.519871 36.002441 curveto
12.617526 35.904792 12.736341 35.855964 12.876316 35.855957 curveto
13.016289 35.855964 13.135104 35.904792 13.232761 36.002441 curveto
13.330416 36.100104 13.379244 36.218919 13.379246 36.358887 curveto
fill
0.0000000 0.0000000 0.0000000 setrgbcolor
newpath
22.485691 42.608887 moveto
20.322605 42.608887 lineto
20.322605 42.389160 lineto
20.765307 42.389160 20.986661 42.169434 20.986668 41.729980 curveto
20.986668 39.508301 lineto
20.986661 39.231611 20.919929 38.989099 20.786472 38.780762 curveto
20.630216 38.539880 20.420255 38.419438 20.156590 38.419434 curveto
19.752938 38.419438 19.272796 38.622888 18.716160 39.029785 curveto
18.716160 41.969238 lineto
18.716155 42.236166 18.976572 42.369629 19.497410 42.369629 curveto
19.521824 42.608887 lineto
17.363621 42.608887 lineto
17.363621 42.389160 lineto
17.803070 42.389160 18.022797 42.169434 18.022800 41.729980 curveto
18.022800 39.508301 lineto
18.022797 39.228356 17.965831 38.987471 17.851902 38.785645 curveto
17.711925 38.541508 17.511730 38.419438 17.251316 38.419434 curveto
16.841157 38.419438 16.338228 38.639164 15.742527 39.078613 curveto
15.742527 41.866699 lineto
15.742526 42.185710 15.988294 42.359864 16.479832 42.389160 curveto
16.450535 42.608887 lineto
14.385105 42.608887 lineto
14.365574 42.569824 lineto
14.394871 42.418457 lineto
14.596693 42.418457 14.759454 42.335449 14.883152 42.169434 curveto
14.997084 42.016439 15.054050 41.835776 15.054050 41.627441 curveto
15.054050 38.937012 lineto
15.054050 38.819828 14.953138 38.727055 14.751316 38.658691 curveto
14.725274 38.648930 14.572279 38.613122 14.292332 38.551270 curveto
14.292332 38.429199 lineto
14.324884 38.393396 14.365574 38.367355 14.414402 38.351074 curveto
14.671563 38.263188 15.055677 38.105310 15.566746 37.877441 curveto
15.742527 38.009277 lineto
15.742527 38.888184 lineto
16.683280 38.282719 17.332693 37.979985 17.690769 37.979980 curveto
17.908865 37.979985 18.112315 38.080896 18.301121 38.282715 curveto
18.460622 38.455245 18.576182 38.657068 18.647800 38.888184 curveto
19.588550 38.282719 20.237964 37.979985 20.596043 37.979980 curveto
20.944343 37.979985 21.222663 38.141118 21.431004 38.463379 curveto
21.613288 38.743331 21.704434 39.065596 21.704441 39.430176 curveto
21.704441 41.969238 lineto
21.704434 42.236166 21.955084 42.369629 22.456394 42.369629 curveto
22.485691 42.608887 lineto
fill
0.0000000 0.0000000 0.0000000 setrgbcolor
newpath
27.163425 42.120605 moveto
26.837900 42.358236 26.671885 42.480306 26.665379 42.486816 curveto
26.453786 42.617025 26.258474 42.682129 26.079441 42.682129 curveto
25.799490 42.682129 25.607433 42.468913 25.503269 42.042480 curveto
25.109387 42.328939 24.891288 42.483561 24.848972 42.506348 curveto
24.634127 42.626790 24.386731 42.687012 24.106785 42.687012 curveto
23.830091 42.687012 23.595716 42.592611 23.403660 42.403809 curveto
23.214857 42.211752 23.120456 41.979005 23.120457 41.705566 curveto
23.120456 41.363771 23.255547 41.083823 23.525730 40.865723 curveto
23.685234 40.738771 23.970065 40.590660 24.380222 40.421387 curveto
25.483738 39.967285 lineto
25.483738 39.239746 lineto
25.483735 38.982588 25.390962 38.766117 25.205418 38.590332 curveto
25.023124 38.414555 24.801770 38.326664 24.541355 38.326660 curveto
24.127942 38.326664 23.921237 38.546391 23.921238 38.985840 curveto
23.921237 39.015140 23.927747 39.054203 23.940769 39.103027 curveto
23.953789 39.151859 23.960299 39.189294 23.960300 39.215332 curveto
23.960299 39.335778 23.869153 39.443200 23.686863 39.537598 curveto
23.527357 39.622236 23.380873 39.664554 23.247410 39.664551 curveto
23.192071 39.664554 23.164402 39.618981 23.164402 39.527832 curveto
23.164402 39.094893 23.346693 38.740075 23.711277 38.463379 curveto
24.043307 38.209477 24.433932 38.082524 24.883152 38.082520 curveto
25.332368 38.082524 25.661144 38.165532 25.869480 38.331543 curveto
26.100597 38.513839 26.216156 38.823083 26.216160 39.259277 curveto
26.216160 41.773926 lineto
26.216156 42.053874 26.312185 42.193848 26.504246 42.193848 curveto
26.624685 42.193848 26.841156 42.102702 27.153660 41.920410 curveto
27.163425 42.120605 lineto
25.488621 41.715332 moveto
25.483738 40.250488 lineto
24.492527 40.685059 lineto
24.046562 40.880373 23.823581 41.194500 23.823582 41.627441 curveto
23.823581 41.812989 23.883802 41.961101 24.004246 42.071777 curveto
24.124687 42.182455 24.277682 42.237793 24.463230 42.237793 curveto
24.655285 42.237793 24.840832 42.184082 25.019871 42.076660 curveto
25.097993 42.027833 25.254243 41.907390 25.488621 41.715332 curveto
fill
0.0000000 0.0000000 0.0000000 setrgbcolor
newpath
31.894871 38.932129 moveto
30.713230 38.805176 lineto
30.892263 39.075362 30.981781 39.379723 30.981785 39.718262 curveto
30.981781 40.157717 30.771820 40.509279 30.351902 40.772949 curveto
29.993826 40.997560 29.580415 41.109865 29.111668 41.109863 curveto
28.903333 41.109865 28.683606 41.087078 28.452488 41.041504 curveto
28.016289 41.272625 27.798190 41.479331 27.798191 41.661621 curveto
27.798190 41.869955 28.148125 41.996908 28.847996 42.042480 curveto
29.857108 42.110840 30.506521 42.185710 30.796238 42.267090 curveto
31.496103 42.462402 31.846038 42.848144 31.846043 43.424316 curveto
31.846038 43.922362 31.491221 44.337401 30.781590 44.669434 curveto
30.195649 44.946124 29.619478 45.084470 29.053074 45.084473 curveto
28.613619 45.084470 28.226250 45.027504 27.890965 44.913574 curveto
27.412449 44.747556 27.173191 44.490395 27.173191 44.142090 curveto
27.173191 43.650552 27.528008 43.150878 28.237644 42.643066 curveto
28.224622 42.613770 28.126966 42.574707 27.944675 42.525879 curveto
27.726576 42.470541 27.567071 42.408692 27.466160 42.340332 curveto
27.296889 42.226400 27.212253 42.071778 27.212254 41.876465 curveto
27.212253 41.677898 27.274102 41.526531 27.397800 41.422363 curveto
27.466159 41.363771 27.606133 41.295411 27.817722 41.217285 curveto
28.016289 41.142417 28.159518 41.064292 28.247410 40.982910 curveto
27.599623 40.771323 27.275730 40.330243 27.275730 39.659668 curveto
27.275730 39.190921 27.454766 38.797042 27.812840 38.478027 curveto
28.157891 38.172042 28.568046 38.019048 29.043308 38.019043 curveto
29.609712 38.019048 30.055675 38.168787 30.381199 38.468262 curveto
31.865574 38.370605 lineto
31.868824 38.481287 31.878590 38.668461 31.894871 38.932129 curveto
30.249363 39.698730 moveto
30.249360 39.343916 30.138683 39.024906 29.917332 38.741699 curveto
29.676444 38.435714 29.383475 38.282719 29.038425 38.282715 curveto
28.686861 38.282719 28.418307 38.442224 28.232761 38.761230 curveto
28.079766 39.024906 28.003268 39.345544 28.003269 39.723145 curveto
28.003268 40.475100 28.379245 40.851076 29.131199 40.851074 curveto
29.876639 40.851076 30.249360 40.466962 30.249363 39.698730 curveto
31.186863 43.526855 moveto
31.186859 43.188313 30.963877 42.952311 30.517918 42.818848 curveto
30.283539 42.750488 29.922212 42.704915 29.433933 42.682129 curveto
29.219087 42.662598 28.895195 42.643066 28.462254 42.623535 curveto
28.003268 42.988118 27.773776 43.430826 27.773777 43.951660 curveto
27.773776 44.436684 28.336927 44.679197 29.463230 44.679199 curveto
29.801769 44.679197 30.161469 44.571775 30.542332 44.356934 curveto
30.972015 44.112791 31.186859 43.836099 31.186863 43.526855 curveto
fill
0.0000000 0.0000000 0.0000000 setrgbcolor
newpath
36.240574 41.407715 moveto
35.836924 42.267090 35.197277 42.696777 34.321629 42.696777 curveto
33.758476 42.696777 33.283216 42.451009 32.895847 41.959473 curveto
32.534519 41.500489 32.353855 40.982912 32.353855 40.406738 curveto
32.353855 39.752444 32.539402 39.202315 32.910496 38.756348 curveto
33.307630 38.281092 33.826835 38.043462 34.468113 38.043457 curveto
34.979178 38.043462 35.392589 38.198084 35.708347 38.507324 curveto
36.027354 38.816573 36.186859 39.228356 36.186863 39.742676 curveto
33.032566 39.742676 lineto
33.016289 39.879397 33.008151 40.019371 33.008152 40.162598 curveto
33.008151 40.647626 33.156263 41.093589 33.452488 41.500488 curveto
33.778007 41.952963 34.175142 42.179200 34.643894 42.179199 curveto
35.255870 42.179200 35.721365 41.904135 36.040379 41.354004 curveto
36.079441 41.354004 lineto
36.151052 41.350750 36.204763 41.368654 36.240574 41.407715 curveto
35.439793 39.464355 moveto
35.426769 39.132328 35.311209 38.862146 35.093113 38.653809 curveto
34.875011 38.442224 34.598319 38.336430 34.263035 38.336426 curveto
33.986340 38.336430 33.740572 38.458500 33.525730 38.702637 curveto
33.336927 38.917484 33.208346 39.171390 33.139988 39.464355 curveto
35.439793 39.464355 lineto
fill
grestore
showpage
