%!PS-Adobe-2.0 EPSF-2.0
%%Title: Ondestationnaire.fig
%%Creator: fig2dev Version 3.2 Patchlevel 5-alpha5
%%CreationDate: Wed Aug 10 20:10:22 2005
%%For: guyotv@debian ()
%%BoundingBox: 0 0 149 124
%Magnification: 1.0000
%%EndComments
/$F2psDict 200 dict def
$F2psDict begin
$F2psDict /mtrx matrix put
/col-1 {0 setgray} bind def
/col0 {0.000 0.000 0.000 srgb} bind def
/col1 {0.000 0.000 1.000 srgb} bind def
/col2 {0.000 1.000 0.000 srgb} bind def
/col3 {0.000 1.000 1.000 srgb} bind def
/col4 {1.000 0.000 0.000 srgb} bind def
/col5 {1.000 0.000 1.000 srgb} bind def
/col6 {1.000 1.000 0.000 srgb} bind def
/col7 {1.000 1.000 1.000 srgb} bind def
/col8 {0.000 0.000 0.560 srgb} bind def
/col9 {0.000 0.000 0.690 srgb} bind def
/col10 {0.000 0.000 0.820 srgb} bind def
/col11 {0.530 0.810 1.000 srgb} bind def
/col12 {0.000 0.560 0.000 srgb} bind def
/col13 {0.000 0.690 0.000 srgb} bind def
/col14 {0.000 0.820 0.000 srgb} bind def
/col15 {0.000 0.560 0.560 srgb} bind def
/col16 {0.000 0.690 0.690 srgb} bind def
/col17 {0.000 0.820 0.820 srgb} bind def
/col18 {0.560 0.000 0.000 srgb} bind def
/col19 {0.690 0.000 0.000 srgb} bind def
/col20 {0.820 0.000 0.000 srgb} bind def
/col21 {0.560 0.000 0.560 srgb} bind def
/col22 {0.690 0.000 0.690 srgb} bind def
/col23 {0.820 0.000 0.820 srgb} bind def
/col24 {0.500 0.190 0.000 srgb} bind def
/col25 {0.630 0.250 0.000 srgb} bind def
/col26 {0.750 0.380 0.000 srgb} bind def
/col27 {1.000 0.500 0.500 srgb} bind def
/col28 {1.000 0.630 0.630 srgb} bind def
/col29 {1.000 0.750 0.750 srgb} bind def
/col30 {1.000 0.880 0.880 srgb} bind def
/col31 {1.000 0.840 0.000 srgb} bind def

end
save
newpath 0 124 moveto 0 0 lineto 149 0 lineto 149 124 lineto closepath clip newpath
-2.1 128.5 translate
1 -1 scale

/cp {closepath} bind def
/ef {eofill} bind def
/gr {grestore} bind def
/gs {gsave} bind def
/sa {save} bind def
/rs {restore} bind def
/l {lineto} bind def
/m {moveto} bind def
/rm {rmoveto} bind def
/n {newpath} bind def
/s {stroke} bind def
/sh {show} bind def
/slc {setlinecap} bind def
/slj {setlinejoin} bind def
/slw {setlinewidth} bind def
/srgb {setrgbcolor} bind def
/rot {rotate} bind def
/sc {scale} bind def
/sd {setdash} bind def
/ff {findfont} bind def
/sf {setfont} bind def
/scf {scalefont} bind def
/sw {stringwidth} bind def
/tr {translate} bind def
/tnt {dup dup currentrgbcolor
  4 -2 roll dup 1 exch sub 3 -1 roll mul add
  4 -2 roll dup 1 exch sub 3 -1 roll mul add
  4 -2 roll dup 1 exch sub 3 -1 roll mul add srgb}
  bind def
/shd {dup dup currentrgbcolor 4 -2 roll mul 4 -2 roll mul
  4 -2 roll mul srgb} bind def
/$F2psBegin {$F2psDict begin /$F2psEnteredState save def} def
/$F2psEnd {$F2psEnteredState restore end} def

$F2psBegin
10 setmiterlimit
0 slj 0 slc
 0.06299 0.06299 sc
%
% Fig objects follow
%
% 
% here starts figure with depth 50
% Polyline
0 slj
0 slc
7.500 slw
n 45 855 m
 2385 855 l gs col0 s gr 
% Polyline
gs  clippath
490 1636 m 396 1600 l 385 1628 l 480 1664 l 480 1664 l 433 1631 l 490 1636 l cp
eoclip
n 765 1755 m
 405 1620 l gs col0 s gr gr

% arrowhead
n 490 1636 m 433 1631 l 480 1664 l 475 1646 l 490 1636 l 
 cp gs 0.00 setgray ef gr  col0 s
% Polyline
gs  clippath
1049 1664 m 1144 1628 l 1133 1600 l 1039 1636 l 1039 1636 l 1097 1631 l 1049 1664 l cp
eoclip
n 765 1755 m
 1125 1620 l gs col0 s gr gr

% arrowhead
n 1049 1664 m 1097 1631 l 1039 1636 l 1054 1646 l 1049 1664 l 
 cp gs 0.00 setgray ef gr  col0 s
% Polyline
gs  clippath
1455 1121 m 1455 1020 l 1425 1020 l 1425 1121 l 1425 1121 l 1440 1065 l 1455 1121 l cp
eoclip
n 1665 1755 m 1440 1620 l
 1440 1035 l gs col0 s gr gr

% arrowhead
n 1455 1121 m 1440 1065 l 1425 1121 l 1440 1110 l 1455 1121 l 
 cp gs 0.00 setgray ef gr  col0 s
% Polyline
gs  clippath
1905 1121 m 1905 1020 l 1875 1020 l 1875 1121 l 1875 1121 l 1890 1065 l 1905 1121 l cp
eoclip
n 1665 1755 m 1890 1620 l
 1890 1035 l gs col0 s gr gr

% arrowhead
n 1905 1121 m 1890 1065 l 1875 1121 l 1890 1110 l 1905 1121 l 
 cp gs 0.00 setgray ef gr  col0 s
% Polyline
gs  clippath
780 1678 m 780 1605 l 750 1605 l 750 1678 l 750 1678 l 765 1641 l 780 1678 l cp
eoclip
n 765 1755 m
 765 1620 l gs col0 s gr gr

% arrowhead
n 780 1678 m 765 1641 l 750 1678 l 765 1671 l 780 1678 l 
 cp gs 0.00 setgray ef gr  col0 s
% Polyline
2 slj
n 90 855 m 90 853 l 91 848 l 92 840 l 94 827 l 97 810 l
 100 787 l 105 759 l 110 727 l 116 690 l 123 651 l
 130 609 l 138 565 l 146 520 l 155 476 l 164 431 l
 174 388 l 184 346 l 194 305 l 205 267 l 216 231 l
 228 198 l 241 169 l 254 143 l 268 121 l 283 104 l
 299 94 l 315 90 l 331 94 l 347 104 l 362 121 l
 376 143 l 389 169 l 402 198 l 414 231 l 425 267 l
 436 305 l 446 346 l 456 388 l 466 431 l 475 476 l
 484 520 l 492 565 l 500 609 l 507 651 l 514 690 l
 520 727 l 525 759 l 530 787 l 533 810 l 536 827 l
 538 840 l 539 848 l 540 853 l
 540 855 l gs col0 s gr 
% Polyline
n 540 855 m 540 853 l 541 848 l 542 840 l 544 827 l 547 810 l
 550 787 l 555 759 l 560 727 l 566 690 l 573 651 l
 580 609 l 588 565 l 596 520 l 605 476 l 614 431 l
 624 388 l 634 346 l 644 305 l 655 267 l 666 231 l
 678 198 l 691 169 l 704 143 l 718 121 l 733 104 l
 749 94 l 765 90 l 781 94 l 797 104 l 812 121 l
 826 143 l 839 169 l 852 198 l 864 231 l 875 267 l
 886 305 l 896 346 l 906 388 l 916 431 l 925 476 l
 934 520 l 942 565 l 950 609 l 957 651 l 964 690 l
 970 727 l 975 759 l 980 787 l 983 810 l 986 827 l
 988 840 l 989 848 l 990 853 l
 990 855 l gs col0 s gr 
% Polyline
n 990 855 m 990 853 l 991 848 l 992 840 l 994 827 l 997 810 l
 1000 787 l 1005 759 l 1010 727 l 1016 690 l 1023 651 l
 1030 609 l 1038 565 l 1046 520 l 1055 476 l 1064 431 l
 1074 388 l 1084 346 l 1094 305 l 1105 267 l 1116 231 l
 1128 198 l 1141 169 l 1154 143 l 1168 121 l 1183 104 l
 1199 94 l 1215 90 l 1231 94 l 1247 104 l 1262 121 l
 1276 143 l 1289 169 l 1302 198 l 1314 231 l 1325 267 l
 1336 305 l 1346 346 l 1356 388 l 1366 431 l 1375 476 l
 1384 520 l 1392 565 l 1400 609 l 1407 651 l 1414 690 l
 1420 727 l 1425 759 l 1430 787 l 1433 810 l 1436 827 l
 1438 840 l 1439 848 l 1440 853 l
 1440 855 l gs col0 s gr 
% Polyline
n 1440 855 m 1440 853 l 1441 848 l 1442 840 l 1444 827 l 1447 810 l
 1450 787 l 1455 759 l 1460 727 l 1466 690 l 1473 651 l
 1480 609 l 1488 565 l 1496 520 l 1505 476 l 1514 431 l
 1524 388 l 1534 346 l 1544 305 l 1555 267 l 1566 231 l
 1578 198 l 1591 169 l 1604 143 l 1618 121 l 1633 104 l
 1649 94 l 1665 90 l 1681 94 l 1697 104 l 1712 121 l
 1726 143 l 1739 169 l 1752 198 l 1764 231 l 1775 267 l
 1786 305 l 1796 346 l 1806 388 l 1816 431 l 1825 476 l
 1834 520 l 1842 565 l 1850 609 l 1857 651 l 1864 690 l
 1870 727 l 1875 759 l 1880 787 l 1883 810 l 1886 827 l
 1888 840 l 1889 848 l 1890 853 l
 1890 855 l gs col0 s gr 
% Polyline
n 1890 855 m 1890 853 l 1891 848 l 1892 840 l 1894 827 l 1897 810 l
 1900 787 l 1905 759 l 1910 727 l 1916 690 l 1923 651 l
 1930 609 l 1938 565 l 1946 520 l 1955 476 l 1964 431 l
 1974 388 l 1984 346 l 1994 305 l 2005 267 l 2016 231 l
 2028 198 l 2041 169 l 2054 143 l 2068 121 l 2083 104 l
 2099 94 l 2115 90 l 2131 94 l 2147 104 l 2162 121 l
 2176 143 l 2189 169 l 2202 198 l 2214 231 l 2225 267 l
 2236 305 l 2246 346 l 2256 388 l 2266 431 l 2275 476 l
 2284 520 l 2292 565 l 2300 609 l 2307 651 l 2314 690 l
 2320 727 l 2325 759 l 2330 787 l 2333 810 l 2336 827 l
 2338 840 l 2339 848 l 2340 853 l
 2340 855 l gs col0 s gr 
% Polyline
n 90 855 m 90 857 l 91 862 l 92 870 l 94 883 l 97 900 l
 100 923 l 105 951 l 110 983 l 116 1020 l 123 1059 l
 130 1101 l 138 1145 l 146 1190 l 155 1234 l 164 1279 l
 174 1322 l 184 1364 l 194 1405 l 205 1443 l 216 1479 l
 228 1512 l 241 1541 l 254 1567 l 268 1589 l 283 1606 l
 299 1616 l 315 1620 l 331 1616 l 347 1606 l 362 1589 l
 376 1567 l 389 1541 l 402 1512 l 414 1479 l 425 1443 l
 436 1405 l 446 1364 l 456 1322 l 466 1279 l 475 1234 l
 484 1190 l 492 1145 l 500 1101 l 507 1059 l 514 1020 l
 520 983 l 525 951 l 530 923 l 533 900 l 536 883 l
 538 870 l 539 862 l 540 857 l
 540 855 l gs col0 s gr 
% Polyline
n 540 855 m 540 857 l 541 862 l 542 870 l 544 883 l 547 900 l
 550 923 l 555 951 l 560 983 l 566 1020 l 573 1059 l
 580 1101 l 588 1145 l 596 1190 l 605 1234 l 614 1279 l
 624 1322 l 634 1364 l 644 1405 l 655 1443 l 666 1479 l
 678 1512 l 691 1541 l 704 1567 l 718 1589 l 733 1606 l
 749 1616 l 765 1620 l 781 1616 l 797 1606 l 812 1589 l
 826 1567 l 839 1541 l 852 1512 l 864 1479 l 875 1443 l
 886 1405 l 896 1364 l 906 1322 l 916 1279 l 925 1234 l
 934 1190 l 942 1145 l 950 1101 l 957 1059 l 964 1020 l
 970 983 l 975 951 l 980 923 l 983 900 l 986 883 l
 988 870 l 989 862 l 990 857 l
 990 855 l gs col0 s gr 
% Polyline
n 990 855 m 990 857 l 991 862 l 992 870 l 994 883 l 997 900 l
 1000 923 l 1005 951 l 1010 983 l 1016 1020 l 1023 1059 l
 1030 1101 l 1038 1145 l 1046 1190 l 1055 1234 l 1064 1279 l
 1074 1322 l 1084 1364 l 1094 1405 l 1105 1443 l 1116 1479 l
 1128 1512 l 1141 1541 l 1154 1567 l 1168 1589 l 1183 1606 l
 1199 1616 l 1215 1620 l 1231 1616 l 1247 1606 l 1262 1589 l
 1276 1567 l 1289 1541 l 1302 1512 l 1314 1479 l 1325 1443 l
 1336 1405 l 1346 1364 l 1356 1322 l 1366 1279 l 1375 1234 l
 1384 1190 l 1392 1145 l 1400 1101 l 1407 1059 l 1414 1020 l
 1420 983 l 1425 951 l 1430 923 l 1433 900 l 1436 883 l
 1438 870 l 1439 862 l 1440 857 l
 1440 855 l gs col0 s gr 
% Polyline
n 1440 855 m 1440 857 l 1441 862 l 1442 870 l 1444 883 l 1447 900 l
 1450 923 l 1455 951 l 1460 983 l 1466 1020 l 1473 1059 l
 1480 1101 l 1488 1145 l 1496 1190 l 1505 1234 l 1514 1279 l
 1524 1322 l 1534 1364 l 1544 1405 l 1555 1443 l 1566 1479 l
 1578 1512 l 1591 1541 l 1604 1567 l 1618 1589 l 1633 1606 l
 1649 1616 l 1665 1620 l 1681 1616 l 1697 1606 l 1712 1589 l
 1726 1567 l 1739 1541 l 1752 1512 l 1764 1479 l 1775 1443 l
 1786 1405 l 1796 1364 l 1806 1322 l 1816 1279 l 1825 1234 l
 1834 1190 l 1842 1145 l 1850 1101 l 1857 1059 l 1864 1020 l
 1870 983 l 1875 951 l 1880 923 l 1883 900 l 1886 883 l
 1888 870 l 1889 862 l 1890 857 l
 1890 855 l gs col0 s gr 
% Polyline
n 1890 855 m 1890 857 l 1891 862 l 1892 870 l 1894 883 l 1897 900 l
 1900 923 l 1905 951 l 1910 983 l 1916 1020 l 1923 1059 l
 1930 1101 l 1938 1145 l 1946 1190 l 1955 1234 l 1964 1279 l
 1974 1322 l 1984 1364 l 1994 1405 l 2005 1443 l 2016 1479 l
 2028 1512 l 2041 1541 l 2054 1567 l 2068 1589 l 2083 1606 l
 2099 1616 l 2115 1620 l 2131 1616 l 2147 1606 l 2162 1589 l
 2176 1567 l 2189 1541 l 2202 1512 l 2214 1479 l 2225 1443 l
 2236 1405 l 2246 1364 l 2256 1322 l 2266 1279 l 2275 1234 l
 2284 1190 l 2292 1145 l 2300 1101 l 2307 1059 l 2314 1020 l
 2320 983 l 2325 951 l 2330 923 l 2333 900 l 2336 883 l
 2338 870 l 2339 862 l 2340 857 l
 2340 855 l gs col0 s gr 
% Polyline
n 90 855 m 90 853 l 92 847 l 93 838 l 96 823 l 100 803 l
 106 778 l 112 748 l 119 714 l 128 678 l 137 639 l
 146 599 l 156 559 l 167 520 l 179 481 l 190 445 l
 203 410 l 216 378 l 230 349 l 245 323 l 261 302 l
 278 285 l 296 274 l 315 270 l 334 274 l 352 285 l
 369 302 l 385 323 l 400 349 l 414 378 l 427 410 l
 440 445 l 451 481 l 463 520 l 474 559 l 484 599 l
 493 639 l 502 678 l 511 714 l 518 748 l 524 778 l
 530 803 l 534 823 l 537 838 l 538 847 l 540 853 l

 540 855 l gs col0 s gr 
% Polyline
n 540 855 m 540 853 l 542 847 l 543 838 l 546 823 l 550 803 l
 556 778 l 562 748 l 569 714 l 578 678 l 587 639 l
 596 599 l 606 559 l 617 520 l 629 481 l 640 445 l
 653 410 l 666 378 l 680 349 l 695 323 l 711 302 l
 728 285 l 746 274 l 765 270 l 784 274 l 802 285 l
 819 302 l 835 323 l 850 349 l 864 378 l 877 410 l
 890 445 l 901 481 l 913 520 l 924 559 l 934 599 l
 943 639 l 952 678 l 961 714 l 968 748 l 974 778 l
 980 803 l 984 823 l 987 838 l 988 847 l 990 853 l

 990 855 l gs col0 s gr 
% Polyline
n 990 855 m 990 853 l 992 847 l 993 838 l 996 823 l 1000 803 l
 1006 778 l 1012 748 l 1019 714 l 1028 678 l 1037 639 l
 1046 599 l 1056 559 l 1067 520 l 1079 481 l 1090 445 l
 1103 410 l 1116 378 l 1130 349 l 1145 323 l 1161 302 l
 1178 285 l 1196 274 l 1215 270 l 1234 274 l 1252 285 l
 1269 302 l 1285 323 l 1300 349 l 1314 378 l 1327 410 l
 1340 445 l 1351 481 l 1363 520 l 1374 559 l 1384 599 l
 1393 639 l 1402 678 l 1411 714 l 1418 748 l 1424 778 l
 1430 803 l 1434 823 l 1437 838 l 1438 847 l 1440 853 l

 1440 855 l gs col0 s gr 
% Polyline
n 1440 855 m 1440 853 l 1442 847 l 1443 838 l 1446 823 l 1450 803 l
 1456 778 l 1462 748 l 1469 714 l 1478 678 l 1487 639 l
 1496 599 l 1506 559 l 1517 520 l 1529 481 l 1540 445 l
 1553 410 l 1566 378 l 1580 349 l 1595 323 l 1611 302 l
 1628 285 l 1646 274 l 1665 270 l 1684 274 l 1702 285 l
 1719 302 l 1735 323 l 1750 349 l 1764 378 l 1777 410 l
 1790 445 l 1801 481 l 1813 520 l 1824 559 l 1834 599 l
 1843 639 l 1852 678 l 1861 714 l 1868 748 l 1874 778 l
 1880 803 l 1884 823 l 1887 838 l 1888 847 l 1890 853 l

 1890 855 l gs col0 s gr 
% Polyline
n 1890 855 m 1890 853 l 1892 847 l 1893 838 l 1896 823 l 1900 803 l
 1906 778 l 1912 748 l 1919 714 l 1928 678 l 1937 639 l
 1946 599 l 1956 559 l 1967 520 l 1979 481 l 1990 445 l
 2003 410 l 2016 378 l 2030 349 l 2045 323 l 2061 302 l
 2078 285 l 2096 274 l 2115 270 l 2134 274 l 2152 285 l
 2169 302 l 2185 323 l 2200 349 l 2214 378 l 2227 410 l
 2240 445 l 2251 481 l 2263 520 l 2274 559 l 2284 599 l
 2293 639 l 2302 678 l 2311 714 l 2318 748 l 2324 778 l
 2330 803 l 2334 823 l 2337 838 l 2338 847 l 2340 853 l

 2340 855 l gs col0 s gr 
% Polyline
n 90 855 m 90 857 l 92 863 l 93 872 l 96 887 l 100 907 l
 106 932 l 112 962 l 119 996 l 128 1032 l 137 1071 l
 146 1111 l 156 1151 l 167 1190 l 179 1229 l 190 1265 l
 203 1300 l 216 1332 l 230 1361 l 245 1387 l 261 1408 l
 278 1425 l 296 1436 l 315 1440 l 334 1436 l 352 1425 l
 369 1408 l 385 1387 l 400 1361 l 414 1332 l 427 1300 l
 440 1265 l 451 1229 l 463 1190 l 474 1151 l 484 1111 l
 493 1071 l 502 1032 l 511 996 l 518 962 l 524 932 l
 530 907 l 534 887 l 537 872 l 538 863 l 540 857 l

 540 855 l gs col0 s gr 
% Polyline
n 540 855 m 540 857 l 542 863 l 543 872 l 546 887 l 550 907 l
 556 932 l 562 962 l 569 996 l 578 1032 l 587 1071 l
 596 1111 l 606 1151 l 617 1190 l 629 1229 l 640 1265 l
 653 1300 l 666 1332 l 680 1361 l 695 1387 l 711 1408 l
 728 1425 l 746 1436 l 765 1440 l 784 1436 l 802 1425 l
 819 1408 l 835 1387 l 850 1361 l 864 1332 l 877 1300 l
 890 1265 l 901 1229 l 913 1190 l 924 1151 l 934 1111 l
 943 1071 l 952 1032 l 961 996 l 968 962 l 974 932 l
 980 907 l 984 887 l 987 872 l 988 863 l 990 857 l

 990 855 l gs col0 s gr 
% Polyline
n 990 855 m 990 857 l 992 863 l 993 872 l 996 887 l 1000 907 l
 1006 932 l 1012 962 l 1019 996 l 1028 1032 l 1037 1071 l
 1046 1111 l 1056 1151 l 1067 1190 l 1079 1229 l 1090 1265 l
 1103 1300 l 1116 1332 l 1130 1361 l 1145 1387 l 1161 1408 l
 1178 1425 l 1196 1436 l 1215 1440 l 1234 1436 l 1252 1425 l
 1269 1408 l 1285 1387 l 1300 1361 l 1314 1332 l 1327 1300 l
 1340 1265 l 1351 1229 l 1363 1190 l 1374 1151 l 1384 1111 l
 1393 1071 l 1402 1032 l 1411 996 l 1418 962 l 1424 932 l
 1430 907 l 1434 887 l 1437 872 l 1438 863 l 1440 857 l

 1440 855 l gs col0 s gr 
% Polyline
n 1440 855 m 1440 857 l 1442 863 l 1443 872 l 1446 887 l 1450 907 l
 1456 932 l 1462 962 l 1469 996 l 1478 1032 l 1487 1071 l
 1496 1111 l 1506 1151 l 1517 1190 l 1529 1229 l 1540 1265 l
 1553 1300 l 1566 1332 l 1580 1361 l 1595 1387 l 1611 1408 l
 1628 1425 l 1646 1436 l 1665 1440 l 1684 1436 l 1702 1425 l
 1719 1408 l 1735 1387 l 1750 1361 l 1764 1332 l 1777 1300 l
 1790 1265 l 1801 1229 l 1813 1190 l 1824 1151 l 1834 1111 l
 1843 1071 l 1852 1032 l 1861 996 l 1868 962 l 1874 932 l
 1880 907 l 1884 887 l 1887 872 l 1888 863 l 1890 857 l

 1890 855 l gs col0 s gr 
% Polyline
n 1890 855 m 1890 857 l 1892 863 l 1893 872 l 1896 887 l 1900 907 l
 1906 932 l 1912 962 l 1919 996 l 1928 1032 l 1937 1071 l
 1946 1111 l 1956 1151 l 1967 1190 l 1979 1229 l 1990 1265 l
 2003 1300 l 2016 1332 l 2030 1361 l 2045 1387 l 2061 1408 l
 2078 1425 l 2096 1436 l 2115 1440 l 2134 1436 l 2152 1425 l
 2169 1408 l 2185 1387 l 2200 1361 l 2214 1332 l 2227 1300 l
 2240 1265 l 2251 1229 l 2263 1190 l 2274 1151 l 2284 1111 l
 2293 1071 l 2302 1032 l 2311 996 l 2318 962 l 2324 932 l
 2330 907 l 2334 887 l 2337 872 l 2338 863 l 2340 857 l

 2340 855 l gs col0 s gr 
% Polyline
n 90 855 m 91 852 l 93 847 l 96 837 l 100 823 l 107 804 l
 115 781 l 124 755 l 135 727 l 146 697 l 159 668 l
 172 639 l 186 611 l 200 585 l 216 562 l 233 540 l
 251 522 l 271 508 l 293 498 l 315 495 l 337 498 l
 359 508 l 379 522 l 397 540 l 414 562 l 430 585 l
 444 611 l 458 639 l 471 668 l 484 698 l 495 727 l
 506 755 l 515 781 l 523 804 l 530 823 l 534 837 l
 537 847 l 539 852 l
 540 855 l gs col0 s gr 
% Polyline
n 540 855 m 541 852 l 543 847 l 546 837 l 550 823 l 557 804 l
 565 781 l 574 755 l 585 727 l 596 697 l 609 668 l
 622 639 l 636 611 l 650 585 l 666 562 l 683 540 l
 701 522 l 721 508 l 743 498 l 765 495 l 787 498 l
 809 508 l 829 522 l 847 540 l 864 562 l 880 585 l
 894 611 l 908 639 l 921 668 l 934 698 l 945 727 l
 956 755 l 965 781 l 973 804 l 980 823 l 984 837 l
 987 847 l 989 852 l
 990 855 l gs col0 s gr 
% Polyline
n 990 855 m 991 852 l 993 847 l 996 837 l 1000 823 l 1007 804 l
 1015 781 l 1024 755 l 1035 727 l 1046 697 l 1059 668 l
 1072 639 l 1086 611 l 1100 585 l 1116 562 l 1133 540 l
 1151 522 l 1171 508 l 1193 498 l 1215 495 l 1237 498 l
 1259 508 l 1279 522 l 1297 540 l 1314 562 l 1330 585 l
 1344 611 l 1358 639 l 1371 668 l 1384 698 l 1395 727 l
 1406 755 l 1415 781 l 1423 804 l 1430 823 l 1434 837 l
 1437 847 l 1439 852 l
 1440 855 l gs col0 s gr 
% Polyline
n 1440 855 m 1441 852 l 1443 847 l 1446 837 l 1450 823 l 1457 804 l
 1465 781 l 1474 755 l 1485 727 l 1496 697 l 1509 668 l
 1522 639 l 1536 611 l 1550 585 l 1566 562 l 1583 540 l
 1601 522 l 1621 508 l 1643 498 l 1665 495 l 1687 498 l
 1709 508 l 1729 522 l 1747 540 l 1764 562 l 1780 585 l
 1794 611 l 1808 639 l 1821 668 l 1834 698 l 1845 727 l
 1856 755 l 1865 781 l 1873 804 l 1880 823 l 1884 837 l
 1887 847 l 1889 852 l
 1890 855 l gs col0 s gr 
% Polyline
n 1890 855 m 1891 852 l 1893 847 l 1896 837 l 1900 823 l 1907 804 l
 1915 781 l 1924 755 l 1935 727 l 1946 697 l 1959 668 l
 1972 639 l 1986 611 l 2000 585 l 2016 562 l 2033 540 l
 2051 522 l 2071 508 l 2093 498 l 2115 495 l 2137 498 l
 2159 508 l 2179 522 l 2197 540 l 2214 562 l 2230 585 l
 2244 611 l 2258 639 l 2271 668 l 2284 698 l 2295 727 l
 2306 755 l 2315 781 l 2323 804 l 2330 823 l 2334 837 l
 2337 847 l 2339 852 l
 2340 855 l gs col0 s gr 
% Polyline
n 90 855 m 91 858 l 93 863 l 96 873 l 100 887 l 107 906 l
 115 929 l 124 955 l 135 983 l 146 1013 l 159 1042 l
 172 1071 l 186 1099 l 200 1125 l 216 1148 l 233 1170 l
 251 1188 l 271 1202 l 293 1212 l 315 1215 l 337 1212 l
 359 1202 l 379 1188 l 397 1170 l 414 1148 l 430 1125 l
 444 1099 l 458 1071 l 471 1042 l 484 1012 l 495 983 l
 506 955 l 515 929 l 523 906 l 530 887 l 534 873 l
 537 863 l 539 858 l
 540 855 l gs col0 s gr 
% Polyline
n 540 855 m 541 858 l 543 863 l 546 873 l 550 887 l 557 906 l
 565 929 l 574 955 l 585 983 l 596 1013 l 609 1042 l
 622 1071 l 636 1099 l 650 1125 l 666 1148 l 683 1170 l
 701 1188 l 721 1202 l 743 1212 l 765 1215 l 787 1212 l
 809 1202 l 829 1188 l 847 1170 l 864 1148 l 880 1125 l
 894 1099 l 908 1071 l 921 1042 l 934 1012 l 945 983 l
 956 955 l 965 929 l 973 906 l 980 887 l 984 873 l
 987 863 l 989 858 l
 990 855 l gs col0 s gr 
% Polyline
n 990 855 m 991 858 l 993 863 l 996 873 l 1000 887 l 1007 906 l
 1015 929 l 1024 955 l 1035 983 l 1046 1013 l 1059 1042 l
 1072 1071 l 1086 1099 l 1100 1125 l 1116 1148 l 1133 1170 l
 1151 1188 l 1171 1202 l 1193 1212 l 1215 1215 l 1237 1212 l
 1259 1202 l 1279 1188 l 1297 1170 l 1314 1148 l 1330 1125 l
 1344 1099 l 1358 1071 l 1371 1042 l 1384 1012 l 1395 983 l
 1406 955 l 1415 929 l 1423 906 l 1430 887 l 1434 873 l
 1437 863 l 1439 858 l
 1440 855 l gs col0 s gr 
% Polyline
n 1440 855 m 1441 858 l 1443 863 l 1446 873 l 1450 887 l 1457 906 l
 1465 929 l 1474 955 l 1485 983 l 1496 1013 l 1509 1042 l
 1522 1071 l 1536 1099 l 1550 1125 l 1566 1148 l 1583 1170 l
 1601 1188 l 1621 1202 l 1643 1212 l 1665 1215 l 1687 1212 l
 1709 1202 l 1729 1188 l 1747 1170 l 1764 1148 l 1780 1125 l
 1794 1099 l 1808 1071 l 1821 1042 l 1834 1012 l 1845 983 l
 1856 955 l 1865 929 l 1873 906 l 1880 887 l 1884 873 l
 1887 863 l 1889 858 l
 1890 855 l gs col0 s gr 
% Polyline
n 1890 855 m 1891 858 l 1893 863 l 1896 873 l 1900 887 l 1907 906 l
 1915 929 l 1924 955 l 1935 983 l 1946 1013 l 1959 1042 l
 1972 1071 l 1986 1099 l 2000 1125 l 2016 1148 l 2033 1170 l
 2051 1188 l 2071 1202 l 2093 1212 l 2115 1215 l 2137 1212 l
 2159 1202 l 2179 1188 l 2197 1170 l 2214 1148 l 2230 1125 l
 2244 1099 l 2258 1071 l 2271 1042 l 2284 1012 l 2295 983 l
 2306 955 l 2315 929 l 2323 906 l 2330 887 l 2334 873 l
 2337 863 l 2339 858 l
 2340 855 l gs col0 s gr 
% Polyline
n 90 855 m 92 853 l 95 849 l 100 843 l 109 834 l 119 823 l
 132 810 l 146 796 l 162 782 l 179 769 l 197 756 l
 216 745 l 238 735 l 261 727 l 287 722 l 315 720 l
 343 722 l 369 727 l 392 735 l 414 745 l 433 756 l
 451 769 l 468 782 l 484 796 l 498 810 l 511 823 l
 521 834 l 530 843 l 535 849 l 538 853 l
 540 855 l gs col0 s gr 
% Polyline
n 540 855 m 542 853 l 545 849 l 550 843 l 559 834 l 569 823 l
 582 810 l 596 796 l 612 782 l 629 769 l 647 756 l
 666 745 l 688 735 l 711 727 l 737 722 l 765 720 l
 793 722 l 819 727 l 842 735 l 864 745 l 883 756 l
 901 769 l 918 782 l 934 796 l 948 810 l 961 823 l
 971 834 l 980 843 l 985 849 l 988 853 l
 990 855 l gs col0 s gr 
% Polyline
n 990 855 m 992 853 l 995 849 l 1000 843 l 1009 834 l 1019 823 l
 1032 810 l 1046 796 l 1062 782 l 1079 769 l 1097 756 l
 1116 745 l 1138 735 l 1161 727 l 1187 722 l 1215 720 l
 1243 722 l 1269 727 l 1292 735 l 1314 745 l 1333 756 l
 1351 769 l 1368 782 l 1384 796 l 1398 810 l 1411 823 l
 1421 834 l 1430 843 l 1435 849 l 1438 853 l
 1440 855 l gs col0 s gr 
% Polyline
n 1440 855 m 1442 853 l 1445 849 l 1450 843 l 1459 834 l 1469 823 l
 1482 810 l 1496 796 l 1512 782 l 1529 769 l 1547 756 l
 1566 745 l 1588 735 l 1611 727 l 1637 722 l 1665 720 l
 1693 722 l 1719 727 l 1742 735 l 1764 745 l 1783 756 l
 1801 769 l 1818 782 l 1834 796 l 1848 810 l 1861 823 l
 1871 834 l 1880 843 l 1885 849 l 1888 853 l
 1890 855 l gs col0 s gr 
% Polyline
n 1890 855 m 1892 853 l 1895 849 l 1900 843 l 1909 834 l 1919 823 l
 1932 810 l 1946 796 l 1962 782 l 1979 769 l 1997 756 l
 2016 745 l 2038 735 l 2061 727 l 2087 722 l 2115 720 l
 2143 722 l 2169 727 l 2192 735 l 2214 745 l 2233 756 l
 2251 769 l 2268 782 l 2284 796 l 2298 810 l 2311 823 l
 2321 834 l 2330 843 l 2335 849 l 2338 853 l
 2340 855 l gs col0 s gr 
% Polyline
n 90 855 m 92 857 l 95 861 l 100 867 l 109 876 l 119 887 l
 132 900 l 146 914 l 162 928 l 179 941 l 197 954 l
 216 965 l 238 975 l 261 983 l 287 988 l 315 990 l
 343 988 l 369 983 l 392 975 l 414 965 l 433 954 l
 451 941 l 468 928 l 484 914 l 498 900 l 511 887 l
 521 876 l 530 867 l 535 861 l 538 857 l
 540 855 l gs col0 s gr 
% Polyline
n 540 855 m 542 857 l 545 861 l 550 867 l 559 876 l 569 887 l
 582 900 l 596 914 l 612 928 l 629 941 l 647 954 l
 666 965 l 688 975 l 711 983 l 737 988 l 765 990 l
 793 988 l 819 983 l 842 975 l 864 965 l 883 954 l
 901 941 l 918 928 l 934 914 l 948 900 l 961 887 l
 971 876 l 980 867 l 985 861 l 988 857 l
 990 855 l gs col0 s gr 
% Polyline
n 990 855 m 992 857 l 995 861 l 1000 867 l 1009 876 l 1019 887 l
 1032 900 l 1046 914 l 1062 928 l 1079 941 l 1097 954 l
 1116 965 l 1138 975 l 1161 983 l 1187 988 l 1215 990 l
 1243 988 l 1269 983 l 1292 975 l 1314 965 l 1333 954 l
 1351 941 l 1368 928 l 1384 914 l 1398 900 l 1411 887 l
 1421 876 l 1430 867 l 1435 861 l 1438 857 l
 1440 855 l gs col0 s gr 
% Polyline
n 1440 855 m 1442 857 l 1445 861 l 1450 867 l 1459 876 l 1469 887 l
 1482 900 l 1496 914 l 1512 928 l 1529 941 l 1547 954 l
 1566 965 l 1588 975 l 1611 983 l 1637 988 l 1665 990 l
 1693 988 l 1719 983 l 1742 975 l 1764 965 l 1783 954 l
 1801 941 l 1818 928 l 1834 914 l 1848 900 l 1861 887 l
 1871 876 l 1880 867 l 1885 861 l 1888 857 l
 1890 855 l gs col0 s gr 
% Polyline
n 1890 855 m 1892 857 l 1895 861 l 1900 867 l 1909 876 l 1919 887 l
 1932 900 l 1946 914 l 1962 928 l 1979 941 l 1997 954 l
 2016 965 l 2038 975 l 2061 983 l 2087 988 l 2115 990 l
 2143 988 l 2169 983 l 2192 975 l 2214 965 l 2233 954 l
 2251 941 l 2268 928 l 2284 914 l 2298 900 l 2311 887 l
 2321 876 l 2330 867 l 2335 861 l 2338 857 l
 2340 855 l gs col0 s gr 
/Times-Roman ff 158.75 scf sf
540 1890 m
gs 1 -1 sc (ventres) col0 sh gr
/Times-Roman ff 158.75 scf sf
1440 1890 m
gs 1 -1 sc (noeuds) col0 sh gr
/Times-Roman ff 158.75 scf sf
495 2025 m
gs 1 -1 sc (oscillants) col0 sh gr
/Times-Roman ff 158.75 scf sf
1530 2025 m
gs 1 -1 sc (fixes) col0 sh gr
% here ends figure;
$F2psEnd
rs
showpage
%%Trailer
%EOF
