%!PS-Adobe-2.0
%%Creator: inkscape 0.41.1
%%Pages: 1
%%Orientation: Portrait
%%BoundingBox: 13 766 111 827
%%HiResBoundingBox: 13.812343 766.11579 110.38671 826.99276
%%EndComments
%%Page: 1 1
0 842 translate
0.80000000 -0.80000000 scale
gsave [1.0000000 0.0000000 0.0000000 1.0000000 0.0000000 0.0000000] concat
0.0000000 0.0000000 0.0000000 setrgbcolor
[1.4173229 2.8346457] 0.0000000 setdash
0.35433072 setlinewidth
0 setlinejoin
0 setlinecap
newpath
29.808288 60.912589 moveto
185.32979 60.912589 127.14938 60.912589 127.14938 60.912589 curveto
stroke
0.0000000 0.0000000 0.0000000 setrgbcolor
[] 0 setdash
0.35433072 setlinewidth
0 setlinejoin
0 setlinecap
newpath
91.364788 25.154761 moveto
91.364788 94.109319 91.364788 94.540285 91.364788 94.540285 curveto
stroke
gsave [-2.3865361e-17 -0.38976379 0.38976379 -2.3865361e-17 91.364788 27.103580] concat
0.0000000 0.0000000 0.0000000 setrgbcolor
newpath
8.7185878 4.0337352 moveto
-2.2072895 0.016013256 lineto
8.7185884 -4.0017078 lineto
6.9730900 -1.6296469 6.9831476 1.6157441 8.7185878 4.0337352 curveto
closepath
eofill
grestore
gsave [1.7356626e-17 0.28346457 -0.28346457 1.7356626e-17 91.364788 94.540285] concat
0.0000000 0.0000000 0.0000000 setrgbcolor
newpath
0.0000000 0.0000000 moveto
5.0000000 -5.0000000 lineto
-12.500000 0.0000000 lineto
5.0000000 5.0000000 lineto
0.0000000 0.0000000 lineto
closepath
eofill
0.0000000 0.0000000 0.0000000 setrgbcolor
[] 0 setdash
1.2500000 setlinewidth
0 setlinejoin
0 setlinecap
newpath
0.0000000 0.0000000 moveto
5.0000000 -5.0000000 lineto
-12.500000 0.0000000 lineto
5.0000000 5.0000000 lineto
0.0000000 0.0000000 lineto
closepath
stroke
grestore
0.0000000 0.0000000 0.0000000 setrgbcolor
[] 0 setdash
0.35433072 setlinewidth
0 setlinejoin
0 setlinecap
newpath
43.096598 41.100503 moveto
43.096598 60.709455 43.096598 60.709455 43.096598 60.709455 curveto
stroke
0.0000000 0.0000000 0.0000000 setrgbcolor
[] 0 setdash
1.0000000 setlinewidth
0 setlinejoin
0 setlinecap
newpath
42.881115 41.315986 moveto
124.33369 74.069401 lineto
stroke
gsave [-0.27833942 -0.11192484 0.11192484 -0.27833942 125.72539 74.629025] concat
0.0000000 0.0000000 0.0000000 setrgbcolor
newpath
8.7185878 4.0337352 moveto
-2.2072895 0.016013256 lineto
8.7185884 -4.0017078 lineto
6.9730900 -1.6296469 6.9831476 1.6157441 8.7185878 4.0337352 curveto
closepath
eofill
grestore
0.0000000 0.0000000 0.0000000 setrgbcolor
[] 0 setdash
1.0000000 setlinewidth
0 setlinejoin
0 setlinecap
newpath
42.881115 41.315986 moveto
91.149305 41.315986 lineto
121.31693 19.121238 lineto
stroke
gsave [-0.24164686 0.17778301 -0.17778301 -0.24164686 122.52516 18.232323] concat
0.0000000 0.0000000 0.0000000 setrgbcolor
newpath
8.7185878 4.0337352 moveto
-2.2072895 0.016013256 lineto
8.7185884 -4.0017078 lineto
6.9730900 -1.6296469 6.9831476 1.6157441 8.7185878 4.0337352 curveto
closepath
eofill
grestore
0.0000000 0.0000000 0.0000000 setrgbcolor
[] 0 setdash
0.19790417 setlinewidth
0 setlinejoin
0 setlinecap
newpath
74.341635 61.046835 moveto
74.341635 54.123067 lineto
stroke
0.0000000 0.0000000 0.0000000 setrgbcolor
[] 0 setdash
0.33406195 setlinewidth
0 setlinejoin
0 setlinecap
newpath
90.131453 73.638435 moveto
66.955649 73.638435 lineto
stroke
gsave [-0.20043717 2.4545663e-17 -2.4545663e-17 -0.20043717 88.527956 73.638435] concat
0.0000000 0.0000000 0.0000000 setrgbcolor
newpath
0.0000000 0.0000000 moveto
5.0000000 -5.0000000 lineto
-12.500000 0.0000000 lineto
5.0000000 5.0000000 lineto
0.0000000 0.0000000 lineto
closepath
eofill
0.0000000 0.0000000 0.0000000 setrgbcolor
[] 0 setdash
1.2500000 setlinewidth
0 setlinejoin
0 setlinecap
newpath
0.0000000 0.0000000 moveto
5.0000000 -5.0000000 lineto
-12.500000 0.0000000 lineto
5.0000000 5.0000000 lineto
0.0000000 0.0000000 lineto
closepath
stroke
0.0000000 0.0000000 0.0000000 setrgbcolor
[] 0 setdash
1.5000000 setlinewidth
0 setlinejoin
0 setlinecap
newpath
-14.759949 -7.0000000 moveto
-14.759949 65.000000 lineto
stroke
grestore
gsave [0.20043717 -2.4545663e-17 -2.4545663e-17 -0.20043717 68.559146 73.638435] concat
0.0000000 0.0000000 0.0000000 setrgbcolor
newpath
0.0000000 0.0000000 moveto
5.0000000 -5.0000000 lineto
-12.500000 0.0000000 lineto
5.0000000 5.0000000 lineto
0.0000000 0.0000000 lineto
closepath
eofill
0.0000000 0.0000000 0.0000000 setrgbcolor
[] 0 setdash
1.2500000 setlinewidth
0 setlinejoin
0 setlinecap
newpath
0.0000000 0.0000000 moveto
5.0000000 -5.0000000 lineto
-12.500000 0.0000000 lineto
5.0000000 5.0000000 lineto
0.0000000 0.0000000 lineto
closepath
stroke
0.0000000 0.0000000 0.0000000 setrgbcolor
[] 0 setdash
1.5000000 setlinewidth
0 setlinejoin
0 setlinecap
newpath
-14.759949 -7.0000000 moveto
-14.759949 65.000000 lineto
stroke
grestore
0.0000000 0.0000000 0.0000000 setrgbcolor
[] 0 setdash
0.40314037 setlinewidth
0 setlinejoin
0 setlinecap
newpath
44.760986 32.050220 moveto
89.700400 32.050220 lineto
stroke
gsave [0.24188422 0.0000000 0.0000000 0.24188422 46.696060 32.050220] concat
0.0000000 0.0000000 0.0000000 setrgbcolor
newpath
0.0000000 0.0000000 moveto
5.0000000 -5.0000000 lineto
-12.500000 0.0000000 lineto
5.0000000 5.0000000 lineto
0.0000000 0.0000000 lineto
closepath
eofill
0.0000000 0.0000000 0.0000000 setrgbcolor
[] 0 setdash
1.2500000 setlinewidth
0 setlinejoin
0 setlinecap
newpath
0.0000000 0.0000000 moveto
5.0000000 -5.0000000 lineto
-12.500000 0.0000000 lineto
5.0000000 5.0000000 lineto
0.0000000 0.0000000 lineto
closepath
stroke
0.0000000 0.0000000 0.0000000 setrgbcolor
[] 0 setdash
1.5000000 setlinewidth
0 setlinejoin
0 setlinecap
newpath
-14.759949 -7.0000000 moveto
-14.759949 65.000000 lineto
stroke
grestore
gsave [-0.24188422 -0.0000000 0.0000000 0.24188422 87.765326 32.050220] concat
0.0000000 0.0000000 0.0000000 setrgbcolor
newpath
0.0000000 0.0000000 moveto
5.0000000 -5.0000000 lineto
-12.500000 0.0000000 lineto
5.0000000 5.0000000 lineto
0.0000000 0.0000000 lineto
closepath
eofill
0.0000000 0.0000000 0.0000000 setrgbcolor
[] 0 setdash
1.2500000 setlinewidth
0 setlinejoin
0 setlinecap
newpath
0.0000000 0.0000000 moveto
5.0000000 -5.0000000 lineto
-12.500000 0.0000000 lineto
5.0000000 5.0000000 lineto
0.0000000 0.0000000 lineto
closepath
stroke
0.0000000 0.0000000 0.0000000 setrgbcolor
[] 0 setdash
1.5000000 setlinewidth
0 setlinejoin
0 setlinecap
newpath
-14.759949 -7.0000000 moveto
-14.759949 65.000000 lineto
stroke
grestore
0.0000000 0.0000000 0.0000000 setrgbcolor
newpath
54.909046 28.719267 moveto
54.909041 28.781117 54.765812 29.244984 54.479359 30.110868 curveto
50.392445 30.110868 lineto
50.299671 29.822783 lineto
52.474148 28.068227 53.561386 26.473177 53.561390 25.037626 curveto
53.561386 24.197788 53.180527 23.777867 52.418812 23.777861 curveto
51.572456 23.777867 50.927925 24.176630 50.485218 24.974150 curveto
50.270374 24.881376 lineto
50.446155 24.396356 50.745634 23.987828 51.168812 23.655790 curveto
51.614774 23.304235 52.086778 23.128454 52.584827 23.128447 curveto
53.043809 23.128454 53.429551 23.268427 53.742054 23.548368 curveto
54.067571 23.841343 54.230331 24.214064 54.230335 24.666533 curveto
54.230331 26.115104 53.248887 27.711782 51.285999 29.456572 curveto
53.956898 29.456572 lineto
54.135930 29.456572 54.306828 29.318226 54.469593 29.041533 curveto
54.632349 28.764841 54.707219 28.626495 54.694202 28.626493 curveto
54.720239 28.626495 54.757674 28.641143 54.806507 28.670439 curveto
54.855330 28.696482 54.889510 28.712758 54.909046 28.719267 curveto
fill
0.0000000 0.0000000 0.0000000 setrgbcolor
newpath
60.094593 26.585478 moveto
60.094588 27.376496 59.926945 28.125193 59.591663 28.831572 curveto
59.174993 29.713733 58.613470 30.154814 57.907093 30.154814 curveto
57.174669 30.154814 56.605008 29.720244 56.198109 28.851103 curveto
55.879098 28.170766 55.719593 27.415559 55.719593 26.585478 curveto
55.719593 25.794467 55.887236 25.045769 56.222523 24.339384 curveto
56.639188 23.460484 57.200711 23.021032 57.907093 23.021025 curveto
58.639512 23.021032 59.207545 23.453974 59.611195 24.319853 curveto
59.933456 25.003452 60.094588 25.758659 60.094593 26.585478 curveto
59.376820 26.805204 moveto
59.376816 24.464715 58.886907 23.294469 57.907093 23.294462 curveto
56.927274 23.294469 56.437365 24.319859 56.437366 26.370634 curveto
56.437365 28.707875 56.927274 29.876494 57.907093 29.876493 curveto
58.886907 29.876494 59.376816 28.852732 59.376820 26.805204 curveto
fill
0.0000000 0.0000000 0.0000000 setrgbcolor
newpath
fill
0.0000000 0.0000000 0.0000000 setrgbcolor
newpath
67.838734 28.909697 moveto
67.435084 29.769072 66.795436 30.198759 65.919788 30.198759 curveto
65.356636 30.198759 64.879748 29.972522 64.489124 29.520048 curveto
64.114775 29.087106 63.927601 28.584177 63.927601 28.011259 curveto
63.927601 27.295116 64.174996 26.704296 64.669788 26.238798 curveto
65.154813 25.783073 65.758654 25.555209 66.481312 25.555204 curveto
66.696153 25.555209 66.946804 25.621941 67.233265 25.755400 curveto
67.562037 25.901888 67.726425 26.059766 67.726429 26.229033 curveto
67.726425 26.538281 67.579941 26.692903 67.286976 26.692900 curveto
67.104681 26.692903 66.985866 26.619661 66.930531 26.473173 curveto
66.878444 26.336458 66.827989 26.199740 66.779163 26.063017 curveto
66.671739 25.913282 66.465033 25.838412 66.159046 25.838408 curveto
65.667508 25.838412 65.283394 26.061393 65.006702 26.507353 curveto
64.775582 26.884960 64.660022 27.335806 64.660023 27.859892 curveto
64.660022 28.296092 64.813017 28.702992 65.119007 29.080595 curveto
65.444526 29.480986 65.818875 29.681181 66.242054 29.681181 curveto
66.850775 29.681181 67.316269 29.406117 67.638538 28.855986 curveto
67.771998 28.852732 67.838730 28.870635 67.838734 28.909697 curveto
fill
0.0000000 0.0000000 0.0000000 setrgbcolor
newpath
76.505726 30.110868 moveto
74.342640 30.110868 lineto
74.342640 29.891142 lineto
74.785342 29.891142 75.006696 29.671416 75.006702 29.231962 curveto
75.006702 27.010283 lineto
75.006696 26.733593 74.939964 26.491080 74.806507 26.282743 curveto
74.650251 26.041862 74.440290 25.921420 74.176624 25.921415 curveto
73.772973 25.921420 73.292830 26.124870 72.736195 26.531767 curveto
72.736195 29.471220 lineto
72.736190 29.738147 72.996607 29.871611 73.517445 29.871611 curveto
73.541859 30.110868 lineto
71.383656 30.110868 lineto
71.383656 29.891142 lineto
71.823105 29.891142 72.042832 29.671416 72.042835 29.231962 curveto
72.042835 27.010283 lineto
72.042832 26.730338 71.985865 26.489453 71.871937 26.287626 curveto
71.731959 26.043490 71.531764 25.921420 71.271351 25.921415 curveto
70.861192 25.921420 70.358263 26.141146 69.762562 26.580595 curveto
69.762562 29.368681 lineto
69.762560 29.687692 70.008328 29.861845 70.499866 29.891142 curveto
70.470570 30.110868 lineto
68.405140 30.110868 lineto
68.385609 30.071806 lineto
68.414906 29.920439 lineto
68.616728 29.920439 68.779488 29.837431 68.903187 29.671415 curveto
69.017118 29.518421 69.074085 29.337757 69.074085 29.129423 curveto
69.074085 26.438993 lineto
69.074085 26.321810 68.973173 26.229036 68.771351 26.160673 curveto
68.745309 26.150911 68.592314 26.115104 68.312366 26.053251 curveto
68.312366 25.931181 lineto
68.344919 25.895378 68.385609 25.869336 68.434437 25.853056 curveto
68.691598 25.765170 69.075712 25.607292 69.586781 25.379423 curveto
69.762562 25.511259 lineto
69.762562 26.390165 lineto
70.703315 25.784701 71.352728 25.481967 71.710804 25.481962 curveto
71.928899 25.481967 72.132350 25.582878 72.321156 25.784697 curveto
72.480657 25.957227 72.596216 26.159049 72.667835 26.390165 curveto
73.608585 25.784701 74.257999 25.481967 74.616077 25.481962 curveto
74.964378 25.481967 75.242698 25.643099 75.451038 25.965361 curveto
75.633323 26.245312 75.724468 26.567578 75.724476 26.932158 curveto
75.724476 29.471220 lineto
75.724468 29.738147 75.975119 29.871611 76.476429 29.871611 curveto
76.505726 30.110868 lineto
fill
0.0000000 0.0000000 0.0000000 setrgbcolor
newpath
79.149147 67.262733 moveto
78.466530 67.262733 lineto
78.466530 68.466835 lineto
78.062233 68.466835 lineto
78.062233 67.262733 lineto
76.348366 67.262733 lineto
76.348366 67.078163 lineto
78.320045 64.242226 lineto
78.466530 64.242226 lineto
78.466530 66.893593 lineto
79.149147 66.893593 lineto
79.149147 67.262733 lineto
78.062233 64.924843 moveto
76.717506 66.893593 lineto
78.062233 66.893593 lineto
78.062233 64.924843 lineto
fill
0.0000000 0.0000000 0.0000000 setrgbcolor
newpath
fill
0.0000000 0.0000000 0.0000000 setrgbcolor
newpath
83.332741 67.746132 moveto
83.090551 68.261757 82.706762 68.519569 82.181374 68.519569 curveto
81.843482 68.519569 81.557350 68.383827 81.322975 68.112343 curveto
81.098366 67.852578 80.986061 67.550820 80.986061 67.207069 curveto
80.986061 66.777384 81.134498 66.422892 81.431374 66.143593 curveto
81.722388 65.870158 82.084693 65.733439 82.518288 65.733437 curveto
82.647192 65.733439 82.797583 65.773478 82.969460 65.853554 curveto
83.166723 65.941447 83.265356 66.036173 83.265358 66.137733 curveto
83.265356 66.323282 83.177465 66.416056 83.001686 66.416054 curveto
82.892309 66.416056 82.821020 66.372111 82.787819 66.284218 curveto
82.756567 66.202189 82.726294 66.120158 82.696999 66.038124 curveto
82.632544 65.948283 82.508520 65.903361 82.324928 65.903358 curveto
82.030005 65.903361 81.799537 66.037150 81.633522 66.304726 curveto
81.494850 66.531290 81.425514 66.801798 81.425514 67.116249 curveto
81.425514 67.377969 81.517311 67.622109 81.700905 67.848671 curveto
81.896216 68.088906 82.120826 68.209023 82.374733 68.209023 curveto
82.739966 68.209023 83.019262 68.043984 83.212624 67.713905 curveto
83.292699 67.711953 83.332738 67.722695 83.332741 67.746132 curveto
fill
0.0000000 0.0000000 0.0000000 setrgbcolor
newpath
88.532936 68.466835 moveto
87.235085 68.466835 lineto
87.235085 68.334999 lineto
87.500706 68.334999 87.633518 68.203163 87.633522 67.939491 curveto
87.633522 66.606483 lineto
87.633518 66.440470 87.593479 66.294962 87.513405 66.169960 curveto
87.419651 66.025431 87.293675 65.953166 87.135475 65.953163 curveto
86.893284 65.953166 86.605199 66.075236 86.271217 66.319374 curveto
86.271217 68.083046 lineto
86.271215 68.243202 86.427465 68.323280 86.739967 68.323280 curveto
86.754616 68.466835 lineto
85.459694 68.466835 lineto
85.459694 68.334999 lineto
85.723364 68.334999 85.855200 68.203163 85.855202 67.939491 curveto
85.855202 66.606483 lineto
85.855200 66.438517 85.821020 66.293986 85.752663 66.172890 curveto
85.668676 66.026408 85.548559 65.953166 85.392311 65.953163 curveto
85.146216 65.953166 84.844458 66.085001 84.487038 66.348671 curveto
84.487038 68.021523 lineto
84.487037 68.212929 84.634498 68.317421 84.929420 68.334999 curveto
84.911842 68.466835 lineto
83.672585 68.466835 lineto
83.660866 68.443398 lineto
83.678444 68.352577 lineto
83.799537 68.352577 83.897194 68.302773 83.971413 68.203163 curveto
84.039772 68.111367 84.073951 68.002968 84.073952 67.877968 curveto
84.073952 66.263710 lineto
84.073951 66.193400 84.013404 66.137736 83.892311 66.096718 curveto
83.876686 66.090861 83.784889 66.069376 83.616920 66.032265 curveto
83.616920 65.959023 lineto
83.636452 65.937541 83.660866 65.921916 83.690163 65.912148 curveto
83.844459 65.859416 84.074928 65.764689 84.381569 65.627968 curveto
84.487038 65.707069 lineto
84.487038 66.234413 lineto
85.051489 65.871134 85.441137 65.689494 85.655983 65.689491 curveto
85.786840 65.689494 85.908910 65.750041 86.022194 65.871132 curveto
86.117895 65.974650 86.187230 66.095744 86.230202 66.234413 curveto
86.794652 65.871134 87.184300 65.689494 87.399147 65.689491 curveto
87.608127 65.689494 87.775119 65.786174 87.900124 65.979530 curveto
88.009494 66.147501 88.064182 66.340861 88.064186 66.559608 curveto
88.064186 68.083046 lineto
88.064182 68.243202 88.214572 68.323280 88.515358 68.323280 curveto
88.532936 68.466835 lineto
fill
0.0000000 0.0000000 0.0000000 setrgbcolor
newpath
80.895882 76.253181 moveto
80.407600 76.712166 lineto
80.303430 76.249933 79.974654 76.018813 79.421272 76.018806 curveto
79.102259 76.018813 78.815801 76.114842 78.561897 76.306892 curveto
78.288458 76.515232 78.151739 76.775648 78.151741 77.088142 curveto
78.151741 78.245369 lineto
79.299202 78.245369 lineto
79.299202 78.616463 lineto
78.151741 78.616463 lineto
78.151741 81.848885 lineto
78.151739 82.265552 78.381231 82.473885 78.840218 82.473885 curveto
78.876023 82.473885 78.928106 82.473885 78.996468 82.473885 curveto
79.064824 82.470630 79.115280 82.469002 79.147835 82.469002 curveto
79.147835 82.688728 lineto
76.769905 82.688728 lineto
76.745491 82.547127 lineto
77.012418 82.465747 77.170295 82.412036 77.219124 82.385994 curveto
77.381883 82.298104 77.463263 82.166268 77.463264 81.990486 curveto
77.463264 78.616463 lineto
77.372118 78.626232 77.087287 78.603446 76.608772 78.548103 curveto
76.608772 78.357674 lineto
77.012418 78.357678 77.246792 78.320243 77.311897 78.245369 curveto
77.463264 78.245369 lineto
77.463264 78.098885 lineto
77.463263 77.574801 77.520230 77.197197 77.634163 76.966072 curveto
77.722052 76.793552 77.956427 76.523370 78.337288 76.155525 curveto
78.669317 75.836522 79.147832 75.677017 79.772835 75.677010 curveto
80.108118 75.677017 80.482466 75.869074 80.895882 76.253181 curveto
fill
0.0000000 0.0000000 0.0000000 setrgbcolor
[1.4173229 2.8346457] 0.0000000 setdash
0.35433072 setlinewidth
0 setlinejoin
0 setlinecap
newpath
121.10144 19.121238 moveto
65.291346 60.924938 lineto
stroke
0.0000000 0.0000000 0.0000000 setrgbcolor
[] 0 setdash
0.26758531 setlinewidth
0 setlinejoin
0 setlinecap
newpath
90.288113 70.837156 moveto
75.418308 70.837156 lineto
stroke
gsave [-0.16055118 1.9661200e-17 -1.9661200e-17 -0.16055118 89.003704 70.837156] concat
0.0000000 0.0000000 0.0000000 setrgbcolor
newpath
0.0000000 0.0000000 moveto
5.0000000 -5.0000000 lineto
-12.500000 0.0000000 lineto
5.0000000 5.0000000 lineto
0.0000000 0.0000000 lineto
closepath
eofill
0.0000000 0.0000000 0.0000000 setrgbcolor
[] 0 setdash
1.2500000 setlinewidth
0 setlinejoin
0 setlinecap
newpath
0.0000000 0.0000000 moveto
5.0000000 -5.0000000 lineto
-12.500000 0.0000000 lineto
5.0000000 5.0000000 lineto
0.0000000 0.0000000 lineto
closepath
stroke
0.0000000 0.0000000 0.0000000 setrgbcolor
[] 0 setdash
1.5000000 setlinewidth
0 setlinejoin
0 setlinecap
newpath
-14.759949 -7.0000000 moveto
-14.759949 65.000000 lineto
stroke
grestore
gsave [0.16055118 -1.9661200e-17 -1.9661200e-17 -0.16055118 76.702717 70.837156] concat
0.0000000 0.0000000 0.0000000 setrgbcolor
newpath
0.0000000 0.0000000 moveto
5.0000000 -5.0000000 lineto
-12.500000 0.0000000 lineto
5.0000000 5.0000000 lineto
0.0000000 0.0000000 lineto
closepath
eofill
0.0000000 0.0000000 0.0000000 setrgbcolor
[] 0 setdash
1.2500000 setlinewidth
0 setlinejoin
0 setlinecap
newpath
0.0000000 0.0000000 moveto
5.0000000 -5.0000000 lineto
-12.500000 0.0000000 lineto
5.0000000 5.0000000 lineto
0.0000000 0.0000000 lineto
closepath
stroke
0.0000000 0.0000000 0.0000000 setrgbcolor
[] 0 setdash
1.5000000 setlinewidth
0 setlinejoin
0 setlinecap
newpath
-14.759949 -7.0000000 moveto
-14.759949 65.000000 lineto
stroke
grestore
0.0000000 0.0000000 0.0000000 setrgbcolor
[] 0 setdash
0.33031893 setlinewidth
0 setlinejoin
0 setlinecap
newpath
38.786939 59.655238 moveto
38.786939 42.801169 lineto
stroke
gsave [1.2135320e-17 -0.19819136 0.19819136 1.2135320e-17 38.786939 58.069707] concat
0.0000000 0.0000000 0.0000000 setrgbcolor
newpath
0.0000000 0.0000000 moveto
5.0000000 -5.0000000 lineto
-12.500000 0.0000000 lineto
5.0000000 5.0000000 lineto
0.0000000 0.0000000 lineto
closepath
eofill
0.0000000 0.0000000 0.0000000 setrgbcolor
[] 0 setdash
1.2500000 setlinewidth
0 setlinejoin
0 setlinecap
newpath
0.0000000 0.0000000 moveto
5.0000000 -5.0000000 lineto
-12.500000 0.0000000 lineto
5.0000000 5.0000000 lineto
0.0000000 0.0000000 lineto
closepath
stroke
0.0000000 0.0000000 0.0000000 setrgbcolor
[] 0 setdash
1.5000000 setlinewidth
0 setlinejoin
0 setlinecap
newpath
-14.759949 -7.0000000 moveto
-14.759949 65.000000 lineto
stroke
grestore
gsave [-1.2135320e-17 0.19819136 0.19819136 1.2135320e-17 38.786939 44.386700] concat
0.0000000 0.0000000 0.0000000 setrgbcolor
newpath
0.0000000 0.0000000 moveto
5.0000000 -5.0000000 lineto
-12.500000 0.0000000 lineto
5.0000000 5.0000000 lineto
0.0000000 0.0000000 lineto
closepath
eofill
0.0000000 0.0000000 0.0000000 setrgbcolor
[] 0 setdash
1.2500000 setlinewidth
0 setlinejoin
0 setlinecap
newpath
0.0000000 0.0000000 moveto
5.0000000 -5.0000000 lineto
-12.500000 0.0000000 lineto
5.0000000 5.0000000 lineto
0.0000000 0.0000000 lineto
closepath
stroke
0.0000000 0.0000000 0.0000000 setrgbcolor
[] 0 setdash
1.5000000 setlinewidth
0 setlinejoin
0 setlinecap
newpath
-14.759949 -7.0000000 moveto
-14.759949 65.000000 lineto
stroke
grestore
0.0000000 0.0000000 0.0000000 setrgbcolor
newpath
21.684374 47.495815 moveto
19.223436 54.082729 lineto
18.666796 54.082729 lineto
21.005663 47.827847 lineto
18.422655 47.827847 lineto
18.224086 47.827853 18.015753 47.938530 17.797655 48.159878 curveto
17.589321 48.368217 17.463996 48.573295 17.421679 48.775112 curveto
17.265429 48.682339 lineto
17.670702 47.158901 lineto
21.684374 47.158901 lineto
21.684374 47.495815 lineto
fill
0.0000000 0.0000000 0.0000000 setrgbcolor
newpath
fill
0.0000000 0.0000000 0.0000000 setrgbcolor
newpath
28.642382 52.881557 moveto
28.238732 53.740933 27.599084 54.170620 26.723436 54.170620 curveto
26.160284 54.170620 25.683396 53.944383 25.292772 53.491909 curveto
24.918423 53.058967 24.731249 52.556038 24.731249 51.983120 curveto
24.731249 51.266977 24.978644 50.676157 25.473436 50.210659 curveto
25.958461 49.754934 26.562302 49.527070 27.284960 49.527065 curveto
27.499801 49.527070 27.750452 49.593802 28.036913 49.727261 curveto
28.365685 49.873749 28.530073 50.031627 28.530077 50.200893 curveto
28.530073 50.510142 28.383589 50.664764 28.090624 50.664761 curveto
27.908329 50.664764 27.789514 50.591522 27.734179 50.445034 curveto
27.682092 50.308319 27.631637 50.171600 27.582811 50.034878 curveto
27.475387 49.885142 27.268681 49.810273 26.962694 49.810268 curveto
26.471156 49.810273 26.087042 50.033254 25.810350 50.479214 curveto
25.579230 50.856821 25.463670 51.307667 25.463671 51.831753 curveto
25.463670 52.267953 25.616665 52.674853 25.922655 53.052456 curveto
26.248174 53.452847 26.622523 53.653042 27.045702 53.653042 curveto
27.654423 53.653042 28.119917 53.377977 28.442186 52.827847 curveto
28.575646 52.824593 28.642378 52.842496 28.642382 52.881557 curveto
fill
0.0000000 0.0000000 0.0000000 setrgbcolor
newpath
37.309374 54.082729 moveto
35.146288 54.082729 lineto
35.146288 53.863003 lineto
35.588990 53.863003 35.810344 53.643277 35.810350 53.203823 curveto
35.810350 50.982143 lineto
35.810344 50.705454 35.743612 50.462941 35.610155 50.254604 curveto
35.453899 50.013723 35.243938 49.893280 34.980272 49.893276 curveto
34.576621 49.893280 34.096478 50.096731 33.539843 50.503628 curveto
33.539843 53.443081 lineto
33.539838 53.710008 33.800255 53.843472 34.321093 53.843472 curveto
34.345507 54.082729 lineto
32.187304 54.082729 lineto
32.187304 53.863003 lineto
32.626753 53.863003 32.846480 53.643277 32.846483 53.203823 curveto
32.846483 50.982143 lineto
32.846480 50.702199 32.789513 50.461314 32.675585 50.259487 curveto
32.535607 50.015351 32.335412 49.893280 32.074999 49.893276 curveto
31.664840 49.893280 31.161911 50.113007 30.566210 50.552456 curveto
30.566210 53.340542 lineto
30.566208 53.659553 30.811976 53.833706 31.303514 53.863003 curveto
31.274218 54.082729 lineto
29.208788 54.082729 lineto
29.189257 54.043667 lineto
29.218554 53.892300 lineto
29.420376 53.892300 29.583136 53.809292 29.706835 53.643276 curveto
29.820766 53.490282 29.877733 53.309618 29.877733 53.101284 curveto
29.877733 50.410854 lineto
29.877733 50.293671 29.776821 50.200897 29.574999 50.132534 curveto
29.548957 50.122772 29.395962 50.086965 29.116014 50.025112 curveto
29.116014 49.903042 lineto
29.148567 49.867239 29.189257 49.841197 29.238085 49.824917 curveto
29.495246 49.737031 29.879360 49.579153 30.390429 49.351284 curveto
30.566210 49.483120 lineto
30.566210 50.362026 lineto
31.506963 49.756562 32.156376 49.453828 32.514452 49.453823 curveto
32.732547 49.453828 32.935998 49.554739 33.124804 49.756557 curveto
33.284305 49.929088 33.399864 50.130910 33.471483 50.362026 curveto
34.412233 49.756562 35.061647 49.453828 35.419725 49.453823 curveto
35.768026 49.453828 36.046346 49.614960 36.254686 49.937222 curveto
36.436971 50.217173 36.528116 50.539439 36.528124 50.904018 curveto
36.528124 53.443081 lineto
36.528116 53.710008 36.778767 53.843472 37.280077 53.843472 curveto
37.309374 54.082729 lineto
fill
grestore
showpage
