%!PS-Adobe-2.0
%%Creator: inkscape 0.41.1
%%Pages: 1
%%Orientation: Portrait
%%BoundingBox: 13 765 149 824
%%HiResBoundingBox: 13.467569 765.85752 148.40556 823.47293
%%EndComments
%%Page: 1 1
0 842 translate
0.80000000 -0.80000000 scale
gsave [1.0000000 0.0000000 0.0000000 1.0000000 0.0000000 0.0000000] concat
0.0000000 0.0000000 0.0000000 setrgbcolor
[1.4173229 2.8346457] 0.0000000 setdash
0.35433072 setlinewidth
0 setlinejoin
0 setlinecap
newpath
29.808288 60.912589 moveto
185.32979 60.912589 185.32979 60.912589 185.32979 60.912589 curveto
stroke
0.0000000 0.0000000 0.0000000 setrgbcolor
[] 0 setdash
0.35433072 setlinewidth
0 setlinejoin
0 setlinecap
newpath
91.364788 25.154761 moveto
91.364788 94.109319 91.364788 94.540285 91.364788 94.540285 curveto
stroke
gsave [2.3865361e-17 0.38976379 -0.38976379 2.3865361e-17 91.364788 23.205942] concat
0.0000000 0.0000000 0.0000000 setrgbcolor
newpath
8.7185878 4.0337352 moveto
-2.2072895 0.016013256 lineto
8.7185884 -4.0017078 lineto
6.9730900 -1.6296469 6.9831476 1.6157441 8.7185878 4.0337352 curveto
closepath
eofill
grestore
gsave [-2.3865361e-17 -0.38976379 0.38976379 -2.3865361e-17 91.364788 96.489104] concat
0.0000000 0.0000000 0.0000000 setrgbcolor
newpath
8.7185878 4.0337352 moveto
-2.2072895 0.016013256 lineto
8.7185884 -4.0017078 lineto
6.9730900 -1.6296469 6.9831476 1.6157441 8.7185878 4.0337352 curveto
closepath
eofill
grestore
0.0000000 0.0000000 0.0000000 setrgbcolor
[] 0 setdash
0.35433072 setlinewidth
0 setlinejoin
0 setlinecap
newpath
43.096598 41.100503 moveto
43.096598 60.709455 43.096598 60.709455 43.096598 60.709455 curveto
stroke
0.0000000 0.0000000 0.0000000 setrgbcolor
[] 0 setdash
1.0000000 setlinewidth
0 setlinejoin
0 setlinecap
newpath
42.881115 41.315986 moveto
168.50770 91.954489 lineto
stroke
gsave [-0.27824579 -0.11215739 0.11215739 -0.27824579 169.89893 92.515276] concat
0.0000000 0.0000000 0.0000000 setrgbcolor
newpath
8.7185878 4.0337352 moveto
-2.2072895 0.016013256 lineto
8.7185884 -4.0017078 lineto
6.9730900 -1.6296469 6.9831476 1.6157441 8.7185878 4.0337352 curveto
closepath
eofill
grestore
0.0000000 0.0000000 0.0000000 setrgbcolor
[] 0 setdash
1.0000000 setlinewidth
0 setlinejoin
0 setlinecap
newpath
42.881115 41.315986 moveto
91.149305 41.315986 lineto
161.82773 94.540285 lineto
stroke
gsave [-0.23964884 -0.18046726 0.18046726 -0.23964884 163.02597 95.442621] concat
0.0000000 0.0000000 0.0000000 setrgbcolor
newpath
8.7185878 4.0337352 moveto
-2.2072895 0.016013256 lineto
8.7185884 -4.0017078 lineto
6.9730900 -1.6296469 6.9831476 1.6157441 8.7185878 4.0337352 curveto
closepath
eofill
grestore
0.0000000 0.0000000 0.0000000 setrgbcolor
[] 0 setdash
0.35433072 setlinewidth
0 setlinejoin
0 setlinecap
newpath
146.74392 83.119686 moveto
146.74392 60.924938 lineto
stroke
0.0000000 0.0000000 0.0000000 setrgbcolor
[] 0 setdash
0.33349445 setlinewidth
0 setlinejoin
0 setlinecap
newpath
92.637462 55.106897 moveto
115.73459 55.106897 lineto
stroke
gsave [0.20009667 0.0000000 0.0000000 0.20009667 94.238235 55.106897] concat
0.0000000 0.0000000 0.0000000 setrgbcolor
newpath
0.0000000 0.0000000 moveto
5.0000000 -5.0000000 lineto
-12.500000 0.0000000 lineto
5.0000000 5.0000000 lineto
0.0000000 0.0000000 lineto
closepath
eofill
0.0000000 0.0000000 0.0000000 setrgbcolor
[] 0 setdash
1.2500000 setlinewidth
0 setlinejoin
0 setlinecap
newpath
0.0000000 0.0000000 moveto
5.0000000 -5.0000000 lineto
-12.500000 0.0000000 lineto
5.0000000 5.0000000 lineto
0.0000000 0.0000000 lineto
closepath
stroke
0.0000000 0.0000000 0.0000000 setrgbcolor
[] 0 setdash
1.5000000 setlinewidth
0 setlinejoin
0 setlinecap
newpath
-14.759949 -7.0000000 moveto
-14.759949 65.000000 lineto
stroke
grestore
gsave [-0.20009667 -0.0000000 0.0000000 0.20009667 114.13382 55.106897] concat
0.0000000 0.0000000 0.0000000 setrgbcolor
newpath
0.0000000 0.0000000 moveto
5.0000000 -5.0000000 lineto
-12.500000 0.0000000 lineto
5.0000000 5.0000000 lineto
0.0000000 0.0000000 lineto
closepath
eofill
0.0000000 0.0000000 0.0000000 setrgbcolor
[] 0 setdash
1.2500000 setlinewidth
0 setlinejoin
0 setlinecap
newpath
0.0000000 0.0000000 moveto
5.0000000 -5.0000000 lineto
-12.500000 0.0000000 lineto
5.0000000 5.0000000 lineto
0.0000000 0.0000000 lineto
closepath
stroke
0.0000000 0.0000000 0.0000000 setrgbcolor
[] 0 setdash
1.5000000 setlinewidth
0 setlinejoin
0 setlinecap
newpath
-14.759949 -7.0000000 moveto
-14.759949 65.000000 lineto
stroke
grestore
0.0000000 0.0000000 0.0000000 setrgbcolor
[] 0 setdash
0.49725518 setlinewidth
0 setlinejoin
0 setlinecap
newpath
93.379417 48.211442 moveto
144.72929 48.211442 lineto
stroke
gsave [0.29835311 0.0000000 0.0000000 0.29835311 95.766242 48.211442] concat
0.0000000 0.0000000 0.0000000 setrgbcolor
newpath
0.0000000 0.0000000 moveto
5.0000000 -5.0000000 lineto
-12.500000 0.0000000 lineto
5.0000000 5.0000000 lineto
0.0000000 0.0000000 lineto
closepath
eofill
0.0000000 0.0000000 0.0000000 setrgbcolor
[] 0 setdash
1.2500000 setlinewidth
0 setlinejoin
0 setlinecap
newpath
0.0000000 0.0000000 moveto
5.0000000 -5.0000000 lineto
-12.500000 0.0000000 lineto
5.0000000 5.0000000 lineto
0.0000000 0.0000000 lineto
closepath
stroke
0.0000000 0.0000000 0.0000000 setrgbcolor
[] 0 setdash
1.5000000 setlinewidth
0 setlinejoin
0 setlinecap
newpath
-14.759949 -7.0000000 moveto
-14.759949 65.000000 lineto
stroke
grestore
gsave [-0.29835311 -0.0000000 0.0000000 0.29835311 142.34247 48.211442] concat
0.0000000 0.0000000 0.0000000 setrgbcolor
newpath
0.0000000 0.0000000 moveto
5.0000000 -5.0000000 lineto
-12.500000 0.0000000 lineto
5.0000000 5.0000000 lineto
0.0000000 0.0000000 lineto
closepath
eofill
0.0000000 0.0000000 0.0000000 setrgbcolor
[] 0 setdash
1.2500000 setlinewidth
0 setlinejoin
0 setlinecap
newpath
0.0000000 0.0000000 moveto
5.0000000 -5.0000000 lineto
-12.500000 0.0000000 lineto
5.0000000 5.0000000 lineto
0.0000000 0.0000000 lineto
closepath
stroke
0.0000000 0.0000000 0.0000000 setrgbcolor
[] 0 setdash
1.5000000 setlinewidth
0 setlinejoin
0 setlinecap
newpath
-14.759949 -7.0000000 moveto
-14.759949 65.000000 lineto
stroke
grestore
0.0000000 0.0000000 0.0000000 setrgbcolor
[] 0 setdash
0.40314037 setlinewidth
0 setlinejoin
0 setlinecap
newpath
44.760986 32.050220 moveto
89.700400 32.050220 lineto
stroke
gsave [0.24188422 0.0000000 0.0000000 0.24188422 46.696060 32.050220] concat
0.0000000 0.0000000 0.0000000 setrgbcolor
newpath
0.0000000 0.0000000 moveto
5.0000000 -5.0000000 lineto
-12.500000 0.0000000 lineto
5.0000000 5.0000000 lineto
0.0000000 0.0000000 lineto
closepath
eofill
0.0000000 0.0000000 0.0000000 setrgbcolor
[] 0 setdash
1.2500000 setlinewidth
0 setlinejoin
0 setlinecap
newpath
0.0000000 0.0000000 moveto
5.0000000 -5.0000000 lineto
-12.500000 0.0000000 lineto
5.0000000 5.0000000 lineto
0.0000000 0.0000000 lineto
closepath
stroke
0.0000000 0.0000000 0.0000000 setrgbcolor
[] 0 setdash
1.5000000 setlinewidth
0 setlinejoin
0 setlinecap
newpath
-14.759949 -7.0000000 moveto
-14.759949 65.000000 lineto
stroke
grestore
gsave [-0.24188422 -0.0000000 0.0000000 0.24188422 87.765326 32.050220] concat
0.0000000 0.0000000 0.0000000 setrgbcolor
newpath
0.0000000 0.0000000 moveto
5.0000000 -5.0000000 lineto
-12.500000 0.0000000 lineto
5.0000000 5.0000000 lineto
0.0000000 0.0000000 lineto
closepath
eofill
0.0000000 0.0000000 0.0000000 setrgbcolor
[] 0 setdash
1.2500000 setlinewidth
0 setlinejoin
0 setlinecap
newpath
0.0000000 0.0000000 moveto
5.0000000 -5.0000000 lineto
-12.500000 0.0000000 lineto
5.0000000 5.0000000 lineto
0.0000000 0.0000000 lineto
closepath
stroke
0.0000000 0.0000000 0.0000000 setrgbcolor
[] 0 setdash
1.5000000 setlinewidth
0 setlinejoin
0 setlinecap
newpath
-14.759949 -7.0000000 moveto
-14.759949 65.000000 lineto
stroke
grestore
0.0000000 0.0000000 0.0000000 setrgbcolor
newpath
54.909046 28.719267 moveto
54.909041 28.781117 54.765812 29.244984 54.479359 30.110868 curveto
50.392445 30.110868 lineto
50.299671 29.822783 lineto
52.474148 28.068227 53.561386 26.473177 53.561390 25.037626 curveto
53.561386 24.197788 53.180527 23.777867 52.418812 23.777861 curveto
51.572456 23.777867 50.927925 24.176630 50.485218 24.974150 curveto
50.270374 24.881376 lineto
50.446155 24.396356 50.745634 23.987828 51.168812 23.655790 curveto
51.614774 23.304235 52.086778 23.128454 52.584827 23.128447 curveto
53.043809 23.128454 53.429551 23.268427 53.742054 23.548368 curveto
54.067571 23.841343 54.230331 24.214064 54.230335 24.666533 curveto
54.230331 26.115104 53.248887 27.711782 51.285999 29.456572 curveto
53.956898 29.456572 lineto
54.135930 29.456572 54.306828 29.318226 54.469593 29.041533 curveto
54.632349 28.764841 54.707219 28.626495 54.694202 28.626493 curveto
54.720239 28.626495 54.757674 28.641143 54.806507 28.670439 curveto
54.855330 28.696482 54.889510 28.712758 54.909046 28.719267 curveto
fill
0.0000000 0.0000000 0.0000000 setrgbcolor
newpath
60.094593 26.585478 moveto
60.094588 27.376496 59.926945 28.125193 59.591663 28.831572 curveto
59.174993 29.713733 58.613470 30.154814 57.907093 30.154814 curveto
57.174669 30.154814 56.605008 29.720244 56.198109 28.851103 curveto
55.879098 28.170766 55.719593 27.415559 55.719593 26.585478 curveto
55.719593 25.794467 55.887236 25.045769 56.222523 24.339384 curveto
56.639188 23.460484 57.200711 23.021032 57.907093 23.021025 curveto
58.639512 23.021032 59.207545 23.453974 59.611195 24.319853 curveto
59.933456 25.003452 60.094588 25.758659 60.094593 26.585478 curveto
59.376820 26.805204 moveto
59.376816 24.464715 58.886907 23.294469 57.907093 23.294462 curveto
56.927274 23.294469 56.437365 24.319859 56.437366 26.370634 curveto
56.437365 28.707875 56.927274 29.876494 57.907093 29.876493 curveto
58.886907 29.876494 59.376816 28.852732 59.376820 26.805204 curveto
fill
0.0000000 0.0000000 0.0000000 setrgbcolor
newpath
fill
0.0000000 0.0000000 0.0000000 setrgbcolor
newpath
67.838734 28.909697 moveto
67.435084 29.769072 66.795436 30.198759 65.919788 30.198759 curveto
65.356636 30.198759 64.879748 29.972522 64.489124 29.520048 curveto
64.114775 29.087106 63.927601 28.584177 63.927601 28.011259 curveto
63.927601 27.295116 64.174996 26.704296 64.669788 26.238798 curveto
65.154813 25.783073 65.758654 25.555209 66.481312 25.555204 curveto
66.696153 25.555209 66.946804 25.621941 67.233265 25.755400 curveto
67.562037 25.901888 67.726425 26.059766 67.726429 26.229033 curveto
67.726425 26.538281 67.579941 26.692903 67.286976 26.692900 curveto
67.104681 26.692903 66.985866 26.619661 66.930531 26.473173 curveto
66.878444 26.336458 66.827989 26.199740 66.779163 26.063017 curveto
66.671739 25.913282 66.465033 25.838412 66.159046 25.838408 curveto
65.667508 25.838412 65.283394 26.061393 65.006702 26.507353 curveto
64.775582 26.884960 64.660022 27.335806 64.660023 27.859892 curveto
64.660022 28.296092 64.813017 28.702992 65.119007 29.080595 curveto
65.444526 29.480986 65.818875 29.681181 66.242054 29.681181 curveto
66.850775 29.681181 67.316269 29.406117 67.638538 28.855986 curveto
67.771998 28.852732 67.838730 28.870635 67.838734 28.909697 curveto
fill
0.0000000 0.0000000 0.0000000 setrgbcolor
newpath
76.505726 30.110868 moveto
74.342640 30.110868 lineto
74.342640 29.891142 lineto
74.785342 29.891142 75.006696 29.671416 75.006702 29.231962 curveto
75.006702 27.010283 lineto
75.006696 26.733593 74.939964 26.491080 74.806507 26.282743 curveto
74.650251 26.041862 74.440290 25.921420 74.176624 25.921415 curveto
73.772973 25.921420 73.292830 26.124870 72.736195 26.531767 curveto
72.736195 29.471220 lineto
72.736190 29.738147 72.996607 29.871611 73.517445 29.871611 curveto
73.541859 30.110868 lineto
71.383656 30.110868 lineto
71.383656 29.891142 lineto
71.823105 29.891142 72.042832 29.671416 72.042835 29.231962 curveto
72.042835 27.010283 lineto
72.042832 26.730338 71.985865 26.489453 71.871937 26.287626 curveto
71.731959 26.043490 71.531764 25.921420 71.271351 25.921415 curveto
70.861192 25.921420 70.358263 26.141146 69.762562 26.580595 curveto
69.762562 29.368681 lineto
69.762560 29.687692 70.008328 29.861845 70.499866 29.891142 curveto
70.470570 30.110868 lineto
68.405140 30.110868 lineto
68.385609 30.071806 lineto
68.414906 29.920439 lineto
68.616728 29.920439 68.779488 29.837431 68.903187 29.671415 curveto
69.017118 29.518421 69.074085 29.337757 69.074085 29.129423 curveto
69.074085 26.438993 lineto
69.074085 26.321810 68.973173 26.229036 68.771351 26.160673 curveto
68.745309 26.150911 68.592314 26.115104 68.312366 26.053251 curveto
68.312366 25.931181 lineto
68.344919 25.895378 68.385609 25.869336 68.434437 25.853056 curveto
68.691598 25.765170 69.075712 25.607292 69.586781 25.379423 curveto
69.762562 25.511259 lineto
69.762562 26.390165 lineto
70.703315 25.784701 71.352728 25.481967 71.710804 25.481962 curveto
71.928899 25.481967 72.132350 25.582878 72.321156 25.784697 curveto
72.480657 25.957227 72.596216 26.159049 72.667835 26.390165 curveto
73.608585 25.784701 74.257999 25.481967 74.616077 25.481962 curveto
74.964378 25.481967 75.242698 25.643099 75.451038 25.965361 curveto
75.633323 26.245312 75.724468 26.567578 75.724476 26.932158 curveto
75.724476 29.471220 lineto
75.724468 29.738147 75.975119 29.871611 76.476429 29.871611 curveto
76.505726 30.110868 lineto
fill
0.0000000 0.0000000 0.0000000 setrgbcolor
newpath
108.04674 57.506157 moveto
107.55846 57.965141 lineto
107.45429 57.502908 107.12551 57.271789 106.57213 57.271782 curveto
106.25312 57.271789 105.96666 57.367817 105.71275 57.559868 curveto
105.43931 57.768207 105.30260 58.028624 105.30260 58.341118 curveto
105.30260 59.498344 lineto
106.45006 59.498344 lineto
106.45006 59.869438 lineto
105.30260 59.869438 lineto
105.30260 63.101860 lineto
105.30260 63.518527 105.53209 63.726860 105.99107 63.726860 curveto
106.02688 63.726860 106.07896 63.726860 106.14732 63.726860 curveto
106.21568 63.723605 106.26614 63.721977 106.29869 63.721977 curveto
106.29869 63.941704 lineto
103.92076 63.941704 lineto
103.89635 63.800102 lineto
104.16327 63.718722 104.32115 63.665011 104.36998 63.638969 curveto
104.53274 63.551079 104.61412 63.419243 104.61412 63.243462 curveto
104.61412 59.869438 lineto
104.52297 59.879208 104.23814 59.856421 103.75963 59.801079 curveto
103.75963 59.610649 lineto
104.16327 59.610653 104.39765 59.573219 104.46275 59.498344 curveto
104.61412 59.498344 lineto
104.61412 59.351860 lineto
104.61412 58.827777 104.67109 58.450173 104.78502 58.219048 curveto
104.87291 58.046527 105.10728 57.776345 105.48814 57.408501 curveto
105.82017 57.089497 106.29869 56.929992 106.92369 56.929985 curveto
107.25897 56.929992 107.63332 57.122049 108.04674 57.506157 curveto
fill
gsave [1.0000000 0.0000000 0.0000000 1.0000000 5.3870750 0.21548300] concat
0.0000000 0.0000000 0.0000000 setrgbcolor
newpath
114.79314 42.992302 moveto
114.56527 43.070427 114.33578 43.150180 114.10467 43.231560 curveto
113.84099 43.332471 113.62289 43.435010 113.45037 43.539177 curveto
113.42107 43.558708 113.39015 43.568474 113.35760 43.568474 curveto
113.29900 43.568474 113.26157 43.506625 113.24529 43.382927 curveto
113.23227 43.295036 113.22901 43.172966 113.23553 43.016716 curveto
113.24854 42.801873 113.25505 42.713982 113.25506 42.753044 curveto
112.98162 42.922316 112.70818 43.093214 112.43475 43.265739 curveto
112.13526 43.435010 111.81951 43.519646 111.48748 43.519646 curveto
110.96990 43.519646 110.54184 43.275505 110.20330 42.787224 curveto
109.90057 42.351027 109.74920 41.864374 109.74920 41.327263 curveto
109.74920 40.627396 109.95428 40.064245 110.36443 39.637810 curveto
110.84620 39.139767 111.39796 38.890744 112.01971 38.890739 curveto
112.53403 38.890744 112.94581 38.978635 113.25506 39.154411 curveto
113.25506 37.215935 lineto
113.25505 36.968545 113.07439 36.844848 112.71307 36.844841 curveto
112.70981 36.844848 112.60401 36.849730 112.39568 36.859489 curveto
112.39568 36.688591 lineto
112.90024 36.623494 113.40805 36.455851 113.91912 36.185661 curveto
113.91912 42.528435 lineto
113.91912 42.609816 113.95167 42.686313 114.01678 42.757927 curveto
114.08188 42.826287 114.15349 42.860467 114.23162 42.860466 curveto
114.29672 42.860467 114.39112 42.853956 114.51482 42.840935 curveto
114.63852 42.827915 114.73129 42.821404 114.79314 42.821404 curveto
114.79314 42.992302 lineto
113.25506 42.562614 moveto
113.25506 40.047966 lineto
113.03045 39.728959 112.82211 39.512488 112.63006 39.398552 curveto
112.41521 39.274858 112.12224 39.213009 111.75115 39.213005 curveto
111.28566 39.213009 110.94549 39.462033 110.73064 39.960075 curveto
110.57765 40.318151 110.50115 40.762487 110.50115 41.293083 curveto
110.50115 41.709752 110.62973 42.098749 110.88689 42.460075 curveto
111.17010 42.853956 111.51189 43.050896 111.91228 43.050896 curveto
112.18898 43.050896 112.63657 42.888136 113.25506 42.562614 curveto
fill
0.0000000 0.0000000 0.0000000 setrgbcolor
newpath
117.89080 45.841129 moveto
116.09783 45.841129 lineto
116.08221 45.809879 lineto
116.10564 45.688786 lineto
116.29054 45.688786 116.42205 45.662744 116.50018 45.610661 curveto
116.59653 45.545557 116.64471 45.420557 116.64471 45.235661 curveto
116.64471 42.903629 lineto
116.64471 42.713528 116.55096 42.618476 116.36346 42.618473 curveto
116.29314 42.618476 116.21111 42.630195 116.11736 42.653629 curveto
116.01971 42.497379 lineto
116.51450 42.359362 116.88559 42.212227 117.13299 42.055973 curveto
117.27752 42.161442 lineto
117.27752 45.247379 lineto
117.27752 45.502588 117.47674 45.641911 117.87518 45.665348 curveto
117.89080 45.841129 lineto
117.32439 40.841129 moveto
117.32439 40.953113 117.28533 41.049467 117.20721 41.130192 curveto
117.12908 41.208321 117.03403 41.247384 116.92205 41.247379 curveto
116.81007 41.247384 116.71502 41.208321 116.63689 41.130192 curveto
116.55877 41.049467 116.51971 40.953113 116.51971 40.841129 curveto
116.51971 40.729155 116.55877 40.634103 116.63689 40.555973 curveto
116.71502 40.477853 116.81007 40.438791 116.92205 40.438786 curveto
117.03403 40.438791 117.12908 40.477853 117.20721 40.555973 curveto
117.28533 40.634103 117.32439 40.729155 117.32439 40.841129 curveto
fill
grestore
0.0000000 0.0000000 0.0000000 setrgbcolor
[] 0 setdash
0.32977149 setlinewidth
0 setlinejoin
0 setlinecap
newpath
39.002421 59.656894 moveto
39.002421 42.858642 39.002421 43.231936 39.002421 43.231936 curveto
stroke
gsave [1.2115208e-17 -0.19786289 0.19786289 1.2115208e-17 39.002421 58.073991] concat
0.0000000 0.0000000 0.0000000 setrgbcolor
newpath
0.0000000 0.0000000 moveto
5.0000000 -5.0000000 lineto
-12.500000 0.0000000 lineto
5.0000000 5.0000000 lineto
0.0000000 0.0000000 lineto
closepath
eofill
0.0000000 0.0000000 0.0000000 setrgbcolor
[] 0 setdash
1.2500000 setlinewidth
0 setlinejoin
0 setlinecap
newpath
0.0000000 0.0000000 moveto
5.0000000 -5.0000000 lineto
-12.500000 0.0000000 lineto
5.0000000 5.0000000 lineto
0.0000000 0.0000000 lineto
closepath
stroke
0.0000000 0.0000000 0.0000000 setrgbcolor
[] 0 setdash
1.5000000 setlinewidth
0 setlinejoin
0 setlinecap
newpath
-14.759949 -7.0000000 moveto
-14.759949 65.000000 lineto
stroke
grestore
gsave [1.2115208e-17 0.19786289 -0.19786289 1.2115208e-17 39.002421 44.814839] concat
0.0000000 0.0000000 0.0000000 setrgbcolor
newpath
0.0000000 0.0000000 moveto
5.0000000 -5.0000000 lineto
-12.500000 0.0000000 lineto
5.0000000 5.0000000 lineto
0.0000000 0.0000000 lineto
closepath
eofill
0.0000000 0.0000000 0.0000000 setrgbcolor
[] 0 setdash
1.2500000 setlinewidth
0 setlinejoin
0 setlinecap
newpath
0.0000000 0.0000000 moveto
5.0000000 -5.0000000 lineto
-12.500000 0.0000000 lineto
5.0000000 5.0000000 lineto
0.0000000 0.0000000 lineto
closepath
stroke
0.0000000 0.0000000 0.0000000 setrgbcolor
[] 0 setdash
1.5000000 setlinewidth
0 setlinejoin
0 setlinecap
newpath
-14.759949 -7.0000000 moveto
-14.759949 65.000000 lineto
stroke
grestore
0.0000000 0.0000000 0.0000000 setrgbcolor
newpath
21.253407 48.142265 moveto
18.792469 54.729179 lineto
18.235828 54.729179 lineto
20.574696 48.474297 lineto
17.991688 48.474297 lineto
17.793119 48.474303 17.584786 48.584980 17.366688 48.806328 curveto
17.158354 49.014667 17.033028 49.219745 16.990711 49.421562 curveto
16.834461 49.328789 lineto
17.239735 47.805351 lineto
21.253407 47.805351 lineto
21.253407 48.142265 lineto
fill
0.0000000 0.0000000 0.0000000 setrgbcolor
newpath
fill
0.0000000 0.0000000 0.0000000 setrgbcolor
newpath
28.211414 53.528008 moveto
27.807765 54.387383 27.168117 54.817070 26.292469 54.817070 curveto
25.729317 54.817070 25.252429 54.590833 24.861805 54.138359 curveto
24.487456 53.705417 24.300281 53.202488 24.300282 52.629570 curveto
24.300281 51.913427 24.547677 51.322607 25.042469 50.857109 curveto
25.527494 50.401384 26.131334 50.173520 26.853992 50.173515 curveto
27.068833 50.173520 27.319484 50.240252 27.605946 50.373711 curveto
27.934718 50.520199 28.099106 50.678077 28.099110 50.847343 curveto
28.099106 51.156592 27.952622 51.311214 27.659657 51.311211 curveto
27.477362 51.311214 27.358547 51.237972 27.303211 51.091484 curveto
27.251125 50.954769 27.200669 50.818050 27.151844 50.681328 curveto
27.044419 50.531592 26.837714 50.456723 26.531727 50.456718 curveto
26.040189 50.456723 25.656074 50.679704 25.379383 51.125664 curveto
25.148262 51.503271 25.032703 51.954117 25.032703 52.478203 curveto
25.032703 52.914403 25.185697 53.321303 25.491688 53.698906 curveto
25.817207 54.099297 26.191556 54.299492 26.614735 54.299492 curveto
27.223456 54.299492 27.688950 54.024427 28.011219 53.474297 curveto
28.144679 53.471043 28.211410 53.488946 28.211414 53.528008 curveto
fill
0.0000000 0.0000000 0.0000000 setrgbcolor
newpath
36.878407 54.729179 moveto
34.715321 54.729179 lineto
34.715321 54.509453 lineto
35.158022 54.509453 35.379376 54.289727 35.379383 53.850273 curveto
35.379383 51.628593 lineto
35.379376 51.351904 35.312645 51.109391 35.179188 50.901054 curveto
35.022931 50.660173 34.812971 50.539730 34.549305 50.539726 curveto
34.145654 50.539730 33.665511 50.743181 33.108875 51.150078 curveto
33.108875 54.089531 lineto
33.108871 54.356458 33.369287 54.489922 33.890125 54.489922 curveto
33.914539 54.729179 lineto
31.756336 54.729179 lineto
31.756336 54.509453 lineto
32.195786 54.509453 32.415512 54.289727 32.415516 53.850273 curveto
32.415516 51.628593 lineto
32.415512 51.348649 32.358546 51.107764 32.244617 50.905937 curveto
32.104640 50.661801 31.904445 50.539730 31.644032 50.539726 curveto
31.233873 50.539730 30.730944 50.759457 30.135242 51.198906 curveto
30.135242 53.986992 lineto
30.135241 54.306003 30.381009 54.480156 30.872547 54.509453 curveto
30.843250 54.729179 lineto
28.777821 54.729179 lineto
28.758289 54.690117 lineto
28.787586 54.538750 lineto
28.989409 54.538750 29.152169 54.455742 29.275867 54.289726 curveto
29.389799 54.136732 29.446765 53.956068 29.446766 53.747734 curveto
29.446766 51.057304 lineto
29.446765 50.940121 29.345854 50.847347 29.144032 50.778984 curveto
29.117989 50.769222 28.964995 50.733415 28.685047 50.671562 curveto
28.685047 50.549492 lineto
28.717599 50.513689 28.758289 50.487647 28.807117 50.471367 curveto
29.064279 50.383481 29.448393 50.225603 29.959461 49.997734 curveto
30.135242 50.129570 lineto
30.135242 51.008476 lineto
31.075995 50.403012 31.725409 50.100278 32.083485 50.100273 curveto
32.301580 50.100278 32.505030 50.201189 32.693836 50.403008 curveto
32.853337 50.575538 32.968897 50.777360 33.040516 51.008476 curveto
33.981266 50.403012 34.630679 50.100278 34.988758 50.100273 curveto
35.337059 50.100278 35.615379 50.261410 35.823719 50.583672 curveto
36.006003 50.863623 36.097149 51.185889 36.097157 51.550468 curveto
36.097157 54.089531 lineto
36.097149 54.356458 36.347800 54.489922 36.849110 54.489922 curveto
36.878407 54.729179 lineto
fill
grestore
showpage
