%!PS-Adobe-2.0
%%Creator: inkscape 0.41.1
%%Pages: 1
%%Orientation: Portrait
%%BoundingBox: 6 751 149 825
%%HiResBoundingBox: 6.9834180 751.08752 148.40556 824.19220
%%EndComments
%%Page: 1 1
0 842 translate
0.80000000 -0.80000000 scale
gsave [1.0000000 0.0000000 0.0000000 1.0000000 0.0000000 0.0000000] concat
0.0000000 0.0000000 0.0000000 setrgbcolor
[1.4173229 2.8346457] 0.0000000 setdash
0.35433072 setlinewidth
0 setlinejoin
0 setlinecap
newpath
8.9064378 60.912589 moveto
164.42794 60.912589 185.32979 60.912589 185.32979 60.912589 curveto
stroke
0.0000000 0.0000000 0.0000000 setrgbcolor
[] 0 setdash
0.35433072 setlinewidth
0 setlinejoin
0 setlinecap
newpath
91.364788 25.154761 moveto
91.364788 94.109319 91.364788 94.540285 91.364788 94.540285 curveto
stroke
gsave [-2.3865361e-17 -0.38976379 0.38976379 -2.3865361e-17 91.364788 27.103580] concat
0.0000000 0.0000000 0.0000000 setrgbcolor
newpath
8.7185878 4.0337352 moveto
-2.2072895 0.016013256 lineto
8.7185884 -4.0017078 lineto
6.9730900 -1.6296469 6.9831476 1.6157441 8.7185878 4.0337352 curveto
closepath
eofill
grestore
gsave [1.7356626e-17 0.28346457 -0.28346457 1.7356626e-17 91.364788 94.540285] concat
0.0000000 0.0000000 0.0000000 setrgbcolor
newpath
0.0000000 0.0000000 moveto
5.0000000 -5.0000000 lineto
-12.500000 0.0000000 lineto
5.0000000 5.0000000 lineto
0.0000000 0.0000000 lineto
closepath
eofill
0.0000000 0.0000000 0.0000000 setrgbcolor
[] 0 setdash
1.2500000 setlinewidth
0 setlinejoin
0 setlinecap
newpath
0.0000000 0.0000000 moveto
5.0000000 -5.0000000 lineto
-12.500000 0.0000000 lineto
5.0000000 5.0000000 lineto
0.0000000 0.0000000 lineto
closepath
stroke
grestore
0.0000000 0.0000000 0.0000000 setrgbcolor
[] 0 setdash
1.0000000 setlinewidth
0 setlinejoin
0 setlinecap
newpath
25.211510 50.581755 moveto
91.149305 50.581755 lineto
146.52843 35.713428 lineto
184.02247 35.713429 lineto
stroke
gsave [-0.30000000 -8.0012716e-09 8.0012716e-09 -0.30000000 185.52247 35.713429] concat
0.0000000 0.0000000 0.0000000 setrgbcolor
newpath
8.7185878 4.0337352 moveto
-2.2072895 0.016013256 lineto
8.7185884 -4.0017078 lineto
6.9730900 -1.6296469 6.9831476 1.6157441 8.7185878 4.0337352 curveto
closepath
eofill
grestore
0.0000000 0.0000000 0.0000000 setrgbcolor
[] 0 setdash
0.35433072 setlinewidth
0 setlinejoin
0 setlinecap
newpath
146.74392 97.772529 moveto
146.74392 23.861863 lineto
stroke
gsave [2.3865361e-17 -0.38976379 0.38976379 2.3865361e-17 146.74392 99.721348] concat
0.0000000 0.0000000 0.0000000 setrgbcolor
newpath
8.7185878 4.0337352 moveto
-2.2072895 0.016013256 lineto
8.7185884 -4.0017078 lineto
6.9730900 -1.6296469 6.9831476 1.6157441 8.7185878 4.0337352 curveto
closepath
eofill
grestore
gsave [-2.3865361e-17 0.38976379 -0.38976379 -2.3865361e-17 146.74392 21.913044] concat
0.0000000 0.0000000 0.0000000 setrgbcolor
newpath
8.7185878 4.0337352 moveto
-2.2072895 0.016013256 lineto
8.7185884 -4.0017078 lineto
6.9730900 -1.6296469 6.9831476 1.6157441 8.7185878 4.0337352 curveto
closepath
eofill
grestore
0.0000000 0.0000000 0.0000000 setrgbcolor
[] 0 setdash
0.39982066 setlinewidth
0 setlinejoin
0 setlinecap
newpath
89.432227 73.853918 moveto
56.234277 73.853918 lineto
stroke
gsave [-0.23989239 2.9377375e-17 -2.9377375e-17 -0.23989239 87.513088 73.853918] concat
0.0000000 0.0000000 0.0000000 setrgbcolor
newpath
0.0000000 0.0000000 moveto
5.0000000 -5.0000000 lineto
-12.500000 0.0000000 lineto
5.0000000 5.0000000 lineto
0.0000000 0.0000000 lineto
closepath
eofill
0.0000000 0.0000000 0.0000000 setrgbcolor
[] 0 setdash
1.2500000 setlinewidth
0 setlinejoin
0 setlinecap
newpath
0.0000000 0.0000000 moveto
5.0000000 -5.0000000 lineto
-12.500000 0.0000000 lineto
5.0000000 5.0000000 lineto
0.0000000 0.0000000 lineto
closepath
stroke
0.0000000 0.0000000 0.0000000 setrgbcolor
[] 0 setdash
1.5000000 setlinewidth
0 setlinejoin
0 setlinecap
newpath
-14.759949 -7.0000000 moveto
-14.759949 65.000000 lineto
stroke
grestore
gsave [0.23989239 -2.9377375e-17 -2.9377375e-17 -0.23989239 58.153416 73.853918] concat
0.0000000 0.0000000 0.0000000 setrgbcolor
newpath
0.0000000 0.0000000 moveto
5.0000000 -5.0000000 lineto
-12.500000 0.0000000 lineto
5.0000000 5.0000000 lineto
0.0000000 0.0000000 lineto
closepath
eofill
0.0000000 0.0000000 0.0000000 setrgbcolor
[] 0 setdash
1.2500000 setlinewidth
0 setlinejoin
0 setlinecap
newpath
0.0000000 0.0000000 moveto
5.0000000 -5.0000000 lineto
-12.500000 0.0000000 lineto
5.0000000 5.0000000 lineto
0.0000000 0.0000000 lineto
closepath
stroke
0.0000000 0.0000000 0.0000000 setrgbcolor
[] 0 setdash
1.5000000 setlinewidth
0 setlinejoin
0 setlinecap
newpath
-14.759949 -7.0000000 moveto
-14.759949 65.000000 lineto
stroke
grestore
0.0000000 0.0000000 0.0000000 setrgbcolor
newpath
85.636505 99.956306 moveto
85.148224 100.41529 lineto
85.044053 99.953058 84.715278 99.721938 84.161896 99.721931 curveto
83.842883 99.721938 83.556425 99.817967 83.302521 100.01002 curveto
83.029081 100.21836 82.892363 100.47877 82.892365 100.79127 curveto
82.892365 101.94849 lineto
84.039825 101.94849 lineto
84.039825 102.31959 lineto
82.892365 102.31959 lineto
82.892365 105.55201 lineto
82.892363 105.96868 83.121855 106.17701 83.580841 106.17701 curveto
83.616646 106.17701 83.668729 106.17701 83.737091 106.17701 curveto
83.805448 106.17375 83.855904 106.17213 83.888458 106.17213 curveto
83.888458 106.39185 lineto
81.510529 106.39185 lineto
81.486115 106.25025 lineto
81.753041 106.16887 81.910919 106.11516 81.959747 106.08912 curveto
82.122507 106.00123 82.203887 105.86939 82.203888 105.69361 curveto
82.203888 102.31959 lineto
82.112741 102.32936 81.827911 102.30657 81.349396 102.25123 curveto
81.349396 102.06080 lineto
81.753041 102.06080 81.987416 102.02337 82.052521 101.94849 curveto
82.203888 101.94849 lineto
82.203888 101.80201 lineto
82.203887 101.27793 82.260853 100.90032 82.374786 100.66920 curveto
82.462676 100.49668 82.697051 100.22649 83.077911 99.858650 curveto
83.409940 99.539647 83.888456 99.380142 84.513458 99.380135 curveto
84.848741 99.380142 85.223090 99.572199 85.636505 99.956306 curveto
fill
0.0000000 0.0000000 0.0000000 setrgbcolor
newpath
fill
0.0000000 0.0000000 0.0000000 setrgbcolor
newpath
92.589630 102.21705 moveto
88.536896 102.21705 lineto
88.536896 101.75806 lineto
92.589630 101.75806 lineto
92.589630 102.21705 lineto
92.589630 104.05787 moveto
88.536896 104.05787 lineto
88.536896 103.59400 lineto
92.589630 103.59400 lineto
92.589630 104.05787 lineto
fill
0.0000000 0.0000000 0.0000000 setrgbcolor
newpath
fill
0.0000000 0.0000000 0.0000000 setrgbcolor
newpath
99.630646 100.83033 moveto
99.630642 101.25677 99.487413 101.62949 99.200958 101.94849 curveto
99.158638 101.99733 98.886828 102.22845 98.385529 102.64185 curveto
98.082792 102.89576 97.916777 103.14479 97.887482 103.38892 curveto
97.871204 103.54518 97.863066 103.69003 97.863068 103.82349 curveto
97.863066 104.17506 97.944446 104.42408 98.107208 104.57056 curveto
97.858185 104.66334 lineto
97.545683 104.21412 97.389434 103.78932 97.389435 103.38892 curveto
97.389434 103.07643 97.498483 102.79648 97.716583 102.54908 curveto
97.807727 102.44492 98.040475 102.24798 98.414825 101.95826 curveto
98.639432 101.78248 98.787544 101.60833 98.859161 101.43580 curveto
98.917752 101.29257 98.947049 101.07285 98.947052 100.77662 curveto
98.947049 100.47715 98.872179 100.22975 98.722443 100.03443 curveto
98.559680 99.822849 98.333443 99.717055 98.043732 99.717049 curveto
97.874459 99.717055 97.703561 99.806573 97.531036 99.985603 curveto
97.365020 100.15163 97.265736 100.32090 97.233185 100.49342 curveto
97.177845 100.78639 97.032989 100.93287 96.798615 100.93287 curveto
96.603302 100.93287 96.505645 100.80918 96.505646 100.56178 curveto
96.505645 100.22649 96.692820 99.938409 97.067169 99.697517 curveto
97.402454 99.482681 97.749134 99.375259 98.107208 99.375252 curveto
98.546659 99.375259 98.909614 99.508722 99.196075 99.775642 curveto
99.485786 100.04258 99.630642 100.39414 99.630646 100.83033 curveto
98.507599 105.90845 moveto
98.507596 106.07122 98.449003 106.21119 98.331818 106.32838 curveto
98.217883 106.44231 98.079537 106.49928 97.916779 106.49928 curveto
97.754017 106.49928 97.614043 106.44231 97.496857 106.32838 curveto
97.382923 106.21119 97.325957 106.07122 97.325958 105.90845 curveto
97.325957 105.74570 97.382923 105.60735 97.496857 105.49342 curveto
97.614043 105.37623 97.754017 105.31764 97.916779 105.31763 curveto
98.079537 105.31764 98.217883 105.37623 98.331818 105.49342 curveto
98.449003 105.60735 98.507596 105.74570 98.507599 105.90845 curveto
fill
0.0000000 0.0000000 0.0000000 setrgbcolor
newpath
51.945995 63.791679 moveto
51.770214 63.791679 lineto
51.770209 63.143899 51.483751 62.820006 50.910839 62.820000 curveto
48.708691 62.820000 lineto
48.708691 65.442070 lineto
50.529980 65.442070 lineto
50.725288 65.442074 50.879911 65.365577 50.993847 65.212578 curveto
51.091499 65.079119 51.140327 64.908220 51.140331 64.699883 curveto
51.277050 64.699883 lineto
51.277050 66.604179 lineto
51.140331 66.604179 lineto
51.140327 66.070328 50.936877 65.803402 50.529980 65.803398 curveto
48.708691 65.803398 lineto
48.708691 68.454765 lineto
48.708689 68.890964 49.003285 69.109062 49.592480 69.109062 curveto
49.592480 69.328789 lineto
47.038769 69.328789 lineto
47.038769 69.109062 lineto
47.579133 69.109062 47.849315 68.871432 47.849316 68.396172 curveto
47.849316 63.132500 lineto
47.849315 62.777689 47.579133 62.601907 47.038769 62.605156 curveto
47.038769 62.395195 lineto
51.828808 62.395195 lineto
51.945995 63.791679 lineto
fill
0.0000000 0.0000000 0.0000000 setrgbcolor
[] 0 setdash
0.43265519 setlinewidth
0 setlinejoin
0 setlinecap
newpath
93.174088 29.895384 moveto
144.93462 29.895384 lineto
stroke
gsave [0.25959311 0.0000000 0.0000000 0.25959311 95.250833 29.895384] concat
0.0000000 0.0000000 0.0000000 setrgbcolor
newpath
0.0000000 0.0000000 moveto
5.0000000 -5.0000000 lineto
-12.500000 0.0000000 lineto
5.0000000 5.0000000 lineto
0.0000000 0.0000000 lineto
closepath
eofill
0.0000000 0.0000000 0.0000000 setrgbcolor
[] 0 setdash
1.2500000 setlinewidth
0 setlinejoin
0 setlinecap
newpath
0.0000000 0.0000000 moveto
5.0000000 -5.0000000 lineto
-12.500000 0.0000000 lineto
5.0000000 5.0000000 lineto
0.0000000 0.0000000 lineto
closepath
stroke
0.0000000 0.0000000 0.0000000 setrgbcolor
[] 0 setdash
1.5000000 setlinewidth
0 setlinejoin
0 setlinecap
newpath
-14.759949 -7.0000000 moveto
-14.759949 65.000000 lineto
stroke
grestore
gsave [-0.25959311 -0.0000000 0.0000000 0.25959311 142.85788 29.895384] concat
0.0000000 0.0000000 0.0000000 setrgbcolor
newpath
0.0000000 0.0000000 moveto
5.0000000 -5.0000000 lineto
-12.500000 0.0000000 lineto
5.0000000 5.0000000 lineto
0.0000000 0.0000000 lineto
closepath
eofill
0.0000000 0.0000000 0.0000000 setrgbcolor
[] 0 setdash
1.2500000 setlinewidth
0 setlinejoin
0 setlinecap
newpath
0.0000000 0.0000000 moveto
5.0000000 -5.0000000 lineto
-12.500000 0.0000000 lineto
5.0000000 5.0000000 lineto
0.0000000 0.0000000 lineto
closepath
stroke
0.0000000 0.0000000 0.0000000 setrgbcolor
[] 0 setdash
1.5000000 setlinewidth
0 setlinejoin
0 setlinecap
newpath
-14.759949 -7.0000000 moveto
-14.759949 65.000000 lineto
stroke
grestore
0.0000000 0.0000000 0.0000000 setrgbcolor
newpath
111.78001 26.680521 moveto
111.78000 26.730001 111.66542 27.101095 111.43626 27.793802 curveto
108.16673 27.793802 lineto
108.09251 27.563334 lineto
109.83209 26.159689 110.70188 24.883649 110.70188 23.735209 curveto
110.70188 23.063338 110.39719 22.727401 109.78782 22.727396 curveto
109.11073 22.727401 108.59511 23.046411 108.24094 23.684427 curveto
108.06907 23.610209 lineto
108.20969 23.222192 108.44928 22.895370 108.78782 22.629740 curveto
109.14459 22.348495 109.52219 22.207870 109.92063 22.207865 curveto
110.28782 22.207870 110.59641 22.319849 110.84641 22.543802 curveto
111.10683 22.778182 111.23703 23.076359 111.23704 23.438334 curveto
111.23703 24.597191 110.45188 25.874533 108.88157 27.270365 curveto
111.01829 27.270365 lineto
111.16151 27.270365 111.29823 27.159688 111.42844 26.938334 curveto
111.55865 26.716980 111.61854 26.606303 111.60813 26.606302 curveto
111.62896 26.606303 111.65891 26.618022 111.69798 26.641459 curveto
111.73703 26.662293 111.76438 26.675314 111.78001 26.680521 curveto
fill
0.0000000 0.0000000 0.0000000 setrgbcolor
newpath
115.92844 24.973490 moveto
115.92844 25.606304 115.79433 26.205262 115.52610 26.770365 curveto
115.19276 27.476094 114.74355 27.828958 114.17844 27.828959 curveto
113.59250 27.828958 113.13678 27.481303 112.81126 26.785990 curveto
112.55605 26.241720 112.42844 25.637554 112.42844 24.973490 curveto
112.42844 24.340681 112.56256 23.741723 112.83079 23.176615 curveto
113.16412 22.473495 113.61334 22.121933 114.17844 22.121927 curveto
114.76438 22.121933 115.21881 22.468287 115.54173 23.160990 curveto
115.79953 23.707869 115.92844 24.312035 115.92844 24.973490 curveto
115.35423 25.149271 moveto
115.35422 23.276880 114.96230 22.340683 114.17844 22.340677 curveto
113.39459 22.340683 113.00266 23.160994 113.00266 24.801615 curveto
113.00266 26.671408 113.39459 27.606302 114.17844 27.606302 curveto
114.96230 27.606302 115.35422 26.787293 115.35423 25.149271 curveto
fill
0.0000000 0.0000000 0.0000000 setrgbcolor
newpath
fill
0.0000000 0.0000000 0.0000000 setrgbcolor
newpath
122.12376 26.832865 moveto
121.80084 27.520365 121.28912 27.864115 120.58860 27.864115 curveto
120.13808 27.864115 119.75657 27.683125 119.44407 27.321146 curveto
119.14459 26.974793 118.99485 26.572449 118.99485 26.114115 curveto
118.99485 25.541200 119.19277 25.068545 119.58860 24.696146 curveto
119.97662 24.331566 120.45969 24.149275 121.03782 24.149271 curveto
121.20969 24.149275 121.41021 24.202660 121.63938 24.309427 curveto
121.90240 24.426618 122.03391 24.552920 122.03391 24.688334 curveto
122.03391 24.935732 121.91672 25.059430 121.68235 25.059427 curveto
121.53651 25.059430 121.44146 25.000836 121.39719 24.883646 curveto
121.35552 24.774274 121.31516 24.664899 121.27610 24.555521 curveto
121.19016 24.435733 121.02480 24.375837 120.78001 24.375834 curveto
120.38678 24.375837 120.07948 24.554222 119.85813 24.910990 curveto
119.67323 25.213076 119.58079 25.573752 119.58079 25.993021 curveto
119.58079 26.341981 119.70318 26.667501 119.94798 26.969584 curveto
120.20839 27.289897 120.50787 27.450053 120.84641 27.450052 curveto
121.33339 27.450053 121.70578 27.230001 121.96360 26.789896 curveto
122.07037 26.787293 122.12375 26.801616 122.12376 26.832865 curveto
fill
0.0000000 0.0000000 0.0000000 setrgbcolor
newpath
129.05735 27.793802 moveto
127.32688 27.793802 lineto
127.32688 27.618021 lineto
127.68104 27.618021 127.85813 27.442240 127.85813 27.090677 curveto
127.85813 25.313334 lineto
127.85813 25.091982 127.80474 24.897972 127.69798 24.731302 curveto
127.57297 24.538597 127.40500 24.442243 127.19407 24.442240 curveto
126.87115 24.442243 126.48703 24.605003 126.04173 24.930521 curveto
126.04173 27.282084 lineto
126.04172 27.495625 126.25005 27.602396 126.66673 27.602396 curveto
126.68626 27.793802 lineto
124.95969 27.793802 lineto
124.95969 27.618021 lineto
125.31125 27.618021 125.48703 27.442240 125.48704 27.090677 curveto
125.48704 25.313334 lineto
125.48703 25.089378 125.44146 24.896670 125.35032 24.735209 curveto
125.23834 24.539899 125.07818 24.442243 124.86985 24.442240 curveto
124.54172 24.442243 124.13938 24.618024 123.66282 24.969584 curveto
123.66282 27.200052 lineto
123.66282 27.455261 123.85943 27.594584 124.25266 27.618021 curveto
124.22923 27.793802 lineto
122.57688 27.793802 lineto
122.56126 27.762552 lineto
122.58469 27.641459 lineto
122.74615 27.641459 122.87636 27.575052 122.97532 27.442240 curveto
123.06646 27.319844 123.11204 27.175313 123.11204 27.008646 curveto
123.11204 24.856302 lineto
123.11204 24.762555 123.03131 24.688337 122.86985 24.633646 curveto
122.84902 24.625837 122.72662 24.597191 122.50266 24.547709 curveto
122.50266 24.450052 lineto
122.52870 24.421410 122.56126 24.400576 122.60032 24.387552 curveto
122.80605 24.317243 123.11334 24.190941 123.52219 24.008646 curveto
123.66282 24.114115 lineto
123.66282 24.817240 lineto
124.41542 24.332868 124.93495 24.090681 125.22141 24.090677 curveto
125.39589 24.090681 125.55865 24.171410 125.70969 24.332865 curveto
125.83729 24.470889 125.92974 24.632347 125.98704 24.817240 curveto
126.73964 24.332868 127.25917 24.090681 127.54563 24.090677 curveto
127.82427 24.090681 128.04693 24.219587 128.21360 24.477396 curveto
128.35943 24.701357 128.43234 24.959170 128.43235 25.250834 curveto
128.43235 27.282084 lineto
128.43234 27.495625 128.63286 27.602396 129.03391 27.602396 curveto
129.05735 27.793802 lineto
fill
0.0000000 0.0000000 0.0000000 setrgbcolor
newpath
135.83397 104.10374 moveto
135.34569 104.56272 lineto
135.24152 104.10049 134.91274 103.86937 134.35936 103.86936 curveto
134.04035 103.86937 133.75389 103.96540 133.49998 104.15745 curveto
133.22655 104.36579 133.08983 104.62620 133.08983 104.93870 curveto
133.08983 106.09592 lineto
134.23729 106.09592 lineto
134.23729 106.46702 lineto
133.08983 106.46702 lineto
133.08983 109.69944 lineto
133.08983 110.11611 133.31932 110.32444 133.77831 110.32444 curveto
133.81411 110.32444 133.86619 110.32444 133.93456 110.32444 curveto
134.00291 110.32119 134.05337 110.31956 134.08592 110.31956 curveto
134.08592 110.53928 lineto
131.70799 110.53928 lineto
131.68358 110.39768 lineto
131.95051 110.31630 132.10838 110.26259 132.15721 110.23655 curveto
132.31997 110.14866 132.40135 110.01682 132.40135 109.84104 curveto
132.40135 106.46702 lineto
132.31021 106.47679 132.02537 106.45400 131.54686 106.39866 curveto
131.54686 106.20823 lineto
131.95051 106.20823 132.18488 106.17080 132.24998 106.09592 curveto
132.40135 106.09592 lineto
132.40135 105.94944 lineto
132.40135 105.42536 132.45832 105.04775 132.57225 104.81663 curveto
132.66014 104.64411 132.89451 104.37393 133.27538 104.00608 curveto
133.60740 103.68708 134.08592 103.52757 134.71092 103.52757 curveto
135.04621 103.52757 135.42055 103.71963 135.83397 104.10374 curveto
fill
0.0000000 0.0000000 0.0000000 setrgbcolor
newpath
fill
0.0000000 0.0000000 0.0000000 setrgbcolor
newpath
142.78709 106.36448 moveto
138.73436 106.36448 lineto
138.73436 105.90549 lineto
142.78709 105.90549 lineto
142.78709 106.36448 lineto
142.78709 108.20530 moveto
138.73436 108.20530 lineto
138.73436 107.74143 lineto
142.78709 107.74143 lineto
142.78709 108.20530 lineto
fill
0.0000000 0.0000000 0.0000000 setrgbcolor
newpath
fill
0.0000000 0.0000000 0.0000000 setrgbcolor
newpath
150.59959 108.22483 moveto
150.59959 109.10699 150.35870 109.73688 149.87694 110.11448 curveto
149.44725 110.45302 148.77830 110.62229 147.87010 110.62229 curveto
147.60643 110.62229 147.36717 110.57672 147.15233 110.48557 curveto
146.87238 110.36188 146.73241 110.18447 146.73241 109.95335 curveto
146.73241 109.84593 146.76984 109.75641 146.84471 109.68479 curveto
146.91958 109.60992 147.01235 109.57249 147.12303 109.57249 curveto
147.34764 109.57249 147.58364 109.68154 147.83104 109.89964 curveto
148.08169 110.11773 148.33071 110.22678 148.57811 110.22678 curveto
149.45376 110.22678 149.89158 109.61318 149.89159 108.38596 curveto
149.89158 108.05068 149.80857 107.73492 149.64256 107.43870 curveto
149.44725 107.09039 149.19334 106.91624 148.88084 106.91624 curveto
148.55207 106.91624 148.20539 107.00901 147.84081 107.19456 curveto
147.74803 106.94553 lineto
148.03123 106.86741 148.36977 106.64931 148.76366 106.29124 curveto
149.19009 105.90387 149.40330 105.58161 149.40331 105.32444 curveto
149.40330 105.02497 149.28937 104.76618 149.06151 104.54807 curveto
148.83364 104.32998 148.56997 104.22093 148.27049 104.22092 curveto
147.91242 104.22093 147.43228 104.50739 146.83006 105.08030 curveto
146.67870 105.01682 lineto
147.00747 104.51553 147.28742 104.16722 147.51854 103.97190 curveto
147.86359 103.68870 148.27700 103.54710 148.75877 103.54710 curveto
149.17218 103.54710 149.52700 103.67731 149.82323 103.93772 curveto
150.13572 104.21117 150.29197 104.55133 150.29198 104.95823 curveto
150.29197 105.30654 150.18455 105.59625 149.96971 105.82737 curveto
149.82648 105.98362 149.56606 106.16266 149.18846 106.36448 curveto
149.63117 106.39378 149.98436 106.60537 150.24803 106.99924 curveto
150.48240 107.35081 150.59959 107.75934 150.59959 108.22483 curveto
fill
0.0000000 0.0000000 0.0000000 setrgbcolor
newpath
155.59959 107.01389 moveto
155.59959 107.80491 155.43195 108.55361 155.09666 109.25999 curveto
154.67999 110.14215 154.11847 110.58323 153.41209 110.58323 curveto
152.67967 110.58323 152.11001 110.14866 151.70311 109.27952 curveto
151.38410 108.59918 151.22459 107.84397 151.22459 107.01389 curveto
151.22459 106.22288 151.39224 105.47418 151.72752 104.76780 curveto
152.14419 103.88890 152.70571 103.44945 153.41209 103.44944 curveto
154.14451 103.44945 154.71255 103.88239 155.11620 104.74827 curveto
155.43846 105.43187 155.59959 106.18707 155.59959 107.01389 curveto
154.88182 107.23362 moveto
154.88182 104.89313 154.39191 103.72288 153.41209 103.72288 curveto
152.43227 103.72288 151.94237 104.74827 151.94237 106.79905 curveto
151.94237 109.13629 152.43227 110.30491 153.41209 110.30491 curveto
154.39191 110.30491 154.88182 109.28115 154.88182 107.23362 curveto
fill
0.0000000 0.0000000 0.0000000 setrgbcolor
newpath
fill
0.0000000 0.0000000 0.0000000 setrgbcolor
newpath
163.34373 109.33811 moveto
162.94009 110.19749 162.30044 110.62717 161.42479 110.62717 curveto
160.86164 110.62717 160.38475 110.40094 159.99413 109.94846 curveto
159.61978 109.51552 159.43260 109.01259 159.43260 108.43967 curveto
159.43260 107.72353 159.68000 107.13271 160.17479 106.66721 curveto
160.65981 106.21149 161.26365 105.98362 161.98631 105.98362 curveto
162.20115 105.98362 162.45180 106.05036 162.73827 106.18382 curveto
163.06704 106.33030 163.23143 106.48818 163.23143 106.65745 curveto
163.23143 106.96670 163.08494 107.12132 162.79198 107.12132 curveto
162.60968 107.12132 162.49087 107.04808 162.43553 106.90159 curveto
162.38345 106.76487 162.33299 106.62815 162.28416 106.49143 curveto
162.17674 106.34170 161.97003 106.26683 161.66405 106.26682 curveto
161.17251 106.26683 160.78839 106.48981 160.51170 106.93577 curveto
160.28058 107.31338 160.16502 107.76422 160.16502 108.28831 curveto
160.16502 108.72451 160.31802 109.13141 160.62401 109.50901 curveto
160.94953 109.90940 161.32388 110.10960 161.74706 110.10960 curveto
162.35578 110.10960 162.82127 109.83453 163.14354 109.28440 curveto
163.27700 109.28115 163.34373 109.29905 163.34373 109.33811 curveto
fill
0.0000000 0.0000000 0.0000000 setrgbcolor
newpath
172.01073 110.53928 moveto
169.84764 110.53928 lineto
169.84764 110.31956 lineto
170.29034 110.31956 170.51170 110.09983 170.51170 109.66038 curveto
170.51170 107.43870 lineto
170.51170 107.16201 170.44497 106.91950 170.31151 106.71116 curveto
170.15525 106.47028 169.94529 106.34983 169.68163 106.34983 curveto
169.27797 106.34983 168.79783 106.55329 168.24120 106.96018 curveto
168.24120 109.89964 lineto
168.24119 110.16656 168.50161 110.30003 169.02245 110.30003 curveto
169.04686 110.53928 lineto
166.88866 110.53928 lineto
166.88866 110.31956 lineto
167.32811 110.31956 167.54783 110.09983 167.54784 109.66038 curveto
167.54784 107.43870 lineto
167.54783 107.15875 167.49087 106.91787 167.37694 106.71604 curveto
167.23696 106.47191 167.03677 106.34983 166.77635 106.34983 curveto
166.36619 106.34983 165.86326 106.56956 165.26756 107.00901 curveto
165.26756 109.79710 lineto
165.26756 110.11611 165.51333 110.29026 166.00487 110.31956 curveto
165.97557 110.53928 lineto
163.91014 110.53928 lineto
163.89061 110.50022 lineto
163.91991 110.34885 lineto
164.12173 110.34885 164.28449 110.26585 164.40819 110.09983 curveto
164.52212 109.94684 164.57909 109.76617 164.57909 109.55784 curveto
164.57909 106.86741 lineto
164.57909 106.75023 164.47817 106.65745 164.27635 106.58909 curveto
164.25031 106.57933 164.09732 106.54352 163.81737 106.48167 curveto
163.81737 106.35960 lineto
163.84992 106.32379 163.89061 106.29775 163.93944 106.28147 curveto
164.19660 106.19358 164.58071 106.03571 165.09178 105.80784 curveto
165.26756 105.93967 lineto
165.26756 106.81858 lineto
166.20832 106.21312 166.85773 105.91038 167.21581 105.91038 curveto
167.43390 105.91038 167.63735 106.01129 167.82616 106.21311 curveto
167.98566 106.38564 168.10122 106.58746 168.17284 106.81858 curveto
169.11359 106.21312 169.76300 105.91038 170.12108 105.91038 curveto
170.46938 105.91038 170.74770 106.07151 170.95604 106.39378 curveto
171.13832 106.67373 171.22947 106.99599 171.22948 107.36057 curveto
171.22948 109.89964 lineto
171.22947 110.16656 171.48012 110.30003 171.98143 110.30003 curveto
172.01073 110.53928 lineto
fill
0.0000000 0.0000000 0.0000000 setrgbcolor
newpath
87.744049 109.40472 moveto
85.466705 109.40472 lineto
85.466705 109.26800 lineto
86.018788 109.26800 86.294829 109.04534 86.294830 108.60003 curveto
86.294830 104.47503 lineto
86.154204 104.55837 86.014881 104.64170 85.876862 104.72503 curveto
85.710194 104.81878 85.563059 104.88259 85.435455 104.91644 curveto
85.361237 104.74456 lineto
85.884673 104.48415 86.333891 104.16644 86.708893 103.79144 curveto
86.943268 103.79144 lineto
86.943268 108.60003 lineto
86.943266 108.86826 87.012276 109.05055 87.150299 109.14690 curveto
87.262276 109.22763 87.460192 109.26800 87.744049 109.26800 curveto
87.744049 109.40472 lineto
fill
0.0000000 0.0000000 0.0000000 setrgbcolor
newpath
138.61046 112.38950 moveto
138.61045 112.43898 138.49587 112.81007 138.26671 113.50278 curveto
134.99718 113.50278 lineto
134.92296 113.27231 lineto
136.66254 111.86866 137.53233 110.59262 137.53233 109.44418 curveto
137.53233 108.77231 137.22764 108.43638 136.61827 108.43637 curveto
135.94119 108.43638 135.42556 108.75539 135.07140 109.39340 curveto
134.89952 109.31918 lineto
135.04015 108.93117 135.27973 108.60434 135.61827 108.33871 curveto
135.97504 108.05747 136.35264 107.91685 136.75108 107.91684 curveto
137.11827 107.91685 137.42686 108.02882 137.67686 108.25278 curveto
137.93728 108.48716 138.06749 108.78533 138.06749 109.14731 curveto
138.06749 110.30617 137.28233 111.58351 135.71202 112.97934 curveto
137.84874 112.97934 lineto
137.99197 112.97934 138.12868 112.86866 138.25890 112.64731 curveto
138.38910 112.42596 138.44900 112.31528 138.43858 112.31528 curveto
138.45941 112.31528 138.48936 112.32700 138.52843 112.35043 curveto
138.56749 112.37127 138.59483 112.38429 138.61046 112.38950 curveto
fill
0.0000000 0.0000000 0.0000000 setrgbcolor
[1.4173229 2.8346457] 0.0000000 setdash
0.35433072 setlinewidth
0 setlinejoin
0 setlinecap
newpath
146.52843 35.713428 moveto
53.224299 61.140421 lineto
stroke
0.0000000 0.0000000 0.0000000 setrgbcolor
newpath
71.427467 64.192986 moveto
70.939186 64.651970 lineto
70.835016 64.189737 70.506240 63.958617 69.952858 63.958611 curveto
69.633845 63.958617 69.347387 64.054646 69.093483 64.246696 curveto
68.820044 64.455036 68.683325 64.715452 68.683327 65.027946 curveto
68.683327 66.185173 lineto
69.830788 66.185173 lineto
69.830788 66.556267 lineto
68.683327 66.556267 lineto
68.683327 69.788689 lineto
68.683325 70.205356 68.912817 70.413689 69.371803 70.413689 curveto
69.407608 70.413689 69.459691 70.413689 69.528053 70.413689 curveto
69.596410 70.410434 69.646866 70.408806 69.679420 70.408806 curveto
69.679420 70.628532 lineto
67.301491 70.628532 lineto
67.277077 70.486931 lineto
67.544003 70.405551 67.701881 70.351840 67.750710 70.325798 curveto
67.913469 70.237908 67.994849 70.106072 67.994850 69.930290 curveto
67.994850 66.556267 lineto
67.903703 66.566036 67.618873 66.543250 67.140358 66.487907 curveto
67.140358 66.297478 lineto
67.544003 66.297482 67.778378 66.260047 67.843483 66.185173 curveto
67.994850 66.185173 lineto
67.994850 66.038689 lineto
67.994849 65.514605 68.051815 65.137001 68.165749 64.905876 curveto
68.253638 64.733356 68.488013 64.463174 68.868874 64.095329 curveto
69.200903 63.776326 69.679418 63.616821 70.304420 63.616814 curveto
70.639703 63.616821 71.014052 63.808878 71.427467 64.192986 curveto
fill
0.0000000 0.0000000 0.0000000 setrgbcolor
newpath
fill
0.0000000 0.0000000 0.0000000 setrgbcolor
newpath
73.162727 72.997353 moveto
70.885384 72.997353 lineto
70.885384 72.860634 lineto
71.437466 72.860634 71.713507 72.637978 71.713509 72.192665 curveto
71.713509 68.067665 lineto
71.572882 68.151003 71.433560 68.234337 71.295540 68.317665 curveto
71.128872 68.411420 70.981737 68.475222 70.854134 68.509071 curveto
70.779915 68.337196 lineto
71.303351 68.076785 71.752570 67.759077 72.127571 67.384071 curveto
72.361946 67.384071 lineto
72.361946 72.192665 lineto
72.361944 72.460895 72.430954 72.643186 72.568977 72.739540 curveto
72.680954 72.820269 72.878871 72.860634 73.162727 72.860634 curveto
73.162727 72.997353 lineto
fill
grestore
showpage
