%!PS-Adobe-2.0 EPSF-2.0
%%Title: Perpendiculaires.fig
%%Creator: fig2dev Version 3.2 Patchlevel 5-alpha5
%%CreationDate: Thu May 25 23:11:38 2006
%%For: guyotv@debian ()
%%BoundingBox: 0 0 130 76
%Magnification: 1.0000
%%EndComments
/$F2psDict 200 dict def
$F2psDict begin
$F2psDict /mtrx matrix put
/col-1 {0 setgray} bind def
/col0 {0.000 0.000 0.000 srgb} bind def
/col1 {0.000 0.000 1.000 srgb} bind def
/col2 {0.000 1.000 0.000 srgb} bind def
/col3 {0.000 1.000 1.000 srgb} bind def
/col4 {1.000 0.000 0.000 srgb} bind def
/col5 {1.000 0.000 1.000 srgb} bind def
/col6 {1.000 1.000 0.000 srgb} bind def
/col7 {1.000 1.000 1.000 srgb} bind def
/col8 {0.000 0.000 0.560 srgb} bind def
/col9 {0.000 0.000 0.690 srgb} bind def
/col10 {0.000 0.000 0.820 srgb} bind def
/col11 {0.530 0.810 1.000 srgb} bind def
/col12 {0.000 0.560 0.000 srgb} bind def
/col13 {0.000 0.690 0.000 srgb} bind def
/col14 {0.000 0.820 0.000 srgb} bind def
/col15 {0.000 0.560 0.560 srgb} bind def
/col16 {0.000 0.690 0.690 srgb} bind def
/col17 {0.000 0.820 0.820 srgb} bind def
/col18 {0.560 0.000 0.000 srgb} bind def
/col19 {0.690 0.000 0.000 srgb} bind def
/col20 {0.820 0.000 0.000 srgb} bind def
/col21 {0.560 0.000 0.560 srgb} bind def
/col22 {0.690 0.000 0.690 srgb} bind def
/col23 {0.820 0.000 0.820 srgb} bind def
/col24 {0.500 0.190 0.000 srgb} bind def
/col25 {0.630 0.250 0.000 srgb} bind def
/col26 {0.750 0.380 0.000 srgb} bind def
/col27 {1.000 0.500 0.500 srgb} bind def
/col28 {1.000 0.630 0.630 srgb} bind def
/col29 {1.000 0.750 0.750 srgb} bind def
/col30 {1.000 0.880 0.880 srgb} bind def
/col31 {1.000 0.840 0.000 srgb} bind def

end
save
newpath 0 76 moveto 0 0 lineto 130 0 lineto 130 76 lineto closepath clip newpath
-21.9 105.6 translate
1 -1 scale

/cp {closepath} bind def
/ef {eofill} bind def
/gr {grestore} bind def
/gs {gsave} bind def
/sa {save} bind def
/rs {restore} bind def
/l {lineto} bind def
/m {moveto} bind def
/rm {rmoveto} bind def
/n {newpath} bind def
/s {stroke} bind def
/sh {show} bind def
/slc {setlinecap} bind def
/slj {setlinejoin} bind def
/slw {setlinewidth} bind def
/srgb {setrgbcolor} bind def
/rot {rotate} bind def
/sc {scale} bind def
/sd {setdash} bind def
/ff {findfont} bind def
/sf {setfont} bind def
/scf {scalefont} bind def
/sw {stringwidth} bind def
/tr {translate} bind def
/tnt {dup dup currentrgbcolor
  4 -2 roll dup 1 exch sub 3 -1 roll mul add
  4 -2 roll dup 1 exch sub 3 -1 roll mul add
  4 -2 roll dup 1 exch sub 3 -1 roll mul add srgb}
  bind def
/shd {dup dup currentrgbcolor 4 -2 roll mul 4 -2 roll mul
  4 -2 roll mul srgb} bind def
 /DrawEllipse {
	/endangle exch def
	/startangle exch def
	/yrad exch def
	/xrad exch def
	/y exch def
	/x exch def
	/savematrix mtrx currentmatrix def
	x y tr xrad yrad sc 0 0 1 startangle endangle arc
	closepath
	savematrix setmatrix
	} def

/$F2psBegin {$F2psDict begin /$F2psEnteredState save def} def
/$F2psEnd {$F2psEnteredState restore end} def

$F2psBegin
10 setmiterlimit
0 slj 0 slc
 0.06299 0.06299 sc
%
% Fig objects follow
%
% 
% here starts figure with depth 50
/Symbol ff 158.75 scf sf
1402 865 m
gs 1 -1 sc (a) col0 sh gr
/Times-Roman ff 127.00 scf sf
1510 910 m
gs 1 -1 sc (i) col0 sh gr
/Symbol ff 158.75 scf sf
1120 842 m
gs 1 -1 sc (a) col0 sh gr
/Times-Roman ff 127.00 scf sf
1228 887 m
gs 1 -1 sc (i) col0 sh gr
/Symbol ff 158.75 scf sf
1367 1385 m
gs 1 -1 sc (a) col0 sh gr
/Times-Roman ff 127.00 scf sf
1478 1416 m
gs 1 -1 sc (r) col0 sh gr
% Arc
7.500 slw
0 slc
n 1373.5 1160.4 103.3 103.1475 44.6498 arcn
gs col0 s gr

% Arc
n 1335.3 1048.3 156.8 -85.3448 -149.6285 arcn
gs col0 s gr

% Arc
n 1367.7 1048.3 156.8 -94.6552 -30.3715 arc
gs col0 s gr

% Ellipse
n 1421 1101 13 13 0 360 DrawEllipse gs 0.00 setgray ef gr gs col0 s gr

% Polyline
0 slj
n 360 1080 m
 2340 1080 l gs col0 s gr 
% Polyline
 [60] 0 sd
n 1350 495 m 1350 1080 l
 1350 1665 l gs col0 s gr  [] 0 sd
% Polyline
n 360 1080 m
 495 1215 l gs col0 s gr 
% Polyline
n 450 1080 m
 585 1215 l gs col0 s gr 
% Polyline
n 540 1080 m
 675 1215 l gs col0 s gr 
% Polyline
n 630 1080 m
 765 1215 l gs col0 s gr 
% Polyline
n 720 1080 m
 855 1215 l gs col0 s gr 
% Polyline
n 810 1080 m
 945 1215 l gs col0 s gr 
% Polyline
n 900 1080 m
 1035 1215 l gs col0 s gr 
% Polyline
n 990 1080 m
 1125 1215 l gs col0 s gr 
% Polyline
n 1080 1080 m
 1215 1215 l gs col0 s gr 
% Polyline
n 1170 1080 m
 1305 1215 l gs col0 s gr 
% Polyline
n 1260 1080 m
 1395 1215 l gs col0 s gr 
% Polyline
n 1530 1080 m
 1665 1215 l gs col0 s gr 
% Polyline
n 1620 1080 m
 1755 1215 l gs col0 s gr 
% Polyline
n 1710 1080 m
 1845 1215 l gs col0 s gr 
% Polyline
n 1800 1080 m
 1935 1215 l gs col0 s gr 
% Polyline
n 1890 1080 m
 2025 1215 l gs col0 s gr 
% Polyline
n 1980 1080 m
 2115 1215 l gs col0 s gr 
% Polyline
n 2070 1080 m
 2205 1215 l gs col0 s gr 
% Polyline
n 2160 1080 m
 2295 1215 l gs col0 s gr 
% Polyline
n 2250 1080 m
 2385 1215 l gs col0 s gr 
% Polyline
n 1710 1620 m 1350 1080 l
 765 675 l gs col0 s gr 
% Polyline
n 1350 1080 m
 1935 675 l gs col0 s gr 
% Polyline
n 1407 1167 m 1489 1113 l
 1430 1028 l gs col0 s gr 
/Times-Roman ff 158.75 scf sf
2037 997 m
gs 1 -1 sc (air) col0 sh gr
/Times-Roman ff 158.75 scf sf
1766 1366 m
gs 1 -1 sc (plexiglas) col0 sh gr
% here ends figure;
$F2psEnd
rs
showpage
%%Trailer
%EOF
