%!PS-Adobe-2.0
%%Creator: inkscape 0.41.1
%%Pages: 1
%%Orientation: Portrait
%%BoundingBox: 15 766 149 822
%%HiResBoundingBox: 15.607414 766.11579 148.40089 821.90767
%%EndComments
%%Page: 1 1
0 842 translate
0.80000000 -0.80000000 scale
gsave [1.0000000 0.0000000 0.0000000 1.0000000 0.0000000 0.0000000] concat
0.0000000 0.0000000 0.0000000 setrgbcolor
[1.4626421 2.9252841] 0.0000000 setdash
0.36566052 setlinewidth
0 setlinejoin
0 setlinecap
newpath
19.692098 60.912589 moveto
185.31828 60.912589 185.31828 60.912589 185.31828 60.912589 curveto
stroke
0.0000000 0.0000000 0.0000000 setrgbcolor
[] 0 setdash
0.35433072 setlinewidth
0 setlinejoin
0 setlinecap
newpath
91.364788 25.154761 moveto
91.364788 94.109319 91.364788 94.540285 91.364788 94.540285 curveto
stroke
gsave [2.3865361e-17 0.38976379 -0.38976379 2.3865361e-17 91.364788 23.205942] concat
0.0000000 0.0000000 0.0000000 setrgbcolor
newpath
8.7185878 4.0337352 moveto
-2.2072895 0.016013256 lineto
8.7185884 -4.0017078 lineto
6.9730900 -1.6296469 6.9831476 1.6157441 8.7185878 4.0337352 curveto
closepath
eofill
grestore
gsave [-2.3865361e-17 -0.38976379 0.38976379 -2.3865361e-17 91.364788 96.489104] concat
0.0000000 0.0000000 0.0000000 setrgbcolor
newpath
8.7185878 4.0337352 moveto
-2.2072895 0.016013256 lineto
8.7185884 -4.0017078 lineto
6.9730900 -1.6296469 6.9831476 1.6157441 8.7185878 4.0337352 curveto
closepath
eofill
grestore
0.0000000 0.0000000 0.0000000 setrgbcolor
[] 0 setdash
0.23747972 setlinewidth
0 setlinejoin
0 setlinecap
newpath
70.462938 52.211152 moveto
70.462938 61.019405 70.462938 61.019405 70.462938 61.019405 curveto
stroke
0.0000000 0.0000000 0.0000000 setrgbcolor
[] 0 setdash
1.0000000 setlinewidth
0 setlinejoin
0 setlinecap
newpath
70.462938 52.521102 moveto
168.50770 91.954489 lineto
stroke
gsave [-0.27833157 -0.11194434 0.11194434 -0.27833157 169.89936 92.514211] concat
0.0000000 0.0000000 0.0000000 setrgbcolor
newpath
8.7185878 4.0337352 moveto
-2.2072895 0.016013256 lineto
8.7185884 -4.0017078 lineto
6.9730900 -1.6296469 6.9831476 1.6157441 8.7185878 4.0337352 curveto
closepath
eofill
grestore
0.0000000 0.0000000 0.0000000 setrgbcolor
[] 0 setdash
1.0025830 setlinewidth
0 setlinejoin
0 setlinecap
newpath
70.465524 52.521102 moveto
91.261126 52.736585 lineto
152.77486 67.604911 lineto
stroke
gsave [-0.29235604 -0.070664625 0.070664625 -0.29235604 154.23664 67.958234] concat
0.0000000 0.0000000 0.0000000 setrgbcolor
newpath
8.7185878 4.0337352 moveto
-2.2072895 0.016013256 lineto
8.7185884 -4.0017078 lineto
6.9730900 -1.6296469 6.9831476 1.6157441 8.7185878 4.0337352 curveto
closepath
eofill
grestore
0.0000000 0.0000000 0.0000000 setrgbcolor
[] 0 setdash
0.33307695 setlinewidth
0 setlinejoin
0 setlinecap
newpath
42.881118 60.926459 moveto
42.881118 41.314464 lineto
stroke
0.0000000 0.0000000 0.0000000 setrgbcolor
[] 0 setdash
0.29785529 setlinewidth
0 setlinejoin
0 setlinecap
newpath
90.126022 65.234598 moveto
71.701704 65.234598 lineto
stroke
gsave [-0.17871317 2.1885329e-17 -2.1885329e-17 -0.17871317 88.696317 65.234598] concat
0.0000000 0.0000000 0.0000000 setrgbcolor
newpath
0.0000000 0.0000000 moveto
5.0000000 -5.0000000 lineto
-12.500000 0.0000000 lineto
5.0000000 5.0000000 lineto
0.0000000 0.0000000 lineto
closepath
eofill
0.0000000 0.0000000 0.0000000 setrgbcolor
[] 0 setdash
1.2500000 setlinewidth
0 setlinejoin
0 setlinecap
newpath
0.0000000 0.0000000 moveto
5.0000000 -5.0000000 lineto
-12.500000 0.0000000 lineto
5.0000000 5.0000000 lineto
0.0000000 0.0000000 lineto
closepath
stroke
0.0000000 0.0000000 0.0000000 setrgbcolor
[] 0 setdash
1.5000000 setlinewidth
0 setlinejoin
0 setlinecap
newpath
-14.759949 -7.0000000 moveto
-14.759949 65.000000 lineto
stroke
grestore
gsave [0.17871317 -2.1885329e-17 -2.1885329e-17 -0.17871317 73.131409 65.234598] concat
0.0000000 0.0000000 0.0000000 setrgbcolor
newpath
0.0000000 0.0000000 moveto
5.0000000 -5.0000000 lineto
-12.500000 0.0000000 lineto
5.0000000 5.0000000 lineto
0.0000000 0.0000000 lineto
closepath
eofill
0.0000000 0.0000000 0.0000000 setrgbcolor
[] 0 setdash
1.2500000 setlinewidth
0 setlinejoin
0 setlinecap
newpath
0.0000000 0.0000000 moveto
5.0000000 -5.0000000 lineto
-12.500000 0.0000000 lineto
5.0000000 5.0000000 lineto
0.0000000 0.0000000 lineto
closepath
stroke
0.0000000 0.0000000 0.0000000 setrgbcolor
[] 0 setdash
1.5000000 setlinewidth
0 setlinejoin
0 setlinecap
newpath
-14.759949 -7.0000000 moveto
-14.759949 65.000000 lineto
stroke
grestore
0.0000000 0.0000000 0.0000000 setrgbcolor
[] 0 setdash
0.33628818 setlinewidth
0 setlinejoin
0 setlinecap
newpath
89.976998 74.715854 moveto
58.706265 74.715854 lineto
stroke
gsave [-0.20177291 2.4709239e-17 -2.4709239e-17 -0.20177291 88.362815 74.715854] concat
0.0000000 0.0000000 0.0000000 setrgbcolor
newpath
0.0000000 0.0000000 moveto
5.0000000 -5.0000000 lineto
-12.500000 0.0000000 lineto
5.0000000 5.0000000 lineto
0.0000000 0.0000000 lineto
closepath
eofill
0.0000000 0.0000000 0.0000000 setrgbcolor
[] 0 setdash
1.2500000 setlinewidth
0 setlinejoin
0 setlinecap
newpath
0.0000000 0.0000000 moveto
5.0000000 -5.0000000 lineto
-12.500000 0.0000000 lineto
5.0000000 5.0000000 lineto
0.0000000 0.0000000 lineto
closepath
stroke
0.0000000 0.0000000 0.0000000 setrgbcolor
[] 0 setdash
1.5000000 setlinewidth
0 setlinejoin
0 setlinecap
newpath
-14.759949 -7.0000000 moveto
-14.759949 65.000000 lineto
stroke
grestore
gsave [0.20177291 -2.4709239e-17 -2.4709239e-17 -0.20177291 60.320448 74.715854] concat
0.0000000 0.0000000 0.0000000 setrgbcolor
newpath
0.0000000 0.0000000 moveto
5.0000000 -5.0000000 lineto
-12.500000 0.0000000 lineto
5.0000000 5.0000000 lineto
0.0000000 0.0000000 lineto
closepath
eofill
0.0000000 0.0000000 0.0000000 setrgbcolor
[] 0 setdash
1.2500000 setlinewidth
0 setlinejoin
0 setlinecap
newpath
0.0000000 0.0000000 moveto
5.0000000 -5.0000000 lineto
-12.500000 0.0000000 lineto
5.0000000 5.0000000 lineto
0.0000000 0.0000000 lineto
closepath
stroke
0.0000000 0.0000000 0.0000000 setrgbcolor
[] 0 setdash
1.5000000 setlinewidth
0 setlinejoin
0 setlinecap
newpath
-14.759949 -7.0000000 moveto
-14.759949 65.000000 lineto
stroke
grestore
0.0000000 0.0000000 0.0000000 setrgbcolor
newpath
53.006401 56.906826 moveto
53.006398 57.469327 52.796762 57.945889 52.377495 58.336514 curveto
51.968638 58.716722 51.480357 58.906826 50.912651 58.906826 curveto
50.652233 58.906826 50.413952 58.861253 50.197807 58.770107 curveto
49.913953 58.652920 49.772026 58.483649 49.772026 58.262295 curveto
49.772026 58.171150 49.801974 58.094327 49.861870 58.031826 curveto
49.924369 57.969327 50.001192 57.938077 50.092339 57.938076 curveto
50.134005 57.938077 50.206921 57.995368 50.311089 58.109951 curveto
50.446504 58.263597 50.557181 58.371670 50.643120 58.434170 curveto
50.799369 58.551357 50.963431 58.609951 51.135307 58.609951 curveto
51.455618 58.609951 51.753795 58.401618 52.029839 57.984951 curveto
52.279836 57.607348 52.404836 57.249275 52.404839 56.910732 curveto
52.404836 56.553964 52.266815 56.224537 51.990776 55.922451 curveto
51.709524 55.609954 51.391816 55.453704 51.037651 55.453701 curveto
50.886608 55.453704 50.713431 55.513600 50.518120 55.633389 curveto
50.447806 55.677662 50.281140 55.797454 50.018120 55.992764 curveto
50.467339 53.231045 lineto
52.404839 53.231045 lineto
52.524627 53.231050 52.598846 53.160738 52.627495 53.020107 curveto
52.775932 53.066982 lineto
52.529839 53.789639 lineto
50.689995 53.789639 lineto
50.439995 55.305264 lineto
50.687390 55.122975 51.019420 55.031830 51.436089 55.031826 curveto
51.915253 55.031830 52.303273 55.228444 52.600151 55.621670 curveto
52.870981 55.981048 53.006398 56.409433 53.006401 56.906826 curveto
fill
0.0000000 0.0000000 0.0000000 setrgbcolor
newpath
fill
0.0000000 0.0000000 0.0000000 setrgbcolor
newpath
62.272026 58.770107 moveto
60.541557 58.770107 lineto
60.541557 58.594326 lineto
60.895719 58.594326 61.072802 58.418545 61.072807 58.066982 curveto
61.072807 56.289639 lineto
61.072802 56.068287 61.019417 55.874277 60.912651 55.707607 curveto
60.787646 55.514902 60.619677 55.418548 60.408745 55.418545 curveto
60.085824 55.418548 59.701710 55.581308 59.256401 55.906826 curveto
59.256401 58.258389 lineto
59.256398 58.471930 59.464731 58.578701 59.881401 58.578701 curveto
59.900932 58.770107 lineto
58.174370 58.770107 lineto
58.174370 58.594326 lineto
58.525930 58.594326 58.701711 58.418545 58.701714 58.066982 curveto
58.701714 56.289639 lineto
58.701711 56.065683 58.656138 55.872975 58.564995 55.711514 curveto
58.453013 55.516204 58.292857 55.418548 58.084526 55.418545 curveto
57.756399 55.418548 57.354056 55.594329 56.877495 55.945889 curveto
56.877495 58.176357 lineto
56.877494 58.431566 57.074108 58.570889 57.467339 58.594326 curveto
57.443901 58.770107 lineto
55.791557 58.770107 lineto
55.775932 58.738857 lineto
55.799370 58.617764 lineto
55.960828 58.617764 56.091036 58.551357 56.189995 58.418545 curveto
56.281140 58.296149 56.326713 58.151618 56.326714 57.984951 curveto
56.326714 55.832607 lineto
56.326713 55.738860 56.245984 55.664642 56.084526 55.609951 curveto
56.063692 55.602142 55.941297 55.573496 55.717339 55.524014 curveto
55.717339 55.426357 lineto
55.743380 55.397715 55.775932 55.376881 55.814995 55.363857 curveto
56.020724 55.293548 56.328015 55.167246 56.736870 54.984951 curveto
56.877495 55.090420 lineto
56.877495 55.793545 lineto
57.630097 55.309173 58.149628 55.066986 58.436089 55.066982 curveto
58.610565 55.066986 58.773325 55.147715 58.924370 55.309170 curveto
59.051971 55.447194 59.144418 55.608652 59.201714 55.793545 curveto
59.954314 55.309173 60.473844 55.066986 60.760307 55.066982 curveto
61.038948 55.066986 61.261604 55.195892 61.428276 55.453701 curveto
61.574104 55.677662 61.647020 55.935475 61.647026 56.227139 curveto
61.647026 58.258389 lineto
61.647020 58.471930 61.847541 58.578701 62.248589 58.578701 curveto
62.272026 58.770107 lineto
fill
0.0000000 0.0000000 0.0000000 setrgbcolor
newpath
68.975151 58.770107 moveto
67.244682 58.770107 lineto
67.244682 58.594326 lineto
67.598844 58.594326 67.775927 58.418545 67.775932 58.066982 curveto
67.775932 56.289639 lineto
67.775927 56.068287 67.722542 55.874277 67.615776 55.707607 curveto
67.490771 55.514902 67.322802 55.418548 67.111870 55.418545 curveto
66.788949 55.418548 66.404835 55.581308 65.959526 55.906826 curveto
65.959526 58.258389 lineto
65.959523 58.471930 66.167856 58.578701 66.584526 58.578701 curveto
66.604057 58.770107 lineto
64.877495 58.770107 lineto
64.877495 58.594326 lineto
65.229055 58.594326 65.404836 58.418545 65.404839 58.066982 curveto
65.404839 56.289639 lineto
65.404836 56.065683 65.359263 55.872975 65.268120 55.711514 curveto
65.156138 55.516204 64.995982 55.418548 64.787651 55.418545 curveto
64.459524 55.418548 64.057181 55.594329 63.580620 55.945889 curveto
63.580620 58.176357 lineto
63.580619 58.431566 63.777233 58.570889 64.170464 58.594326 curveto
64.147026 58.770107 lineto
62.494682 58.770107 lineto
62.479057 58.738857 lineto
62.502495 58.617764 lineto
62.663953 58.617764 62.794161 58.551357 62.893120 58.418545 curveto
62.984265 58.296149 63.029838 58.151618 63.029839 57.984951 curveto
63.029839 55.832607 lineto
63.029838 55.738860 62.949109 55.664642 62.787651 55.609951 curveto
62.766817 55.602142 62.644422 55.573496 62.420464 55.524014 curveto
62.420464 55.426357 lineto
62.446505 55.397715 62.479057 55.376881 62.518120 55.363857 curveto
62.723849 55.293548 63.031140 55.167246 63.439995 54.984951 curveto
63.580620 55.090420 lineto
63.580620 55.793545 lineto
64.333222 55.309173 64.852753 55.066986 65.139214 55.066982 curveto
65.313690 55.066986 65.476450 55.147715 65.627495 55.309170 curveto
65.755096 55.447194 65.847543 55.608652 65.904839 55.793545 curveto
66.657439 55.309173 67.176969 55.066986 67.463432 55.066982 curveto
67.742073 55.066986 67.964729 55.195892 68.131401 55.453701 curveto
68.277229 55.677662 68.350145 55.935475 68.350151 56.227139 curveto
68.350151 58.258389 lineto
68.350145 58.471930 68.550666 58.578701 68.951714 58.578701 curveto
68.975151 58.770107 lineto
fill
0.0000000 0.0000000 0.0000000 setrgbcolor
newpath
63.872723 78.408012 moveto
63.384441 78.866997 lineto
63.280271 78.404764 62.951495 78.173644 62.398113 78.173637 curveto
62.079100 78.173644 61.792642 78.269673 61.538738 78.461723 curveto
61.265299 78.670063 61.128580 78.930479 61.128582 79.242973 curveto
61.128582 80.400200 lineto
62.276043 80.400200 lineto
62.276043 80.771294 lineto
61.128582 80.771294 lineto
61.128582 84.003716 lineto
61.128580 84.420383 61.358072 84.628716 61.817059 84.628716 curveto
61.852863 84.628716 61.904947 84.628716 61.973309 84.628716 curveto
62.041665 84.625461 62.092121 84.623833 62.124676 84.623833 curveto
62.124676 84.843559 lineto
59.746746 84.843559 lineto
59.722332 84.701958 lineto
59.989259 84.620578 60.147136 84.566867 60.195965 84.540825 curveto
60.358724 84.452935 60.440104 84.321099 60.440105 84.145317 curveto
60.440105 80.771294 lineto
60.348959 80.781063 60.064128 80.758277 59.585613 80.702934 curveto
59.585613 80.512505 lineto
59.989259 80.512509 60.223633 80.475074 60.288738 80.400200 curveto
60.440105 80.400200 lineto
60.440105 80.253716 lineto
60.440104 79.729632 60.497071 79.352028 60.611004 79.120903 curveto
60.698893 78.948383 60.933268 78.678201 61.314129 78.310356 curveto
61.646158 77.991353 62.124673 77.831848 62.749676 77.831841 curveto
63.084959 77.831848 63.459307 78.023905 63.872723 78.408012 curveto
fill
0.0000000 0.0000000 0.0000000 setrgbcolor
newpath
67.818035 80.668755 moveto
63.765301 80.668755 lineto
63.765301 80.209770 lineto
67.818035 80.209770 lineto
67.818035 80.668755 lineto
67.818035 82.509575 moveto
63.765301 82.509575 lineto
63.765301 82.045708 lineto
67.818035 82.045708 lineto
67.818035 82.509575 lineto
fill
0.0000000 0.0000000 0.0000000 setrgbcolor
newpath
72.622723 82.529106 moveto
72.622718 83.411269 72.381833 84.041151 71.900066 84.418755 curveto
71.470376 84.757296 70.801431 84.926567 69.893230 84.926567 curveto
69.629557 84.926567 69.390300 84.880994 69.175457 84.789848 curveto
68.895509 84.666151 68.755535 84.488742 68.755535 84.257622 curveto
68.755535 84.150201 68.792970 84.060682 68.867840 83.989067 curveto
68.942709 83.914198 69.035482 83.876763 69.146160 83.876762 curveto
69.370768 83.876763 69.606771 83.985813 69.854168 84.203911 curveto
70.104817 84.422010 70.353840 84.531060 70.601238 84.531059 curveto
71.476886 84.531060 71.914711 83.917453 71.914715 82.690239 curveto
71.914711 82.354955 71.831704 82.039200 71.665691 81.742973 curveto
71.470376 81.394669 71.216470 81.220516 70.903973 81.220512 curveto
70.575194 81.220516 70.228515 81.313289 69.863934 81.498833 curveto
69.771160 81.249809 lineto
70.054362 81.171688 70.392903 80.953589 70.786785 80.595512 curveto
71.213215 80.208147 71.426430 79.885882 71.426434 79.628716 curveto
71.426430 79.329242 71.312498 79.070453 71.084637 78.852348 curveto
70.856770 78.634256 70.593098 78.525206 70.293621 78.525200 curveto
69.935547 78.525206 69.455404 78.811664 68.853191 79.384575 curveto
68.701824 79.321098 lineto
69.030600 78.819802 69.310547 78.471495 69.541668 78.276176 curveto
69.886718 77.992980 70.300130 77.851379 70.781902 77.851372 curveto
71.195311 77.851379 71.550128 77.981587 71.846355 78.241997 curveto
72.158852 78.515441 72.315101 78.855610 72.315105 79.262505 curveto
72.315101 79.610817 72.207680 79.900530 71.992840 80.131645 curveto
71.849607 80.287900 71.589191 80.466936 71.211590 80.668755 curveto
71.654295 80.698056 72.007485 80.909644 72.271160 81.303520 curveto
72.505531 81.655086 72.622718 82.063614 72.622723 82.529106 curveto
fill
0.0000000 0.0000000 0.0000000 setrgbcolor
newpath
fill
0.0000000 0.0000000 0.0000000 setrgbcolor
newpath
79.819988 83.642387 moveto
79.416339 84.501763 78.776691 84.931450 77.901043 84.931450 curveto
77.337890 84.931450 76.861003 84.705213 76.470379 84.252739 curveto
76.096030 83.819797 75.908855 83.316868 75.908855 82.743950 curveto
75.908855 82.027807 76.156251 81.436987 76.651043 80.971489 curveto
77.136068 80.515764 77.739908 80.287900 78.462566 80.287895 curveto
78.677407 80.287900 78.928058 80.354631 79.214520 80.488091 curveto
79.543292 80.634579 79.707680 80.792457 79.707684 80.961723 curveto
79.707680 81.270972 79.561195 81.425594 79.268230 81.425591 curveto
79.085936 81.425594 78.967121 81.352352 78.911785 81.205864 curveto
78.859699 81.069149 78.809243 80.932430 78.760418 80.795708 curveto
78.652993 80.645972 78.446288 80.571103 78.140301 80.571098 curveto
77.648763 80.571103 77.264648 80.794084 76.987957 81.240044 curveto
76.756836 81.617651 76.641277 82.068497 76.641277 82.592583 curveto
76.641277 83.028782 76.794271 83.435683 77.100262 83.813286 curveto
77.425781 84.213677 77.800130 84.413872 78.223309 84.413872 curveto
78.832030 84.413872 79.297524 84.138807 79.619793 83.588676 curveto
79.753253 83.585423 79.819984 83.603326 79.819988 83.642387 curveto
fill
0.0000000 0.0000000 0.0000000 setrgbcolor
newpath
88.486980 84.843559 moveto
86.323895 84.843559 lineto
86.323895 84.623833 lineto
86.766596 84.623833 86.987950 84.404107 86.987957 83.964653 curveto
86.987957 81.742973 lineto
86.987950 81.466284 86.921219 81.223771 86.787762 81.015434 curveto
86.631505 80.774553 86.421545 80.654110 86.157879 80.654106 curveto
85.754228 80.654110 85.274085 80.857561 84.717449 81.264458 curveto
84.717449 84.203911 lineto
84.717445 84.470838 84.977861 84.604302 85.498699 84.604301 curveto
85.523113 84.843559 lineto
83.364910 84.843559 lineto
83.364910 84.623833 lineto
83.804360 84.623833 84.024086 84.404107 84.024090 83.964653 curveto
84.024090 81.742973 lineto
84.024086 81.463029 83.967120 81.222144 83.853191 81.020317 curveto
83.713214 80.776181 83.513019 80.654110 83.252605 80.654106 curveto
82.842447 80.654110 82.339517 80.873837 81.743816 81.313286 curveto
81.743816 84.101372 lineto
81.743815 84.420383 81.989583 84.594536 82.481121 84.623833 curveto
82.451824 84.843559 lineto
80.386395 84.843559 lineto
80.366863 84.804497 lineto
80.396160 84.653130 lineto
80.597983 84.653130 80.760743 84.570122 80.884441 84.404106 curveto
80.998373 84.251112 81.055339 84.070448 81.055340 83.862114 curveto
81.055340 81.171684 lineto
81.055339 81.054501 80.954428 80.961727 80.752605 80.893364 curveto
80.726563 80.883602 80.573569 80.847795 80.293621 80.785942 curveto
80.293621 80.663872 lineto
80.326173 80.628069 80.366863 80.602027 80.415691 80.585747 curveto
80.672852 80.497860 81.056967 80.339983 81.568035 80.112114 curveto
81.743816 80.243950 lineto
81.743816 81.122856 lineto
82.684569 80.517392 83.333983 80.214658 83.692059 80.214653 curveto
83.910154 80.214658 84.113604 80.315569 84.302410 80.517387 curveto
84.461911 80.689918 84.577471 80.891740 84.649090 81.122856 curveto
85.589840 80.517392 86.239253 80.214658 86.597332 80.214653 curveto
86.945633 80.214658 87.223953 80.375790 87.432293 80.698051 curveto
87.614577 80.978003 87.705723 81.300269 87.705730 81.664848 curveto
87.705730 84.203911 lineto
87.705723 84.470838 87.956374 84.604302 88.457684 84.604301 curveto
88.486980 84.843559 lineto
fill
0.0000000 0.0000000 0.0000000 setrgbcolor
[1.4173229 2.8346457] 0.0000000 setdash
0.35433072 setlinewidth
0 setlinejoin
0 setlinecap
newpath
168.07673 91.739006 moveto
24.565061 33.989564 lineto
stroke
0.0000000 0.0000000 0.0000000 setrgbcolor
[1.4173229 2.8346457] 0.0000000 setdash
0.35433072 setlinewidth
0 setlinejoin
0 setlinecap
newpath
152.77744 67.389428 moveto
27.150857 37.437292 lineto
stroke
0.0000000 0.0000000 0.0000000 setrgbcolor
newpath
76.641212 71.461929 moveto
76.641209 71.511410 76.526625 71.882503 76.297462 72.575211 curveto
73.027931 72.575211 lineto
72.953712 72.344742 lineto
74.693294 70.941098 75.563085 69.665057 75.563087 68.516617 curveto
75.563085 67.844747 75.258397 67.508809 74.649025 67.508804 curveto
73.971940 67.508809 73.456316 67.827819 73.102150 68.465836 curveto
72.930275 68.391617 lineto
73.070900 68.003601 73.310483 67.676778 73.649025 67.411148 curveto
74.005794 67.129904 74.383398 66.989279 74.781837 66.989273 curveto
75.149023 66.989279 75.457616 67.101258 75.707619 67.325211 curveto
75.968032 67.559591 76.098240 67.857767 76.098244 68.219742 curveto
76.098240 69.378599 75.313085 70.655942 73.742775 72.051773 curveto
75.879494 72.051773 lineto
76.022720 72.051774 76.159438 71.941097 76.289650 71.719742 curveto
76.419855 71.498389 76.479750 71.387712 76.469337 71.387711 curveto
76.490167 71.387712 76.520115 71.399430 76.559181 71.422867 curveto
76.598240 71.443701 76.625584 71.456722 76.641212 71.461929 curveto
fill
0.0000000 0.0000000 0.0000000 setrgbcolor
newpath
fill
0.0000000 0.0000000 0.0000000 setrgbcolor
newpath
82.547462 71.614273 moveto
82.224543 72.301773 81.712825 72.645523 81.012306 72.645523 curveto
80.561784 72.645523 80.180274 72.464534 79.867775 72.102554 curveto
79.568296 71.756201 79.418556 71.353858 79.418556 70.895523 curveto
79.418556 70.322609 79.616473 69.849953 80.012306 69.477554 curveto
80.400326 69.112974 80.883398 68.930683 81.461525 68.930679 curveto
81.633398 68.930683 81.833918 68.984068 82.063087 69.090836 curveto
82.326105 69.208026 82.457616 69.334328 82.457619 69.469742 curveto
82.457616 69.717141 82.340428 69.840838 82.106056 69.840836 curveto
81.960220 69.840838 81.865168 69.782245 81.820900 69.665054 curveto
81.779231 69.555682 81.738866 69.446307 81.699806 69.336929 curveto
81.613866 69.217141 81.448502 69.157245 81.203712 69.157242 curveto
80.810482 69.157245 80.503191 69.335630 80.281837 69.692398 curveto
80.096941 69.994484 80.004493 70.355161 80.004494 70.774429 curveto
80.004493 71.123389 80.126889 71.448910 80.371681 71.750992 curveto
80.632097 72.071305 80.931575 72.231461 81.270119 72.231461 curveto
81.757096 72.231461 82.129491 72.011409 82.387306 71.571304 curveto
82.494074 71.568701 82.547459 71.583024 82.547462 71.614273 curveto
fill
0.0000000 0.0000000 0.0000000 setrgbcolor
newpath
89.481056 72.575211 moveto
87.750587 72.575211 lineto
87.750587 72.399429 lineto
88.104749 72.399429 88.281832 72.223648 88.281837 71.872086 curveto
88.281837 70.094742 lineto
88.281832 69.873390 88.228447 69.679380 88.121681 69.512711 curveto
87.996676 69.320005 87.828708 69.223651 87.617775 69.223648 curveto
87.294854 69.223651 86.910740 69.386412 86.465431 69.711929 curveto
86.465431 72.063492 lineto
86.465428 72.277034 86.673761 72.383805 87.090431 72.383804 curveto
87.109962 72.575211 lineto
85.383400 72.575211 lineto
85.383400 72.399429 lineto
85.734960 72.399429 85.910741 72.223648 85.910744 71.872086 curveto
85.910744 70.094742 lineto
85.910741 69.870786 85.865168 69.678078 85.774025 69.516617 curveto
85.662043 69.321308 85.501887 69.223651 85.293556 69.223648 curveto
84.965429 69.223651 84.563086 69.399432 84.086525 69.750992 curveto
84.086525 71.981461 lineto
84.086524 72.236669 84.283138 72.375992 84.676369 72.399429 curveto
84.652931 72.575211 lineto
83.000587 72.575211 lineto
82.984962 72.543961 lineto
83.008400 72.422867 lineto
83.169858 72.422867 83.300066 72.356461 83.399025 72.223648 curveto
83.490170 72.101253 83.535743 71.956722 83.535744 71.790054 curveto
83.535744 69.637711 lineto
83.535743 69.543964 83.455014 69.469745 83.293556 69.415054 curveto
83.272723 69.407245 83.150327 69.378599 82.926369 69.329117 curveto
82.926369 69.231461 lineto
82.952410 69.202818 82.984962 69.181985 83.024025 69.168961 curveto
83.229754 69.098652 83.537045 68.972350 83.945900 68.790054 curveto
84.086525 68.895523 lineto
84.086525 69.598648 lineto
84.839127 69.114277 85.358658 68.872089 85.645119 68.872086 curveto
85.819595 68.872089 85.982355 68.952818 86.133400 69.114273 curveto
86.261001 69.252297 86.353449 69.413755 86.410744 69.598648 curveto
87.163344 69.114277 87.682874 68.872089 87.969337 68.872086 curveto
88.247978 68.872089 88.470634 69.000995 88.637306 69.258804 curveto
88.783134 69.482766 88.856050 69.740578 88.856056 70.032242 curveto
88.856056 72.063492 lineto
88.856050 72.277034 89.056571 72.383805 89.457619 72.383804 curveto
89.481056 72.575211 lineto
fill
grestore
showpage
