%!PS-Adobe-2.0 EPSF-2.0
%%Title: Pointaveugle.fig
%%Creator: fig2dev Version 3.2 Patchlevel 5-alpha5
%%CreationDate: Wed Jul 27 21:56:14 2005
%%For: guyotv@debian ()
%%BoundingBox: 0 0 179 166
%Magnification: 1.0000
%%EndComments
/$F2psDict 200 dict def
$F2psDict begin
$F2psDict /mtrx matrix put
/col-1 {0 setgray} bind def
/col0 {0.000 0.000 0.000 srgb} bind def
/col1 {0.000 0.000 1.000 srgb} bind def
/col2 {0.000 1.000 0.000 srgb} bind def
/col3 {0.000 1.000 1.000 srgb} bind def
/col4 {1.000 0.000 0.000 srgb} bind def
/col5 {1.000 0.000 1.000 srgb} bind def
/col6 {1.000 1.000 0.000 srgb} bind def
/col7 {1.000 1.000 1.000 srgb} bind def
/col8 {0.000 0.000 0.560 srgb} bind def
/col9 {0.000 0.000 0.690 srgb} bind def
/col10 {0.000 0.000 0.820 srgb} bind def
/col11 {0.530 0.810 1.000 srgb} bind def
/col12 {0.000 0.560 0.000 srgb} bind def
/col13 {0.000 0.690 0.000 srgb} bind def
/col14 {0.000 0.820 0.000 srgb} bind def
/col15 {0.000 0.560 0.560 srgb} bind def
/col16 {0.000 0.690 0.690 srgb} bind def
/col17 {0.000 0.820 0.820 srgb} bind def
/col18 {0.560 0.000 0.000 srgb} bind def
/col19 {0.690 0.000 0.000 srgb} bind def
/col20 {0.820 0.000 0.000 srgb} bind def
/col21 {0.560 0.000 0.560 srgb} bind def
/col22 {0.690 0.000 0.690 srgb} bind def
/col23 {0.820 0.000 0.820 srgb} bind def
/col24 {0.500 0.190 0.000 srgb} bind def
/col25 {0.630 0.250 0.000 srgb} bind def
/col26 {0.750 0.380 0.000 srgb} bind def
/col27 {1.000 0.500 0.500 srgb} bind def
/col28 {1.000 0.630 0.630 srgb} bind def
/col29 {1.000 0.750 0.750 srgb} bind def
/col30 {1.000 0.880 0.880 srgb} bind def
/col31 {1.000 0.840 0.000 srgb} bind def

end
save
newpath 0 166 moveto 0 0 lineto 179 0 lineto 179 166 lineto closepath clip newpath
-12.7 184.5 translate
1 -1 scale

/cp {closepath} bind def
/ef {eofill} bind def
/gr {grestore} bind def
/gs {gsave} bind def
/sa {save} bind def
/rs {restore} bind def
/l {lineto} bind def
/m {moveto} bind def
/rm {rmoveto} bind def
/n {newpath} bind def
/s {stroke} bind def
/sh {show} bind def
/slc {setlinecap} bind def
/slj {setlinejoin} bind def
/slw {setlinewidth} bind def
/srgb {setrgbcolor} bind def
/rot {rotate} bind def
/sc {scale} bind def
/sd {setdash} bind def
/ff {findfont} bind def
/sf {setfont} bind def
/scf {scalefont} bind def
/sw {stringwidth} bind def
/tr {translate} bind def
/tnt {dup dup currentrgbcolor
  4 -2 roll dup 1 exch sub 3 -1 roll mul add
  4 -2 roll dup 1 exch sub 3 -1 roll mul add
  4 -2 roll dup 1 exch sub 3 -1 roll mul add srgb}
  bind def
/shd {dup dup currentrgbcolor 4 -2 roll mul 4 -2 roll mul
  4 -2 roll mul srgb} bind def
/reencdict 12 dict def /ReEncode { reencdict begin
/newcodesandnames exch def /newfontname exch def /basefontname exch def
/basefontdict basefontname findfont def /newfont basefontdict maxlength dict def
basefontdict { exch dup /FID ne { dup /Encoding eq
{ exch dup length array copy newfont 3 1 roll put }
{ exch newfont 3 1 roll put } ifelse } { pop pop } ifelse } forall
newfont /FontName newfontname put newcodesandnames aload pop
128 1 255 { newfont /Encoding get exch /.notdef put } for
newcodesandnames length 2 idiv { newfont /Encoding get 3 1 roll put } repeat
newfontname newfont definefont pop end } def
/isovec [
8#055 /minus 8#200 /grave 8#201 /acute 8#202 /circumflex 8#203 /tilde
8#204 /macron 8#205 /breve 8#206 /dotaccent 8#207 /dieresis
8#210 /ring 8#211 /cedilla 8#212 /hungarumlaut 8#213 /ogonek 8#214 /caron
8#220 /dotlessi 8#230 /oe 8#231 /OE
8#240 /space 8#241 /exclamdown 8#242 /cent 8#243 /sterling
8#244 /currency 8#245 /yen 8#246 /brokenbar 8#247 /section 8#250 /dieresis
8#251 /copyright 8#252 /ordfeminine 8#253 /guillemotleft 8#254 /logicalnot
8#255 /hyphen 8#256 /registered 8#257 /macron 8#260 /degree 8#261 /plusminus
8#262 /twosuperior 8#263 /threesuperior 8#264 /acute 8#265 /mu 8#266 /paragraph
8#267 /periodcentered 8#270 /cedilla 8#271 /onesuperior 8#272 /ordmasculine
8#273 /guillemotright 8#274 /onequarter 8#275 /onehalf
8#276 /threequarters 8#277 /questiondown 8#300 /Agrave 8#301 /Aacute
8#302 /Acircumflex 8#303 /Atilde 8#304 /Adieresis 8#305 /Aring
8#306 /AE 8#307 /Ccedilla 8#310 /Egrave 8#311 /Eacute
8#312 /Ecircumflex 8#313 /Edieresis 8#314 /Igrave 8#315 /Iacute
8#316 /Icircumflex 8#317 /Idieresis 8#320 /Eth 8#321 /Ntilde 8#322 /Ograve
8#323 /Oacute 8#324 /Ocircumflex 8#325 /Otilde 8#326 /Odieresis 8#327 /multiply
8#330 /Oslash 8#331 /Ugrave 8#332 /Uacute 8#333 /Ucircumflex
8#334 /Udieresis 8#335 /Yacute 8#336 /Thorn 8#337 /germandbls 8#340 /agrave
8#341 /aacute 8#342 /acircumflex 8#343 /atilde 8#344 /adieresis 8#345 /aring
8#346 /ae 8#347 /ccedilla 8#350 /egrave 8#351 /eacute
8#352 /ecircumflex 8#353 /edieresis 8#354 /igrave 8#355 /iacute
8#356 /icircumflex 8#357 /idieresis 8#360 /eth 8#361 /ntilde 8#362 /ograve
8#363 /oacute 8#364 /ocircumflex 8#365 /otilde 8#366 /odieresis 8#367 /divide
8#370 /oslash 8#371 /ugrave 8#372 /uacute 8#373 /ucircumflex
8#374 /udieresis 8#375 /yacute 8#376 /thorn 8#377 /ydieresis] def
/Times-Roman /Times-Roman-iso isovec ReEncode
 /DrawEllipse {
	/endangle exch def
	/startangle exch def
	/yrad exch def
	/xrad exch def
	/y exch def
	/x exch def
	/savematrix mtrx currentmatrix def
	x y tr xrad yrad sc 0 0 1 startangle endangle arc
	closepath
	savematrix setmatrix
	} def

/$F2psBegin {$F2psDict begin /$F2psEnteredState save def} def
/$F2psEnd {$F2psEnteredState restore end} def

$F2psBegin
10 setmiterlimit
0 slj 0 slc
 0.06299 0.06299 sc
%
% Fig objects follow
%
% 
% here starts figure with depth 50
% Ellipse
7.500 slw
n 2340 630 324 324 0 360 DrawEllipse gs col0 s gr

% Ellipse
n 238 625 28 28 0 360 DrawEllipse gs 0.00 setgray ef gr gs col0 s gr

% Ellipse
n 238 488 28 28 0 360 DrawEllipse gs 0.00 setgray ef gr gs col0 s gr

% Ellipse
n 2093 635 37 157 0 360 DrawEllipse gs col0 s gr

% Ellipse
n 2647 733 23 23 0 360 DrawEllipse gs 0.00 setgray ef gr gs col0 s gr

% Polyline
0 slj
0 slc
n 235 629 m
 2665 629 l gs col0 s gr 
% Polyline
n 242 495 m 2093 495 l
 2665 669 l gs col0 s gr 
% Polyline
n 245 492 m
 2665 669 l gs col0 s gr 
% Polyline
gs  clippath
2731 586 m 2661 611 l 2672 639 l 2741 614 l 2741 614 l 2701 613 l 2731 586 l cp
eoclip
n 2681 620 m
 2816 571 l gs col0 s gr gr

% arrowhead
n 2731 586 m 2701 613 l 2741 614 l 2729 602 l 2731 586 l 
 cp gs 0.00 setgray ef gr  col0 s
% Polyline
gs  clippath
2683 825 m 2670 752 l 2640 757 l 2653 830 l 2653 830 l 2662 791 l 2683 825 l cp
eoclip
n 2692 969 m
 2658 770 l gs col0 s gr gr

% arrowhead
n 2683 825 m 2662 791 l 2653 830 l 2667 820 l 2683 825 l 
 cp gs 0.00 setgray ef gr  col0 s
/Times-Roman-iso ff 142.88 scf sf
2310 545 m
gs 1 -1 sc (tache) col0 sh gr
/Times-Roman-iso ff 142.88 scf sf
2688 537 m
gs 1 -1 sc (jaune) col0 sh gr
/Times-Roman-iso ff 142.88 scf sf
2163 1082 m
gs 1 -1 sc (point) col0 sh gr
/Times-Roman-iso ff 142.88 scf sf
2497 1078 m
gs 1 -1 sc (aveugle) col0 sh gr
/Times-Roman-iso ff 142.88 scf sf
322 422 m
gs 1 -1 sc (les deux points sont visibles) col0 sh gr
% Ellipse
n 2340 1507 324 324 0 360 DrawEllipse gs col0 s gr

% Ellipse
n 2093 1512 37 157 0 360 DrawEllipse gs col0 s gr

% Ellipse
n 2647 1610 23 23 0 360 DrawEllipse gs 0.00 setgray ef gr gs col0 s gr

% Ellipse
n 1334 1506 28 28 0 360 DrawEllipse gs 0.00 setgray ef gr gs col0 s gr

% Ellipse
n 1327 1370 28 28 0 360 DrawEllipse gs col0 s gr

% Polyline
n 235 1506 m
 2665 1506 l gs col0 s gr 
% Polyline
n 1334 1370 m 2093 1372 l
 2651 1610 l gs col0 s gr 
% Polyline
n 1327 1366 m
 2651 1610 l gs col0 s gr 
% Polyline
gs  clippath
2731 1463 m 2661 1488 l 2672 1516 l 2741 1491 l 2741 1491 l 2701 1490 l 2731 1463 l cp
eoclip
n 2681 1497 m
 2816 1448 l gs col0 s gr gr

% arrowhead
n 2731 1463 m 2701 1490 l 2741 1491 l 2729 1479 l 2731 1463 l 
 cp gs 0.00 setgray ef gr  col0 s
% Polyline
gs  clippath
2683 1702 m 2670 1629 l 2640 1634 l 2653 1707 l 2653 1707 l 2662 1668 l 2683 1702 l cp
eoclip
n 2692 1846 m
 2658 1647 l gs col0 s gr gr

% arrowhead
n 2683 1702 m 2662 1668 l 2653 1707 l 2667 1697 l 2683 1702 l 
 cp gs 0.00 setgray ef gr  col0 s
/Times-Roman-iso ff 142.88 scf sf
2310 1422 m
gs 1 -1 sc (tache) col0 sh gr
/Times-Roman-iso ff 142.88 scf sf
2688 1414 m
gs 1 -1 sc (jaune) col0 sh gr
/Times-Roman-iso ff 142.88 scf sf
2163 1959 m
gs 1 -1 sc (point) col0 sh gr
/Times-Roman-iso ff 142.88 scf sf
2497 1955 m
gs 1 -1 sc (aveugle) col0 sh gr
/Times-Roman-iso ff 142.88 scf sf
341 1280 m
gs 1 -1 sc (le point de droite disparait) col0 sh gr
% Ellipse
n 2348 2422 324 324 0 360 DrawEllipse gs col0 s gr

% Ellipse
n 2101 2427 37 157 0 360 DrawEllipse gs col0 s gr

% Ellipse
n 2655 2525 23 23 0 360 DrawEllipse gs 0.00 setgray ef gr gs col0 s gr

% Ellipse
n 1762 2289 28 28 0 360 DrawEllipse gs 0.00 setgray ef gr gs col0 s gr

% Ellipse
n 1762 2416 28 28 0 360 DrawEllipse gs 0.00 setgray ef gr gs col0 s gr

% Polyline
n 243 2421 m
 2673 2421 l gs col0 s gr 
% Polyline
gs  clippath
2739 2378 m 2669 2403 l 2680 2431 l 2749 2406 l 2749 2406 l 2709 2405 l 2739 2378 l cp
eoclip
n 2689 2412 m
 2824 2363 l gs col0 s gr gr

% arrowhead
n 2739 2378 m 2709 2405 l 2749 2406 l 2737 2394 l 2739 2378 l 
 cp gs 0.00 setgray ef gr  col0 s
% Polyline
gs  clippath
2691 2617 m 2678 2544 l 2648 2549 l 2661 2622 l 2661 2622 l 2670 2583 l 2691 2617 l cp
eoclip
n 2700 2761 m
 2666 2562 l gs col0 s gr gr

% arrowhead
n 2691 2617 m 2670 2583 l 2661 2622 l 2675 2612 l 2691 2617 l 
 cp gs 0.00 setgray ef gr  col0 s
% Polyline
n 1754 2289 m
 2617 2607 l gs col0 s gr 
% Polyline
n 1767 2291 m 2105 2291 l
 2617 2604 l gs col0 s gr 
/Times-Roman-iso ff 142.88 scf sf
2318 2337 m
gs 1 -1 sc (tache) col0 sh gr
/Times-Roman-iso ff 142.88 scf sf
2696 2329 m
gs 1 -1 sc (jaune) col0 sh gr
/Times-Roman-iso ff 142.88 scf sf
2171 2874 m
gs 1 -1 sc (point) col0 sh gr
/Times-Roman-iso ff 142.88 scf sf
2505 2870 m
gs 1 -1 sc (aveugle) col0 sh gr
/Times-Roman-iso ff 142.88 scf sf
349 2195 m
gs 1 -1 sc (le point de droite) col0 sh gr
/Times-Roman-iso ff 142.88 scf sf
1027 2322 m
gs 1 -1 sc (r\351apparait) col0 sh gr
% here ends figure;
$F2psEnd
rs
showpage
%%Trailer
%EOF
