%!PS-Adobe-2.0
%%Creator: inkscape 0.41.1
%%Pages: 1
%%Orientation: Portrait
%%BoundingBox: 17 750 162 825
%%HiResBoundingBox: 17.818549 750.10426 161.73916 824.07033
%%EndComments
%%Page: 1 1
0 842 translate
0.80000000 -0.80000000 scale
gsave [1.0000000 0.0000000 0.0000000 1.0000000 0.0000000 0.0000000] concat
0.0000000 0.0000000 0.0000000 setrgbcolor
[] 0 setdash
1.0000000 setlinewidth
0 setlinejoin
0 setlinecap
newpath
52.997555 114.23186 moveto
106.36315 22.774272 lineto
163.96118 113.86382 lineto
52.997555 114.23186 lineto
closepath
stroke
0.99607843 0.0000000 0.0000000 setrgbcolor
[] 0 setdash
0.35433072 setlinewidth
0 setlinejoin
0 setlinecap
newpath
22.818392 36.391699 moveto
98.818357 36.391699 lineto
115.56411 37.495814 lineto
191.74810 57.369898 lineto
stroke
gsave [-0.20571391 -0.053664498 0.053664498 -0.20571391 192.77667 57.638220] concat
0.0000000 0.0000000 0.0000000 setrgbcolor
newpath
8.7185878 4.0337352 moveto
-2.2072895 0.016013256 lineto
8.7185884 -4.0017078 lineto
6.9730900 -1.6296469 6.9831476 1.6157441 8.7185878 4.0337352 curveto
closepath
eofill
grestore
0.0000000 0.56078434 0.99607843 setrgbcolor
[] 0 setdash
0.35433072 setlinewidth
0 setlinejoin
0 setlinecap
newpath
22.450352 37.127776 moveto
98.450317 37.127776 lineto
118.50842 41.912277 lineto
193.03623 87.181022 lineto
stroke
gsave [-0.18170516 -0.11036906 0.11036906 -0.18170516 193.94476 87.732867] concat
0.0000000 0.0000000 0.0000000 setrgbcolor
newpath
8.7185878 4.0337352 moveto
-2.2072895 0.016013256 lineto
8.7185884 -4.0017078 lineto
6.9730900 -1.6296469 6.9831476 1.6157441 8.7185878 4.0337352 curveto
closepath
eofill
grestore
0.0000000 0.0000000 0.0000000 setrgbcolor
newpath
97.832085 103.96397 moveto
97.832080 104.61176 97.592822 105.20258 97.114311 105.73643 curveto
96.622771 106.28657 96.057993 106.56163 95.419975 106.56163 curveto
95.081431 106.56163 94.751028 106.46886 94.428764 106.28331 curveto
94.428764 107.87022 lineto
94.428763 108.32595 94.777070 108.57986 95.473686 108.63194 curveto
95.463921 108.87120 lineto
92.929741 108.87120 lineto
92.871147 108.71983 lineto
92.910210 108.65147 lineto
93.453829 108.63520 93.725639 108.47569 93.725639 108.17296 curveto
93.725639 103.24132 lineto
93.725639 102.97114 93.680066 102.79536 93.588921 102.71397 curveto
93.501029 102.63260 93.318738 102.58214 93.042046 102.56261 curveto
92.988335 102.32335 lineto
93.173881 102.29080 93.396863 102.21105 93.657280 102.08409 curveto
93.907930 101.96040 94.108125 101.83507 94.257866 101.70811 curveto
94.428764 101.76671 lineto
94.428764 102.70421 lineto
95.125377 102.19640 95.722707 101.94249 96.220757 101.94249 curveto
96.696013 101.94249 97.091521 102.16710 97.407280 102.61632 curveto
97.690478 103.02322 97.832080 103.47244 97.832085 103.96397 curveto
97.148491 104.25206 moveto
97.148487 103.78657 97.028044 103.36827 96.787163 102.99718 curveto
96.510466 102.57400 96.149139 102.36242 95.703178 102.36241 curveto
95.250702 102.36242 94.825898 102.55285 94.428764 102.93370 curveto
94.428764 105.55089 lineto
94.842174 105.95779 95.304413 106.16124 95.815483 106.16124 curveto
95.974985 106.16124 96.158904 106.08800 96.367241 105.94151 curveto
96.546274 105.81131 96.689503 105.66970 96.796928 105.51671 curveto
97.031299 105.17817 97.148487 104.75662 97.148491 104.25206 curveto
fill
0.0000000 0.0000000 0.0000000 setrgbcolor
newpath
101.73833 102.14268 moveto
101.72857 102.32824 101.62765 102.57889 101.43560 102.89464 curveto
101.03195 102.68631 100.75363 102.58214 100.60064 102.58214 curveto
100.40532 102.58214 100.23280 102.67654 100.08306 102.86534 curveto
99.969127 103.03787 99.856823 103.21040 99.746147 103.38292 curveto
99.746147 105.80479 lineto
99.746146 106.15636 99.965872 106.33214 100.40533 106.33214 curveto
100.44764 106.33214 100.50786 106.33051 100.58599 106.32726 curveto
100.66411 106.32400 100.71945 106.32237 100.75201 106.32237 curveto
100.77154 106.50304 lineto
98.354546 106.50304 lineto
98.354546 106.36143 lineto
98.813529 106.34841 99.043021 106.16287 99.043022 105.80479 curveto
99.043022 102.94347 lineto
99.043021 102.75141 98.808647 102.60493 98.339897 102.50401 curveto
98.339897 102.32335 lineto
98.626355 102.29080 99.031628 102.12479 99.555717 101.82530 curveto
99.746147 101.86436 lineto
99.746147 103.01671 lineto
100.13677 102.28755 100.48508 101.92296 100.79107 101.92296 curveto
100.94732 101.92296 101.26307 101.99621 101.73833 102.14268 curveto
fill
0.0000000 0.0000000 0.0000000 setrgbcolor
newpath
104.44341 106.50304 moveto
102.20220 106.50304 lineto
102.18267 106.46397 lineto
102.21197 106.31261 lineto
102.44309 106.31261 102.60747 106.28005 102.70513 106.21495 curveto
102.82557 106.13357 102.88579 105.97732 102.88580 105.74620 curveto
102.88580 102.83116 lineto
102.88579 102.59354 102.76861 102.47472 102.53423 102.47472 curveto
102.44634 102.47472 102.34380 102.48937 102.22662 102.51866 curveto
102.10455 102.32335 lineto
102.72303 102.15083 103.18690 101.96691 103.49615 101.77159 curveto
103.67681 101.90343 lineto
103.67681 105.76085 lineto
103.67681 106.07986 103.92583 106.25401 104.42388 106.28331 curveto
104.44341 106.50304 lineto
103.73540 100.25304 moveto
103.73540 100.39302 103.68658 100.51346 103.58892 100.61436 curveto
103.49126 100.71203 103.37245 100.76085 103.23248 100.76085 curveto
103.09250 100.76085 102.97369 100.71203 102.87603 100.61436 curveto
102.77837 100.51346 102.72954 100.39302 102.72955 100.25304 curveto
102.72954 100.11307 102.77837 99.994254 102.87603 99.896591 curveto
102.97369 99.798942 103.09250 99.750114 103.23248 99.750107 curveto
103.37245 99.750114 103.49126 99.798942 103.58892 99.896591 curveto
103.68658 99.994254 103.73540 100.11307 103.73540 100.25304 curveto
fill
0.0000000 0.0000000 0.0000000 setrgbcolor
newpath
108.10552 105.28722 moveto
108.10552 105.62901 107.94927 105.92035 107.63677 106.16124 curveto
107.35031 106.38910 107.03130 106.50304 106.67974 106.50304 curveto
106.56255 106.50304 106.38840 106.48188 106.15728 106.43956 curveto
105.92616 106.39399 105.75201 106.37120 105.63482 106.37120 curveto
105.51112 106.37120 105.42811 106.43468 105.38580 106.56163 curveto
105.19537 106.52257 lineto
105.14654 105.26280 lineto
105.25884 105.24327 lineto
105.54856 105.94314 105.96522 106.29308 106.50884 106.29308 curveto
107.14035 106.29308 107.45611 106.00825 107.45611 105.43858 curveto
107.45611 105.10981 107.25917 104.85428 106.86529 104.67198 curveto
106.50070 104.51573 106.13449 104.35948 105.76665 104.20323 curveto
105.37277 103.96235 105.17583 103.60753 105.17583 103.13878 curveto
105.17583 102.80024 105.34185 102.51704 105.67388 102.28917 curveto
105.96685 102.08410 106.28911 101.98156 106.64068 101.98155 curveto
107.17779 101.98156 107.58306 102.06294 107.85650 102.22569 curveto
107.91998 103.32433 lineto
107.80767 103.34386 lineto
107.59933 102.90115 107.46099 102.63911 107.39263 102.55772 curveto
107.21034 102.33637 106.94667 102.22570 106.60162 102.22569 curveto
106.38026 102.22570 106.18332 102.29406 106.01080 102.43077 curveto
105.82199 102.57400 105.72759 102.75304 105.72759 102.96788 curveto
105.72759 103.23156 105.93267 103.45942 106.34283 103.65147 curveto
107.09152 103.99978 107.47238 104.17882 107.48540 104.18858 curveto
107.89881 104.46202 108.10552 104.82823 108.10552 105.28722 curveto
fill
0.0000000 0.0000000 0.0000000 setrgbcolor
newpath
116.96294 106.50304 moveto
114.79986 106.50304 lineto
114.79986 106.28331 lineto
115.24256 106.28331 115.46391 106.06358 115.46392 105.62413 curveto
115.46392 103.40245 lineto
115.46391 103.12576 115.39718 102.88325 115.26373 102.67491 curveto
115.10747 102.43403 114.89751 102.31359 114.63384 102.31358 curveto
114.23019 102.31359 113.75005 102.51704 113.19341 102.92393 curveto
113.19341 105.86339 lineto
113.19341 106.13032 113.45382 106.26378 113.97466 106.26378 curveto
113.99908 106.50304 lineto
111.84087 106.50304 lineto
111.84087 106.28331 lineto
112.28032 106.28331 112.50005 106.06358 112.50005 105.62413 curveto
112.50005 103.40245 lineto
112.50005 103.12251 112.44308 102.88162 112.32915 102.67979 curveto
112.18918 102.43566 111.98898 102.31359 111.72857 102.31358 curveto
111.31841 102.31359 110.81548 102.53331 110.21978 102.97276 curveto
110.21978 105.76085 lineto
110.21978 106.07986 110.46555 106.25401 110.95708 106.28331 curveto
110.92779 106.50304 lineto
108.86236 106.50304 lineto
108.84283 106.46397 lineto
108.87212 106.31261 lineto
109.07395 106.31261 109.23671 106.22960 109.36040 106.06358 curveto
109.47434 105.91059 109.53130 105.72993 109.53130 105.52159 curveto
109.53130 102.83116 lineto
109.53130 102.71398 109.43039 102.62120 109.22857 102.55284 curveto
109.20253 102.54308 109.04953 102.50727 108.76958 102.44542 curveto
108.76958 102.32335 lineto
108.80214 102.28755 108.84283 102.26150 108.89165 102.24522 curveto
109.14882 102.15734 109.53293 101.99946 110.04400 101.77159 curveto
110.21978 101.90343 lineto
110.21978 102.78233 lineto
111.16053 102.17687 111.80995 101.87413 112.16802 101.87413 curveto
112.38612 101.87413 112.58957 101.97505 112.77837 102.17686 curveto
112.93787 102.34939 113.05343 102.55122 113.12505 102.78233 curveto
114.06580 102.17687 114.71522 101.87413 115.07330 101.87413 curveto
115.42160 101.87413 115.69992 102.03527 115.90826 102.35753 curveto
116.09054 102.63748 116.18169 102.95975 116.18169 103.32433 curveto
116.18169 105.86339 lineto
116.18169 106.13032 116.43234 106.26378 116.93365 106.26378 curveto
116.96294 106.50304 lineto
fill
0.0000000 0.0000000 0.0000000 setrgbcolor
newpath
121.14751 105.30186 moveto
120.74386 106.16124 120.10422 106.59093 119.22857 106.59093 curveto
118.66542 106.59093 118.19016 106.34516 117.80279 105.85362 curveto
117.44146 105.39464 117.26080 104.87706 117.26080 104.30089 curveto
117.26080 103.64659 117.44634 103.09646 117.81744 102.65050 curveto
118.21457 102.17524 118.73378 101.93761 119.37505 101.93761 curveto
119.88612 101.93761 120.29953 102.09223 120.61529 102.40147 curveto
120.93429 102.71072 121.09380 103.12251 121.09380 103.63683 curveto
117.93951 103.63683 lineto
117.92323 103.77355 117.91509 103.91352 117.91509 104.05675 curveto
117.91509 104.54178 118.06320 104.98774 118.35943 105.39464 curveto
118.68495 105.84711 119.08208 106.07335 119.55083 106.07335 curveto
120.16281 106.07335 120.62831 105.79828 120.94732 105.24815 curveto
120.98638 105.24815 lineto
121.05799 105.24490 121.11170 105.26280 121.14751 105.30186 curveto
120.34673 103.35851 moveto
120.33371 103.02648 120.21815 102.75630 120.00005 102.54796 curveto
119.78195 102.33637 119.50526 102.23058 119.16998 102.23058 curveto
118.89328 102.23058 118.64751 102.35265 118.43267 102.59679 curveto
118.24387 102.81163 118.11529 103.06554 118.04693 103.35851 curveto
120.34673 103.35851 lineto
fill
0.0000000 0.0000000 0.0000000 setrgbcolor
newpath
145.15099 41.433762 moveto
144.92312 41.511887 144.69362 41.591640 144.46251 41.673019 curveto
144.19883 41.773931 143.98073 41.876470 143.80821 41.980637 curveto
143.77891 42.000168 143.74799 42.009933 143.71544 42.009933 curveto
143.65684 42.009933 143.61941 41.948084 143.60313 41.824387 curveto
143.59011 41.736496 143.58685 41.614426 143.59337 41.458176 curveto
143.60639 41.243333 143.61290 41.155442 143.61290 41.194504 curveto
143.33946 41.363775 143.06602 41.534673 142.79259 41.707199 curveto
142.49311 41.876470 142.17735 41.961105 141.84532 41.961105 curveto
141.32774 41.961105 140.89968 41.716965 140.56114 41.228683 curveto
140.25841 40.792487 140.10704 40.305834 140.10704 39.768723 curveto
140.10704 39.068856 140.31212 38.505705 140.72227 38.079269 curveto
141.20404 37.581227 141.75580 37.332204 142.37755 37.332199 curveto
142.89187 37.332204 143.30365 37.420094 143.61290 37.595871 curveto
143.61290 35.657394 lineto
143.61290 35.410005 143.43223 35.286307 143.07091 35.286301 curveto
143.06765 35.286307 142.96186 35.291190 142.75352 35.300949 curveto
142.75352 35.130051 lineto
143.25808 35.064953 143.76589 34.897310 144.27696 34.627121 curveto
144.27696 40.969894 lineto
144.27696 41.051275 144.30951 41.127773 144.37462 41.199387 curveto
144.43972 41.267747 144.51133 41.301926 144.58946 41.301926 curveto
144.65456 41.301926 144.74896 41.295416 144.87267 41.282394 curveto
144.99636 41.269374 145.08913 41.262864 145.15099 41.262863 curveto
145.15099 41.433762 lineto
143.61290 41.004074 moveto
143.61290 38.489426 lineto
143.38829 38.170419 143.17995 37.953948 142.98790 37.840012 curveto
142.77305 37.716318 142.48008 37.654469 142.10899 37.654465 curveto
141.64350 37.654469 141.30333 37.903492 141.08849 38.401535 curveto
140.93549 38.759611 140.85899 39.203947 140.85899 39.734543 curveto
140.85899 40.151211 140.98757 40.540208 141.24474 40.901535 curveto
141.52794 41.295416 141.86973 41.492356 142.27013 41.492355 curveto
142.54682 41.492356 142.99441 41.329596 143.61290 41.004074 curveto
fill
0.0000000 0.0000000 0.0000000 setrgbcolor
newpath
147.66563 41.912277 moveto
145.42442 41.912277 lineto
145.40489 41.873215 lineto
145.43419 41.721848 lineto
145.66531 41.721848 145.82970 41.689296 145.92735 41.624191 curveto
146.04779 41.542811 146.10802 41.386562 146.10802 41.155441 curveto
146.10802 38.240402 lineto
146.10802 38.002776 145.99083 37.883961 145.75645 37.883957 curveto
145.66856 37.883961 145.56602 37.898609 145.44884 37.927902 curveto
145.32677 37.732590 lineto
145.94526 37.560068 146.40912 37.376149 146.71837 37.180832 curveto
146.89903 37.312668 lineto
146.89903 41.170090 lineto
146.89903 41.489101 147.14805 41.663254 147.64610 41.692551 curveto
147.66563 41.912277 lineto
146.95763 35.662277 moveto
146.95762 35.802257 146.90880 35.922700 146.81114 36.023605 curveto
146.71348 36.121267 146.59467 36.170095 146.45470 36.170090 curveto
146.31472 36.170095 146.19591 36.121267 146.09825 36.023605 curveto
146.00059 35.922700 145.95177 35.802257 145.95177 35.662277 curveto
145.95177 35.522310 146.00059 35.403495 146.09825 35.305832 curveto
146.19591 35.208182 146.31472 35.159354 146.45470 35.159348 curveto
146.59467 35.159354 146.71348 35.208182 146.81114 35.305832 curveto
146.90880 35.403495 146.95762 35.522310 146.95763 35.662277 curveto
fill
0.0000000 0.0000000 0.0000000 setrgbcolor
newpath
151.32774 40.696457 moveto
151.32774 41.038255 151.17149 41.329596 150.85899 41.570480 curveto
150.57253 41.798345 150.25352 41.912277 149.90196 41.912277 curveto
149.78477 41.912277 149.61062 41.891118 149.37950 41.848801 curveto
149.14838 41.803228 148.97423 41.780441 148.85704 41.780441 curveto
148.73334 41.780441 148.65033 41.843918 148.60802 41.970871 curveto
148.41759 41.931808 lineto
148.36876 40.672043 lineto
148.48106 40.652512 lineto
148.77078 41.352382 149.18744 41.702316 149.73106 41.702316 curveto
150.36257 41.702316 150.67833 41.417486 150.67833 40.847824 curveto
150.67833 40.519049 150.48139 40.263516 150.08751 40.081223 curveto
149.72292 39.924975 149.35671 39.768725 148.98888 39.612473 curveto
148.59500 39.371590 148.39806 39.016772 148.39806 38.548019 curveto
148.39806 38.209481 148.56407 37.926279 148.89610 37.698410 curveto
149.18907 37.493336 149.51134 37.390797 149.86290 37.390793 curveto
150.40001 37.390797 150.80528 37.472177 151.07872 37.634933 curveto
151.14220 38.733566 lineto
151.02989 38.753098 lineto
150.82156 38.310393 150.68321 38.048349 150.61485 37.966965 curveto
150.43256 37.745615 150.16889 37.634938 149.82384 37.634933 curveto
149.60248 37.634938 149.40554 37.703297 149.23302 37.840012 curveto
149.04421 37.983245 148.94981 38.162281 148.94981 38.377121 curveto
148.94981 38.640796 149.15489 38.868660 149.56505 39.060715 curveto
150.31374 39.409025 150.69460 39.588061 150.70763 39.597824 curveto
151.12103 39.871264 151.32774 40.237474 151.32774 40.696457 curveto
fill
0.0000000 0.0000000 0.0000000 setrgbcolor
newpath
156.93321 39.373215 moveto
156.93321 40.021003 156.69395 40.611823 156.21544 41.145676 curveto
155.72390 41.695806 155.15912 41.970871 154.52110 41.970871 curveto
154.18256 41.970871 153.85216 41.878098 153.52989 41.692551 curveto
153.52989 43.279465 lineto
153.52989 43.735192 153.87820 43.989098 154.57481 44.041183 curveto
154.56505 44.280441 lineto
152.03087 44.280441 lineto
151.97227 44.129074 lineto
152.01134 44.060715 lineto
152.55496 44.044437 152.82677 43.884931 152.82677 43.582199 curveto
152.82677 38.650558 lineto
152.82677 38.380380 152.78119 38.204599 152.69005 38.123215 curveto
152.60216 38.041838 152.41987 37.991383 152.14317 37.971848 curveto
152.08946 37.732590 lineto
152.27501 37.700042 152.49799 37.620289 152.75841 37.493332 curveto
153.00906 37.369639 153.20925 37.244313 153.35899 37.117355 curveto
153.52989 37.175949 lineto
153.52989 38.113449 lineto
154.22650 37.605641 154.82383 37.351735 155.32188 37.351730 curveto
155.79714 37.351735 156.19265 37.576344 156.50841 38.025558 curveto
156.79161 38.432463 156.93321 38.881681 156.93321 39.373215 curveto
156.24962 39.661301 moveto
156.24961 39.195809 156.12917 38.777515 155.88829 38.406418 curveto
155.61159 37.983245 155.25027 37.771656 154.80431 37.771652 curveto
154.35183 37.771656 153.92703 37.962086 153.52989 38.342941 curveto
153.52989 40.960129 lineto
153.94330 41.367030 154.40554 41.570481 154.91661 41.570480 curveto
155.07611 41.570481 155.26003 41.497239 155.46837 41.350754 curveto
155.64740 41.220546 155.79063 41.078945 155.89806 40.925949 curveto
156.13243 40.587409 156.24961 40.165860 156.24962 39.661301 curveto
fill
0.0000000 0.0000000 0.0000000 setrgbcolor
newpath
161.32286 40.711105 moveto
160.91921 41.570481 160.27956 42.000168 159.40392 42.000168 curveto
158.84076 42.000168 158.36550 41.754400 157.97813 41.262863 curveto
157.61681 40.803880 157.43614 40.286302 157.43614 39.710129 curveto
157.43614 39.055835 157.62169 38.505705 157.99278 38.059738 curveto
158.38992 37.584482 158.90912 37.346852 159.55040 37.346848 curveto
160.06146 37.346852 160.47488 37.501474 160.79063 37.810715 curveto
161.10964 38.119963 161.26915 38.531747 161.26915 39.046066 curveto
158.11485 39.046066 lineto
158.09858 39.182788 158.09044 39.322762 158.09044 39.465988 curveto
158.09044 39.951016 158.23855 40.396979 158.53477 40.803879 curveto
158.86029 41.256353 159.25743 41.482590 159.72618 41.482590 curveto
160.33816 41.482590 160.80365 41.207525 161.12267 40.657394 curveto
161.16173 40.657394 lineto
161.23334 40.654140 161.28705 40.672044 161.32286 40.711105 curveto
160.52208 38.767746 moveto
160.50906 38.435718 160.39350 38.165536 160.17540 37.957199 curveto
159.95730 37.745615 159.68061 37.639821 159.34532 37.639816 curveto
159.06863 37.639821 158.82286 37.761891 158.60802 38.006027 curveto
158.41921 38.220875 158.29063 38.474781 158.22227 38.767746 curveto
160.52208 38.767746 lineto
fill
0.0000000 0.0000000 0.0000000 setrgbcolor
newpath
165.17540 37.551926 moveto
165.16563 37.737477 165.06472 37.988127 164.87267 38.303879 curveto
164.46902 38.095549 164.19070 37.991383 164.03770 37.991379 curveto
163.84239 37.991383 163.66986 38.085784 163.52013 38.274582 curveto
163.40619 38.447111 163.29389 38.619637 163.18321 38.792160 curveto
163.18321 41.214035 lineto
163.18321 41.565598 163.40294 41.741379 163.84239 41.741379 curveto
163.88471 41.741379 163.94493 41.739751 164.02306 41.736496 curveto
164.10118 41.733241 164.15652 41.731613 164.18907 41.731613 curveto
164.20860 41.912277 lineto
161.79161 41.912277 lineto
161.79161 41.770676 lineto
162.25059 41.757655 162.48009 41.572108 162.48009 41.214035 curveto
162.48009 38.352707 lineto
162.48009 38.160653 162.24571 38.014169 161.77696 37.913254 curveto
161.77696 37.732590 lineto
162.06342 37.700042 162.46869 37.534026 162.99278 37.234543 curveto
163.18321 37.273605 lineto
163.18321 38.425949 lineto
163.57384 37.696787 163.92214 37.332204 164.22813 37.332199 curveto
164.38438 37.332204 164.70014 37.405446 165.17540 37.551926 curveto
fill
0.0000000 0.0000000 0.0000000 setrgbcolor
newpath
168.84727 40.696457 moveto
168.84727 41.038255 168.69102 41.329596 168.37852 41.570480 curveto
168.09206 41.798345 167.77305 41.912277 167.42149 41.912277 curveto
167.30430 41.912277 167.13015 41.891118 166.89903 41.848801 curveto
166.66791 41.803228 166.49376 41.780441 166.37657 41.780441 curveto
166.25287 41.780441 166.16987 41.843918 166.12755 41.970871 curveto
165.93712 41.931808 lineto
165.88829 40.672043 lineto
166.00060 40.652512 lineto
166.29031 41.352382 166.70697 41.702316 167.25060 41.702316 curveto
167.88210 41.702316 168.19786 41.417486 168.19786 40.847824 curveto
168.19786 40.519049 168.00092 40.263516 167.60704 40.081223 curveto
167.24246 39.924975 166.87624 39.768725 166.50841 39.612473 curveto
166.11453 39.371590 165.91759 39.016772 165.91759 38.548019 curveto
165.91759 38.209481 166.08360 37.926279 166.41563 37.698410 curveto
166.70860 37.493336 167.03087 37.390797 167.38243 37.390793 curveto
167.91954 37.390797 168.32481 37.472177 168.59825 37.634933 curveto
168.66173 38.733566 lineto
168.54942 38.753098 lineto
168.34109 38.310393 168.20274 38.048349 168.13438 37.966965 curveto
167.95209 37.745615 167.68842 37.634938 167.34337 37.634933 curveto
167.12201 37.634938 166.92507 37.703297 166.75255 37.840012 curveto
166.56375 37.983245 166.46934 38.162281 166.46935 38.377121 curveto
166.46934 38.640796 166.67442 38.868660 167.08458 39.060715 curveto
167.83327 39.409025 168.21413 39.588061 168.22716 39.597824 curveto
168.64057 39.871264 168.84727 40.237474 168.84727 40.696457 curveto
fill
0.0000000 0.0000000 0.0000000 setrgbcolor
newpath
172.00157 41.912277 moveto
169.76036 41.912277 lineto
169.74083 41.873215 lineto
169.77013 41.721848 lineto
170.00125 41.721848 170.16563 41.689296 170.26329 41.624191 curveto
170.38373 41.542811 170.44395 41.386562 170.44395 41.155441 curveto
170.44395 38.240402 lineto
170.44395 38.002776 170.32677 37.883961 170.09239 37.883957 curveto
170.00450 37.883961 169.90196 37.898609 169.78477 37.927902 curveto
169.66270 37.732590 lineto
170.28119 37.560068 170.74506 37.376149 171.05431 37.180832 curveto
171.23497 37.312668 lineto
171.23497 41.170090 lineto
171.23497 41.489101 171.48399 41.663254 171.98204 41.692551 curveto
172.00157 41.912277 lineto
171.29356 35.662277 moveto
171.29356 35.802257 171.24473 35.922700 171.14708 36.023605 curveto
171.04942 36.121267 170.93061 36.170095 170.79063 36.170090 curveto
170.65066 36.170095 170.53184 36.121267 170.43419 36.023605 curveto
170.33653 35.922700 170.28770 35.802257 170.28770 35.662277 curveto
170.28770 35.522310 170.33653 35.403495 170.43419 35.305832 curveto
170.53184 35.208182 170.65066 35.159354 170.79063 35.159348 curveto
170.93061 35.159354 171.04942 35.208182 171.14708 35.305832 curveto
171.24473 35.403495 171.29356 35.522310 171.29356 35.662277 curveto
fill
0.0000000 0.0000000 0.0000000 setrgbcolor
newpath
176.87950 39.685715 moveto
176.87950 40.362800 176.66303 40.912929 176.23009 41.336105 curveto
175.80040 41.759283 175.24538 41.970871 174.56505 41.970871 curveto
173.94981 41.970871 173.41759 41.754400 172.96837 41.321457 curveto
172.52240 40.885260 172.29942 40.361172 172.29942 39.749191 curveto
172.29942 39.049324 172.50450 38.479663 172.91466 38.040207 curveto
173.32807 37.600758 173.88308 37.381032 174.57970 37.381027 curveto
175.24376 37.381032 175.79226 37.599130 176.22520 38.035324 curveto
176.66140 38.471525 176.87950 39.021655 176.87950 39.685715 curveto
175.99571 40.115402 moveto
175.99571 39.470873 175.89480 38.932137 175.69298 38.499191 curveto
175.42279 37.919768 175.00287 37.630055 174.43321 37.630051 curveto
173.92214 37.630055 173.56895 37.835133 173.37364 38.245285 curveto
173.23692 38.531747 173.16856 38.963061 173.16856 39.539230 curveto
173.16856 40.066576 173.29714 40.541836 173.55431 40.965012 curveto
173.85378 41.456549 174.25092 41.702316 174.74571 41.702316 curveto
175.57904 41.702316 175.99571 41.173346 175.99571 40.115402 curveto
fill
0.0000000 0.0000000 0.0000000 setrgbcolor
newpath
182.54356 41.912277 moveto
180.34142 41.912277 lineto
180.34142 41.692551 lineto
180.79063 41.692551 181.01524 41.472825 181.01524 41.033371 curveto
181.01524 38.811691 lineto
181.01524 38.528492 180.95665 38.285979 180.83946 38.084152 curveto
180.69623 37.843271 180.49278 37.722828 180.22911 37.722824 curveto
179.80919 37.722828 179.29486 37.942555 178.68614 38.382004 curveto
178.68614 41.170090 lineto
178.68614 41.489101 178.93679 41.663254 179.43810 41.692551 curveto
179.40880 41.912277 lineto
177.29942 41.912277 lineto
177.27989 41.873215 lineto
177.30919 41.721848 lineto
177.51427 41.721848 177.68028 41.638840 177.80724 41.472824 curveto
177.92442 41.323085 177.98302 41.142421 177.98302 40.930832 curveto
177.98302 38.240402 lineto
177.98302 38.123219 177.88048 38.030445 177.67540 37.962082 curveto
177.64936 37.952320 177.49311 37.916513 177.20665 37.854660 curveto
177.20665 37.732590 lineto
177.35313 37.713063 177.58588 37.634938 177.90489 37.498215 curveto
178.20437 37.368011 178.40457 37.262217 178.50548 37.180832 curveto
178.68614 37.312668 lineto
178.68614 38.191574 lineto
179.64643 37.586110 180.30886 37.283376 180.67345 37.283371 curveto
181.02826 37.283376 181.30333 37.444508 181.49864 37.766769 curveto
181.66465 38.036956 181.74766 38.359221 181.74767 38.733566 curveto
181.74767 41.272629 lineto
181.74766 41.539556 182.00319 41.673020 182.51427 41.673019 curveto
182.54356 41.912277 lineto
fill
0.0000000 0.0000000 0.0000000 setrgbcolor
newpath
176.01768 88.164268 moveto
176.01768 88.909713 175.76703 89.500533 175.26573 89.936729 curveto
174.79047 90.346886 174.17361 90.551964 173.41515 90.551964 curveto
172.93337 90.551964 172.40115 90.478722 171.81847 90.332237 curveto
171.81847 84.350792 lineto
171.81847 84.204314 171.73383 84.088754 171.56456 84.004112 curveto
171.41482 83.929249 171.23416 83.895069 171.02257 83.901573 curveto
171.00955 83.901580 170.99653 83.878793 170.98351 83.833214 curveto
170.96723 83.787648 170.94770 83.756723 170.92491 83.740440 curveto
171.46528 83.685109 171.99750 83.535369 172.52159 83.291222 curveto
172.52159 86.650597 lineto
172.99034 86.373908 173.26703 86.214403 173.35167 86.172081 curveto
173.67393 86.019091 173.97992 85.942593 174.26964 85.942589 curveto
174.82302 85.942593 175.26410 86.183479 175.59288 86.665245 curveto
175.87608 87.085170 176.01768 87.584844 176.01768 88.164268 curveto
175.23155 88.388878 moveto
175.23155 87.920130 175.11762 87.490443 174.88976 87.099815 curveto
174.61957 86.640835 174.26801 86.411343 173.83507 86.411339 curveto
173.65603 86.411343 173.42165 86.468309 173.13194 86.582237 curveto
172.82595 86.702684 172.62250 86.826382 172.52159 86.953331 curveto
172.52159 89.511925 lineto
172.52159 89.723514 172.69249 89.904178 173.03429 90.053917 curveto
173.31098 90.177615 173.57465 90.239464 173.82530 90.239464 curveto
174.27777 90.239464 174.63422 90.036014 174.89464 89.629112 curveto
175.11924 89.280806 175.23155 88.867395 175.23155 88.388878 curveto
fill
0.0000000 0.0000000 0.0000000 setrgbcolor
newpath
179.31847 90.273643 moveto
179.28917 90.493370 lineto
177.17979 90.493370 lineto
177.16026 90.454308 lineto
177.18956 90.302940 lineto
177.39464 90.302941 177.55903 90.219933 177.68272 90.053917 curveto
177.79666 89.904178 177.85362 89.723514 177.85362 89.511925 curveto
177.85362 84.301964 lineto
177.85362 84.184783 177.79177 84.087126 177.66808 84.008995 curveto
177.56391 83.943897 177.44835 83.911345 177.32140 83.911339 curveto
177.32140 83.911345 177.24002 83.927621 177.07726 83.960167 curveto
177.07726 83.943897 177.07888 83.919483 177.08214 83.886925 curveto
177.08539 83.854379 177.08702 83.828338 177.08702 83.808800 curveto
177.08702 83.763234 177.13422 83.724171 177.22862 83.691612 curveto
177.48253 83.613494 177.85688 83.467010 178.35167 83.252159 curveto
178.56651 83.252159 lineto
178.56651 89.751183 lineto
178.56651 90.070193 178.81716 90.244347 179.31847 90.273643 curveto
fill
0.0000000 0.0000000 0.0000000 setrgbcolor
newpath
183.51280 89.292198 moveto
183.10915 90.151574 182.46950 90.581261 181.59386 90.581261 curveto
181.03070 90.581261 180.55544 90.335493 180.16808 89.843956 curveto
179.80675 89.384973 179.62608 88.867395 179.62608 88.291222 curveto
179.62608 87.636928 179.81163 87.086798 180.18272 86.640831 curveto
180.57986 86.165575 181.09906 85.927945 181.74034 85.927940 curveto
182.25141 85.927945 182.66482 86.082567 182.98058 86.391808 curveto
183.29958 86.701056 183.45909 87.112840 183.45909 87.627159 curveto
180.30479 87.627159 lineto
180.28852 87.763881 180.28038 87.903854 180.28038 88.047081 curveto
180.28038 88.532109 180.42849 88.978072 180.72472 89.384972 curveto
181.05024 89.837446 181.44737 90.063683 181.91612 90.063683 curveto
182.52810 90.063683 182.99359 89.788618 183.31261 89.238487 curveto
183.35167 89.238487 lineto
183.42328 89.235233 183.47699 89.253137 183.51280 89.292198 curveto
182.71202 87.348839 moveto
182.69900 87.016811 182.58344 86.746629 182.36534 86.538292 curveto
182.14724 86.326708 181.87055 86.220913 181.53526 86.220909 curveto
181.25857 86.220913 181.01280 86.342984 180.79796 86.587120 curveto
180.60916 86.801967 180.48057 87.055873 180.41222 87.348839 curveto
182.71202 87.348839 lineto
fill
0.0000000 0.0000000 0.0000000 setrgbcolor
newpath
189.13292 89.892784 moveto
189.12315 90.092979 lineto
187.64366 90.512901 lineto
187.64366 89.633995 lineto
187.03493 90.239464 186.37250 90.542198 185.65636 90.542198 curveto
184.94672 90.542198 184.59190 90.058800 184.59190 89.092003 curveto
184.59190 86.933800 lineto
184.59190 86.735236 184.52354 86.578986 184.38683 86.465050 curveto
184.25011 86.351122 184.08084 86.294156 183.87901 86.294151 curveto
183.85948 86.093956 lineto
185.31456 85.835167 lineto
185.31456 89.013878 lineto
185.31456 89.293827 185.40408 89.531457 185.58311 89.726768 curveto
185.76540 89.931847 185.99490 90.034386 186.27159 90.034386 curveto
186.54828 90.034386 187.00564 89.803267 187.64366 89.341026 curveto
187.64366 86.655479 lineto
187.64366 86.411343 187.32953 86.271369 186.70128 86.235558 curveto
186.70128 86.074425 lineto
188.34190 85.771690 lineto
188.34190 89.585167 lineto
188.34190 89.829308 188.47862 89.951378 188.75206 89.951378 curveto
188.82367 89.951378 188.95062 89.931847 189.13292 89.892784 curveto
fill
0.0000000 0.0000000 0.0000000 setrgbcolor
newpath
182.15930 60.002281 moveto
182.14953 60.187832 182.04862 60.438483 181.85657 60.754234 curveto
181.45292 60.545905 181.17460 60.441738 181.02161 60.441734 curveto
180.82629 60.441738 180.65377 60.536139 180.50403 60.724937 curveto
180.39009 60.897467 180.27779 61.069993 180.16711 61.242516 curveto
180.16711 63.664391 lineto
180.16711 64.015953 180.38684 64.191734 180.82629 64.191734 curveto
180.86861 64.191734 180.92883 64.190107 181.00696 64.186852 curveto
181.08508 64.183596 181.14042 64.181969 181.17297 64.181969 curveto
181.19250 64.362633 lineto
178.77551 64.362633 lineto
178.77551 64.221031 lineto
179.23450 64.208011 179.46399 64.022464 179.46399 63.664391 curveto
179.46399 60.803062 lineto
179.46399 60.611009 179.22961 60.464525 178.76086 60.363609 curveto
178.76086 60.182945 lineto
179.04732 60.150397 179.45260 59.984382 179.97668 59.684898 curveto
180.16711 59.723961 lineto
180.16711 60.876305 lineto
180.55774 60.147142 180.90604 59.782559 181.21204 59.782555 curveto
181.36828 59.782559 181.68404 59.855801 182.15930 60.002281 curveto
fill
0.0000000 0.0000000 0.0000000 setrgbcolor
newpath
187.04700 62.136070 moveto
187.04699 62.813155 186.83052 63.363285 186.39758 63.786461 curveto
185.96789 64.209638 185.41288 64.421226 184.73254 64.421227 curveto
184.11731 64.421226 183.58508 64.204755 183.13586 63.771812 curveto
182.68990 63.335616 182.46692 62.811528 182.46692 62.199547 curveto
182.46692 61.499680 182.67200 60.930019 183.08215 60.490562 curveto
183.49556 60.051114 184.05058 59.831387 184.74719 59.831383 curveto
185.41125 59.831387 185.95975 60.049486 186.39270 60.485680 curveto
186.82889 60.921881 187.04699 61.472011 187.04700 62.136070 curveto
186.16321 62.565758 moveto
186.16320 61.921229 186.06229 61.382493 185.86047 60.949547 curveto
185.59029 60.370124 185.17037 60.080410 184.60071 60.080406 curveto
184.08964 60.080410 183.73645 60.285488 183.54114 60.695641 curveto
183.40442 60.982102 183.33606 61.413417 183.33606 61.989586 curveto
183.33606 62.516931 183.46464 62.992191 183.72180 63.415367 curveto
184.02128 63.906904 184.41841 64.152672 184.91321 64.152672 curveto
185.74654 64.152672 186.16320 63.623701 186.16321 62.565758 curveto
fill
0.0000000 0.0000000 0.0000000 setrgbcolor
newpath
192.59875 63.762047 moveto
192.58899 63.962242 lineto
191.10950 64.382164 lineto
191.10950 63.503258 lineto
190.50077 64.108727 189.83834 64.411461 189.12219 64.411461 curveto
188.41256 64.411461 188.05774 63.928063 188.05774 62.961266 curveto
188.05774 60.803062 lineto
188.05774 60.604498 187.98938 60.448249 187.85266 60.334312 curveto
187.71594 60.220384 187.54667 60.163418 187.34485 60.163414 curveto
187.32532 59.963219 lineto
188.78040 59.704430 lineto
188.78040 62.883141 lineto
188.78039 63.163090 188.86991 63.400720 189.04895 63.596031 curveto
189.23124 63.801110 189.46073 63.903649 189.73743 63.903648 curveto
190.01412 63.903649 190.47147 63.672529 191.10950 63.210289 curveto
191.10950 60.524742 lineto
191.10949 60.280606 190.79537 60.140632 190.16711 60.104820 curveto
190.16711 59.943687 lineto
191.80774 59.640953 lineto
191.80774 63.454430 lineto
191.80773 63.698571 191.94445 63.820641 192.21790 63.820641 curveto
192.28951 63.820641 192.41646 63.801110 192.59875 63.762047 curveto
fill
0.0000000 0.0000000 0.0000000 setrgbcolor
newpath
197.82825 60.685875 moveto
196.64661 60.558922 lineto
196.82564 60.829108 196.91516 61.133469 196.91516 61.472008 curveto
196.91516 61.911463 196.70520 62.263025 196.28528 62.526695 curveto
195.92720 62.751306 195.51379 62.863611 195.04504 62.863609 curveto
194.83671 62.863611 194.61698 62.840824 194.38586 62.795250 curveto
193.94967 63.026371 193.73157 63.233077 193.73157 63.415367 curveto
193.73157 63.623701 194.08150 63.750654 194.78137 63.796227 curveto
195.79048 63.864586 196.43990 63.939456 196.72961 64.020836 curveto
197.42948 64.216149 197.77941 64.601890 197.77942 65.178062 curveto
197.77941 65.676108 197.42460 66.091147 196.71497 66.423180 curveto
196.12903 66.699870 195.55285 66.838216 194.98645 66.838219 curveto
194.54700 66.838216 194.15963 66.781250 193.82434 66.667320 curveto
193.34582 66.501302 193.10657 66.244141 193.10657 65.895836 curveto
193.10657 65.404298 193.46138 64.904624 194.17102 64.396812 curveto
194.15800 64.367516 194.06034 64.328453 193.87805 64.279625 curveto
193.65995 64.224287 193.50045 64.162438 193.39954 64.094078 curveto
193.23027 63.980146 193.14563 63.825524 193.14563 63.630211 curveto
193.14563 63.431644 193.20748 63.280277 193.33118 63.176109 curveto
193.39954 63.117517 193.53951 63.049158 193.75110 62.971031 curveto
193.94967 62.896163 194.09289 62.818038 194.18079 62.736656 curveto
193.53300 62.525069 193.20911 62.083989 193.20911 61.413414 curveto
193.20911 60.944667 193.38814 60.550788 193.74622 60.231773 curveto
194.09127 59.925788 194.50142 59.772794 194.97668 59.772789 curveto
195.54309 59.772794 195.98905 59.922533 196.31458 60.222008 curveto
197.79895 60.124352 lineto
197.80220 60.235033 197.81197 60.422207 197.82825 60.685875 curveto
196.18274 61.452477 moveto
196.18274 61.097662 196.07206 60.778652 195.85071 60.495445 curveto
195.60982 60.189460 195.31685 60.036465 194.97180 60.036461 curveto
194.62024 60.036465 194.35168 60.195970 194.16614 60.514977 curveto
194.01314 60.778652 193.93664 61.099290 193.93665 61.476891 curveto
193.93664 62.228846 194.31262 62.604822 195.06458 62.604820 curveto
195.81002 62.604822 196.18274 62.220708 196.18274 61.452477 curveto
197.12024 65.280602 moveto
197.12024 64.942059 196.89725 64.706057 196.45129 64.572594 curveto
196.21692 64.504234 195.85559 64.458661 195.36731 64.435875 curveto
195.15246 64.416344 194.82857 64.396812 194.39563 64.377281 curveto
193.93664 64.741864 193.70715 65.184572 193.70715 65.705406 curveto
193.70715 66.190430 194.27030 66.432943 195.39661 66.432945 curveto
195.73515 66.432943 196.09485 66.325521 196.47571 66.110680 curveto
196.90539 65.866537 197.12024 65.589845 197.12024 65.280602 curveto
fill
0.0000000 0.0000000 0.0000000 setrgbcolor
newpath
202.17395 63.161461 moveto
201.77030 64.020836 201.13065 64.450523 200.25500 64.450523 curveto
199.69185 64.450523 199.21659 64.204755 198.82922 63.713219 curveto
198.46790 63.254235 198.28723 62.736658 198.28723 62.160484 curveto
198.28723 61.506190 198.47278 60.956061 198.84387 60.510094 curveto
199.24101 60.034838 199.76021 59.797208 200.40149 59.797203 curveto
200.91255 59.797208 201.32597 59.951830 201.64172 60.261070 curveto
201.96073 60.570319 202.12024 60.982102 202.12024 61.496422 curveto
198.96594 61.496422 lineto
198.94967 61.633143 198.94153 61.773117 198.94153 61.916344 curveto
198.94153 62.401372 199.08964 62.847335 199.38586 63.254234 curveto
199.71138 63.706709 200.10852 63.932946 200.57727 63.932945 curveto
201.18925 63.932946 201.65474 63.657881 201.97375 63.107750 curveto
202.01282 63.107750 lineto
202.08443 63.104496 202.13814 63.122400 202.17395 63.161461 curveto
201.37317 61.218102 moveto
201.36014 60.886074 201.24459 60.615892 201.02649 60.407555 curveto
200.80839 60.195970 200.53170 60.090176 200.19641 60.090172 curveto
199.91972 60.090176 199.67395 60.212246 199.45911 60.456383 curveto
199.27030 60.671230 199.14172 60.925136 199.07336 61.218102 curveto
201.37317 61.218102 lineto
fill
0.0000000 0.0000000 0.0000000 setrgbcolor
newpath
34.506863 45.839832 moveto
34.506858 46.585277 34.256207 47.176096 33.754910 47.612293 curveto
33.279646 48.022450 32.662784 48.227528 31.904324 48.227528 curveto
31.422551 48.227528 30.890325 48.154285 30.307644 48.007801 curveto
30.307644 42.026356 lineto
30.307644 41.879878 30.223008 41.764318 30.053738 41.679676 curveto
29.903998 41.604813 29.723334 41.570633 29.511745 41.577137 curveto
29.498725 41.577144 29.485704 41.554357 29.472683 41.508778 curveto
29.456407 41.463211 29.436876 41.432287 29.414089 41.416004 curveto
29.954454 41.360672 30.486680 41.210933 31.010769 40.966785 curveto
31.010769 44.326160 lineto
31.479517 44.049472 31.756210 43.889967 31.840847 43.847645 curveto
32.163110 43.694654 32.469100 43.618157 32.758816 43.618153 curveto
33.312198 43.618157 33.753278 43.859042 34.082058 44.340809 curveto
34.365257 44.760734 34.506858 45.260408 34.506863 45.839832 curveto
33.720730 46.064442 moveto
33.720726 45.595694 33.606794 45.166007 33.378933 44.775379 curveto
33.108748 44.316399 32.757185 44.086907 32.324245 44.086903 curveto
32.145207 44.086907 31.910832 44.143873 31.621120 44.257801 curveto
31.315130 44.378248 31.111679 44.501945 31.010769 44.628895 curveto
31.010769 47.187489 lineto
31.010768 47.399078 31.181666 47.579742 31.523464 47.729481 curveto
31.800155 47.853179 32.063827 47.915028 32.314480 47.915028 curveto
32.766951 47.915028 33.123396 47.711578 33.383816 47.304676 curveto
33.608422 46.956370 33.720726 46.542959 33.720730 46.064442 curveto
fill
0.0000000 0.0000000 0.0000000 setrgbcolor
newpath
37.807644 47.949207 moveto
37.778347 48.168934 lineto
35.668972 48.168934 lineto
35.649441 48.129871 lineto
35.678738 47.978504 lineto
35.883815 47.978504 36.048203 47.895497 36.171902 47.729481 curveto
36.285833 47.579742 36.342799 47.399078 36.342800 47.187489 curveto
36.342800 41.977528 lineto
36.342799 41.860346 36.280950 41.762690 36.157253 41.684559 curveto
36.053086 41.619461 35.937526 41.586909 35.810574 41.586903 curveto
35.810573 41.586909 35.729193 41.603185 35.566433 41.635731 curveto
35.566433 41.619461 35.568060 41.595047 35.571316 41.562489 curveto
35.574571 41.529943 35.576198 41.503901 35.576199 41.484364 curveto
35.576198 41.438797 35.623399 41.399735 35.717800 41.367176 curveto
35.971706 41.289058 36.346054 41.142574 36.840847 40.927723 curveto
37.055691 40.927723 lineto
37.055691 47.426746 lineto
37.055689 47.745757 37.306340 47.919911 37.807644 47.949207 curveto
fill
0.0000000 0.0000000 0.0000000 setrgbcolor
newpath
42.495144 47.680653 moveto
42.169619 47.918283 42.003603 48.040353 41.997097 48.046864 curveto
41.785505 48.177072 41.590192 48.242176 41.411160 48.242176 curveto
41.131209 48.242176 40.939151 48.028960 40.834988 47.602528 curveto
40.441105 47.888986 40.223006 48.043608 40.180691 48.066395 curveto
39.965845 48.186837 39.718450 48.247059 39.438503 48.247059 curveto
39.161809 48.247059 38.927435 48.152658 38.735378 47.963856 curveto
38.546576 47.771799 38.452175 47.539052 38.452175 47.265614 curveto
38.452175 46.923818 38.587266 46.643870 38.857449 46.425770 curveto
39.016953 46.298819 39.301783 46.150707 39.711941 45.981434 curveto
40.815456 45.527332 lineto
40.815456 44.799793 lineto
40.815454 44.542635 40.722680 44.326164 40.537136 44.150379 curveto
40.354842 43.974602 40.133488 43.886712 39.873074 43.886707 curveto
39.459661 43.886712 39.252955 44.106438 39.252956 44.545887 curveto
39.252955 44.575187 39.259466 44.614250 39.272488 44.663074 curveto
39.285507 44.711906 39.292018 44.749341 39.292019 44.775379 curveto
39.292018 44.895825 39.200872 45.003247 39.018581 45.097645 curveto
38.859075 45.182283 38.712591 45.224601 38.579128 45.224598 curveto
38.523789 45.224601 38.496120 45.179028 38.496120 45.087879 curveto
38.496120 44.654940 38.678411 44.300123 39.042995 44.023426 curveto
39.375025 43.769524 39.765650 43.642571 40.214870 43.642567 curveto
40.664087 43.642571 40.992862 43.725579 41.201199 43.891590 curveto
41.432315 44.073886 41.547875 44.383130 41.547878 44.819324 curveto
41.547878 47.333973 lineto
41.547875 47.613921 41.643903 47.753895 41.835964 47.753895 curveto
41.956403 47.753895 42.172874 47.662749 42.485378 47.480457 curveto
42.495144 47.680653 lineto
40.820339 47.275379 moveto
40.815456 45.810535 lineto
39.824245 46.245106 lineto
39.378281 46.440420 39.155299 46.754547 39.155300 47.187489 curveto
39.155299 47.373036 39.215520 47.521148 39.335964 47.631824 curveto
39.456405 47.742502 39.609400 47.797840 39.794949 47.797840 curveto
39.987004 47.797840 40.172551 47.744130 40.351589 47.636707 curveto
40.429712 47.587880 40.585962 47.467437 40.820339 47.275379 curveto
fill
0.0000000 0.0000000 0.0000000 setrgbcolor
newpath
47.812527 48.168934 moveto
45.610378 48.168934 lineto
45.610378 47.949207 lineto
46.059593 47.949208 46.284203 47.729481 46.284206 47.290028 curveto
46.284206 45.068348 lineto
46.284203 44.785148 46.225609 44.542635 46.108425 44.340809 curveto
45.965192 44.099928 45.761742 43.979485 45.498074 43.979481 curveto
45.078149 43.979485 44.563827 44.199211 43.955105 44.638660 curveto
43.955105 47.426746 lineto
43.955103 47.745757 44.205754 47.919911 44.707058 47.949207 curveto
44.677761 48.168934 lineto
42.568386 48.168934 lineto
42.548855 48.129871 lineto
42.578152 47.978504 lineto
42.783230 47.978504 42.949245 47.895497 43.076199 47.729481 curveto
43.193385 47.579742 43.251979 47.399078 43.251980 47.187489 curveto
43.251980 44.497059 lineto
43.251979 44.379875 43.149440 44.287102 42.944363 44.218739 curveto
42.918321 44.208977 42.762071 44.173170 42.475613 44.111317 curveto
42.475613 43.989246 lineto
42.622097 43.969719 42.854844 43.891594 43.173855 43.754871 curveto
43.473333 43.624668 43.673528 43.518873 43.774441 43.437489 curveto
43.955105 43.569324 lineto
43.955105 44.448231 lineto
44.915389 43.842766 45.577823 43.540032 45.942410 43.540028 curveto
46.297223 43.540032 46.572288 43.701165 46.767605 44.023426 curveto
46.933616 44.293612 47.016624 44.615878 47.016628 44.990223 curveto
47.016628 47.529285 lineto
47.016624 47.796213 47.272157 47.929676 47.783230 47.929676 curveto
47.812527 48.168934 lineto
fill
0.0000000 0.0000000 0.0000000 setrgbcolor
newpath
51.904324 46.967762 moveto
51.500674 47.827137 50.861026 48.256824 49.985378 48.256824 curveto
49.422226 48.256824 48.945338 48.030588 48.554714 47.578114 curveto
48.180365 47.145172 47.993191 46.642243 47.993191 46.069324 curveto
47.993191 45.353181 48.240586 44.762362 48.735378 44.296864 curveto
49.220403 43.841139 49.824244 43.613274 50.546902 43.613270 curveto
50.761743 43.613274 51.012393 43.680006 51.298855 43.813465 curveto
51.627627 43.959954 51.792015 44.117831 51.792019 44.287098 curveto
51.792015 44.596346 51.645531 44.750969 51.352566 44.750965 curveto
51.170271 44.750969 51.051456 44.677726 50.996120 44.531239 curveto
50.944034 44.394524 50.893578 44.257805 50.844753 44.121082 curveto
50.737329 43.971347 50.530623 43.896477 50.224636 43.896473 curveto
49.733098 43.896477 49.348984 44.119459 49.072292 44.565418 curveto
48.841172 44.943026 48.725612 45.393872 48.725613 45.917957 curveto
48.725612 46.354157 48.878606 46.761058 49.184597 47.138660 curveto
49.510116 47.539052 49.884465 47.739247 50.307644 47.739246 curveto
50.916365 47.739247 51.381859 47.464182 51.704128 46.914051 curveto
51.837588 46.910797 51.904320 46.928701 51.904324 46.967762 curveto
fill
grestore
showpage
