%!PS-Adobe-2.0
%%Creator: inkscape 0.41.1
%%Pages: 1
%%Orientation: Portrait
%%BoundingBox: 17 766 135 822
%%HiResBoundingBox: 17.647766 766.11579 134.59779 821.90767
%%EndComments
%%Page: 1 1
0 842 translate
0.80000000 -0.80000000 scale
gsave [1.0000000 0.0000000 0.0000000 1.0000000 0.0000000 0.0000000] concat
0.0000000 0.0000000 0.0000000 setrgbcolor
[1.4173229 2.8346457] 0.0000000 setdash
0.35433072 setlinewidth
0 setlinejoin
0 setlinecap
newpath
29.808288 60.912589 moveto
185.32979 60.912589 167.44470 60.912589 167.44470 60.912589 curveto
stroke
0.0000000 0.0000000 0.0000000 setrgbcolor
[] 0 setdash
0.35433072 setlinewidth
0 setlinejoin
0 setlinecap
newpath
91.364788 25.154761 moveto
91.364788 94.109319 91.364788 94.540285 91.364788 94.540285 curveto
stroke
gsave [2.3865361e-17 0.38976379 -0.38976379 2.3865361e-17 91.364788 23.205942] concat
0.0000000 0.0000000 0.0000000 setrgbcolor
newpath
8.7185878 4.0337352 moveto
-2.2072895 0.016013256 lineto
8.7185884 -4.0017078 lineto
6.9730900 -1.6296469 6.9831476 1.6157441 8.7185878 4.0337352 curveto
closepath
eofill
grestore
gsave [-2.3865361e-17 -0.38976379 0.38976379 -2.3865361e-17 91.364788 96.489104] concat
0.0000000 0.0000000 0.0000000 setrgbcolor
newpath
8.7185878 4.0337352 moveto
-2.2072895 0.016013256 lineto
8.7185884 -4.0017078 lineto
6.9730900 -1.6296469 6.9831476 1.6157441 8.7185878 4.0337352 curveto
closepath
eofill
grestore
0.0000000 0.0000000 0.0000000 setrgbcolor
[] 0 setdash
0.35433072 setlinewidth
0 setlinejoin
0 setlinecap
newpath
43.096598 41.100503 moveto
43.096598 60.709455 43.096598 82.473237 43.096598 82.473237 curveto
stroke
0.0000000 0.0000000 0.0000000 setrgbcolor
[] 0 setdash
1.0000000 setlinewidth
0 setlinejoin
0 setlinecap
newpath
42.881115 41.315986 moveto
145.45102 82.257754 lineto
stroke
gsave [-0.27862367 -0.11121533 0.11121533 -0.27862367 146.84414 82.813831] concat
0.0000000 0.0000000 0.0000000 setrgbcolor
newpath
8.7185878 4.0337352 moveto
-2.2072895 0.016013256 lineto
8.7185884 -4.0017078 lineto
6.9730900 -1.6296469 6.9831476 1.6157441 8.7185878 4.0337352 curveto
closepath
eofill
grestore
0.0000000 0.0000000 0.0000000 setrgbcolor
[] 0 setdash
1.0000000 setlinewidth
0 setlinejoin
0 setlinecap
newpath
42.881115 41.315986 moveto
91.149305 41.315986 lineto
145.45102 81.611305 lineto
stroke
gsave [-0.24091465 -0.17877396 0.17877396 -0.24091465 146.65559 82.505175] concat
0.0000000 0.0000000 0.0000000 setrgbcolor
newpath
8.7185878 4.0337352 moveto
-2.2072895 0.016013256 lineto
8.7185884 -4.0017078 lineto
6.9730900 -1.6296469 6.9831476 1.6157441 8.7185878 4.0337352 curveto
closepath
eofill
grestore
0.0000000 0.0000000 0.0000000 setrgbcolor
[] 0 setdash
0.35433072 setlinewidth
0 setlinejoin
0 setlinecap
newpath
146.74392 83.119686 moveto
146.74392 35.066979 lineto
stroke
0.0000000 0.0000000 0.0000000 setrgbcolor
[] 0 setdash
0.33349445 setlinewidth
0 setlinejoin
0 setlinecap
newpath
92.637462 55.106897 moveto
115.73459 55.106897 lineto
stroke
gsave [0.20009667 0.0000000 0.0000000 0.20009667 94.238235 55.106897] concat
0.0000000 0.0000000 0.0000000 setrgbcolor
newpath
0.0000000 0.0000000 moveto
5.0000000 -5.0000000 lineto
-12.500000 0.0000000 lineto
5.0000000 5.0000000 lineto
0.0000000 0.0000000 lineto
closepath
eofill
0.0000000 0.0000000 0.0000000 setrgbcolor
[] 0 setdash
1.2500000 setlinewidth
0 setlinejoin
0 setlinecap
newpath
0.0000000 0.0000000 moveto
5.0000000 -5.0000000 lineto
-12.500000 0.0000000 lineto
5.0000000 5.0000000 lineto
0.0000000 0.0000000 lineto
closepath
stroke
0.0000000 0.0000000 0.0000000 setrgbcolor
[] 0 setdash
1.5000000 setlinewidth
0 setlinejoin
0 setlinecap
newpath
-14.759949 -7.0000000 moveto
-14.759949 65.000000 lineto
stroke
grestore
gsave [-0.20009667 -0.0000000 0.0000000 0.20009667 114.13382 55.106897] concat
0.0000000 0.0000000 0.0000000 setrgbcolor
newpath
0.0000000 0.0000000 moveto
5.0000000 -5.0000000 lineto
-12.500000 0.0000000 lineto
5.0000000 5.0000000 lineto
0.0000000 0.0000000 lineto
closepath
eofill
0.0000000 0.0000000 0.0000000 setrgbcolor
[] 0 setdash
1.2500000 setlinewidth
0 setlinejoin
0 setlinecap
newpath
0.0000000 0.0000000 moveto
5.0000000 -5.0000000 lineto
-12.500000 0.0000000 lineto
5.0000000 5.0000000 lineto
0.0000000 0.0000000 lineto
closepath
stroke
0.0000000 0.0000000 0.0000000 setrgbcolor
[] 0 setdash
1.5000000 setlinewidth
0 setlinejoin
0 setlinecap
newpath
-14.759949 -7.0000000 moveto
-14.759949 65.000000 lineto
stroke
grestore
0.0000000 0.0000000 0.0000000 setrgbcolor
[] 0 setdash
0.49725518 setlinewidth
0 setlinejoin
0 setlinecap
newpath
144.72929 88.291276 moveto
93.379418 88.291276 lineto
stroke
gsave [-0.29835311 3.6536511e-17 -3.6536511e-17 -0.29835311 142.34247 88.291276] concat
0.0000000 0.0000000 0.0000000 setrgbcolor
newpath
0.0000000 0.0000000 moveto
5.0000000 -5.0000000 lineto
-12.500000 0.0000000 lineto
5.0000000 5.0000000 lineto
0.0000000 0.0000000 lineto
closepath
eofill
0.0000000 0.0000000 0.0000000 setrgbcolor
[] 0 setdash
1.2500000 setlinewidth
0 setlinejoin
0 setlinecap
newpath
0.0000000 0.0000000 moveto
5.0000000 -5.0000000 lineto
-12.500000 0.0000000 lineto
5.0000000 5.0000000 lineto
0.0000000 0.0000000 lineto
closepath
stroke
0.0000000 0.0000000 0.0000000 setrgbcolor
[] 0 setdash
1.5000000 setlinewidth
0 setlinejoin
0 setlinecap
newpath
-14.759949 -7.0000000 moveto
-14.759949 65.000000 lineto
stroke
grestore
gsave [0.29835311 -3.6536511e-17 -3.6536511e-17 -0.29835311 95.766243 88.291276] concat
0.0000000 0.0000000 0.0000000 setrgbcolor
newpath
0.0000000 0.0000000 moveto
5.0000000 -5.0000000 lineto
-12.500000 0.0000000 lineto
5.0000000 5.0000000 lineto
0.0000000 0.0000000 lineto
closepath
eofill
0.0000000 0.0000000 0.0000000 setrgbcolor
[] 0 setdash
1.2500000 setlinewidth
0 setlinejoin
0 setlinecap
newpath
0.0000000 0.0000000 moveto
5.0000000 -5.0000000 lineto
-12.500000 0.0000000 lineto
5.0000000 5.0000000 lineto
0.0000000 0.0000000 lineto
closepath
stroke
0.0000000 0.0000000 0.0000000 setrgbcolor
[] 0 setdash
1.5000000 setlinewidth
0 setlinejoin
0 setlinecap
newpath
-14.759949 -7.0000000 moveto
-14.759949 65.000000 lineto
stroke
grestore
0.0000000 0.0000000 0.0000000 setrgbcolor
newpath
109.57232 86.562538 moveto
106.72564 86.562538 lineto
106.72564 86.391640 lineto
107.41574 86.391640 107.76079 86.113320 107.76080 85.556679 curveto
107.76080 80.400429 lineto
107.58501 80.504602 107.41086 80.608768 107.23833 80.712929 curveto
107.03000 80.830122 106.84608 80.909875 106.68658 80.952187 curveto
106.59380 80.737343 lineto
107.24810 80.411828 107.80962 80.014693 108.27837 79.545937 curveto
108.57134 79.545937 lineto
108.57134 85.556679 lineto
108.57134 85.891966 108.65760 86.119830 108.83013 86.240273 curveto
108.97010 86.341184 109.21750 86.391640 109.57232 86.391640 curveto
109.57232 86.562538 lineto
fill
0.0000000 0.0000000 0.0000000 setrgbcolor
newpath
115.00689 83.042030 moveto
115.00688 83.833049 114.83924 84.581746 114.50396 85.288124 curveto
114.08729 86.170286 113.52577 86.611366 112.81939 86.611366 curveto
112.08697 86.611366 111.51730 86.176796 111.11040 85.307655 curveto
110.79139 84.627319 110.63189 83.872111 110.63189 83.042030 curveto
110.63189 82.251019 110.79953 81.502322 111.13482 80.795937 curveto
111.55148 79.917037 112.11301 79.477584 112.81939 79.477577 curveto
113.55181 79.477584 114.11984 79.910527 114.52349 80.776405 curveto
114.84575 81.460004 115.00688 82.215212 115.00689 83.042030 curveto
114.28912 83.261757 moveto
114.28911 80.921268 113.79920 79.751022 112.81939 79.751015 curveto
111.83957 79.751022 111.34966 80.776411 111.34966 82.827187 curveto
111.34966 85.164428 111.83957 86.333046 112.81939 86.333046 curveto
113.79920 86.333046 114.28911 85.309284 114.28912 83.261757 curveto
fill
0.0000000 0.0000000 0.0000000 setrgbcolor
newpath
fill
0.0000000 0.0000000 0.0000000 setrgbcolor
newpath
126.94537 86.567421 moveto
124.78228 86.567421 lineto
124.78228 86.347694 lineto
125.22498 86.347695 125.44634 86.127968 125.44634 85.688515 curveto
125.44634 83.466835 lineto
125.44634 83.190146 125.37960 82.947633 125.24615 82.739296 curveto
125.08989 82.498415 124.87993 82.377972 124.61626 82.377968 curveto
124.21261 82.377972 123.73247 82.581422 123.17583 82.988319 curveto
123.17583 85.927773 lineto
123.17583 86.194700 123.43625 86.328163 123.95708 86.328163 curveto
123.98150 86.567421 lineto
121.82330 86.567421 lineto
121.82330 86.347694 lineto
122.26275 86.347695 122.48247 86.127968 122.48248 85.688515 curveto
122.48248 83.466835 lineto
122.48247 83.186890 122.42551 82.946005 122.31158 82.744179 curveto
122.17160 82.500042 121.97140 82.377972 121.71099 82.377968 curveto
121.30083 82.377972 120.79790 82.597698 120.20220 83.037148 curveto
120.20220 85.825233 lineto
120.20220 86.144244 120.44797 86.318398 120.93951 86.347694 curveto
120.91021 86.567421 lineto
118.84478 86.567421 lineto
118.82525 86.528358 lineto
118.85455 86.376991 lineto
119.05637 86.376991 119.21913 86.293984 119.34283 86.127968 curveto
119.45676 85.974974 119.51372 85.794310 119.51373 85.585976 curveto
119.51373 82.895546 lineto
119.51372 82.778362 119.41281 82.685589 119.21099 82.617226 curveto
119.18495 82.607464 119.03195 82.571657 118.75201 82.509804 curveto
118.75201 82.387733 lineto
118.78456 82.351930 118.82525 82.325889 118.87408 82.309608 curveto
119.13124 82.221722 119.51535 82.063845 120.02642 81.835976 curveto
120.20220 81.967812 lineto
120.20220 82.846718 lineto
121.14295 82.241253 121.79237 81.938519 122.15044 81.938515 curveto
122.36854 81.938519 122.57199 82.039431 122.76080 82.241249 curveto
122.92030 82.413779 123.03586 82.615602 123.10748 82.846718 curveto
124.04823 82.241253 124.69764 81.938519 125.05572 81.938515 curveto
125.40402 81.938519 125.68234 82.099652 125.89068 82.421913 curveto
126.07296 82.701865 126.16411 83.024130 126.16412 83.388710 curveto
126.16412 85.927773 lineto
126.16411 86.194700 126.41476 86.328163 126.91607 86.328163 curveto
126.94537 86.567421 lineto
fill
0.0000000 0.0000000 0.0000000 setrgbcolor
newpath
108.04674 57.506157 moveto
107.55846 57.965141 lineto
107.45429 57.502908 107.12551 57.271789 106.57213 57.271782 curveto
106.25312 57.271789 105.96666 57.367817 105.71275 57.559868 curveto
105.43931 57.768207 105.30260 58.028624 105.30260 58.341118 curveto
105.30260 59.498344 lineto
106.45006 59.498344 lineto
106.45006 59.869438 lineto
105.30260 59.869438 lineto
105.30260 63.101860 lineto
105.30260 63.518527 105.53209 63.726860 105.99107 63.726860 curveto
106.02688 63.726860 106.07896 63.726860 106.14732 63.726860 curveto
106.21568 63.723605 106.26614 63.721977 106.29869 63.721977 curveto
106.29869 63.941704 lineto
103.92076 63.941704 lineto
103.89635 63.800102 lineto
104.16327 63.718722 104.32115 63.665011 104.36998 63.638969 curveto
104.53274 63.551079 104.61412 63.419243 104.61412 63.243462 curveto
104.61412 59.869438 lineto
104.52297 59.879208 104.23814 59.856421 103.75963 59.801079 curveto
103.75963 59.610649 lineto
104.16327 59.610653 104.39765 59.573219 104.46275 59.498344 curveto
104.61412 59.498344 lineto
104.61412 59.351860 lineto
104.61412 58.827777 104.67109 58.450173 104.78502 58.219048 curveto
104.87291 58.046527 105.10728 57.776345 105.48814 57.408501 curveto
105.82017 57.089497 106.29869 56.929992 106.92369 56.929985 curveto
107.25897 56.929992 107.63332 57.122049 108.04674 57.506157 curveto
fill
0.0000000 0.0000000 0.0000000 setrgbcolor
[] 0 setdash
0.34033063 setlinewidth
0 setlinejoin
0 setlinecap
newpath
33.399864 80.978579 moveto
33.399864 62.888567 33.399864 42.810643 33.399864 42.810643 curveto
stroke
gsave [1.2503132e-17 -0.20419838 0.20419838 1.2503132e-17 33.399864 79.344992] concat
0.0000000 0.0000000 0.0000000 setrgbcolor
newpath
0.0000000 0.0000000 moveto
5.0000000 -5.0000000 lineto
-12.500000 0.0000000 lineto
5.0000000 5.0000000 lineto
0.0000000 0.0000000 lineto
closepath
eofill
0.0000000 0.0000000 0.0000000 setrgbcolor
[] 0 setdash
1.2500000 setlinewidth
0 setlinejoin
0 setlinecap
newpath
0.0000000 0.0000000 moveto
5.0000000 -5.0000000 lineto
-12.500000 0.0000000 lineto
5.0000000 5.0000000 lineto
0.0000000 0.0000000 lineto
closepath
stroke
0.0000000 0.0000000 0.0000000 setrgbcolor
[] 0 setdash
1.5000000 setlinewidth
0 setlinejoin
0 setlinecap
newpath
-14.759949 -7.0000000 moveto
-14.759949 65.000000 lineto
stroke
grestore
gsave [-1.2503132e-17 0.20419838 0.20419838 1.2503132e-17 33.399864 44.444230] concat
0.0000000 0.0000000 0.0000000 setrgbcolor
newpath
0.0000000 0.0000000 moveto
5.0000000 -5.0000000 lineto
-12.500000 0.0000000 lineto
5.0000000 5.0000000 lineto
0.0000000 0.0000000 lineto
closepath
eofill
0.0000000 0.0000000 0.0000000 setrgbcolor
[] 0 setdash
1.2500000 setlinewidth
0 setlinejoin
0 setlinecap
newpath
0.0000000 0.0000000 moveto
5.0000000 -5.0000000 lineto
-12.500000 0.0000000 lineto
5.0000000 5.0000000 lineto
0.0000000 0.0000000 lineto
closepath
stroke
0.0000000 0.0000000 0.0000000 setrgbcolor
[] 0 setdash
1.5000000 setlinewidth
0 setlinejoin
0 setlinecap
newpath
-14.759949 -7.0000000 moveto
-14.759949 65.000000 lineto
stroke
grestore
0.0000000 0.0000000 0.0000000 setrgbcolor
[] 0 setdash
0.34311205 setlinewidth
0 setlinejoin
0 setlinecap
newpath
157.30258 36.456577 moveto
157.30258 81.514601 lineto
stroke
gsave [1.2605316e-17 0.20586723 -0.20586723 1.2605316e-17 157.30258 38.103515] concat
0.0000000 0.0000000 0.0000000 setrgbcolor
newpath
0.0000000 0.0000000 moveto
5.0000000 -5.0000000 lineto
-12.500000 0.0000000 lineto
5.0000000 5.0000000 lineto
0.0000000 0.0000000 lineto
closepath
eofill
0.0000000 0.0000000 0.0000000 setrgbcolor
[] 0 setdash
1.2500000 setlinewidth
0 setlinejoin
0 setlinecap
newpath
0.0000000 0.0000000 moveto
5.0000000 -5.0000000 lineto
-12.500000 0.0000000 lineto
5.0000000 5.0000000 lineto
0.0000000 0.0000000 lineto
closepath
stroke
0.0000000 0.0000000 0.0000000 setrgbcolor
[] 0 setdash
1.5000000 setlinewidth
0 setlinejoin
0 setlinecap
newpath
-14.759949 -7.0000000 moveto
-14.759949 65.000000 lineto
stroke
grestore
gsave [-1.2605316e-17 -0.20586723 -0.20586723 1.2605316e-17 157.30258 79.867663] concat
0.0000000 0.0000000 0.0000000 setrgbcolor
newpath
0.0000000 0.0000000 moveto
5.0000000 -5.0000000 lineto
-12.500000 0.0000000 lineto
5.0000000 5.0000000 lineto
0.0000000 0.0000000 lineto
closepath
eofill
0.0000000 0.0000000 0.0000000 setrgbcolor
[] 0 setdash
1.2500000 setlinewidth
0 setlinejoin
0 setlinecap
newpath
0.0000000 0.0000000 moveto
5.0000000 -5.0000000 lineto
-12.500000 0.0000000 lineto
5.0000000 5.0000000 lineto
0.0000000 0.0000000 lineto
closepath
stroke
0.0000000 0.0000000 0.0000000 setrgbcolor
[] 0 setdash
1.5000000 setlinewidth
0 setlinejoin
0 setlinecap
newpath
-14.759949 -7.0000000 moveto
-14.759949 65.000000 lineto
stroke
grestore
0.0000000 0.0000000 0.0000000 setrgbcolor
newpath
155.34631 53.790527 moveto
155.34631 53.852378 155.20308 54.316244 154.91663 55.182129 curveto
150.82971 55.182129 lineto
150.73694 54.894043 lineto
152.91142 53.139488 153.99865 51.544437 153.99866 50.108887 curveto
153.99865 49.269049 153.61779 48.849127 152.85608 48.849121 curveto
152.00972 48.849127 151.36519 49.247890 150.92249 50.045410 curveto
150.70764 49.952637 lineto
150.88342 49.467616 151.18290 49.059088 151.60608 48.727051 curveto
152.05204 48.375495 152.52405 48.199714 153.02209 48.199707 curveto
153.48108 48.199714 153.86682 48.339688 154.17932 48.619629 curveto
154.50484 48.912604 154.66760 49.285325 154.66760 49.737793 curveto
154.66760 51.186365 153.68615 52.783043 151.72327 54.527832 curveto
154.39417 54.527832 lineto
154.57320 54.527833 154.74410 54.389486 154.90686 54.112793 curveto
155.06962 53.836102 155.14449 53.697755 155.13147 53.697754 curveto
155.15751 53.697755 155.19494 53.712404 155.24377 53.741699 curveto
155.29260 53.767742 155.32678 53.784018 155.34631 53.790527 curveto
fill
0.0000000 0.0000000 0.0000000 setrgbcolor
newpath
fill
0.0000000 0.0000000 0.0000000 setrgbcolor
newpath
166.92346 55.182129 moveto
164.76038 55.182129 lineto
164.76038 54.962402 lineto
165.20308 54.962403 165.42443 54.742676 165.42444 54.303223 curveto
165.42444 52.081543 lineto
165.42443 51.804854 165.35770 51.562341 165.22424 51.354004 curveto
165.06799 51.113123 164.85803 50.992680 164.59436 50.992676 curveto
164.19071 50.992680 163.71057 51.196130 163.15393 51.603027 curveto
163.15393 54.542480 lineto
163.15393 54.809408 163.41434 54.942871 163.93518 54.942871 curveto
163.95959 55.182129 lineto
161.80139 55.182129 lineto
161.80139 54.962402 lineto
162.24084 54.962403 162.46057 54.742676 162.46057 54.303223 curveto
162.46057 52.081543 lineto
162.46057 51.801598 162.40360 51.560713 162.28967 51.358887 curveto
162.14970 51.114750 161.94950 50.992680 161.68909 50.992676 curveto
161.27893 50.992680 160.77600 51.212406 160.18030 51.651855 curveto
160.18030 54.439941 lineto
160.18030 54.758952 160.42606 54.933106 160.91760 54.962402 curveto
160.88831 55.182129 lineto
158.82288 55.182129 lineto
158.80334 55.143066 lineto
158.83264 54.991699 lineto
159.03446 54.991699 159.19722 54.908692 159.32092 54.742676 curveto
159.43485 54.589682 159.49182 54.409018 159.49182 54.200684 curveto
159.49182 51.510254 lineto
159.49182 51.393070 159.39091 51.300297 159.18909 51.231934 curveto
159.16304 51.222172 159.01005 51.186365 158.73010 51.124512 curveto
158.73010 51.002441 lineto
158.76265 50.966638 158.80334 50.940597 158.85217 50.924316 curveto
159.10933 50.836430 159.49345 50.678553 160.00452 50.450684 curveto
160.18030 50.582520 lineto
160.18030 51.461426 lineto
161.12105 50.855961 161.77046 50.553227 162.12854 50.553223 curveto
162.34664 50.553227 162.55009 50.654139 162.73889 50.855957 curveto
162.89839 51.028487 163.01395 51.230310 163.08557 51.461426 curveto
164.02632 50.855961 164.67573 50.553227 165.03381 50.553223 curveto
165.38211 50.553227 165.66043 50.714360 165.86877 51.036621 curveto
166.05106 51.316573 166.14220 51.638838 166.14221 52.003418 curveto
166.14221 54.542480 lineto
166.14220 54.809408 166.39286 54.942871 166.89417 54.942871 curveto
166.92346 55.182129 lineto
fill
0.0000000 0.0000000 0.0000000 setrgbcolor
newpath
26.698380 71.859352 moveto
26.698375 71.921202 26.555146 72.385069 26.268692 73.250954 curveto
22.181778 73.250954 lineto
22.089005 72.962868 lineto
24.263481 71.208312 25.350720 69.613262 25.350723 68.177711 curveto
25.350720 67.337874 24.969861 66.917952 24.208145 66.917946 curveto
23.361789 66.917952 22.717259 67.316715 22.274551 68.114235 curveto
22.059708 68.021461 lineto
22.235488 67.536441 22.534967 67.127913 22.958145 66.795876 curveto
23.404107 66.444320 23.876112 66.268539 24.374161 66.268532 curveto
24.833142 66.268539 25.218884 66.408513 25.531387 66.688454 curveto
25.856904 66.981429 26.019664 67.354150 26.019669 67.806618 curveto
26.019664 69.255189 25.038220 70.851868 23.075333 72.596657 curveto
25.746231 72.596657 lineto
25.925263 72.596657 26.096162 72.458311 26.258926 72.181618 curveto
26.421682 71.904926 26.496552 71.766580 26.483536 71.766579 curveto
26.509573 71.766580 26.547008 71.781229 26.595840 71.810524 curveto
26.644664 71.836567 26.678843 71.852843 26.698380 71.859352 curveto
fill
0.0000000 0.0000000 0.0000000 setrgbcolor
newpath
31.893692 71.244118 moveto
30.755997 71.244118 lineto
30.755997 73.250954 lineto
30.082169 73.250954 lineto
30.082169 71.244118 lineto
27.225723 71.244118 lineto
27.225723 70.936501 lineto
30.511856 66.209938 lineto
30.755997 66.209938 lineto
30.755997 70.628883 lineto
31.893692 70.628883 lineto
31.893692 71.244118 lineto
30.082169 67.347633 moveto
27.840958 70.628883 lineto
30.082169 70.628883 lineto
30.082169 67.347633 lineto
fill
0.0000000 0.0000000 0.0000000 setrgbcolor
newpath
fill
0.0000000 0.0000000 0.0000000 setrgbcolor
newpath
43.060684 73.250954 moveto
40.897598 73.250954 lineto
40.897598 73.031227 lineto
41.340300 73.031227 41.561654 72.811501 41.561661 72.372047 curveto
41.561661 70.150368 lineto
41.561654 69.873678 41.494922 69.631166 41.361465 69.422829 curveto
41.205209 69.181947 40.995248 69.061505 40.731583 69.061501 curveto
40.327931 69.061505 39.847789 69.264955 39.291153 69.671852 curveto
39.291153 72.611305 lineto
39.291149 72.878233 39.551565 73.011696 40.072403 73.011696 curveto
40.096817 73.250954 lineto
37.938614 73.250954 lineto
37.938614 73.031227 lineto
38.378064 73.031227 38.597790 72.811501 38.597794 72.372047 curveto
38.597794 70.150368 lineto
38.597790 69.870423 38.540824 69.629538 38.426895 69.427711 curveto
38.286918 69.183575 38.086723 69.061505 37.826309 69.061501 curveto
37.416150 69.061505 36.913221 69.281231 36.317520 69.720680 curveto
36.317520 72.508766 lineto
36.317519 72.827777 36.563287 73.001930 37.054825 73.031227 curveto
37.025528 73.250954 lineto
34.960098 73.250954 lineto
34.940567 73.211891 lineto
34.969864 73.060524 lineto
35.171687 73.060524 35.334447 72.977516 35.458145 72.811501 curveto
35.572077 72.658506 35.629043 72.477842 35.629044 72.269508 curveto
35.629044 69.579079 lineto
35.629043 69.461895 35.528131 69.369122 35.326309 69.300758 curveto
35.300267 69.290997 35.147273 69.255189 34.867325 69.193336 curveto
34.867325 69.071266 lineto
34.899877 69.035463 34.940567 69.009421 34.989395 68.993141 curveto
35.246556 68.905255 35.630670 68.747377 36.141739 68.519508 curveto
36.317520 68.651344 lineto
36.317520 69.530251 lineto
37.258273 68.924786 37.907686 68.622052 38.265762 68.622047 curveto
38.483858 68.622052 38.687308 68.722963 38.876114 68.924782 curveto
39.035615 69.097312 39.151175 69.299135 39.222794 69.530251 curveto
40.163544 68.924786 40.812957 68.622052 41.171036 68.622047 curveto
41.519336 68.622052 41.797656 68.783185 42.005997 69.105446 curveto
42.188281 69.385398 42.279427 69.707663 42.279434 70.072243 curveto
42.279434 72.611305 lineto
42.279427 72.878233 42.530078 73.011696 43.031387 73.011696 curveto
43.060684 73.250954 lineto
fill
0.0000000 0.0000000 0.0000000 setrgbcolor
newpath
51.439590 73.250954 moveto
49.276505 73.250954 lineto
49.276505 73.031227 lineto
49.719206 73.031227 49.940560 72.811501 49.940567 72.372047 curveto
49.940567 70.150368 lineto
49.940560 69.873678 49.873829 69.631166 49.740372 69.422829 curveto
49.584115 69.181947 49.374155 69.061505 49.110489 69.061501 curveto
48.706838 69.061505 48.226695 69.264955 47.670059 69.671852 curveto
47.670059 72.611305 lineto
47.670055 72.878233 47.930471 73.011696 48.451309 73.011696 curveto
48.475723 73.250954 lineto
46.317520 73.250954 lineto
46.317520 73.031227 lineto
46.756970 73.031227 46.976696 72.811501 46.976700 72.372047 curveto
46.976700 70.150368 lineto
46.976696 69.870423 46.919730 69.629538 46.805801 69.427711 curveto
46.665824 69.183575 46.465629 69.061505 46.205215 69.061501 curveto
45.795057 69.061505 45.292128 69.281231 44.696426 69.720680 curveto
44.696426 72.508766 lineto
44.696425 72.827777 44.942193 73.001930 45.433731 73.031227 curveto
45.404434 73.250954 lineto
43.339005 73.250954 lineto
43.319473 73.211891 lineto
43.348770 73.060524 lineto
43.550593 73.060524 43.713353 72.977516 43.837051 72.811501 curveto
43.950983 72.658506 44.007949 72.477842 44.007950 72.269508 curveto
44.007950 69.579079 lineto
44.007949 69.461895 43.907038 69.369122 43.705215 69.300758 curveto
43.679173 69.290997 43.526179 69.255189 43.246231 69.193336 curveto
43.246231 69.071266 lineto
43.278783 69.035463 43.319473 69.009421 43.368301 68.993141 curveto
43.625463 68.905255 44.009577 68.747377 44.520645 68.519508 curveto
44.696426 68.651344 lineto
44.696426 69.530251 lineto
45.637179 68.924786 46.286593 68.622052 46.644669 68.622047 curveto
46.862764 68.622052 47.066214 68.722963 47.255020 68.924782 curveto
47.414521 69.097312 47.530081 69.299135 47.601700 69.530251 curveto
48.542450 68.924786 49.191863 68.622052 49.549942 68.622047 curveto
49.898243 68.622052 50.176563 68.783185 50.384903 69.105446 curveto
50.567187 69.385398 50.658333 69.707663 50.658340 70.072243 curveto
50.658340 72.611305 lineto
50.658333 72.878233 50.908984 73.011696 51.410294 73.011696 curveto
51.439590 73.250954 lineto
fill
grestore
showpage
