%!PS-Adobe-2.0 EPSF-2.0
%%Title: Rayonsprincipaux.fig
%%Creator: fig2dev Version 3.2 Patchlevel 5-alpha5
%%CreationDate: Wed Jul  6 23:00:58 2005
%%For: guyotv@debian ()
%%BoundingBox: 0 0 155 100
%Magnification: 1.0000
%%EndComments
/$F2psDict 200 dict def
$F2psDict begin
$F2psDict /mtrx matrix put
/col-1 {0 setgray} bind def
/col0 {0.000 0.000 0.000 srgb} bind def
/col1 {0.000 0.000 1.000 srgb} bind def
/col2 {0.000 1.000 0.000 srgb} bind def
/col3 {0.000 1.000 1.000 srgb} bind def
/col4 {1.000 0.000 0.000 srgb} bind def
/col5 {1.000 0.000 1.000 srgb} bind def
/col6 {1.000 1.000 0.000 srgb} bind def
/col7 {1.000 1.000 1.000 srgb} bind def
/col8 {0.000 0.000 0.560 srgb} bind def
/col9 {0.000 0.000 0.690 srgb} bind def
/col10 {0.000 0.000 0.820 srgb} bind def
/col11 {0.530 0.810 1.000 srgb} bind def
/col12 {0.000 0.560 0.000 srgb} bind def
/col13 {0.000 0.690 0.000 srgb} bind def
/col14 {0.000 0.820 0.000 srgb} bind def
/col15 {0.000 0.560 0.560 srgb} bind def
/col16 {0.000 0.690 0.690 srgb} bind def
/col17 {0.000 0.820 0.820 srgb} bind def
/col18 {0.560 0.000 0.000 srgb} bind def
/col19 {0.690 0.000 0.000 srgb} bind def
/col20 {0.820 0.000 0.000 srgb} bind def
/col21 {0.560 0.000 0.560 srgb} bind def
/col22 {0.690 0.000 0.690 srgb} bind def
/col23 {0.820 0.000 0.820 srgb} bind def
/col24 {0.500 0.190 0.000 srgb} bind def
/col25 {0.630 0.250 0.000 srgb} bind def
/col26 {0.750 0.380 0.000 srgb} bind def
/col27 {1.000 0.500 0.500 srgb} bind def
/col28 {1.000 0.630 0.630 srgb} bind def
/col29 {1.000 0.750 0.750 srgb} bind def
/col30 {1.000 0.880 0.880 srgb} bind def
/col31 {1.000 0.840 0.000 srgb} bind def

end
save
newpath 0 100 moveto 0 0 lineto 155 0 lineto 155 100 lineto closepath clip newpath
-7.7 102.8 translate
1 -1 scale

/cp {closepath} bind def
/ef {eofill} bind def
/gr {grestore} bind def
/gs {gsave} bind def
/sa {save} bind def
/rs {restore} bind def
/l {lineto} bind def
/m {moveto} bind def
/rm {rmoveto} bind def
/n {newpath} bind def
/s {stroke} bind def
/sh {show} bind def
/slc {setlinecap} bind def
/slj {setlinejoin} bind def
/slw {setlinewidth} bind def
/srgb {setrgbcolor} bind def
/rot {rotate} bind def
/sc {scale} bind def
/sd {setdash} bind def
/ff {findfont} bind def
/sf {setfont} bind def
/scf {scalefont} bind def
/sw {stringwidth} bind def
/tr {translate} bind def
/tnt {dup dup currentrgbcolor
  4 -2 roll dup 1 exch sub 3 -1 roll mul add
  4 -2 roll dup 1 exch sub 3 -1 roll mul add
  4 -2 roll dup 1 exch sub 3 -1 roll mul add srgb}
  bind def
/shd {dup dup currentrgbcolor 4 -2 roll mul 4 -2 roll mul
  4 -2 roll mul srgb} bind def
 /DrawEllipse {
	/endangle exch def
	/startangle exch def
	/yrad exch def
	/xrad exch def
	/y exch def
	/x exch def
	/savematrix mtrx currentmatrix def
	x y tr xrad yrad sc 0 0 1 startangle endangle arc
	closepath
	savematrix setmatrix
	} def

/$F2psBegin {$F2psDict begin /$F2psEnteredState save def} def
/$F2psEnd {$F2psEnteredState restore end} def

$F2psBegin
10 setmiterlimit
0 slj 0 slc
 0.06299 0.06299 sc
%
% Fig objects follow
%
% 
% here starts figure with depth 50
% Ellipse
7.500 slw
n 1054 856 26 26 0 360 DrawEllipse gs 0.00 setgray ef gr gs col0 s gr

% Ellipse
n 1658 856 26 26 0 360 DrawEllipse gs 0.00 setgray ef gr gs col0 s gr

% Polyline
0 slj
0 slc
n 135 855 m
 1260 855 l gs col0 s gr 
% Polyline
n 675 315 m
 675 1530 l gs col0 s gr 
% Polyline
n 1440 855 m
 2565 855 l gs col0 s gr 
% Polyline
n 1980 315 m
 1980 1530 l gs col0 s gr 
% Polyline
n 630 405 m 675 315 l
 720 405 l gs col0 s gr 
% Polyline
n 1935 1620 m 1980 1530 l
 2025 1620 l gs col0 s gr 
% Polyline
n 630 1440 m 675 1530 l
 720 1440 l gs col0 s gr 
% Polyline
n 1935 225 m 1980 315 l
 2025 225 l gs col0 s gr 
% Polyline
gs  clippath
1156 1064 m 1266 1106 l 1281 1064 l 1172 1022 l 1172 1022 l 1235 1070 l 1156 1064 l cp
eoclip
n 180 675 m
 1260 1080 l gs col0 s gr gr

% arrowhead
n 1156 1064 m 1235 1070 l 1172 1022 l 1178 1048 l 1156 1064 l 
 cp gs 0.00 setgray ef gr  col0 s
% Polyline
gs  clippath
1121 942 m 1212 1016 l 1240 982 l 1150 907 l 1150 907 l 1194 973 l 1121 942 l cp
eoclip
n 180 540 m 675 540 l
 1215 990 l gs col0 s gr gr

% arrowhead
n 1121 942 m 1194 973 l 1150 907 l 1147 934 l 1121 942 l 
 cp gs 0.00 setgray ef gr  col0 s
% Polyline
gs  clippath
2417 1061 m 2525 1106 l 2542 1065 l 2434 1020 l 2434 1020 l 2495 1070 l 2417 1061 l cp
eoclip
n 1440 630 m
 2520 1080 l gs col0 s gr gr

% arrowhead
n 2417 1061 m 2495 1070 l 2434 1020 l 2439 1046 l 2417 1061 l 
 cp gs 0.00 setgray ef gr  col0 s
% Polyline
gs  clippath
2238 312 m 2321 230 l 2289 198 l 2207 281 l 2207 281 l 2276 244 l 2238 312 l cp
eoclip
n 1440 540 m 1980 540 l
 2295 225 l gs col0 s gr gr

% arrowhead
n 2238 312 m 2276 244 l 2207 281 l 2233 286 l 2238 312 l 
 cp gs 0.00 setgray ef gr  col0 s
% Polyline
 [60] 0 sd
n 2160 360 m
 1485 1035 l gs col0 s gr  [] 0 sd
/Times-Roman ff 158.75 scf sf
180 180 m
gs 1 -1 sc (Convergente) col0 sh gr
/Times-Roman ff 158.75 scf sf
1485 180 m
gs 1 -1 sc (Divergente) col0 sh gr
/Times-Roman ff 127.00 scf sf
1035 810 m
gs 1 -1 sc (Foyer) col0 sh gr
/Times-Roman ff 127.00 scf sf
1620 1035 m
gs 1 -1 sc (Foyer) col0 sh gr
% here ends figure;
$F2psEnd
rs
showpage
%%Trailer
%EOF
