%!PS-Adobe-2.0 EPSF-2.0
%%Title: Reflexiononde.fig
%%Creator: fig2dev Version 3.2 Patchlevel 5-alpha5
%%CreationDate: Thu Aug  4 09:50:40 2005
%%For: guyotv@debian ()
%%BoundingBox: 0 0 194 113
%Magnification: 1.0000
%%EndComments
/$F2psDict 200 dict def
$F2psDict begin
$F2psDict /mtrx matrix put
/col-1 {0 setgray} bind def
/col0 {0.000 0.000 0.000 srgb} bind def
/col1 {0.000 0.000 1.000 srgb} bind def
/col2 {0.000 1.000 0.000 srgb} bind def
/col3 {0.000 1.000 1.000 srgb} bind def
/col4 {1.000 0.000 0.000 srgb} bind def
/col5 {1.000 0.000 1.000 srgb} bind def
/col6 {1.000 1.000 0.000 srgb} bind def
/col7 {1.000 1.000 1.000 srgb} bind def
/col8 {0.000 0.000 0.560 srgb} bind def
/col9 {0.000 0.000 0.690 srgb} bind def
/col10 {0.000 0.000 0.820 srgb} bind def
/col11 {0.530 0.810 1.000 srgb} bind def
/col12 {0.000 0.560 0.000 srgb} bind def
/col13 {0.000 0.690 0.000 srgb} bind def
/col14 {0.000 0.820 0.000 srgb} bind def
/col15 {0.000 0.560 0.560 srgb} bind def
/col16 {0.000 0.690 0.690 srgb} bind def
/col17 {0.000 0.820 0.820 srgb} bind def
/col18 {0.560 0.000 0.000 srgb} bind def
/col19 {0.690 0.000 0.000 srgb} bind def
/col20 {0.820 0.000 0.000 srgb} bind def
/col21 {0.560 0.000 0.560 srgb} bind def
/col22 {0.690 0.000 0.690 srgb} bind def
/col23 {0.820 0.000 0.820 srgb} bind def
/col24 {0.500 0.190 0.000 srgb} bind def
/col25 {0.630 0.250 0.000 srgb} bind def
/col26 {0.750 0.380 0.000 srgb} bind def
/col27 {1.000 0.500 0.500 srgb} bind def
/col28 {1.000 0.630 0.630 srgb} bind def
/col29 {1.000 0.750 0.750 srgb} bind def
/col30 {1.000 0.880 0.880 srgb} bind def
/col31 {1.000 0.840 0.000 srgb} bind def

end
save
newpath 0 113 moveto 0 0 lineto 194 0 lineto 194 113 lineto closepath clip newpath
0.8 95.1 translate
1 -1 scale

/cp {closepath} bind def
/ef {eofill} bind def
/gr {grestore} bind def
/gs {gsave} bind def
/sa {save} bind def
/rs {restore} bind def
/l {lineto} bind def
/m {moveto} bind def
/rm {rmoveto} bind def
/n {newpath} bind def
/s {stroke} bind def
/sh {show} bind def
/slc {setlinecap} bind def
/slj {setlinejoin} bind def
/slw {setlinewidth} bind def
/srgb {setrgbcolor} bind def
/rot {rotate} bind def
/sc {scale} bind def
/sd {setdash} bind def
/ff {findfont} bind def
/sf {setfont} bind def
/scf {scalefont} bind def
/sw {stringwidth} bind def
/tr {translate} bind def
/tnt {dup dup currentrgbcolor
  4 -2 roll dup 1 exch sub 3 -1 roll mul add
  4 -2 roll dup 1 exch sub 3 -1 roll mul add
  4 -2 roll dup 1 exch sub 3 -1 roll mul add srgb}
  bind def
/shd {dup dup currentrgbcolor 4 -2 roll mul 4 -2 roll mul
  4 -2 roll mul srgb} bind def
/reencdict 12 dict def /ReEncode { reencdict begin
/newcodesandnames exch def /newfontname exch def /basefontname exch def
/basefontdict basefontname findfont def /newfont basefontdict maxlength dict def
basefontdict { exch dup /FID ne { dup /Encoding eq
{ exch dup length array copy newfont 3 1 roll put }
{ exch newfont 3 1 roll put } ifelse } { pop pop } ifelse } forall
newfont /FontName newfontname put newcodesandnames aload pop
128 1 255 { newfont /Encoding get exch /.notdef put } for
newcodesandnames length 2 idiv { newfont /Encoding get 3 1 roll put } repeat
newfontname newfont definefont pop end } def
/isovec [
8#055 /minus 8#200 /grave 8#201 /acute 8#202 /circumflex 8#203 /tilde
8#204 /macron 8#205 /breve 8#206 /dotaccent 8#207 /dieresis
8#210 /ring 8#211 /cedilla 8#212 /hungarumlaut 8#213 /ogonek 8#214 /caron
8#220 /dotlessi 8#230 /oe 8#231 /OE
8#240 /space 8#241 /exclamdown 8#242 /cent 8#243 /sterling
8#244 /currency 8#245 /yen 8#246 /brokenbar 8#247 /section 8#250 /dieresis
8#251 /copyright 8#252 /ordfeminine 8#253 /guillemotleft 8#254 /logicalnot
8#255 /hyphen 8#256 /registered 8#257 /macron 8#260 /degree 8#261 /plusminus
8#262 /twosuperior 8#263 /threesuperior 8#264 /acute 8#265 /mu 8#266 /paragraph
8#267 /periodcentered 8#270 /cedilla 8#271 /onesuperior 8#272 /ordmasculine
8#273 /guillemotright 8#274 /onequarter 8#275 /onehalf
8#276 /threequarters 8#277 /questiondown 8#300 /Agrave 8#301 /Aacute
8#302 /Acircumflex 8#303 /Atilde 8#304 /Adieresis 8#305 /Aring
8#306 /AE 8#307 /Ccedilla 8#310 /Egrave 8#311 /Eacute
8#312 /Ecircumflex 8#313 /Edieresis 8#314 /Igrave 8#315 /Iacute
8#316 /Icircumflex 8#317 /Idieresis 8#320 /Eth 8#321 /Ntilde 8#322 /Ograve
8#323 /Oacute 8#324 /Ocircumflex 8#325 /Otilde 8#326 /Odieresis 8#327 /multiply
8#330 /Oslash 8#331 /Ugrave 8#332 /Uacute 8#333 /Ucircumflex
8#334 /Udieresis 8#335 /Yacute 8#336 /Thorn 8#337 /germandbls 8#340 /agrave
8#341 /aacute 8#342 /acircumflex 8#343 /atilde 8#344 /adieresis 8#345 /aring
8#346 /ae 8#347 /ccedilla 8#350 /egrave 8#351 /eacute
8#352 /ecircumflex 8#353 /edieresis 8#354 /igrave 8#355 /iacute
8#356 /icircumflex 8#357 /idieresis 8#360 /eth 8#361 /ntilde 8#362 /ograve
8#363 /oacute 8#364 /ocircumflex 8#365 /otilde 8#366 /odieresis 8#367 /divide
8#370 /oslash 8#371 /ugrave 8#372 /uacute 8#373 /ucircumflex
8#374 /udieresis 8#375 /yacute 8#376 /thorn 8#377 /ydieresis] def
/Times-Roman /Times-Roman-iso isovec ReEncode
/$F2psBegin {$F2psDict begin /$F2psEnteredState save def} def
/$F2psEnd {$F2psEnteredState restore end} def

$F2psBegin
10 setmiterlimit
0 slj 0 slc
 0.06299 0.06299 sc
%
% Fig objects follow
%
% 
% here starts figure with depth 56
% Polyline
0 slj
0 slc
7.500 slw
n 0 405 m 540 1215 l 1935 1215 l 945 -270 l 0 405 l
 cp gs col7 0.90 shd ef gr gs col7 s gr 
% Polyline
30.000 slw
n 244 422 m
 1352 1228 l gs col0 s gr 
% here ends figure;
% 
% here starts figure with depth 52
% Polyline
0 slj
0 slc
7.500 slw
n 30 1227 m 3045 1227 l 3045 1497 l 30 1497 l
 cp gs col7 0.60 shd ef gr gs col7 s gr 
% here ends figure;
% 
% here starts figure with depth 50
% Arc
7.500 slw
0 slc
n 1074.5 1222.5 162.5 -179.8237 -0.1763 arc
gs col0 s gr

% Arc
n 802.5 1216.5 324.5 179.9117 0.0883 arc
gs col0 s gr

% Arc
n 535.0 1217.0 487.0 179.9999 0.0001 arc
gs col0 s gr

% Polyline
0 slj
n 1299 277 m 1114 406 l
 360 945 l gs col0 s gr 
% Polyline
n 1389 412 m 1204 541 l
 450 1080 l gs col0 s gr 
% Polyline
n 1569 682 m 1384 811 l
 804 1222 l gs col0 s gr 
% Polyline
n 1659 817 m 1474 946 l
 1074 1222 l gs col0 s gr 
% Polyline
n 1749 952 m 1564 1081 l
 1350 1217 l gs col0 s gr 
% Polyline
 [60] 0 sd
n 1704 1357 m
 1704 367 l gs col0 s gr  [] 0 sd
% Polyline
n 1479 547 m 1294 676 l
 534 1222 l gs col0 s gr 
% Polyline
30.000 slw
n 1833 643 m 2018 771 l
 2203 899 l gs col0 s gr 
% Polyline
7.500 slw
gs  clippath
351 390 m 432 283 l 384 247 l 303 354 l 303 354 l 384 297 l 351 390 l cp
eoclip
n 264 457 m
 399 277 l gs col0 s gr gr

% arrowhead
n 351 390 m 384 297 l 303 354 l 339 357 l 351 390 l 
 cp gs col7 1.00 shd ef gr  col0 s
% Polyline
gs  clippath
2380 302 m 2457 191 l 2407 157 l 2330 267 l 2330 267 l 2409 208 l 2380 302 l cp
eoclip
n 894 52 m 1704 1222 l
 2424 187 l gs col0 s gr gr

% arrowhead
n 2380 302 m 2409 208 l 2330 267 l 2366 269 l 2380 302 l 
 cp gs col7 1.00 shd ef gr  col0 s
% Polyline
gs  clippath
2016 615 m 2097 508 l 2049 472 l 1968 579 l 1968 579 l 2049 522 l 2016 615 l cp
eoclip
n 1929 682 m
 2064 502 l gs col0 s gr gr

% arrowhead
n 2016 615 m 2049 522 l 1968 579 l 2004 582 l 2016 615 l 
 cp gs col7 1.00 shd ef gr  col0 s
% Polyline
gs  clippath
2196 750 m 2277 643 l 2229 607 l 2148 714 l 2148 714 l 2229 657 l 2196 750 l cp
eoclip
n 2109 817 m
 2244 637 l gs col0 s gr gr

% arrowhead
n 2196 750 m 2229 657 l 2148 714 l 2184 717 l 2196 750 l 
 cp gs col7 1.00 shd ef gr  col0 s
% Polyline
gs  clippath
531 480 m 612 373 l 564 337 l 483 444 l 483 444 l 564 387 l 531 480 l cp
eoclip
n 444 547 m
 579 367 l gs col0 s gr gr

% arrowhead
n 531 480 m 564 387 l 483 444 l 519 447 l 531 480 l 
 cp gs col7 1.00 shd ef gr  col0 s
% Polyline
n 39 1227 m
 3054 1227 l gs col0 s gr 
% Polyline
n 1212 146 m 1027 275 l
 273 814 l gs col0 s gr 
/Times-Roman-iso ff 158.75 scf sf
1968 1167 m
gs 1 -1 sc (r\351fl\351chi) col0 sh gr
/Times-Roman-iso ff 158.75 scf sf
1964 1025 m
gs 1 -1 sc (Front d'onde) col0 sh gr
/Times-Roman-iso ff 158.75 scf sf
1273 133 m
gs 1 -1 sc (Fronts d'onde) col0 sh gr
/Times-Roman-iso ff 158.75 scf sf
1369 274 m
gs 1 -1 sc (incidents) col0 sh gr
/Times-Roman-iso ff 127.00 scf sf
495 1350 m
gs 1 -1 sc (A) col0 sh gr
/Times-Roman-iso ff 127.00 scf sf
765 1350 m
gs 1 -1 sc (B) col0 sh gr
/Times-Roman-iso ff 127.00 scf sf
1035 1350 m
gs 1 -1 sc (C) col0 sh gr
/Times-Roman-iso ff 127.00 scf sf
1305 1350 m
gs 1 -1 sc (D) col0 sh gr
% here ends figure;
$F2psEnd
rs
showpage
%%Trailer
%EOF
