%!PS-Adobe-2.0 EPSF-2.0
%%Title: Retro.fig
%%Creator: fig2dev Version 3.2 Patchlevel 5-alpha5
%%CreationDate: Mon May 15 22:47:32 2006
%%For: guyotv@debian ()
%%BoundingBox: 0 0 155 86
%Magnification: 1.0000
%%EndComments
/$F2psDict 200 dict def
$F2psDict begin
$F2psDict /mtrx matrix put
/col-1 {0 setgray} bind def
/col0 {0.000 0.000 0.000 srgb} bind def
/col1 {0.000 0.000 1.000 srgb} bind def
/col2 {0.000 1.000 0.000 srgb} bind def
/col3 {0.000 1.000 1.000 srgb} bind def
/col4 {1.000 0.000 0.000 srgb} bind def
/col5 {1.000 0.000 1.000 srgb} bind def
/col6 {1.000 1.000 0.000 srgb} bind def
/col7 {1.000 1.000 1.000 srgb} bind def
/col8 {0.000 0.000 0.560 srgb} bind def
/col9 {0.000 0.000 0.690 srgb} bind def
/col10 {0.000 0.000 0.820 srgb} bind def
/col11 {0.530 0.810 1.000 srgb} bind def
/col12 {0.000 0.560 0.000 srgb} bind def
/col13 {0.000 0.690 0.000 srgb} bind def
/col14 {0.000 0.820 0.000 srgb} bind def
/col15 {0.000 0.560 0.560 srgb} bind def
/col16 {0.000 0.690 0.690 srgb} bind def
/col17 {0.000 0.820 0.820 srgb} bind def
/col18 {0.560 0.000 0.000 srgb} bind def
/col19 {0.690 0.000 0.000 srgb} bind def
/col20 {0.820 0.000 0.000 srgb} bind def
/col21 {0.560 0.000 0.560 srgb} bind def
/col22 {0.690 0.000 0.690 srgb} bind def
/col23 {0.820 0.000 0.820 srgb} bind def
/col24 {0.500 0.190 0.000 srgb} bind def
/col25 {0.630 0.250 0.000 srgb} bind def
/col26 {0.750 0.380 0.000 srgb} bind def
/col27 {1.000 0.500 0.500 srgb} bind def
/col28 {1.000 0.630 0.630 srgb} bind def
/col29 {1.000 0.750 0.750 srgb} bind def
/col30 {1.000 0.880 0.880 srgb} bind def
/col31 {1.000 0.840 0.000 srgb} bind def

end
save
newpath 0 86 moveto 0 0 lineto 155 0 lineto 155 86 lineto closepath clip newpath
-7.2 140.6 translate
1 -1 scale

/cp {closepath} bind def
/ef {eofill} bind def
/gr {grestore} bind def
/gs {gsave} bind def
/sa {save} bind def
/rs {restore} bind def
/l {lineto} bind def
/m {moveto} bind def
/rm {rmoveto} bind def
/n {newpath} bind def
/s {stroke} bind def
/sh {show} bind def
/slc {setlinecap} bind def
/slj {setlinejoin} bind def
/slw {setlinewidth} bind def
/srgb {setrgbcolor} bind def
/rot {rotate} bind def
/sc {scale} bind def
/sd {setdash} bind def
/ff {findfont} bind def
/sf {setfont} bind def
/scf {scalefont} bind def
/sw {stringwidth} bind def
/tr {translate} bind def
/tnt {dup dup currentrgbcolor
  4 -2 roll dup 1 exch sub 3 -1 roll mul add
  4 -2 roll dup 1 exch sub 3 -1 roll mul add
  4 -2 roll dup 1 exch sub 3 -1 roll mul add srgb}
  bind def
/shd {dup dup currentrgbcolor 4 -2 roll mul 4 -2 roll mul
  4 -2 roll mul srgb} bind def
/$F2psBegin {$F2psDict begin /$F2psEnteredState save def} def
/$F2psEnd {$F2psEnteredState restore end} def

$F2psBegin
10 setmiterlimit
0 slj 0 slc
 0.06299 0.06299 sc
%
% Fig objects follow
%
% 
% here starts figure with depth 50
% Arc
7.500 slw
0 slc
n 911.7 2239.4 242.9 -66.9005 -8.3838 arc
gs col0 s gr

% Arc
n 1802.3 1360.1 199.3 138.9349 -163.6678 arc
gs col0 s gr

% Arc
n 2164.3 1324.4 164.1 125.4931 -171.4522 arc
gs col0 s gr

% Arc
n 2358.5 1524.5 228.9 99.9355 61.1399 arcn
gs col0 s gr

% Polyline
0 slj
n 127 1295 m 2315 1295 l
 1102 2100 l gs col0 s gr 
% Polyline
 [60] 0 sd
n 1623 1500 m
 2552 1220 l gs col0 s gr  [] 0 sd
% Polyline
30.000 slw
n 2262 1073 m 2327 1288 l
 2392 1503 l gs col0 s gr 
% Polyline
7.500 slw
 [60] 0 sd
n 2323 883 m
 2323 1850 l gs col0 s gr  [] 0 sd
% Polyline
 [60] 0 sd
n 2327 1287 m
 2519 1883 l gs col0 s gr  [] 0 sd
% Polyline
n 1023 1950 m 948 2220 l
 1240 2200 l gs col0 s gr 
% Polyline
gs  clippath
1105 1448 m 1105 1318 l 1075 1318 l 1075 1448 l 1075 1448 l 1090 1373 l 1105 1448 l cp
1075 1893 m 1075 2023 l 1105 2023 l 1105 1893 l 1105 1893 l 1090 1968 l 1075 1893 l cp
eoclip
n 1090 2008 m
 1090 1333 l gs col0 s gr gr

% arrowhead
n 1075 1893 m 1090 1968 l 1105 1893 l 1090 1908 l 1075 1893 l 
 cp gs 0.00 setgray ef gr  col0 s
% arrowhead
n 1105 1448 m 1090 1373 l 1075 1448 l 1090 1433 l 1105 1448 l 
 cp gs 0.00 setgray ef gr  col0 s
% Polyline
gs  clippath
1212 1177 m 1082 1178 l 1083 1208 l 1213 1207 l 1213 1207 l 1138 1193 l 1212 1177 l cp
2104 1203 m 2234 1202 l 2233 1172 l 2103 1173 l 2103 1173 l 2179 1188 l 2104 1203 l cp
eoclip
n 2219 1188 m
 1098 1193 l gs col0 s gr gr

% arrowhead
n 2104 1203 m 2179 1188 l 2103 1173 l 2119 1188 l 2104 1203 l 
 cp gs 0.00 setgray ef gr  col0 s
% arrowhead
n 1212 1177 m 1138 1193 l 1213 1207 l 1197 1192 l 1212 1177 l 
 cp gs 0.00 setgray ef gr  col0 s
/Times-Roman ff 158.75 scf sf
1473 1149 m
gs 1 -1 sc (30 cm) col0 sh gr
/Times-Roman ff 158.75 scf sf
656 1733 m
gs 1 -1 sc (20 cm) col0 sh gr
/Symbol ff 158.75 scf sf
1477 1479 m
gs 1 -1 sc (b) col0 sh gr
/Symbol ff 158.75 scf sf
1848 1528 m
gs 1 -1 sc (a) col0 sh gr
/Symbol ff 158.75 scf sf
2360 1921 m
gs 1 -1 sc (b) col0 sh gr
% here ends figure;
$F2psEnd
rs
showpage
%%Trailer
%EOF
