%!PS-Adobe-2.0 EPSF-2.0
%%Title: Sinusspatial.fig
%%Creator: fig2dev Version 3.2 Patchlevel 5-alpha5
%%CreationDate: Tue Aug  2 18:02:10 2005
%%For: guyotv@debian ()
%%BoundingBox: 0 0 154 154
%Magnification: 1.0000
%%EndComments
/$F2psDict 200 dict def
$F2psDict begin
$F2psDict /mtrx matrix put
/col-1 {0 setgray} bind def
/col0 {0.000 0.000 0.000 srgb} bind def
/col1 {0.000 0.000 1.000 srgb} bind def
/col2 {0.000 1.000 0.000 srgb} bind def
/col3 {0.000 1.000 1.000 srgb} bind def
/col4 {1.000 0.000 0.000 srgb} bind def
/col5 {1.000 0.000 1.000 srgb} bind def
/col6 {1.000 1.000 0.000 srgb} bind def
/col7 {1.000 1.000 1.000 srgb} bind def
/col8 {0.000 0.000 0.560 srgb} bind def
/col9 {0.000 0.000 0.690 srgb} bind def
/col10 {0.000 0.000 0.820 srgb} bind def
/col11 {0.530 0.810 1.000 srgb} bind def
/col12 {0.000 0.560 0.000 srgb} bind def
/col13 {0.000 0.690 0.000 srgb} bind def
/col14 {0.000 0.820 0.000 srgb} bind def
/col15 {0.000 0.560 0.560 srgb} bind def
/col16 {0.000 0.690 0.690 srgb} bind def
/col17 {0.000 0.820 0.820 srgb} bind def
/col18 {0.560 0.000 0.000 srgb} bind def
/col19 {0.690 0.000 0.000 srgb} bind def
/col20 {0.820 0.000 0.000 srgb} bind def
/col21 {0.560 0.000 0.560 srgb} bind def
/col22 {0.690 0.000 0.690 srgb} bind def
/col23 {0.820 0.000 0.820 srgb} bind def
/col24 {0.500 0.190 0.000 srgb} bind def
/col25 {0.630 0.250 0.000 srgb} bind def
/col26 {0.750 0.380 0.000 srgb} bind def
/col27 {1.000 0.500 0.500 srgb} bind def
/col28 {1.000 0.630 0.630 srgb} bind def
/col29 {1.000 0.750 0.750 srgb} bind def
/col30 {1.000 0.880 0.880 srgb} bind def
/col31 {1.000 0.840 0.000 srgb} bind def
/col32 {0.255 0.271 0.255 srgb} bind def
/col33 {0.753 0.753 0.753 srgb} bind def
/col34 {0.612 0.000 0.000 srgb} bind def
/col35 {0.549 0.549 0.549 srgb} bind def
/col36 {0.259 0.259 0.259 srgb} bind def
/col37 {0.549 0.549 0.549 srgb} bind def
/col38 {0.549 0.549 0.549 srgb} bind def
/col39 {0.259 0.259 0.259 srgb} bind def
/col40 {0.549 0.549 0.549 srgb} bind def
/col41 {0.259 0.259 0.259 srgb} bind def
/col42 {0.549 0.549 0.549 srgb} bind def
/col43 {0.259 0.259 0.259 srgb} bind def
/col44 {0.761 0.761 0.761 srgb} bind def
/col45 {0.431 0.431 0.431 srgb} bind def
/col46 {0.267 0.267 0.267 srgb} bind def
/col47 {0.557 0.561 0.557 srgb} bind def
/col48 {0.443 0.443 0.443 srgb} bind def
/col49 {0.682 0.682 0.682 srgb} bind def
/col50 {0.200 0.200 0.200 srgb} bind def
/col51 {0.580 0.576 0.584 srgb} bind def
/col52 {0.455 0.439 0.459 srgb} bind def
/col53 {0.333 0.333 0.333 srgb} bind def
/col54 {0.702 0.702 0.702 srgb} bind def
/col55 {0.765 0.765 0.765 srgb} bind def
/col56 {0.427 0.427 0.427 srgb} bind def
/col57 {0.271 0.271 0.271 srgb} bind def
/col58 {0.557 0.557 0.557 srgb} bind def
/col59 {0.886 0.886 0.933 srgb} bind def
/col60 {0.580 0.580 0.604 srgb} bind def
/col61 {0.859 0.859 0.859 srgb} bind def
/col62 {0.631 0.631 0.718 srgb} bind def
/col63 {0.929 0.929 0.929 srgb} bind def
/col64 {0.878 0.878 0.878 srgb} bind def
/col65 {0.525 0.675 1.000 srgb} bind def
/col66 {0.439 0.439 1.000 srgb} bind def
/col67 {0.776 0.718 0.592 srgb} bind def
/col68 {0.937 0.973 1.000 srgb} bind def
/col69 {0.863 0.796 0.651 srgb} bind def
/col70 {0.251 0.251 0.251 srgb} bind def
/col71 {0.502 0.502 0.502 srgb} bind def
/col72 {0.667 0.667 0.667 srgb} bind def
/col73 {0.525 0.510 0.525 srgb} bind def
/col74 {0.780 0.765 0.780 srgb} bind def
/col75 {0.906 0.890 0.906 srgb} bind def
/col76 {0.525 0.525 0.525 srgb} bind def
/col77 {0.780 0.780 0.780 srgb} bind def
/col78 {0.906 0.906 0.906 srgb} bind def
/col79 {0.969 0.969 0.969 srgb} bind def
/col80 {0.620 0.620 0.620 srgb} bind def
/col81 {0.443 0.459 0.443 srgb} bind def
/col82 {0.337 0.318 0.318 srgb} bind def
/col83 {0.937 0.984 1.000 srgb} bind def
/col84 {0.400 0.400 0.400 srgb} bind def
/col85 {0.745 0.745 0.745 srgb} bind def
/col86 {0.318 0.318 0.318 srgb} bind def
/col87 {0.000 0.000 0.286 srgb} bind def
/col88 {0.475 0.475 0.475 srgb} bind def
/col89 {0.188 0.204 0.188 srgb} bind def
/col90 {0.780 0.714 0.588 srgb} bind def
/col91 {0.843 0.843 0.843 srgb} bind def
/col92 {0.522 0.502 0.490 srgb} bind def
/col93 {0.824 0.824 0.824 srgb} bind def
/col94 {0.227 0.227 0.227 srgb} bind def
/col95 {0.271 0.451 0.667 srgb} bind def
/col96 {0.000 0.000 0.000 srgb} bind def
/col97 {0.255 0.255 0.255 srgb} bind def
/col98 {0.839 0.843 0.839 srgb} bind def
/col99 {0.482 0.475 0.647 srgb} bind def
/col100 {0.451 0.459 0.549 srgb} bind def
/col101 {0.388 0.365 0.808 srgb} bind def
/col102 {0.867 0.616 0.576 srgb} bind def
/col103 {0.945 0.925 0.878 srgb} bind def
/col104 {0.886 0.784 0.659 srgb} bind def
/col105 {0.882 0.882 0.882 srgb} bind def
/col106 {0.855 0.478 0.102 srgb} bind def
/col107 {0.945 0.894 0.102 srgb} bind def
/col108 {0.533 0.490 0.761 srgb} bind def
/col109 {0.839 0.839 0.839 srgb} bind def
/col110 {0.549 0.549 0.647 srgb} bind def
/col111 {0.290 0.290 0.290 srgb} bind def
/col112 {0.549 0.420 0.420 srgb} bind def
/col113 {0.353 0.353 0.353 srgb} bind def
/col114 {0.388 0.388 0.388 srgb} bind def
/col115 {0.718 0.608 0.451 srgb} bind def
/col116 {0.255 0.576 1.000 srgb} bind def
/col117 {0.749 0.439 0.231 srgb} bind def
/col118 {0.859 0.467 0.000 srgb} bind def
/col119 {0.855 0.722 0.000 srgb} bind def
/col120 {0.000 0.392 0.000 srgb} bind def
/col121 {0.353 0.420 0.231 srgb} bind def
/col122 {0.827 0.827 0.827 srgb} bind def
/col123 {0.557 0.557 0.643 srgb} bind def
/col124 {0.953 0.725 0.365 srgb} bind def
/col125 {0.537 0.600 0.420 srgb} bind def
/col126 {0.392 0.392 0.392 srgb} bind def
/col127 {0.718 0.902 1.000 srgb} bind def
/col128 {0.525 0.753 0.925 srgb} bind def
/col129 {0.741 0.741 0.741 srgb} bind def
/col130 {0.827 0.584 0.322 srgb} bind def
/col131 {0.596 0.824 0.996 srgb} bind def
/col132 {0.549 0.612 0.420 srgb} bind def
/col133 {0.969 0.420 0.000 srgb} bind def
/col134 {0.353 0.420 0.224 srgb} bind def
/col135 {0.549 0.612 0.420 srgb} bind def
/col136 {0.549 0.612 0.482 srgb} bind def
/col137 {0.094 0.290 0.094 srgb} bind def
/col138 {0.678 0.678 0.678 srgb} bind def
/col139 {0.969 0.741 0.353 srgb} bind def
/col140 {0.388 0.420 0.612 srgb} bind def
/col141 {0.871 0.000 0.000 srgb} bind def
/col142 {0.678 0.678 0.678 srgb} bind def
/col143 {0.969 0.741 0.353 srgb} bind def
/col144 {0.678 0.678 0.678 srgb} bind def
/col145 {0.969 0.741 0.353 srgb} bind def
/col146 {0.388 0.420 0.612 srgb} bind def
/col147 {0.322 0.420 0.161 srgb} bind def
/col148 {0.580 0.580 0.580 srgb} bind def
/col149 {0.000 0.388 0.000 srgb} bind def
/col150 {0.000 0.388 0.290 srgb} bind def
/col151 {0.482 0.518 0.290 srgb} bind def
/col152 {0.906 0.741 0.482 srgb} bind def
/col153 {0.647 0.710 0.776 srgb} bind def
/col154 {0.420 0.420 0.580 srgb} bind def
/col155 {0.518 0.420 0.420 srgb} bind def
/col156 {0.322 0.612 0.290 srgb} bind def
/col157 {0.839 0.906 0.906 srgb} bind def
/col158 {0.322 0.388 0.388 srgb} bind def
/col159 {0.094 0.420 0.290 srgb} bind def
/col160 {0.612 0.647 0.710 srgb} bind def
/col161 {1.000 0.580 0.000 srgb} bind def
/col162 {1.000 0.580 0.000 srgb} bind def
/col163 {0.000 0.388 0.290 srgb} bind def
/col164 {0.482 0.518 0.290 srgb} bind def
/col165 {0.388 0.451 0.482 srgb} bind def
/col166 {0.906 0.741 0.482 srgb} bind def
/col167 {0.094 0.290 0.094 srgb} bind def
/col168 {0.969 0.741 0.353 srgb} bind def
/col169 {0.871 0.871 0.871 srgb} bind def
/col170 {0.953 0.933 0.827 srgb} bind def
/col171 {0.961 0.682 0.365 srgb} bind def
/col172 {0.584 0.808 0.600 srgb} bind def
/col173 {0.710 0.082 0.490 srgb} bind def
/col174 {0.933 0.933 0.933 srgb} bind def
/col175 {0.518 0.518 0.518 srgb} bind def
/col176 {0.482 0.482 0.482 srgb} bind def
/col177 {0.000 0.353 0.000 srgb} bind def
/col178 {0.906 0.451 0.451 srgb} bind def
/col179 {1.000 0.796 0.192 srgb} bind def
/col180 {0.161 0.475 0.290 srgb} bind def
/col181 {0.871 0.157 0.129 srgb} bind def
/col182 {0.129 0.349 0.776 srgb} bind def
/col183 {0.973 0.973 0.973 srgb} bind def
/col184 {0.902 0.902 0.902 srgb} bind def
/col185 {0.129 0.518 0.353 srgb} bind def
/col186 {0.800 0.800 0.800 srgb} bind def
/col187 {1.000 0.949 0.827 srgb} bind def
/col188 {1.000 0.894 0.682 srgb} bind def
/col189 {1.000 0.824 0.475 srgb} bind def
/col190 {0.812 0.812 0.812 srgb} bind def
/col191 {0.600 0.600 0.600 srgb} bind def
/col192 {0.698 0.698 0.698 srgb} bind def
/col193 {0.788 0.788 0.788 srgb} bind def
/col194 {0.875 0.847 0.875 srgb} bind def
/col195 {0.969 0.953 0.969 srgb} bind def

end
save
newpath 0 154 moveto 0 0 lineto 154 0 lineto 154 154 lineto closepath clip newpath
-18.9 185.0 translate
1 -1 scale

/cp {closepath} bind def
/ef {eofill} bind def
/gr {grestore} bind def
/gs {gsave} bind def
/sa {save} bind def
/rs {restore} bind def
/l {lineto} bind def
/m {moveto} bind def
/rm {rmoveto} bind def
/n {newpath} bind def
/s {stroke} bind def
/sh {show} bind def
/slc {setlinecap} bind def
/slj {setlinejoin} bind def
/slw {setlinewidth} bind def
/srgb {setrgbcolor} bind def
/rot {rotate} bind def
/sc {scale} bind def
/sd {setdash} bind def
/ff {findfont} bind def
/sf {setfont} bind def
/scf {scalefont} bind def
/sw {stringwidth} bind def
/tr {translate} bind def
/tnt {dup dup currentrgbcolor
  4 -2 roll dup 1 exch sub 3 -1 roll mul add
  4 -2 roll dup 1 exch sub 3 -1 roll mul add
  4 -2 roll dup 1 exch sub 3 -1 roll mul add srgb}
  bind def
/shd {dup dup currentrgbcolor 4 -2 roll mul 4 -2 roll mul
  4 -2 roll mul srgb} bind def
/$F2psBegin {$F2psDict begin /$F2psEnteredState save def} def
/$F2psEnd {$F2psEnteredState restore end} def

$F2psBegin
10 setmiterlimit
0 slj 0 slc
 0.06299 0.06299 sc
%
% Fig objects follow
%
% 
% here starts figure with depth 200
% Polyline
0 slj
0 slc
7.500 slw
gs  clippath
615 659 m 615 525 l 555 525 l 555 659 l 555 659 l 585 566 l 615 659 l cp
eoclip
n 585 2025 m
 585 540 l gs col0 s gr gr

% arrowhead
n 615 659 m 585 566 l 555 659 l 585 641 l 615 659 l 
 cp gs 0.00 setgray ef gr  col0 s
% Polyline
gs  clippath
2580 2055 m 2715 2055 l 2715 1995 l 2580 1995 l 2580 1995 l 2674 2025 l 2580 2055 l cp
eoclip
n 585 2025 m
 2700 2025 l gs col0 s gr gr

% arrowhead
n 2580 2055 m 2674 2025 l 2580 1995 l 2599 2025 l 2580 2055 l 
 cp gs 0.00 setgray ef gr  col0 s
% here ends figure;
% 
% here starts figure with depth 50
% Polyline
0 slj
0 slc
7.500 slw
 [15 45] 45 sd
n 2160 1125 m
 585 1125 l gs col0 s gr  [] 0 sd
% Polyline
2 slj
n 585 2025 m 585 2023 l 586 2019 l 588 2011 l 590 1998 l 593 1981 l
 597 1958 l 602 1930 l 609 1898 l 616 1860 l 624 1819 l
 633 1775 l 643 1728 l 653 1680 l 664 1631 l 675 1582 l
 687 1533 l 699 1485 l 712 1439 l 726 1394 l 739 1351 l
 754 1311 l 769 1273 l 785 1238 l 802 1207 l 820 1180 l
 839 1157 l 859 1140 l 879 1129 l 900 1125 l 921 1129 l
 941 1140 l 961 1157 l 980 1180 l 998 1207 l 1015 1238 l
 1031 1273 l 1046 1311 l 1061 1351 l 1074 1394 l 1088 1439 l
 1101 1485 l 1113 1533 l 1125 1582 l 1136 1631 l 1147 1680 l
 1157 1728 l 1167 1775 l 1176 1819 l 1184 1860 l 1191 1898 l
 1198 1930 l 1203 1958 l 1207 1981 l 1210 1998 l 1212 2011 l
 1214 2019 l 1215 2023 l
 1215 2025 l gs col0 s gr 
% Polyline
n 1215 2025 m 1215 2027 l 1216 2031 l 1218 2039 l 1220 2052 l 1223 2069 l
 1227 2092 l 1232 2120 l 1239 2152 l 1246 2190 l 1254 2231 l
 1263 2275 l 1273 2322 l 1283 2370 l 1294 2419 l 1305 2468 l
 1317 2517 l 1329 2565 l 1342 2611 l 1356 2656 l 1369 2699 l
 1384 2739 l 1399 2777 l 1415 2812 l 1432 2843 l 1450 2870 l
 1469 2893 l 1489 2910 l 1509 2921 l 1530 2925 l 1551 2921 l
 1571 2910 l 1591 2893 l 1610 2870 l 1628 2843 l 1645 2812 l
 1661 2777 l 1676 2739 l 1691 2699 l 1704 2656 l 1718 2611 l
 1731 2565 l 1743 2517 l 1755 2468 l 1766 2419 l 1777 2370 l
 1787 2322 l 1797 2275 l 1806 2231 l 1814 2190 l 1821 2152 l
 1828 2120 l 1833 2092 l 1837 2069 l 1840 2052 l 1842 2039 l
 1844 2031 l 1845 2027 l
 1845 2025 l gs col0 s gr 
% Polyline
n 1845 2025 m 1845 2023 l 1846 2019 l 1848 2011 l 1850 1998 l 1853 1981 l
 1857 1958 l 1862 1930 l 1869 1898 l 1876 1860 l 1884 1819 l
 1893 1775 l 1903 1728 l 1913 1680 l 1924 1631 l 1935 1582 l
 1947 1533 l 1959 1485 l 1972 1439 l 1986 1394 l 1999 1351 l
 2014 1311 l 2029 1273 l 2045 1238 l 2062 1207 l 2080 1180 l
 2099 1157 l 2119 1140 l 2139 1129 l 2160 1125 l 2181 1129 l
 2201 1140 l 2221 1157 l 2240 1180 l 2258 1207 l 2275 1238 l
 2291 1273 l 2306 1311 l 2321 1351 l 2334 1394 l 2348 1439 l
 2361 1485 l 2373 1533 l 2385 1582 l 2396 1631 l 2407 1680 l
 2417 1728 l 2427 1775 l 2436 1819 l 2444 1860 l 2451 1898 l
 2458 1930 l 2463 1958 l 2467 1981 l 2470 1998 l 2472 2011 l
 2474 2019 l 2475 2023 l
 2475 2025 l gs col0 s gr 
% Polyline
gs  clippath
2073 1095 m 2175 1095 l 2175 1065 l 2073 1065 l 2073 1065 l 2130 1080 l 2073 1095 l cp
986 1065 m 885 1065 l 885 1095 l 986 1095 l 986 1095 l 930 1080 l 986 1065 l cp
eoclip
n 900 1080 m
 2160 1080 l gs col0 s gr gr

% arrowhead
0 slj
n 986 1065 m 930 1080 l 986 1095 l 975 1080 l 986 1065 l 
 cp gs 0.00 setgray ef gr  col0 s
% arrowhead
n 2073 1095 m 2130 1080 l 2073 1065 l 2085 1080 l 2073 1095 l 
 cp gs 0.00 setgray ef gr  col0 s
/Symbol ff 158.75 scf sf
2070 990 m
gs 1 -1 sc (l) col0 sh gr
/Times-Roman ff 158.75 scf sf
315 1125 m
gs 1 -1 sc (A) col0 sh gr
/Times-Roman ff 142.88 scf sf
450 1170 m
gs 1 -1 sc (o) col0 sh gr
/Times-Roman ff 142.88 scf sf
2205 2205 m
gs 1 -1 sc (position) col0 sh gr
/Times-Roman ff 158.75 scf sf
900 990 m
gs 1 -1 sc (longueur d'onde ) col0 sh gr
/Times-Roman ff 158.75 scf sf
675 630 m
gs 1 -1 sc (amplitude) col0 sh gr
% here ends figure;
$F2psEnd
rs
showpage
%%Trailer
%EOF
