%!PS-Adobe-2.0 EPSF-2.0
%%Title: Soldats.fig
%%Creator: fig2dev Version 3.2 Patchlevel 5-alpha5
%%CreationDate: Fri Aug  5 00:20:04 2005
%%For: guyotv@debian ()
%%BoundingBox: 0 0 166 124
%Magnification: 1.0000
%%EndComments
/$F2psDict 200 dict def
$F2psDict begin
$F2psDict /mtrx matrix put
/col-1 {0 setgray} bind def
/col0 {0.000 0.000 0.000 srgb} bind def
/col1 {0.000 0.000 1.000 srgb} bind def
/col2 {0.000 1.000 0.000 srgb} bind def
/col3 {0.000 1.000 1.000 srgb} bind def
/col4 {1.000 0.000 0.000 srgb} bind def
/col5 {1.000 0.000 1.000 srgb} bind def
/col6 {1.000 1.000 0.000 srgb} bind def
/col7 {1.000 1.000 1.000 srgb} bind def
/col8 {0.000 0.000 0.560 srgb} bind def
/col9 {0.000 0.000 0.690 srgb} bind def
/col10 {0.000 0.000 0.820 srgb} bind def
/col11 {0.530 0.810 1.000 srgb} bind def
/col12 {0.000 0.560 0.000 srgb} bind def
/col13 {0.000 0.690 0.000 srgb} bind def
/col14 {0.000 0.820 0.000 srgb} bind def
/col15 {0.000 0.560 0.560 srgb} bind def
/col16 {0.000 0.690 0.690 srgb} bind def
/col17 {0.000 0.820 0.820 srgb} bind def
/col18 {0.560 0.000 0.000 srgb} bind def
/col19 {0.690 0.000 0.000 srgb} bind def
/col20 {0.820 0.000 0.000 srgb} bind def
/col21 {0.560 0.000 0.560 srgb} bind def
/col22 {0.690 0.000 0.690 srgb} bind def
/col23 {0.820 0.000 0.820 srgb} bind def
/col24 {0.500 0.190 0.000 srgb} bind def
/col25 {0.630 0.250 0.000 srgb} bind def
/col26 {0.750 0.380 0.000 srgb} bind def
/col27 {1.000 0.500 0.500 srgb} bind def
/col28 {1.000 0.630 0.630 srgb} bind def
/col29 {1.000 0.750 0.750 srgb} bind def
/col30 {1.000 0.880 0.880 srgb} bind def
/col31 {1.000 0.840 0.000 srgb} bind def

end
save
newpath 0 124 moveto 0 0 lineto 166 0 lineto 166 124 lineto closepath clip newpath
-7.3 116.1 translate
1 -1 scale

/cp {closepath} bind def
/ef {eofill} bind def
/gr {grestore} bind def
/gs {gsave} bind def
/sa {save} bind def
/rs {restore} bind def
/l {lineto} bind def
/m {moveto} bind def
/rm {rmoveto} bind def
/n {newpath} bind def
/s {stroke} bind def
/sh {show} bind def
/slc {setlinecap} bind def
/slj {setlinejoin} bind def
/slw {setlinewidth} bind def
/srgb {setrgbcolor} bind def
/rot {rotate} bind def
/sc {scale} bind def
/sd {setdash} bind def
/ff {findfont} bind def
/sf {setfont} bind def
/scf {scalefont} bind def
/sw {stringwidth} bind def
/tr {translate} bind def
/tnt {dup dup currentrgbcolor
  4 -2 roll dup 1 exch sub 3 -1 roll mul add
  4 -2 roll dup 1 exch sub 3 -1 roll mul add
  4 -2 roll dup 1 exch sub 3 -1 roll mul add srgb}
  bind def
/shd {dup dup currentrgbcolor 4 -2 roll mul 4 -2 roll mul
  4 -2 roll mul srgb} bind def
/reencdict 12 dict def /ReEncode { reencdict begin
/newcodesandnames exch def /newfontname exch def /basefontname exch def
/basefontdict basefontname findfont def /newfont basefontdict maxlength dict def
basefontdict { exch dup /FID ne { dup /Encoding eq
{ exch dup length array copy newfont 3 1 roll put }
{ exch newfont 3 1 roll put } ifelse } { pop pop } ifelse } forall
newfont /FontName newfontname put newcodesandnames aload pop
128 1 255 { newfont /Encoding get exch /.notdef put } for
newcodesandnames length 2 idiv { newfont /Encoding get 3 1 roll put } repeat
newfontname newfont definefont pop end } def
/isovec [
8#055 /minus 8#200 /grave 8#201 /acute 8#202 /circumflex 8#203 /tilde
8#204 /macron 8#205 /breve 8#206 /dotaccent 8#207 /dieresis
8#210 /ring 8#211 /cedilla 8#212 /hungarumlaut 8#213 /ogonek 8#214 /caron
8#220 /dotlessi 8#230 /oe 8#231 /OE
8#240 /space 8#241 /exclamdown 8#242 /cent 8#243 /sterling
8#244 /currency 8#245 /yen 8#246 /brokenbar 8#247 /section 8#250 /dieresis
8#251 /copyright 8#252 /ordfeminine 8#253 /guillemotleft 8#254 /logicalnot
8#255 /hyphen 8#256 /registered 8#257 /macron 8#260 /degree 8#261 /plusminus
8#262 /twosuperior 8#263 /threesuperior 8#264 /acute 8#265 /mu 8#266 /paragraph
8#267 /periodcentered 8#270 /cedilla 8#271 /onesuperior 8#272 /ordmasculine
8#273 /guillemotright 8#274 /onequarter 8#275 /onehalf
8#276 /threequarters 8#277 /questiondown 8#300 /Agrave 8#301 /Aacute
8#302 /Acircumflex 8#303 /Atilde 8#304 /Adieresis 8#305 /Aring
8#306 /AE 8#307 /Ccedilla 8#310 /Egrave 8#311 /Eacute
8#312 /Ecircumflex 8#313 /Edieresis 8#314 /Igrave 8#315 /Iacute
8#316 /Icircumflex 8#317 /Idieresis 8#320 /Eth 8#321 /Ntilde 8#322 /Ograve
8#323 /Oacute 8#324 /Ocircumflex 8#325 /Otilde 8#326 /Odieresis 8#327 /multiply
8#330 /Oslash 8#331 /Ugrave 8#332 /Uacute 8#333 /Ucircumflex
8#334 /Udieresis 8#335 /Yacute 8#336 /Thorn 8#337 /germandbls 8#340 /agrave
8#341 /aacute 8#342 /acircumflex 8#343 /atilde 8#344 /adieresis 8#345 /aring
8#346 /ae 8#347 /ccedilla 8#350 /egrave 8#351 /eacute
8#352 /ecircumflex 8#353 /edieresis 8#354 /igrave 8#355 /iacute
8#356 /icircumflex 8#357 /idieresis 8#360 /eth 8#361 /ntilde 8#362 /ograve
8#363 /oacute 8#364 /ocircumflex 8#365 /otilde 8#366 /odieresis 8#367 /divide
8#370 /oslash 8#371 /ugrave 8#372 /uacute 8#373 /ucircumflex
8#374 /udieresis 8#375 /yacute 8#376 /thorn 8#377 /ydieresis] def
/Times-Roman /Times-Roman-iso isovec ReEncode
 /DrawEllipse {
	/endangle exch def
	/startangle exch def
	/yrad exch def
	/xrad exch def
	/y exch def
	/x exch def
	/savematrix mtrx currentmatrix def
	x y tr xrad yrad sc 0 0 1 startangle endangle arc
	closepath
	savematrix setmatrix
	} def

/$F2psBegin {$F2psDict begin /$F2psEnteredState save def} def
/$F2psEnd {$F2psEnteredState restore end} def

$F2psBegin
10 setmiterlimit
0 slj 0 slc
 0.06299 0.06299 sc
%
% Fig objects follow
%
% 
% here starts figure with depth 54
% Polyline
0 slj
0 slc
7.500 slw
n 134 1035 m 2565 1035 l 2565 1831 l 134 1831 l
 cp gs col7 0.90 shd ef gr gs col7 s gr 
% here ends figure;
% 
% here starts figure with depth 50
% Ellipse
7.500 slw
n 292 967 33 33 0 360 DrawEllipse gs col0 s gr

% Ellipse
n 427 922 33 33 0 360 DrawEllipse gs col0 s gr

% Ellipse
n 360 945 64 64 0 360 DrawEllipse gs col7 1.00 shd ef gr gs col0 s gr

% Ellipse
n 562 877 33 33 0 360 DrawEllipse gs col0 s gr

% Ellipse
n 697 832 33 33 0 360 DrawEllipse gs col0 s gr

% Ellipse
n 630 855 64 64 0 360 DrawEllipse gs col7 1.00 shd ef gr gs col0 s gr

% Ellipse
n 1102 697 33 33 0 360 DrawEllipse gs col0 s gr

% Ellipse
n 1237 652 33 33 0 360 DrawEllipse gs col0 s gr

% Ellipse
n 1170 675 64 64 0 360 DrawEllipse gs col7 1.00 shd ef gr gs col0 s gr

% Ellipse
n 1372 607 33 33 0 360 DrawEllipse gs col0 s gr

% Ellipse
n 1507 562 33 33 0 360 DrawEllipse gs col0 s gr

% Ellipse
n 1440 585 64 64 0 360 DrawEllipse gs col7 1.00 shd ef gr gs col0 s gr

% Ellipse
n 1642 517 33 33 0 360 DrawEllipse gs col0 s gr

% Ellipse
n 1777 472 33 33 0 360 DrawEllipse gs col0 s gr

% Ellipse
n 1710 495 64 64 0 360 DrawEllipse gs col7 1.00 shd ef gr gs col0 s gr

% Ellipse
n 1912 427 33 33 0 360 DrawEllipse gs col0 s gr

% Ellipse
n 2047 382 33 33 0 360 DrawEllipse gs col0 s gr

% Ellipse
n 1980 405 64 64 0 360 DrawEllipse gs col7 1.00 shd ef gr gs col0 s gr

% Ellipse
n 2182 337 33 33 0 360 DrawEllipse gs col0 s gr

% Ellipse
n 2317 292 33 33 0 360 DrawEllipse gs col0 s gr

% Ellipse
n 2250 315 64 64 0 360 DrawEllipse gs col7 1.00 shd ef gr gs col0 s gr

% Ellipse
n 157 652 33 33 0 360 DrawEllipse gs col0 s gr

% Ellipse
n 292 607 33 33 0 360 DrawEllipse gs col0 s gr

% Ellipse
n 225 630 64 64 0 360 DrawEllipse gs col7 1.00 shd ef gr gs col0 s gr

% Ellipse
n 697 427 33 33 0 360 DrawEllipse gs col0 s gr

% Ellipse
n 832 382 33 33 0 360 DrawEllipse gs col0 s gr

% Ellipse
n 765 405 64 64 0 360 DrawEllipse gs col7 1.00 shd ef gr gs col0 s gr

% Ellipse
n 427 517 33 33 0 360 DrawEllipse gs col0 s gr

% Ellipse
n 562 472 33 33 0 360 DrawEllipse gs col0 s gr

% Ellipse
n 495 495 64 64 0 360 DrawEllipse gs col7 1.00 shd ef gr gs col0 s gr

% Ellipse
n 967 337 33 33 0 360 DrawEllipse gs col0 s gr

% Ellipse
n 1102 292 33 33 0 360 DrawEllipse gs col0 s gr

% Ellipse
n 1035 315 64 64 0 360 DrawEllipse gs col7 1.00 shd ef gr gs col0 s gr

% Ellipse
n 1237 247 33 33 0 360 DrawEllipse gs col0 s gr

% Ellipse
n 1372 202 33 33 0 360 DrawEllipse gs col0 s gr

% Ellipse
n 1305 225 64 64 0 360 DrawEllipse gs col7 1.00 shd ef gr gs col0 s gr

% Ellipse
n 1507 157 33 33 0 360 DrawEllipse gs col0 s gr

% Ellipse
n 1642 112 33 33 0 360 DrawEllipse gs col0 s gr

% Ellipse
n 1575 135 64 64 0 360 DrawEllipse gs col7 1.00 shd ef gr gs col0 s gr

% Ellipse
n 1777 67 33 33 0 360 DrawEllipse gs col0 s gr

% Ellipse
n 1912 22 33 33 0 360 DrawEllipse gs col0 s gr

% Ellipse
n 1845 45 64 64 0 360 DrawEllipse gs col7 1.00 shd ef gr gs col0 s gr

% Ellipse
n 2047 -23 33 33 0 360 DrawEllipse gs col0 s gr

% Ellipse
n 2182 -68 33 33 0 360 DrawEllipse gs col0 s gr

% Ellipse
n 2115 -45 64 64 0 360 DrawEllipse gs col7 1.00 shd ef gr gs col0 s gr

% Ellipse
n 832 787 33 33 0 360 DrawEllipse gs col0 s gr

% Ellipse
n 967 742 33 33 0 360 DrawEllipse gs col0 s gr

% Ellipse
n 900 765 64 64 0 360 DrawEllipse gs col7 1.00 shd ef gr gs col0 s gr

% Ellipse
n 2317 697 33 33 0 360 DrawEllipse gs col0 s gr

% Ellipse
n 2452 652 33 33 0 360 DrawEllipse gs col0 s gr

% Ellipse
n 2385 675 64 64 0 360 DrawEllipse gs col7 1.00 shd ef gr gs col0 s gr

% Ellipse
n 2047 787 33 33 0 360 DrawEllipse gs col0 s gr

% Ellipse
n 2182 742 33 33 0 360 DrawEllipse gs col0 s gr

% Ellipse
n 2115 765 64 64 0 360 DrawEllipse gs col7 1.00 shd ef gr gs col0 s gr

% Ellipse
n 1777 877 33 33 0 360 DrawEllipse gs col0 s gr

% Ellipse
n 1912 832 33 33 0 360 DrawEllipse gs col0 s gr

% Ellipse
n 1845 855 64 64 0 360 DrawEllipse gs col7 1.00 shd ef gr gs col0 s gr

% Ellipse
n 1507 967 33 33 0 360 DrawEllipse gs col0 s gr

% Ellipse
n 1642 922 33 33 0 360 DrawEllipse gs col0 s gr

% Ellipse
n 1575 945 64 64 0 360 DrawEllipse gs col7 1.00 shd ef gr gs col0 s gr

% Ellipse
n 1237 1057 33 33 0 360 DrawEllipse gs col0 s gr

% Ellipse
n 1372 1012 33 33 0 360 DrawEllipse gs col0 s gr

% Ellipse
n 1305 1035 64 64 0 360 DrawEllipse gs col7 1.00 shd ef gr gs col0 s gr

% Ellipse
n 967 1102 33 33 0 360 DrawEllipse gs col0 s gr

% Ellipse
n 1102 1057 33 33 0 360 DrawEllipse gs col0 s gr

% Ellipse
n 1035 1080 64 64 0 360 DrawEllipse gs col7 1.00 shd ef gr gs col0 s gr

% Ellipse
n 697 1147 33 33 0 360 DrawEllipse gs col0 s gr

% Ellipse
n 832 1102 33 33 0 360 DrawEllipse gs col0 s gr

% Ellipse
n 765 1125 64 64 0 360 DrawEllipse gs col7 1.00 shd ef gr gs col0 s gr

% Ellipse
n 427 1192 33 33 0 360 DrawEllipse gs col0 s gr

% Ellipse
n 562 1147 33 33 0 360 DrawEllipse gs col0 s gr

% Ellipse
n 495 1170 64 64 0 360 DrawEllipse gs col7 1.00 shd ef gr gs col0 s gr

% Ellipse
n 2452 1057 33 33 0 360 DrawEllipse gs col0 s gr

% Ellipse
n 2587 1012 33 33 0 360 DrawEllipse gs col0 s gr

% Ellipse
n 2520 1035 64 64 0 360 DrawEllipse gs col7 1.00 shd ef gr gs col0 s gr

% Ellipse
n 2182 1102 33 33 0 360 DrawEllipse gs col0 s gr

% Ellipse
n 2317 1057 33 33 0 360 DrawEllipse gs col0 s gr

% Ellipse
n 2250 1080 64 64 0 360 DrawEllipse gs col7 1.00 shd ef gr gs col0 s gr

% Ellipse
n 1597 1192 33 33 0 360 DrawEllipse gs col0 s gr

% Ellipse
n 1732 1147 33 33 0 360 DrawEllipse gs col0 s gr

% Ellipse
n 1665 1170 64 64 0 360 DrawEllipse gs col7 1.00 shd ef gr gs col0 s gr

% Ellipse
n 1912 1147 33 33 0 360 DrawEllipse gs col0 s gr

% Ellipse
n 2047 1102 33 33 0 360 DrawEllipse gs col0 s gr

% Ellipse
n 1980 1125 64 64 0 360 DrawEllipse gs col7 1.00 shd ef gr gs col0 s gr

% Ellipse
n 1327 1237 33 33 0 360 DrawEllipse gs col0 s gr

% Ellipse
n 1462 1192 33 33 0 360 DrawEllipse gs col0 s gr

% Ellipse
n 1395 1215 64 64 0 360 DrawEllipse gs col7 1.00 shd ef gr gs col0 s gr

% Ellipse
n 1057 1282 33 33 0 360 DrawEllipse gs col0 s gr

% Ellipse
n 1192 1237 33 33 0 360 DrawEllipse gs col0 s gr

% Ellipse
n 1125 1260 64 64 0 360 DrawEllipse gs col7 1.00 shd ef gr gs col0 s gr

% Ellipse
n 787 1327 33 33 0 360 DrawEllipse gs col0 s gr

% Ellipse
n 922 1282 33 33 0 360 DrawEllipse gs col0 s gr

% Ellipse
n 855 1305 64 64 0 360 DrawEllipse gs col7 1.00 shd ef gr gs col0 s gr

% Ellipse
n 517 1372 33 33 0 360 DrawEllipse gs col0 s gr

% Ellipse
n 652 1327 33 33 0 360 DrawEllipse gs col0 s gr

% Ellipse
n 585 1350 64 64 0 360 DrawEllipse gs col7 1.00 shd ef gr gs col0 s gr

% Ellipse
n 607 1552 33 33 0 360 DrawEllipse gs col0 s gr

% Ellipse
n 742 1507 33 33 0 360 DrawEllipse gs col0 s gr

% Ellipse
n 675 1530 64 64 0 360 DrawEllipse gs col7 1.00 shd ef gr gs col0 s gr

% Ellipse
n 877 1507 33 33 0 360 DrawEllipse gs col0 s gr

% Ellipse
n 1012 1462 33 33 0 360 DrawEllipse gs col0 s gr

% Ellipse
n 945 1485 64 64 0 360 DrawEllipse gs col7 1.00 shd ef gr gs col0 s gr

% Ellipse
n 1147 1462 33 33 0 360 DrawEllipse gs col0 s gr

% Ellipse
n 1282 1417 33 33 0 360 DrawEllipse gs col0 s gr

% Ellipse
n 1215 1440 64 64 0 360 DrawEllipse gs col7 1.00 shd ef gr gs col0 s gr

% Ellipse
n 1417 1417 33 33 0 360 DrawEllipse gs col0 s gr

% Ellipse
n 1552 1372 33 33 0 360 DrawEllipse gs col0 s gr

% Ellipse
n 1485 1395 64 64 0 360 DrawEllipse gs col7 1.00 shd ef gr gs col0 s gr

% Ellipse
n 1687 1372 33 33 0 360 DrawEllipse gs col0 s gr

% Ellipse
n 1822 1327 33 33 0 360 DrawEllipse gs col0 s gr

% Ellipse
n 1755 1350 64 64 0 360 DrawEllipse gs col7 1.00 shd ef gr gs col0 s gr

% Ellipse
n 2002 1327 33 33 0 360 DrawEllipse gs col0 s gr

% Ellipse
n 2137 1282 33 33 0 360 DrawEllipse gs col0 s gr

% Ellipse
n 2070 1305 64 64 0 360 DrawEllipse gs col7 1.00 shd ef gr gs col0 s gr

% Ellipse
n 2272 1282 33 33 0 360 DrawEllipse gs col0 s gr

% Ellipse
n 2407 1237 33 33 0 360 DrawEllipse gs col0 s gr

% Ellipse
n 2340 1260 64 64 0 360 DrawEllipse gs col7 1.00 shd ef gr gs col0 s gr

% Ellipse
n 2542 1237 33 33 0 360 DrawEllipse gs col0 s gr

% Ellipse
n 2677 1192 33 33 0 360 DrawEllipse gs col0 s gr

% Ellipse
n 2610 1215 64 64 0 360 DrawEllipse gs col7 1.00 shd ef gr gs col0 s gr

% Polyline
0 slj
0 slc
n 135 1035 m
 2565 1035 l gs col0 s gr 
% Polyline
n 247 1226 m 1308 1035 l
 2627 585 l gs col0 s gr 
% Polyline
n 180 999 m
 2466 233 l gs col0 s gr 
% Polyline
n 366 1392 m
 2725 993 l gs col0 s gr 
% Polyline
gs  clippath
1590 666 m 1624 767 l 1667 753 l 1633 651 l 1633 651 l 1633 723 l 1590 666 l cp
eoclip
n 1391 11 m 1570 533 l
 1641 746 l gs col0 s gr gr

% arrowhead
n 1590 666 m 1633 723 l 1633 651 l 1604 637 l 1590 666 l 
 cp gs 0.00 setgray ef gr  col0 s
% Polyline
gs  clippath
1866 1615 m 1882 1720 l 1927 1713 l 1911 1608 l 1911 1608 l 1899 1679 l 1866 1615 l cp
eoclip
n 1782 924 m 1820 1146 l
 1903 1702 l gs col0 s gr gr

% arrowhead
n 1866 1615 m 1899 1679 l 1911 1608 l 1885 1589 l 1866 1615 l 
 cp gs 0.00 setgray ef gr  col0 s
/Times-Roman-iso ff 158.75 scf sf
134 140 m
gs 1 -1 sc (prairie) col0 sh gr
/Times-Roman-iso ff 158.75 scf sf
589 636 m
gs 1 -1 sc (soldats) col0 sh gr
/Times-Roman-iso ff 158.75 scf sf
191 1774 m
gs 1 -1 sc (sous-bois) col0 sh gr
% here ends figure;
$F2psEnd
rs
showpage
%%Trailer
%EOF
