%!PS-Adobe-2.0 EPSF-2.0
%%Title: Sourceapproche.fig
%%Creator: fig2dev Version 3.2 Patchlevel 5-alpha5
%%CreationDate: Thu Aug 11 20:41:29 2005
%%For: guyotv@debian ()
%%BoundingBox: 0 0 221 156
%Magnification: 1.0000
%%EndComments
/$F2psDict 200 dict def
$F2psDict begin
$F2psDict /mtrx matrix put
/col-1 {0 setgray} bind def
/col0 {0.000 0.000 0.000 srgb} bind def
/col1 {0.000 0.000 1.000 srgb} bind def
/col2 {0.000 1.000 0.000 srgb} bind def
/col3 {0.000 1.000 1.000 srgb} bind def
/col4 {1.000 0.000 0.000 srgb} bind def
/col5 {1.000 0.000 1.000 srgb} bind def
/col6 {1.000 1.000 0.000 srgb} bind def
/col7 {1.000 1.000 1.000 srgb} bind def
/col8 {0.000 0.000 0.560 srgb} bind def
/col9 {0.000 0.000 0.690 srgb} bind def
/col10 {0.000 0.000 0.820 srgb} bind def
/col11 {0.530 0.810 1.000 srgb} bind def
/col12 {0.000 0.560 0.000 srgb} bind def
/col13 {0.000 0.690 0.000 srgb} bind def
/col14 {0.000 0.820 0.000 srgb} bind def
/col15 {0.000 0.560 0.560 srgb} bind def
/col16 {0.000 0.690 0.690 srgb} bind def
/col17 {0.000 0.820 0.820 srgb} bind def
/col18 {0.560 0.000 0.000 srgb} bind def
/col19 {0.690 0.000 0.000 srgb} bind def
/col20 {0.820 0.000 0.000 srgb} bind def
/col21 {0.560 0.000 0.560 srgb} bind def
/col22 {0.690 0.000 0.690 srgb} bind def
/col23 {0.820 0.000 0.820 srgb} bind def
/col24 {0.500 0.190 0.000 srgb} bind def
/col25 {0.630 0.250 0.000 srgb} bind def
/col26 {0.750 0.380 0.000 srgb} bind def
/col27 {1.000 0.500 0.500 srgb} bind def
/col28 {1.000 0.630 0.630 srgb} bind def
/col29 {1.000 0.750 0.750 srgb} bind def
/col30 {1.000 0.880 0.880 srgb} bind def
/col31 {1.000 0.840 0.000 srgb} bind def

end
save
newpath 0 156 moveto 0 0 lineto 221 0 lineto 221 156 lineto closepath clip newpath
52.3 114.6 translate
1 -1 scale

/cp {closepath} bind def
/ef {eofill} bind def
/gr {grestore} bind def
/gs {gsave} bind def
/sa {save} bind def
/rs {restore} bind def
/l {lineto} bind def
/m {moveto} bind def
/rm {rmoveto} bind def
/n {newpath} bind def
/s {stroke} bind def
/sh {show} bind def
/slc {setlinecap} bind def
/slj {setlinejoin} bind def
/slw {setlinewidth} bind def
/srgb {setrgbcolor} bind def
/rot {rotate} bind def
/sc {scale} bind def
/sd {setdash} bind def
/ff {findfont} bind def
/sf {setfont} bind def
/scf {scalefont} bind def
/sw {stringwidth} bind def
/tr {translate} bind def
/tnt {dup dup currentrgbcolor
  4 -2 roll dup 1 exch sub 3 -1 roll mul add
  4 -2 roll dup 1 exch sub 3 -1 roll mul add
  4 -2 roll dup 1 exch sub 3 -1 roll mul add srgb}
  bind def
/shd {dup dup currentrgbcolor 4 -2 roll mul 4 -2 roll mul
  4 -2 roll mul srgb} bind def
 /DrawEllipse {
	/endangle exch def
	/startangle exch def
	/yrad exch def
	/xrad exch def
	/y exch def
	/x exch def
	/savematrix mtrx currentmatrix def
	x y tr xrad yrad sc 0 0 1 startangle endangle arc
	closepath
	savematrix setmatrix
	} def

/$F2psBegin {$F2psDict begin /$F2psEnteredState save def} def
/$F2psEnd {$F2psEnteredState restore end} def

$F2psBegin
10 setmiterlimit
0 slj 0 slc
 0.06299 0.06299 sc
%
% Fig objects follow
%
% 
% here starts figure with depth 55
% Polyline
0 slj
0 slc
7.500 slw
n 0 585 m
 2655 585 l gs col0 s gr 
% here ends figure;
% 
% here starts figure with depth 50
% Polyline
0 slj
0 slc
7.500 slw
n 315 540 m 540 540 l 540 630 l 315 630 l
 cp gs col7 1.00 shd ef gr gs col0 s gr 
% Polyline
n 360 540 m 450 540 l 450 630 l 360 630 l
 cp gs col7 0.50 shd ef gr gs col0 s gr 
% Polyline
n 585 540 m 810 540 l 810 630 l 585 630 l
 cp gs col7 1.00 shd ef gr gs col0 s gr 
% Polyline
n 630 540 m 720 540 l 720 630 l 630 630 l
 cp gs col7 0.50 shd ef gr gs col0 s gr 
% Polyline
n 855 540 m 1080 540 l 1080 630 l 855 630 l
 cp gs col7 1.00 shd ef gr gs col0 s gr 
% Polyline
n 900 540 m 990 540 l 990 630 l 900 630 l
 cp gs col7 0.50 shd ef gr gs col0 s gr 
% Polyline
n 1125 540 m 1350 540 l 1350 630 l 1125 630 l
 cp gs col7 1.00 shd ef gr gs col0 s gr 
% Polyline
n 1170 540 m 1260 540 l 1260 630 l 1170 630 l
 cp gs col7 0.50 shd ef gr gs col0 s gr 
% Ellipse
n 1899 587 32 77 0 360 DrawEllipse gs col0 s gr

% Ellipse
n 1899 589 33 33 0 360 DrawEllipse gs 0.00 setgray ef gr gs col0 s gr

% Ellipse
n 1215 585 162 162 0 360 DrawEllipse gs col0 s gr

% Ellipse
n 945 585 503 503 0 360 DrawEllipse gs col0 s gr

% Ellipse
n 675 585 866 866 0 360 DrawEllipse gs col0 s gr

% Ellipse
n 405 585 1228 1228 0 360 DrawEllipse gs col0 s gr

% Polyline
gs  clippath
881 702 m 983 702 l 983 672 l 881 672 l 881 672 l 938 687 l 881 702 l cp
eoclip
n 516 687 m
 968 687 l gs col0 s gr gr

% arrowhead
n 881 702 m 938 687 l 881 672 l 893 687 l 881 702 l 
 cp gs 0.00 setgray ef gr  col0 s
/Times-Roman ff 158.75 scf sf
1834 389 m
gs 1 -1 sc (observateur) col0 sh gr
/Times-Roman ff 158.75 scf sf
0 315 m
gs 1 -1 sc (voiture) col0 sh gr
/Times-Roman ff 158.75 scf sf
630 315 m
gs 1 -1 sc (de) col0 sh gr
/Times-Roman ff 158.75 scf sf
0 450 m
gs 1 -1 sc (police) col0 sh gr
/Times-Roman ff 158.75 scf sf
540 450 m
gs 1 -1 sc (en) col0 sh gr
/Times-Roman ff 158.75 scf sf
540 855 m
gs 1 -1 sc (mouvement) col0 sh gr
/Times-Roman ff 158.75 scf sf
1575 1125 m
gs 1 -1 sc (maximas) col0 sh gr
/Times-Roman ff 158.75 scf sf
1485 1305 m
gs 1 -1 sc (d'amplitude) col0 sh gr
% here ends figure;
% 
% here starts figure with depth 48
% Ellipse
7.500 slw
n 407 586 17 17 0 360 DrawEllipse gs col7 0.00 shd ef gr gs col0 s gr

% Ellipse
n 677 586 17 17 0 360 DrawEllipse gs col7 0.00 shd ef gr gs col0 s gr

% Ellipse
n 947 586 17 17 0 360 DrawEllipse gs col7 0.00 shd ef gr gs col0 s gr

% Ellipse
n 1217 586 17 17 0 360 DrawEllipse gs col7 0.00 shd ef gr gs col0 s gr

% here ends figure;
$F2psEnd
rs
showpage
%%Trailer
%EOF
