%!PS-Adobe-2.0 EPSF-2.0
%%Title: Spherique.fig
%%Creator: fig2dev Version 3.2 Patchlevel 5-alpha5
%%CreationDate: Thu Jun 30 07:08:19 2005
%%For: guyotv@debian ()
%%BoundingBox: 0 0 122 84
%Magnification: 1.0000
%%EndComments
/$F2psDict 200 dict def
$F2psDict begin
$F2psDict /mtrx matrix put
/col-1 {0 setgray} bind def
/col0 {0.000 0.000 0.000 srgb} bind def
/col1 {0.000 0.000 1.000 srgb} bind def
/col2 {0.000 1.000 0.000 srgb} bind def
/col3 {0.000 1.000 1.000 srgb} bind def
/col4 {1.000 0.000 0.000 srgb} bind def
/col5 {1.000 0.000 1.000 srgb} bind def
/col6 {1.000 1.000 0.000 srgb} bind def
/col7 {1.000 1.000 1.000 srgb} bind def
/col8 {0.000 0.000 0.560 srgb} bind def
/col9 {0.000 0.000 0.690 srgb} bind def
/col10 {0.000 0.000 0.820 srgb} bind def
/col11 {0.530 0.810 1.000 srgb} bind def
/col12 {0.000 0.560 0.000 srgb} bind def
/col13 {0.000 0.690 0.000 srgb} bind def
/col14 {0.000 0.820 0.000 srgb} bind def
/col15 {0.000 0.560 0.560 srgb} bind def
/col16 {0.000 0.690 0.690 srgb} bind def
/col17 {0.000 0.820 0.820 srgb} bind def
/col18 {0.560 0.000 0.000 srgb} bind def
/col19 {0.690 0.000 0.000 srgb} bind def
/col20 {0.820 0.000 0.000 srgb} bind def
/col21 {0.560 0.000 0.560 srgb} bind def
/col22 {0.690 0.000 0.690 srgb} bind def
/col23 {0.820 0.000 0.820 srgb} bind def
/col24 {0.500 0.190 0.000 srgb} bind def
/col25 {0.630 0.250 0.000 srgb} bind def
/col26 {0.750 0.380 0.000 srgb} bind def
/col27 {1.000 0.500 0.500 srgb} bind def
/col28 {1.000 0.630 0.630 srgb} bind def
/col29 {1.000 0.750 0.750 srgb} bind def
/col30 {1.000 0.880 0.880 srgb} bind def
/col31 {1.000 0.840 0.000 srgb} bind def

end
save
newpath 0 84 moveto 0 0 lineto 122 0 lineto 122 84 lineto closepath clip newpath
-19.1 108.7 translate
1 -1 scale

/cp {closepath} bind def
/ef {eofill} bind def
/gr {grestore} bind def
/gs {gsave} bind def
/sa {save} bind def
/rs {restore} bind def
/l {lineto} bind def
/m {moveto} bind def
/rm {rmoveto} bind def
/n {newpath} bind def
/s {stroke} bind def
/sh {show} bind def
/slc {setlinecap} bind def
/slj {setlinejoin} bind def
/slw {setlinewidth} bind def
/srgb {setrgbcolor} bind def
/rot {rotate} bind def
/sc {scale} bind def
/sd {setdash} bind def
/ff {findfont} bind def
/sf {setfont} bind def
/scf {scalefont} bind def
/sw {stringwidth} bind def
/tr {translate} bind def
/tnt {dup dup currentrgbcolor
  4 -2 roll dup 1 exch sub 3 -1 roll mul add
  4 -2 roll dup 1 exch sub 3 -1 roll mul add
  4 -2 roll dup 1 exch sub 3 -1 roll mul add srgb}
  bind def
/shd {dup dup currentrgbcolor 4 -2 roll mul 4 -2 roll mul
  4 -2 roll mul srgb} bind def
/$F2psBegin {$F2psDict begin /$F2psEnteredState save def} def
/$F2psEnd {$F2psEnteredState restore end} def

$F2psBegin
10 setmiterlimit
0 slj 0 slc
 0.06299 0.06299 sc
%
% Fig objects follow
%
% 
% here starts figure with depth 50
% Arc
7.500 slw
0 slc
n 1335.3 1121.6 725.7 54.5756 -53.7967 arcn
gs col0 s gr

% Arc
n 1770.5 522.7 139.0 171.5931 125.3985 arcn
gs col0 s gr

% Arc
n 1768.5 531.7 174.8 127.1364 78.6137 arcn
gs col0 s gr

% Arc
n 1932.6 857.3 193.6 179.2126 149.3702 arcn
gs col0 s gr

% Arc
n 1930.8 903.0 217.7 161.7919 126.9284 arcn
gs col0 s gr

% Polyline
0 slj
n 315 1125 m
 2115 1125 l gs col0 s gr 
% Polyline
 [15 45] 45 sd
n 1319 1119 m
 1769 534 l gs col0 s gr  [] 0 sd
% Polyline
 [15 45] 45 sd
n 1314 1123 m
 1758 1713 l gs col0 s gr  [] 0 sd
% Polyline
gs  clippath
1926 1225 m 1957 1338 l 2000 1326 l 1969 1213 l 1969 1213 l 1968 1292 l 1926 1225 l cp
eoclip
n 726 545 m 1764 545 l
 1975 1318 l gs col0 s gr gr

% arrowhead
n 1926 1225 m 1968 1292 l 1969 1213 l 1952 1234 l 1926 1225 l 
 cp gs 0.00 setgray ef gr  col0 s
% Polyline
n 2093 1064 m 2010 855 l
 1927 646 l gs col0 s gr 
% Polyline
 [15 45] 45 sd
n 1318 1128 m 2012 859 l
 2221 776 l gs col0 s gr  [] 0 sd
% Polyline
gs  clippath
1645 1206 m 1564 1290 l 1596 1321 l 1678 1237 l 1678 1237 l 1610 1276 l 1645 1206 l cp
eoclip
n 755 855 m 2012 858 l
 1591 1295 l gs col0 s gr gr

% arrowhead
n 1645 1206 m 1610 1276 l 1678 1237 l 1651 1232 l 1645 1206 l 
 cp gs 0.00 setgray ef gr  col0 s
% Polyline
n 1953 680 m 1774 544 l
 1595 408 l gs col0 s gr 
/Symbol ff 127.00 scf sf
1631 954 m
gs 1 -1 sc (a) col0 sh gr
/Symbol ff 127.00 scf sf
1648 1093 m
gs 1 -1 sc (a) col0 sh gr
/Symbol ff 127.00 scf sf
1547 670 m
gs 1 -1 sc (b) col0 sh gr
/Symbol ff 127.00 scf sf
1653 811 m
gs 1 -1 sc (b) col0 sh gr
% here ends figure;
% 
% here starts figure with depth 47
/Times-Roman ff 158.75 scf sf
373 1282 m
gs 1 -1 sc (axe optique) col0 sh gr
% here ends figure;
$F2psEnd
rs
showpage
%%Trailer
%EOF
