%!PS-Adobe-2.0 EPSF-2.0
%%Title: Trianglessemblables.fig
%%Creator: fig2dev Version 3.2 Patchlevel 5-alpha5
%%CreationDate: Wed Jul  6 23:40:50 2005
%%For: guyotv@debian ()
%%BoundingBox: 0 0 150 79
%Magnification: 1.0000
%%EndComments
/$F2psDict 200 dict def
$F2psDict begin
$F2psDict /mtrx matrix put
/col-1 {0 setgray} bind def
/col0 {0.000 0.000 0.000 srgb} bind def
/col1 {0.000 0.000 1.000 srgb} bind def
/col2 {0.000 1.000 0.000 srgb} bind def
/col3 {0.000 1.000 1.000 srgb} bind def
/col4 {1.000 0.000 0.000 srgb} bind def
/col5 {1.000 0.000 1.000 srgb} bind def
/col6 {1.000 1.000 0.000 srgb} bind def
/col7 {1.000 1.000 1.000 srgb} bind def
/col8 {0.000 0.000 0.560 srgb} bind def
/col9 {0.000 0.000 0.690 srgb} bind def
/col10 {0.000 0.000 0.820 srgb} bind def
/col11 {0.530 0.810 1.000 srgb} bind def
/col12 {0.000 0.560 0.000 srgb} bind def
/col13 {0.000 0.690 0.000 srgb} bind def
/col14 {0.000 0.820 0.000 srgb} bind def
/col15 {0.000 0.560 0.560 srgb} bind def
/col16 {0.000 0.690 0.690 srgb} bind def
/col17 {0.000 0.820 0.820 srgb} bind def
/col18 {0.560 0.000 0.000 srgb} bind def
/col19 {0.690 0.000 0.000 srgb} bind def
/col20 {0.820 0.000 0.000 srgb} bind def
/col21 {0.560 0.000 0.560 srgb} bind def
/col22 {0.690 0.000 0.690 srgb} bind def
/col23 {0.820 0.000 0.820 srgb} bind def
/col24 {0.500 0.190 0.000 srgb} bind def
/col25 {0.630 0.250 0.000 srgb} bind def
/col26 {0.750 0.380 0.000 srgb} bind def
/col27 {1.000 0.500 0.500 srgb} bind def
/col28 {1.000 0.630 0.630 srgb} bind def
/col29 {1.000 0.750 0.750 srgb} bind def
/col30 {1.000 0.880 0.880 srgb} bind def
/col31 {1.000 0.840 0.000 srgb} bind def

end
save
newpath 0 79 moveto 0 0 lineto 150 0 lineto 150 79 lineto closepath clip newpath
-7.7 96.3 translate
1 -1 scale

/cp {closepath} bind def
/ef {eofill} bind def
/gr {grestore} bind def
/gs {gsave} bind def
/sa {save} bind def
/rs {restore} bind def
/l {lineto} bind def
/m {moveto} bind def
/rm {rmoveto} bind def
/n {newpath} bind def
/s {stroke} bind def
/sh {show} bind def
/slc {setlinecap} bind def
/slj {setlinejoin} bind def
/slw {setlinewidth} bind def
/srgb {setrgbcolor} bind def
/rot {rotate} bind def
/sc {scale} bind def
/sd {setdash} bind def
/ff {findfont} bind def
/sf {setfont} bind def
/scf {scalefont} bind def
/sw {stringwidth} bind def
/tr {translate} bind def
/tnt {dup dup currentrgbcolor
  4 -2 roll dup 1 exch sub 3 -1 roll mul add
  4 -2 roll dup 1 exch sub 3 -1 roll mul add
  4 -2 roll dup 1 exch sub 3 -1 roll mul add srgb}
  bind def
/shd {dup dup currentrgbcolor 4 -2 roll mul 4 -2 roll mul
  4 -2 roll mul srgb} bind def
/$F2psBegin {$F2psDict begin /$F2psEnteredState save def} def
/$F2psEnd {$F2psEnteredState restore end} def

$F2psBegin
10 setmiterlimit
0 slj 0 slc
 0.06299 0.06299 sc
%
% Fig objects follow
%
% 
% here starts figure with depth 52
% Polyline
0 slj
0 slc
7.500 slw
n 1254 856 m 1927 856 l 1927 1112 l 1257 856 l
 cp gs col7 0.90 shd ef gr gs col0 s gr 
% here ends figure;
% 
% here starts figure with depth 50
% Polyline
0 slj
0 slc
7.500 slw
n 1251 298 m
 1251 1513 l gs col0 s gr 
% Polyline
n 1207 1426 m 1252 1516 l
 1297 1426 l gs col0 s gr 
% Polyline
n 1206 381 m 1251 291 l
 1296 381 l gs col0 s gr 
% Polyline
n 423 540 m
 423 856 l gs col0 s gr 
% Polyline
n 1927 1112 m
 1927 856 l gs col0 s gr 
% Polyline
 [45] 0 sd
gs  clippath
1185 949 m 1259 949 l 1259 919 l 1185 919 l 1185 919 l 1223 934 l 1185 949 l cp
481 919 m 408 919 l 408 949 l 481 949 l 481 949 l 444 934 l 481 919 l cp
eoclip
n 423 934 m
 1244 934 l gs col0 s gr gr
 [] 0 sd
% arrowhead
n 481 919 m 444 934 l 481 949 l 474 934 l 481 919 l 
 cp gs 0.00 setgray ef gr  col0 s
% arrowhead
n 1185 949 m 1223 934 l 1185 919 l 1193 934 l 1185 949 l 
 cp gs 0.00 setgray ef gr  col0 s
% Polyline
 [45] 0 sd
gs  clippath
1864 665 m 1938 665 l 1938 635 l 1864 635 l 1864 635 l 1902 650 l 1864 665 l cp
1315 635 m 1242 635 l 1242 665 l 1315 665 l 1315 665 l 1278 650 l 1315 635 l cp
eoclip
n 1257 650 m
 1923 650 l gs col0 s gr gr
 [] 0 sd
% arrowhead
n 1315 635 m 1278 650 l 1315 665 l 1308 650 l 1315 635 l 
 cp gs 0.00 setgray ef gr  col0 s
% arrowhead
n 1864 665 m 1902 650 l 1864 635 l 1872 650 l 1864 665 l 
 cp gs 0.00 setgray ef gr  col0 s
% Polyline
 [45] 0 sd
gs  clippath
1567 1107 m 1641 1107 l 1641 1077 l 1567 1077 l 1567 1077 l 1605 1092 l 1567 1107 l cp
1315 1077 m 1242 1077 l 1242 1107 l 1315 1107 l 1315 1107 l 1278 1092 l 1315 1077 l cp
eoclip
n 1257 1092 m
 1626 1092 l gs col0 s gr gr
 [] 0 sd
% arrowhead
n 1315 1077 m 1278 1092 l 1315 1107 l 1308 1092 l 1315 1077 l 
 cp gs 0.00 setgray ef gr  col0 s
% arrowhead
n 1567 1107 m 1605 1092 l 1567 1077 l 1575 1092 l 1567 1107 l 
 cp gs 0.00 setgray ef gr  col0 s
% Polyline
n 135 855 m
 2457 856 l gs col0 s gr 
% Polyline
n 428 540 m 1256 853 l 428 853 l
 428 536 l gs col7 0.90 shd ef gr gs col0 s gr 
% Polyline
gs  clippath
2375 1303 m 2485 1345 l 2501 1303 l 2391 1261 l 2391 1261 l 2454 1309 l 2375 1303 l cp
eoclip
n 417 536 m
 2479 1319 l gs col0 s gr gr

% arrowhead
n 2375 1303 m 2454 1309 l 2391 1261 l 2397 1287 l 2375 1303 l 
 cp gs 0.00 setgray ef gr  col0 s
% Polyline
gs  clippath
2267 1428 m 2356 1503 l 2385 1469 l 2296 1394 l 2296 1394 l 2339 1460 l 2267 1428 l cp
eoclip
n 420 540 m 1251 540 l
 2360 1477 l gs col0 s gr gr

% arrowhead
n 2267 1428 m 2339 1460 l 2296 1394 l 2293 1421 l 2267 1428 l 
 cp gs 0.00 setgray ef gr  col0 s
% Polyline
n 1319 856 m
 1319 598 l gs col0 s gr 
% Polyline
n 1403 860 m
 1403 669 l gs col0 s gr 
% Polyline
n 1484 853 m
 1484 740 l gs col0 s gr 
% Polyline
n 1561 853 m
 1561 805 l gs col0 s gr 
% Polyline
n 1707 928 m
 1707 863 l gs col0 s gr 
% Polyline
n 1771 976 m
 1771 863 l gs col0 s gr 
% Polyline
n 1849 1044 m
 1849 856 l gs col0 s gr 
/Times-Roman ff 158.75 scf sf
676 1102 m
gs 1 -1 sc (d) col0 sh gr
/Times-Roman ff 127.00 scf sf
750 1154 m
gs 1 -1 sc (o) col0 sh gr
/Times-Roman ff 158.75 scf sf
1562 572 m
gs 1 -1 sc (d) col0 sh gr
/Times-Roman ff 127.00 scf sf
1656 612 m
gs 1 -1 sc (i) col0 sh gr
/Times-Roman ff 158.75 scf sf
1412 1254 m
gs 1 -1 sc (f) col0 sh gr
/Times-Roman ff 158.75 scf sf
327 756 m
gs 1 -1 sc (h) col0 sh gr
/Times-Roman ff 127.00 scf sf
445 795 m
gs 1 -1 sc (objet) col0 sh gr
/Times-Roman ff 158.75 scf sf
1959 1024 m
gs 1 -1 sc (h) col0 sh gr
/Times-Roman ff 127.00 scf sf
2056 1071 m
gs 1 -1 sc (image) col0 sh gr
% here ends figure;
$F2psEnd
rs
showpage
%%Trailer
%EOF
