%!PS-Adobe-2.0 EPSF-2.0
%%Title: TroubleNet.fig
%%Creator: fig2dev Version 3.2 Patchlevel 5-alpha5
%%CreationDate: Fri Jul  8 16:49:40 2005
%%For: guyotv@debian ()
%%BoundingBox: 0 0 168 64
%Magnification: 1.0000
%%EndComments
/$F2psDict 200 dict def
$F2psDict begin
$F2psDict /mtrx matrix put
/col-1 {0 setgray} bind def
/col0 {0.000 0.000 0.000 srgb} bind def
/col1 {0.000 0.000 1.000 srgb} bind def
/col2 {0.000 1.000 0.000 srgb} bind def
/col3 {0.000 1.000 1.000 srgb} bind def
/col4 {1.000 0.000 0.000 srgb} bind def
/col5 {1.000 0.000 1.000 srgb} bind def
/col6 {1.000 1.000 0.000 srgb} bind def
/col7 {1.000 1.000 1.000 srgb} bind def
/col8 {0.000 0.000 0.560 srgb} bind def
/col9 {0.000 0.000 0.690 srgb} bind def
/col10 {0.000 0.000 0.820 srgb} bind def
/col11 {0.530 0.810 1.000 srgb} bind def
/col12 {0.000 0.560 0.000 srgb} bind def
/col13 {0.000 0.690 0.000 srgb} bind def
/col14 {0.000 0.820 0.000 srgb} bind def
/col15 {0.000 0.560 0.560 srgb} bind def
/col16 {0.000 0.690 0.690 srgb} bind def
/col17 {0.000 0.820 0.820 srgb} bind def
/col18 {0.560 0.000 0.000 srgb} bind def
/col19 {0.690 0.000 0.000 srgb} bind def
/col20 {0.820 0.000 0.000 srgb} bind def
/col21 {0.560 0.000 0.560 srgb} bind def
/col22 {0.690 0.000 0.690 srgb} bind def
/col23 {0.820 0.000 0.820 srgb} bind def
/col24 {0.500 0.190 0.000 srgb} bind def
/col25 {0.630 0.250 0.000 srgb} bind def
/col26 {0.750 0.380 0.000 srgb} bind def
/col27 {1.000 0.500 0.500 srgb} bind def
/col28 {1.000 0.630 0.630 srgb} bind def
/col29 {1.000 0.750 0.750 srgb} bind def
/col30 {1.000 0.880 0.880 srgb} bind def
/col31 {1.000 0.840 0.000 srgb} bind def

end
save
newpath 0 64 moveto 0 0 lineto 168 0 lineto 168 64 lineto closepath clip newpath
0.7 63.1 translate
1 -1 scale

/cp {closepath} bind def
/ef {eofill} bind def
/gr {grestore} bind def
/gs {gsave} bind def
/sa {save} bind def
/rs {restore} bind def
/l {lineto} bind def
/m {moveto} bind def
/rm {rmoveto} bind def
/n {newpath} bind def
/s {stroke} bind def
/sh {show} bind def
/slc {setlinecap} bind def
/slj {setlinejoin} bind def
/slw {setlinewidth} bind def
/srgb {setrgbcolor} bind def
/rot {rotate} bind def
/sc {scale} bind def
/sd {setdash} bind def
/ff {findfont} bind def
/sf {setfont} bind def
/scf {scalefont} bind def
/sw {stringwidth} bind def
/tr {translate} bind def
/tnt {dup dup currentrgbcolor
  4 -2 roll dup 1 exch sub 3 -1 roll mul add
  4 -2 roll dup 1 exch sub 3 -1 roll mul add
  4 -2 roll dup 1 exch sub 3 -1 roll mul add srgb}
  bind def
/shd {dup dup currentrgbcolor 4 -2 roll mul 4 -2 roll mul
  4 -2 roll mul srgb} bind def
 /DrawEllipse {
	/endangle exch def
	/startangle exch def
	/yrad exch def
	/xrad exch def
	/y exch def
	/x exch def
	/savematrix mtrx currentmatrix def
	x y tr xrad yrad sc 0 0 1 startangle endangle arc
	closepath
	savematrix setmatrix
	} def

/$F2psBegin {$F2psDict begin /$F2psEnteredState save def} def
/$F2psEnd {$F2psEnteredState restore end} def

$F2psBegin
10 setmiterlimit
0 slj 0 slc
 0.06299 0.06299 sc
%
% Fig objects follow
%
% 
% here starts figure with depth 50
% Ellipse
7.500 slw
n 706 496 497 497 0 360 DrawEllipse gs col0 s gr

% Ellipse
n 314 494 85 196 0 360 DrawEllipse gs col7 0.90 shd ef gr gs col0 s gr

% Ellipse
n 2062 496 497 497 0 360 DrawEllipse gs col0 s gr

% Ellipse
n 1670 494 85 196 0 360 DrawEllipse gs col7 0.90 shd ef gr gs col0 s gr

/Times-Roman ff 63.50 scf sf
395 633 m
gs 1 -1 sc (cristallin) col0 sh gr
/Times-Roman ff 63.50 scf sf
1751 633 m
gs 1 -1 sc (cristallin) col0 sh gr
/Times-Roman ff 158.75 scf sf
457 256 m
gs 1 -1 sc (trouble) col0 sh gr
/Times-Roman ff 158.75 scf sf
1986 232 m
gs 1 -1 sc (net) col0 sh gr
/Times-Roman ff 63.50 scf sf
791 466 m
gs 1 -1 sc (Foyer) col0 sh gr
/Times-Roman ff 63.50 scf sf
2080 466 m
gs 1 -1 sc (Foyer) col0 sh gr
% here ends figure;
% 
% here starts figure with depth 48
% Arc
15.000 slw
0 slc
n 730.6 498.1 520.6 -166.6610 164.8707 arcn
gs col7 s gr

% Arc
n 2086.6 498.1 520.6 -166.6610 164.8707 arcn
gs col7 s gr

% Polyline
0 slj
7.500 slw
n 3 499 m
 1288 499 l gs col0 s gr 
% Polyline
n 1443 643 m
 3 457 l gs col0 s gr 
% Polyline
n 1359 499 m
 2644 499 l gs col0 s gr 
% Polyline
n 2545 616 m
 1359 457 l gs col0 s gr 
% Polyline
n 1 370 m 133 370 l 244 383 l 391 400 l
 1447 640 l gs col0 s gr 
% Polyline
n 1357 370 m 1489 370 l 1600 383 l 1747 400 l
 2545 616 l gs col0 s gr 
% here ends figure;
$F2psEnd
rs
showpage
%%Trailer
%EOF
