%!PS-Adobe-2.0
%%Creator: inkscape 0.41.1
%%Pages: 1
%%Orientation: Portrait
%%BoundingBox: 8 766 111 824
%%HiResBoundingBox: 8.5477973 766.11579 110.37380 823.99008
%%EndComments
%%Page: 1 1
0 842 translate
0.80000000 -0.80000000 scale
gsave [1.0000000 0.0000000 0.0000000 1.0000000 0.0000000 0.0000000] concat
0.0000000 0.0000000 0.0000000 setrgbcolor
[1.5363466 3.0726931] 0.0000000 setdash
0.38408664 setlinewidth
0 setlinejoin
0 setlinecap
newpath
10.876790 60.912589 moveto
193.61579 60.912589 125.25334 60.912589 125.25334 60.912589 curveto
stroke
0.0000000 0.0000000 0.0000000 setrgbcolor
[] 0 setdash
0.35433072 setlinewidth
0 setlinejoin
0 setlinecap
newpath
91.364788 25.154761 moveto
91.364788 94.109319 91.364788 94.540285 91.364788 94.540285 curveto
stroke
gsave [-2.3865361e-17 -0.38976379 0.38976379 -2.3865361e-17 91.364788 27.103580] concat
0.0000000 0.0000000 0.0000000 setrgbcolor
newpath
8.7185878 4.0337352 moveto
-2.2072895 0.016013256 lineto
8.7185884 -4.0017078 lineto
6.9730900 -1.6296469 6.9831476 1.6157441 8.7185878 4.0337352 curveto
closepath
eofill
grestore
gsave [1.7356626e-17 0.28346457 -0.28346457 1.7356626e-17 91.364788 94.540285] concat
0.0000000 0.0000000 0.0000000 setrgbcolor
newpath
0.0000000 0.0000000 moveto
5.0000000 -5.0000000 lineto
-12.500000 0.0000000 lineto
5.0000000 5.0000000 lineto
0.0000000 0.0000000 lineto
closepath
eofill
0.0000000 0.0000000 0.0000000 setrgbcolor
[] 0 setdash
1.2500000 setlinewidth
0 setlinejoin
0 setlinecap
newpath
0.0000000 0.0000000 moveto
5.0000000 -5.0000000 lineto
-12.500000 0.0000000 lineto
5.0000000 5.0000000 lineto
0.0000000 0.0000000 lineto
closepath
stroke
grestore
0.0000000 0.0000000 0.0000000 setrgbcolor
[] 0 setdash
0.35433072 setlinewidth
0 setlinejoin
0 setlinecap
newpath
43.096598 41.100503 moveto
43.096598 60.709455 43.096598 60.709455 43.096598 60.709455 curveto
stroke
0.0000000 0.0000000 0.0000000 setrgbcolor
[] 0 setdash
1.0000000 setlinewidth
0 setlinejoin
0 setlinecap
newpath
42.881115 41.315986 moveto
124.33369 74.069401 lineto
stroke
gsave [-0.27833942 -0.11192484 0.11192484 -0.27833942 125.72539 74.629025] concat
0.0000000 0.0000000 0.0000000 setrgbcolor
newpath
8.7185878 4.0337352 moveto
-2.2072895 0.016013256 lineto
8.7185884 -4.0017078 lineto
6.9730900 -1.6296469 6.9831476 1.6157441 8.7185878 4.0337352 curveto
closepath
eofill
grestore
0.0000000 0.0000000 0.0000000 setrgbcolor
[] 0 setdash
1.0000000 setlinewidth
0 setlinejoin
0 setlinecap
newpath
42.881115 41.315986 moveto
91.149305 41.315986 lineto
120.23952 33.989564 lineto
stroke
gsave [-0.29091555 0.073267596 -0.073267596 -0.29091555 121.69410 33.623226] concat
0.0000000 0.0000000 0.0000000 setrgbcolor
newpath
8.7185878 4.0337352 moveto
-2.2072895 0.016013256 lineto
8.7185884 -4.0017078 lineto
6.9730900 -1.6296469 6.9831476 1.6157441 8.7185878 4.0337352 curveto
closepath
eofill
grestore
0.0000000 0.0000000 0.0000000 setrgbcolor
[] 0 setdash
0.25073349 setlinewidth
0 setlinejoin
0 setlinecap
newpath
62.274587 60.771471 moveto
62.274587 49.657805 lineto
stroke
0.0000000 0.0000000 0.0000000 setrgbcolor
[] 0 setdash
0.58022684 setlinewidth
0 setlinejoin
0 setlinecap
newpath
88.936478 73.638435 moveto
19.020502 73.638435 lineto
stroke
gsave [-0.34813610 4.2632968e-17 -4.2632968e-17 -0.34813610 86.151389 73.638435] concat
0.0000000 0.0000000 0.0000000 setrgbcolor
newpath
0.0000000 0.0000000 moveto
5.0000000 -5.0000000 lineto
-12.500000 0.0000000 lineto
5.0000000 5.0000000 lineto
0.0000000 0.0000000 lineto
closepath
eofill
0.0000000 0.0000000 0.0000000 setrgbcolor
[] 0 setdash
1.2500000 setlinewidth
0 setlinejoin
0 setlinecap
newpath
0.0000000 0.0000000 moveto
5.0000000 -5.0000000 lineto
-12.500000 0.0000000 lineto
5.0000000 5.0000000 lineto
0.0000000 0.0000000 lineto
closepath
stroke
0.0000000 0.0000000 0.0000000 setrgbcolor
[] 0 setdash
1.5000000 setlinewidth
0 setlinejoin
0 setlinecap
newpath
-14.759949 -7.0000000 moveto
-14.759949 65.000000 lineto
stroke
grestore
gsave [0.34813610 -4.2632968e-17 -4.2632968e-17 -0.34813610 21.805591 73.638435] concat
0.0000000 0.0000000 0.0000000 setrgbcolor
newpath
0.0000000 0.0000000 moveto
5.0000000 -5.0000000 lineto
-12.500000 0.0000000 lineto
5.0000000 5.0000000 lineto
0.0000000 0.0000000 lineto
closepath
eofill
0.0000000 0.0000000 0.0000000 setrgbcolor
[] 0 setdash
1.2500000 setlinewidth
0 setlinejoin
0 setlinecap
newpath
0.0000000 0.0000000 moveto
5.0000000 -5.0000000 lineto
-12.500000 0.0000000 lineto
5.0000000 5.0000000 lineto
0.0000000 0.0000000 lineto
closepath
stroke
0.0000000 0.0000000 0.0000000 setrgbcolor
[] 0 setdash
1.5000000 setlinewidth
0 setlinejoin
0 setlinecap
newpath
-14.759949 -7.0000000 moveto
-14.759949 65.000000 lineto
stroke
grestore
0.0000000 0.0000000 0.0000000 setrgbcolor
[] 0 setdash
0.40314037 setlinewidth
0 setlinejoin
0 setlinecap
newpath
44.760986 32.050220 moveto
89.700400 32.050220 lineto
stroke
gsave [0.24188422 0.0000000 0.0000000 0.24188422 46.696060 32.050220] concat
0.0000000 0.0000000 0.0000000 setrgbcolor
newpath
0.0000000 0.0000000 moveto
5.0000000 -5.0000000 lineto
-12.500000 0.0000000 lineto
5.0000000 5.0000000 lineto
0.0000000 0.0000000 lineto
closepath
eofill
0.0000000 0.0000000 0.0000000 setrgbcolor
[] 0 setdash
1.2500000 setlinewidth
0 setlinejoin
0 setlinecap
newpath
0.0000000 0.0000000 moveto
5.0000000 -5.0000000 lineto
-12.500000 0.0000000 lineto
5.0000000 5.0000000 lineto
0.0000000 0.0000000 lineto
closepath
stroke
0.0000000 0.0000000 0.0000000 setrgbcolor
[] 0 setdash
1.5000000 setlinewidth
0 setlinejoin
0 setlinecap
newpath
-14.759949 -7.0000000 moveto
-14.759949 65.000000 lineto
stroke
grestore
gsave [-0.24188422 -0.0000000 0.0000000 0.24188422 87.765326 32.050220] concat
0.0000000 0.0000000 0.0000000 setrgbcolor
newpath
0.0000000 0.0000000 moveto
5.0000000 -5.0000000 lineto
-12.500000 0.0000000 lineto
5.0000000 5.0000000 lineto
0.0000000 0.0000000 lineto
closepath
eofill
0.0000000 0.0000000 0.0000000 setrgbcolor
[] 0 setdash
1.2500000 setlinewidth
0 setlinejoin
0 setlinecap
newpath
0.0000000 0.0000000 moveto
5.0000000 -5.0000000 lineto
-12.500000 0.0000000 lineto
5.0000000 5.0000000 lineto
0.0000000 0.0000000 lineto
closepath
stroke
0.0000000 0.0000000 0.0000000 setrgbcolor
[] 0 setdash
1.5000000 setlinewidth
0 setlinejoin
0 setlinecap
newpath
-14.759949 -7.0000000 moveto
-14.759949 65.000000 lineto
stroke
grestore
0.0000000 0.0000000 0.0000000 setrgbcolor
newpath
59.014908 27.149967 moveto
59.014904 28.032130 58.774018 28.662012 58.292252 29.039616 curveto
57.862561 29.378157 57.193616 29.547428 56.285416 29.547428 curveto
56.021742 29.547428 55.782485 29.501855 55.567642 29.410709 curveto
55.287694 29.287012 55.147720 29.109603 55.147720 28.878483 curveto
55.147720 28.771062 55.185155 28.681543 55.260025 28.609928 curveto
55.334894 28.535059 55.427668 28.497624 55.538345 28.497623 curveto
55.762954 28.497624 55.998956 28.606674 56.246353 28.824772 curveto
56.497002 29.042871 56.746026 29.151921 56.993423 29.151920 curveto
57.869071 29.151921 58.306896 28.538314 58.306900 27.311100 curveto
58.306896 26.975816 58.223889 26.660061 58.057877 26.363834 curveto
57.862561 26.015531 57.608655 25.841377 57.296158 25.841373 curveto
56.967380 25.841377 56.620700 25.934150 56.256119 26.119694 curveto
56.163345 25.870670 lineto
56.446547 25.792549 56.785088 25.574450 57.178970 25.216373 curveto
57.605400 24.829008 57.818616 24.506743 57.818619 24.249577 curveto
57.818616 23.950103 57.704684 23.691314 57.476822 23.473209 curveto
57.248955 23.255117 56.985283 23.146067 56.685806 23.146061 curveto
56.327732 23.146067 55.847589 23.432525 55.245377 24.005436 curveto
55.094009 23.941959 lineto
55.422785 23.440663 55.702732 23.092356 55.933853 22.897038 curveto
56.278904 22.613841 56.692315 22.472240 57.174088 22.472233 curveto
57.587496 22.472240 57.942313 22.602448 58.238541 22.862858 curveto
58.551037 23.136302 58.707287 23.476471 58.707291 23.883366 curveto
58.707287 24.231678 58.599865 24.521391 58.385025 24.752506 curveto
58.241792 24.908761 57.981376 25.087797 57.603775 25.289616 curveto
58.046480 25.318917 58.399670 25.530505 58.663345 25.924381 curveto
58.897716 26.275947 59.014904 26.684475 59.014908 27.149967 curveto
fill
0.0000000 0.0000000 0.0000000 setrgbcolor
newpath
64.014908 25.939030 moveto
64.014903 26.730048 63.847260 27.478745 63.511978 28.185123 curveto
63.095308 29.067285 62.533785 29.508366 61.827408 29.508366 curveto
61.094984 29.508366 60.525323 29.073796 60.118423 28.204655 curveto
59.799412 27.524318 59.639907 26.769111 59.639908 25.939030 curveto
59.639907 25.148018 59.807551 24.399321 60.142838 23.692936 curveto
60.559503 22.814036 61.121026 22.374584 61.827408 22.374577 curveto
62.559826 22.374584 63.127860 22.807526 63.531509 23.673405 curveto
63.853770 24.357004 64.014903 25.112211 64.014908 25.939030 curveto
63.297134 26.158756 moveto
63.297130 23.818267 62.807222 22.648021 61.827408 22.648014 curveto
60.847589 22.648021 60.357680 23.673410 60.357681 25.724186 curveto
60.357680 28.061427 60.847589 29.230046 61.827408 29.230045 curveto
62.807222 29.230046 63.297130 28.206284 63.297134 26.158756 curveto
fill
0.0000000 0.0000000 0.0000000 setrgbcolor
newpath
fill
0.0000000 0.0000000 0.0000000 setrgbcolor
newpath
71.759048 28.263248 moveto
71.355399 29.122624 70.715751 29.552311 69.840103 29.552311 curveto
69.276951 29.552311 68.800063 29.326074 68.409439 28.873600 curveto
68.035090 28.440658 67.847916 27.937729 67.847916 27.364811 curveto
67.847916 26.648668 68.095311 26.057848 68.590103 25.592350 curveto
69.075128 25.136625 69.678968 24.908761 70.401627 24.908756 curveto
70.616468 24.908761 70.867118 24.975493 71.153580 25.108952 curveto
71.482352 25.255440 71.646740 25.413318 71.646744 25.582584 curveto
71.646740 25.891833 71.500256 26.046455 71.207291 26.046452 curveto
71.024996 26.046455 70.906181 25.973213 70.850845 25.826725 curveto
70.798759 25.690010 70.748303 25.553291 70.699478 25.416569 curveto
70.592053 25.266833 70.385348 25.191964 70.079361 25.191959 curveto
69.587823 25.191964 69.203709 25.414945 68.927017 25.860905 curveto
68.695897 26.238512 68.580337 26.689358 68.580338 27.213444 curveto
68.580337 27.649643 68.733331 28.056544 69.039322 28.434147 curveto
69.364841 28.834538 69.739190 29.034733 70.162369 29.034733 curveto
70.771090 29.034733 71.236584 28.759668 71.558853 28.209538 curveto
71.692313 28.206284 71.759045 28.224187 71.759048 28.263248 curveto
fill
0.0000000 0.0000000 0.0000000 setrgbcolor
newpath
80.426041 29.464420 moveto
78.262955 29.464420 lineto
78.262955 29.244694 lineto
78.705657 29.244694 78.927011 29.024968 78.927017 28.585514 curveto
78.927017 26.363834 lineto
78.927011 26.087145 78.860279 25.844632 78.726822 25.636295 curveto
78.570566 25.395414 78.360605 25.274971 78.096939 25.274967 curveto
77.693288 25.274971 77.213145 25.478422 76.656509 25.885319 curveto
76.656509 28.824772 lineto
76.656505 29.091699 76.916921 29.225163 77.437759 29.225163 curveto
77.462173 29.464420 lineto
75.303970 29.464420 lineto
75.303970 29.244694 lineto
75.743420 29.244694 75.963146 29.024968 75.963150 28.585514 curveto
75.963150 26.363834 lineto
75.963146 26.083890 75.906180 25.843005 75.792252 25.641178 curveto
75.652274 25.397042 75.452079 25.274971 75.191666 25.274967 curveto
74.781507 25.274971 74.278578 25.494698 73.682877 25.934147 curveto
73.682877 28.722233 lineto
73.682875 29.041244 73.928643 29.215397 74.420181 29.244694 curveto
74.390884 29.464420 lineto
72.325455 29.464420 lineto
72.305923 29.425358 lineto
72.335220 29.273991 lineto
72.537043 29.273991 72.699803 29.190983 72.823502 29.024967 curveto
72.937433 28.871973 72.994399 28.691309 72.994400 28.482975 curveto
72.994400 25.792545 lineto
72.994399 25.675362 72.893488 25.582588 72.691666 25.514225 curveto
72.665624 25.504463 72.512629 25.468656 72.232681 25.406803 curveto
72.232681 25.284733 lineto
72.265233 25.248930 72.305923 25.222888 72.354752 25.206608 curveto
72.611913 25.118722 72.996027 24.960844 73.507095 24.732975 curveto
73.682877 24.864811 lineto
73.682877 25.743717 lineto
74.623629 25.138253 75.273043 24.835519 75.631119 24.835514 curveto
75.849214 24.835519 76.052664 24.936430 76.241470 25.138248 curveto
76.400971 25.310779 76.516531 25.512601 76.588150 25.743717 curveto
77.528900 25.138253 78.178313 24.835519 78.536392 24.835514 curveto
78.884693 24.835519 79.163013 24.996651 79.371353 25.318913 curveto
79.553638 25.598864 79.644783 25.921130 79.644791 26.285709 curveto
79.644791 28.824772 lineto
79.644783 29.091699 79.895434 29.225163 80.396744 29.225163 curveto
80.426041 29.464420 lineto
fill
0.0000000 0.0000000 0.0000000 setrgbcolor
newpath
71.473785 67.847359 moveto
71.473782 67.884469 71.387845 68.162789 71.215973 68.682320 curveto
68.763824 68.682320 lineto
68.708160 68.509468 lineto
70.012846 67.456735 70.665190 66.499705 70.665192 65.638374 curveto
70.665190 65.134472 70.436674 64.882519 69.979645 64.882515 curveto
69.471831 64.882519 69.085113 65.121776 68.819489 65.600288 curveto
68.690582 65.544624 lineto
68.796051 65.253612 68.975738 65.008495 69.229645 64.809273 curveto
69.497222 64.598339 69.780425 64.492871 70.079254 64.492867 curveto
70.354643 64.492871 70.586088 64.576855 70.773590 64.744820 curveto
70.968900 64.920605 71.066556 65.144237 71.066559 65.415718 curveto
71.066556 66.284861 70.477690 67.242868 69.299957 68.289742 curveto
70.902496 68.289742 lineto
71.009916 68.289742 71.112455 68.206734 71.210114 68.040718 curveto
71.307767 67.874703 71.352689 67.791696 71.344879 67.791695 curveto
71.360501 67.791696 71.382962 67.800485 71.412262 67.818062 curveto
71.441556 67.833688 71.462064 67.843453 71.473785 67.847359 curveto
fill
0.0000000 0.0000000 0.0000000 setrgbcolor
newpath
74.585114 66.567085 moveto
74.585111 67.041696 74.484525 67.490915 74.283356 67.914742 curveto
74.033353 68.444039 73.696440 68.708687 73.272614 68.708687 curveto
72.833159 68.708687 72.491363 68.447945 72.247223 67.926460 curveto
72.055816 67.518258 71.960113 67.065134 71.960114 66.567085 curveto
71.960113 66.092478 72.060699 65.643260 72.261871 65.219429 curveto
72.511871 64.692089 72.848784 64.428418 73.272614 64.428413 curveto
73.712065 64.428418 74.052885 64.688183 74.295074 65.207710 curveto
74.488431 65.617870 74.585111 66.070994 74.585114 66.567085 curveto
74.154449 66.698921 moveto
74.154447 65.294628 73.860502 64.592480 73.272614 64.592476 curveto
72.684722 64.592480 72.390777 65.207714 72.390778 66.438179 curveto
72.390777 67.840524 72.684722 68.541695 73.272614 68.541695 curveto
73.860502 68.541695 74.154447 67.927438 74.154449 66.698921 curveto
fill
0.0000000 0.0000000 0.0000000 setrgbcolor
newpath
fill
0.0000000 0.0000000 0.0000000 setrgbcolor
newpath
79.231598 67.961617 moveto
78.989408 68.477242 78.605620 68.735054 78.080231 68.735054 curveto
77.742339 68.735054 77.456207 68.599312 77.221832 68.327827 curveto
76.997223 68.068062 76.884918 67.766305 76.884918 67.422554 curveto
76.884918 66.992868 77.033356 66.638376 77.330231 66.359077 curveto
77.621246 66.085643 77.983550 65.948924 78.417145 65.948921 curveto
78.546049 65.948924 78.696440 65.988963 78.868317 66.069038 curveto
79.065580 66.156932 79.164213 66.251658 79.164215 66.353218 curveto
79.164213 66.538767 79.076322 66.631540 78.900543 66.631538 curveto
78.791166 66.631540 78.719877 66.587595 78.686676 66.499702 curveto
78.655424 66.417673 78.625151 66.335642 78.595856 66.253609 curveto
78.531401 66.163767 78.407378 66.118846 78.223785 66.118843 curveto
77.928862 66.118846 77.698394 66.252635 77.532379 66.520210 curveto
77.393707 66.746775 77.324371 67.017282 77.324371 67.331734 curveto
77.324371 67.593454 77.416168 67.837594 77.599762 68.064156 curveto
77.795074 68.304390 78.019683 68.424507 78.273590 68.424507 curveto
78.638823 68.424507 78.918119 68.259469 79.111481 67.929390 curveto
79.191557 67.927438 79.231596 67.938180 79.231598 67.961617 curveto
fill
0.0000000 0.0000000 0.0000000 setrgbcolor
newpath
84.431793 68.682320 moveto
83.133942 68.682320 lineto
83.133942 68.550484 lineto
83.399563 68.550484 83.532375 68.418648 83.532379 68.154976 curveto
83.532379 66.821968 lineto
83.532375 66.655954 83.492336 66.510447 83.412262 66.385445 curveto
83.318508 66.240916 83.192532 66.168650 83.034332 66.168648 curveto
82.792142 66.168650 82.504056 66.290720 82.170074 66.534859 curveto
82.170074 68.298531 lineto
82.170072 68.458687 82.326322 68.538765 82.638824 68.538765 curveto
82.653473 68.682320 lineto
81.358551 68.682320 lineto
81.358551 68.550484 lineto
81.622221 68.550484 81.754057 68.418648 81.754059 68.154976 curveto
81.754059 66.821968 lineto
81.754057 66.654001 81.719877 66.509470 81.651520 66.388374 curveto
81.567533 66.241892 81.447416 66.168650 81.291168 66.168648 curveto
81.045073 66.168650 80.743315 66.300486 80.385895 66.564156 curveto
80.385895 68.237007 lineto
80.385894 68.428414 80.533355 68.532906 80.828278 68.550484 curveto
80.810699 68.682320 lineto
79.571442 68.682320 lineto
79.559723 68.658882 lineto
79.577301 68.568062 lineto
79.698395 68.568062 79.796051 68.518257 79.870270 68.418648 curveto
79.938629 68.326851 79.972808 68.218453 79.972809 68.093452 curveto
79.972809 66.479195 lineto
79.972808 66.408884 79.912262 66.353220 79.791168 66.312202 curveto
79.775543 66.306345 79.683746 66.284861 79.515778 66.247749 curveto
79.515778 66.174507 lineto
79.535309 66.153025 79.559723 66.137400 79.589020 66.127632 curveto
79.743316 66.074900 79.973785 65.980174 80.280426 65.843452 curveto
80.385895 65.922554 lineto
80.385895 66.449898 lineto
80.950346 66.086619 81.339995 65.904979 81.554840 65.904976 curveto
81.685697 65.904979 81.807768 65.965525 81.921051 66.086617 curveto
82.016752 66.190135 82.086088 66.311228 82.129059 66.449898 curveto
82.693509 66.086619 83.083157 65.904979 83.298004 65.904976 curveto
83.506985 65.904979 83.673977 66.001658 83.798981 66.195015 curveto
83.908351 66.362986 83.963039 66.556345 83.963043 66.775093 curveto
83.963043 68.298531 lineto
83.963039 68.458687 84.113429 68.538765 84.414215 68.538765 curveto
84.431793 68.682320 lineto
fill
0.0000000 0.0000000 0.0000000 setrgbcolor
newpath
55.684372 77.330597 moveto
55.196091 77.789581 lineto
55.091920 77.327348 54.763145 77.096229 54.209763 77.096222 curveto
53.890750 77.096229 53.604292 77.192257 53.350388 77.384308 curveto
53.076948 77.592647 52.940230 77.853064 52.940231 78.165558 curveto
52.940231 79.322784 lineto
54.087692 79.322784 lineto
54.087692 79.693878 lineto
52.940231 79.693878 lineto
52.940231 82.926300 lineto
52.940230 83.342967 53.169722 83.551300 53.628708 83.551300 curveto
53.664513 83.551300 53.716596 83.551300 53.784958 83.551300 curveto
53.853315 83.548045 53.903770 83.546417 53.936325 83.546417 curveto
53.936325 83.766144 lineto
51.558395 83.766144 lineto
51.533981 83.624542 lineto
51.800908 83.543162 51.958785 83.489451 52.007614 83.463409 curveto
52.170374 83.375519 52.251754 83.243683 52.251755 83.067902 curveto
52.251755 79.693878 lineto
52.160608 79.703648 51.875778 79.680861 51.397263 79.625519 curveto
51.397263 79.435089 lineto
51.800908 79.435093 52.035283 79.397659 52.100388 79.322784 curveto
52.251755 79.322784 lineto
52.251755 79.176300 lineto
52.251754 78.652217 52.308720 78.274613 52.422653 78.043488 curveto
52.510543 77.870967 52.744917 77.600785 53.125778 77.232941 curveto
53.457807 76.913937 53.936322 76.754432 54.561325 76.754425 curveto
54.896608 76.754432 55.270957 76.946489 55.684372 77.330597 curveto
fill
0.0000000 0.0000000 0.0000000 setrgbcolor
[1.8593187 3.7186372] 0.0000000 setdash
0.46482962 setlinewidth
0 setlinejoin
0 setlinecap
newpath
121.34813 33.519660 moveto
13.975185 61.610326 lineto
stroke
0.0000000 0.0000000 0.0000000 setrgbcolor
[] 0 setdash
0.35587418 setlinewidth
0 setlinejoin
0 setlinecap
newpath
89.970233 70.837156 moveto
63.669140 70.837156 lineto
stroke
gsave [-0.21352451 2.6148347e-17 -2.6148347e-17 -0.21352451 88.262037 70.837156] concat
0.0000000 0.0000000 0.0000000 setrgbcolor
newpath
0.0000000 0.0000000 moveto
5.0000000 -5.0000000 lineto
-12.500000 0.0000000 lineto
5.0000000 5.0000000 lineto
0.0000000 0.0000000 lineto
closepath
eofill
0.0000000 0.0000000 0.0000000 setrgbcolor
[] 0 setdash
1.2500000 setlinewidth
0 setlinejoin
0 setlinecap
newpath
0.0000000 0.0000000 moveto
5.0000000 -5.0000000 lineto
-12.500000 0.0000000 lineto
5.0000000 5.0000000 lineto
0.0000000 0.0000000 lineto
closepath
stroke
0.0000000 0.0000000 0.0000000 setrgbcolor
[] 0 setdash
1.5000000 setlinewidth
0 setlinejoin
0 setlinecap
newpath
-14.759949 -7.0000000 moveto
-14.759949 65.000000 lineto
stroke
grestore
gsave [0.21352451 -2.6148347e-17 -2.6148347e-17 -0.21352451 65.377336 70.837156] concat
0.0000000 0.0000000 0.0000000 setrgbcolor
newpath
0.0000000 0.0000000 moveto
5.0000000 -5.0000000 lineto
-12.500000 0.0000000 lineto
5.0000000 5.0000000 lineto
0.0000000 0.0000000 lineto
closepath
eofill
0.0000000 0.0000000 0.0000000 setrgbcolor
[] 0 setdash
1.2500000 setlinewidth
0 setlinejoin
0 setlinecap
newpath
0.0000000 0.0000000 moveto
5.0000000 -5.0000000 lineto
-12.500000 0.0000000 lineto
5.0000000 5.0000000 lineto
0.0000000 0.0000000 lineto
closepath
stroke
0.0000000 0.0000000 0.0000000 setrgbcolor
[] 0 setdash
1.5000000 setlinewidth
0 setlinejoin
0 setlinecap
newpath
-14.759949 -7.0000000 moveto
-14.759949 65.000000 lineto
stroke
grestore
0.0000000 0.0000000 0.0000000 setrgbcolor
newpath
25.320156 47.062294 moveto
25.320151 47.739379 25.103680 48.289509 24.670742 48.712685 curveto
24.241051 49.135862 23.686039 49.347450 23.005703 49.347450 curveto
22.390467 49.347450 21.858241 49.130979 21.409023 48.698036 curveto
20.963059 48.261839 20.740078 47.737751 20.740078 47.125771 curveto
20.740078 46.425904 20.945156 45.856243 21.355312 45.416786 curveto
21.768723 44.977337 22.323735 44.757611 23.020351 44.757607 curveto
23.684411 44.757611 24.232913 44.975710 24.665859 45.411903 curveto
25.102053 45.848105 25.320151 46.398234 25.320156 47.062294 curveto
24.436367 47.491982 moveto
24.436363 46.847453 24.335452 46.308716 24.133633 45.875771 curveto
23.863447 45.296347 23.443526 45.006634 22.873867 45.006630 curveto
22.362798 45.006634 22.009608 45.211712 21.814297 45.621864 curveto
21.677577 45.908326 21.609218 46.339641 21.609219 46.915810 curveto
21.609218 47.443155 21.737798 47.918415 21.994961 48.341591 curveto
22.294438 48.833128 22.691573 49.078896 23.186367 49.078896 curveto
24.019697 49.078896 24.436363 48.549925 24.436367 47.491982 curveto
fill
0.0000000 0.0000000 0.0000000 setrgbcolor
newpath
30.139492 46.959755 moveto
30.139488 47.705199 29.888837 48.296019 29.387539 48.732216 curveto
28.912275 49.142372 28.295414 49.347450 27.536953 49.347450 curveto
27.055181 49.347450 26.522955 49.274208 25.940273 49.127724 curveto
25.940273 43.146278 lineto
25.940273 42.999800 25.855638 42.884241 25.686367 42.799599 curveto
25.536628 42.724735 25.355964 42.690556 25.144375 42.697060 curveto
25.131355 42.697066 25.118334 42.674280 25.105312 42.628700 curveto
25.089037 42.583134 25.069506 42.552210 25.046719 42.535927 curveto
25.587083 42.480595 26.119309 42.330856 26.643398 42.086708 curveto
26.643398 45.446083 lineto
27.112147 45.169394 27.388839 45.009889 27.473476 44.967567 curveto
27.795740 44.814577 28.101729 44.738080 28.391445 44.738075 curveto
28.944827 44.738080 29.385908 44.978965 29.714687 45.460732 curveto
29.997886 45.880657 30.139488 46.380331 30.139492 46.959755 curveto
29.353359 47.184364 moveto
29.353355 46.715617 29.239423 46.285930 29.011562 45.895302 curveto
28.741377 45.436321 28.389815 45.206829 27.956875 45.206825 curveto
27.777836 45.206829 27.543461 45.263795 27.253750 45.377724 curveto
26.947759 45.498170 26.744309 45.621868 26.643398 45.748817 curveto
26.643398 48.307411 lineto
26.643397 48.519001 26.814296 48.699664 27.156094 48.849403 curveto
27.432785 48.973102 27.696456 49.034951 27.947109 49.034950 curveto
28.399580 49.034951 28.756025 48.831500 29.016445 48.424599 curveto
29.241051 48.076293 29.353355 47.662882 29.353359 47.184364 curveto
fill
0.0000000 0.0000000 0.0000000 setrgbcolor
newpath
33.303555 49.786903 moveto
33.303552 50.301225 33.090336 50.787878 32.663906 51.246864 curveto
32.328618 51.608190 31.905442 51.788854 31.394375 51.788857 curveto
31.130703 51.788854 30.894701 51.748164 30.686367 51.666786 curveto
30.399909 51.559362 30.255053 51.398229 30.251797 51.183388 curveto
30.248542 51.105261 30.290860 51.015743 30.378750 50.914833 curveto
30.463386 50.813920 30.548021 50.763464 30.632656 50.763466 curveto
30.707526 50.763464 30.880052 50.862748 31.150234 51.061317 curveto
31.420416 51.263138 31.627122 51.364050 31.770351 51.364052 curveto
32.011236 51.364050 32.198410 51.268021 32.331875 51.075966 curveto
32.452316 50.903438 32.512537 50.693477 32.512539 50.446083 curveto
32.512539 45.616982 lineto
32.512537 45.379355 32.395350 45.260540 32.160976 45.260536 curveto
32.073085 45.260540 31.970546 45.275189 31.853359 45.304482 curveto
31.731289 45.109169 lineto
32.346522 44.936647 32.810389 44.752728 33.122890 44.557411 curveto
33.303555 44.689247 lineto
33.303555 49.786903 lineto
33.367031 43.038857 moveto
33.367029 43.178837 33.318201 43.299279 33.220547 43.400185 curveto
33.122888 43.497847 33.004073 43.546675 32.864101 43.546669 curveto
32.724126 43.546675 32.605311 43.497847 32.507656 43.400185 curveto
32.409998 43.299279 32.361170 43.178837 32.361172 43.038857 curveto
32.361170 42.898889 32.409998 42.780074 32.507656 42.682411 curveto
32.605311 42.584762 32.724126 42.535934 32.864101 42.535927 curveto
33.004073 42.535934 33.122888 42.584762 33.220547 42.682411 curveto
33.318201 42.780074 33.367029 42.898889 33.367031 43.038857 curveto
fill
0.0000000 0.0000000 0.0000000 setrgbcolor
newpath
38.650234 48.087685 moveto
38.246585 48.947060 37.606937 49.376747 36.731289 49.376747 curveto
36.168136 49.376747 35.692876 49.130979 35.305508 48.639442 curveto
34.944179 48.180459 34.763515 47.662882 34.763515 47.086708 curveto
34.763515 46.432414 34.949062 45.882284 35.320156 45.436317 curveto
35.717290 44.961061 36.236496 44.723431 36.877773 44.723427 curveto
37.388838 44.723431 37.802249 44.878054 38.118008 45.187294 curveto
38.437014 45.496543 38.596519 45.908326 38.596523 46.422646 curveto
35.442226 46.422646 lineto
35.425950 46.559367 35.417812 46.699341 35.417812 46.842567 curveto
35.417812 47.327595 35.565923 47.773559 35.862148 48.180458 curveto
36.187668 48.632933 36.584803 48.859169 37.053555 48.859169 curveto
37.665531 48.859169 38.131025 48.584105 38.450039 48.033974 curveto
38.489101 48.033974 lineto
38.560712 48.030720 38.614423 48.048623 38.650234 48.087685 curveto
37.849453 46.144325 moveto
37.836429 45.812297 37.720869 45.542115 37.502773 45.333778 curveto
37.284672 45.122194 37.007979 45.016400 36.672695 45.016396 curveto
36.396001 45.016400 36.150233 45.138470 35.935390 45.382607 curveto
35.746587 45.597454 35.618007 45.851360 35.549648 46.144325 curveto
37.849453 46.144325 lineto
fill
0.0000000 0.0000000 0.0000000 setrgbcolor
newpath
41.931484 48.429482 moveto
41.641768 49.002398 41.243005 49.288857 40.735195 49.288857 curveto
40.432459 49.288857 40.178553 49.196083 39.973476 49.010536 curveto
39.758632 48.815224 39.651210 48.567829 39.651211 48.268349 curveto
39.651211 45.206825 lineto
39.177578 45.206825 lineto
39.104336 44.967567 lineto
39.459153 44.834108 39.717942 44.633913 39.880703 44.366982 curveto
40.001145 44.171674 40.108566 43.855919 40.202969 43.419716 curveto
40.373867 43.419716 lineto
40.373867 44.821083 lineto
41.931484 44.821083 lineto
41.726406 45.206825 lineto
40.373867 45.206825 lineto
40.373867 47.970497 lineto
40.373866 48.139769 40.461756 48.322061 40.637539 48.517372 curveto
40.813318 48.712685 40.985844 48.810341 41.155117 48.810341 curveto
41.269047 48.810341 41.410649 48.720823 41.579922 48.541786 curveto
41.752445 48.359495 41.838708 48.268350 41.838711 48.268349 curveto
41.903812 48.268350 41.934737 48.322061 41.931484 48.429482 curveto
fill
0.0000000 0.0000000 0.0000000 setrgbcolor
newpath
48.015030 58.123661 moveto
46.670303 58.123661 lineto
46.658585 58.100224 lineto
46.676163 58.009403 lineto
46.814834 58.009403 46.913467 57.989872 46.972061 57.950809 curveto
47.044326 57.901982 47.080459 57.808232 47.080460 57.669559 curveto
47.080460 55.920536 lineto
47.080459 55.777960 47.010147 55.706671 46.869522 55.706669 curveto
46.816787 55.706671 46.755264 55.715460 46.684952 55.733036 curveto
46.611710 55.615849 lineto
46.982803 55.512336 47.261123 55.401984 47.446671 55.284794 curveto
47.555069 55.363895 lineto
47.555069 57.678349 lineto
47.555068 57.869755 47.704482 57.974247 48.003311 57.991825 curveto
48.015030 58.123661 lineto
47.590225 54.373661 moveto
47.590224 54.457649 47.560927 54.529915 47.502335 54.590458 curveto
47.443740 54.649055 47.372451 54.678352 47.288467 54.678349 curveto
47.204482 54.678352 47.133193 54.649055 47.074600 54.590458 curveto
47.016006 54.529915 46.986709 54.457649 46.986710 54.373661 curveto
46.986709 54.289681 47.016006 54.218392 47.074600 54.159794 curveto
47.133193 54.101204 47.204482 54.071907 47.288467 54.071903 curveto
47.372451 54.071907 47.443740 54.101204 47.502335 54.159794 curveto
47.560927 54.218392 47.590224 54.289681 47.590225 54.373661 curveto
fill
0.0000000 0.0000000 0.0000000 setrgbcolor
newpath
53.054092 58.123661 moveto
51.756241 58.123661 lineto
51.756241 57.991825 lineto
52.021862 57.991825 52.154674 57.859989 52.154678 57.596317 curveto
52.154678 56.263309 lineto
52.154674 56.097296 52.114635 55.951788 52.034561 55.826786 curveto
51.940807 55.682257 51.814831 55.609992 51.656631 55.609989 curveto
51.414441 55.609992 51.126355 55.732062 50.792374 55.976200 curveto
50.792374 57.739872 lineto
50.792371 57.900028 50.948621 57.980106 51.261124 57.980106 curveto
51.275772 58.123661 lineto
49.980850 58.123661 lineto
49.980850 57.991825 lineto
50.244520 57.991825 50.376356 57.859989 50.376358 57.596317 curveto
50.376358 56.263309 lineto
50.376356 56.095343 50.342176 55.950812 50.273819 55.829716 curveto
50.189833 55.683234 50.069715 55.609992 49.913467 55.609989 curveto
49.667372 55.609992 49.365615 55.741827 49.008194 56.005497 curveto
49.008194 57.678349 lineto
49.008193 57.869755 49.155654 57.974247 49.450577 57.991825 curveto
49.432999 58.123661 lineto
48.193741 58.123661 lineto
48.182022 58.100224 lineto
48.199600 58.009403 lineto
48.320694 58.009403 48.418350 57.959599 48.492569 57.859989 curveto
48.560928 57.768193 48.595108 57.659794 48.595108 57.534794 curveto
48.595108 55.920536 lineto
48.595108 55.850226 48.534561 55.794562 48.413467 55.753544 curveto
48.397842 55.747687 48.306045 55.726203 48.138077 55.689091 curveto
48.138077 55.615849 lineto
48.157608 55.594367 48.182022 55.578742 48.211319 55.568974 curveto
48.365616 55.516242 48.596084 55.421515 48.902725 55.284794 curveto
49.008194 55.363895 lineto
49.008194 55.891239 lineto
49.572646 55.527961 49.962294 55.346320 50.177139 55.346317 curveto
50.307997 55.346320 50.430067 55.406867 50.543350 55.527958 curveto
50.639051 55.631476 50.708387 55.752570 50.751358 55.891239 curveto
51.315808 55.527961 51.705456 55.346320 51.920303 55.346317 curveto
52.129284 55.346320 52.296276 55.443000 52.421280 55.636356 curveto
52.530651 55.804327 52.585338 55.997687 52.585342 56.216434 curveto
52.585342 57.739872 lineto
52.585338 57.900028 52.735728 57.980106 53.036514 57.980106 curveto
53.054092 58.123661 lineto
fill
0.0000000 0.0000000 0.0000000 setrgbcolor
newpath
55.860733 57.830692 moveto
55.665418 57.973271 55.565809 58.046513 55.561905 58.050419 curveto
55.434950 58.128544 55.317762 58.167606 55.210342 58.167606 curveto
55.042372 58.167606 54.927138 58.039677 54.864639 57.783817 curveto
54.628310 57.955692 54.497450 58.048466 54.472061 58.062138 curveto
54.343154 58.134403 54.194716 58.170536 54.026749 58.170536 curveto
53.860732 58.170536 53.720108 58.113895 53.604874 58.000614 curveto
53.491592 57.885380 53.434952 57.745732 53.434952 57.581669 curveto
53.434952 57.376591 53.516006 57.208623 53.678116 57.077763 curveto
53.773818 57.001592 53.944717 56.912725 54.190811 56.811161 curveto
54.852921 56.538700 lineto
54.852921 56.102177 lineto
54.852919 55.947882 54.797255 55.817999 54.685928 55.712528 curveto
54.576552 55.607062 54.443740 55.554328 54.287491 55.554325 curveto
54.039443 55.554328 53.915420 55.686163 53.915421 55.949833 curveto
53.915420 55.967413 53.919326 55.990851 53.927139 56.020145 curveto
53.934951 56.049444 53.938857 56.071905 53.938858 56.087528 curveto
53.938857 56.159796 53.884170 56.224249 53.774796 56.280888 curveto
53.679092 56.331671 53.591201 56.357061 53.511124 56.357059 curveto
53.477920 56.357061 53.461319 56.329718 53.461319 56.275028 curveto
53.461319 56.015265 53.570694 55.802374 53.789444 55.636356 curveto
53.988662 55.484015 54.223037 55.407843 54.492569 55.407841 curveto
54.762099 55.407843 54.959364 55.457648 55.084366 55.557255 curveto
55.223036 55.666632 55.292372 55.852179 55.292374 56.113895 curveto
55.292374 57.622684 lineto
55.292372 57.790654 55.349989 57.874638 55.465225 57.874638 curveto
55.537488 57.874638 55.667371 57.819950 55.854874 57.710575 curveto
55.860733 57.830692 lineto
54.855850 57.587528 moveto
54.852921 56.708622 lineto
54.258194 56.969364 lineto
53.990615 57.086553 53.856826 57.275029 53.856827 57.534794 curveto
53.856826 57.646122 53.892959 57.734990 53.965225 57.801395 curveto
54.037490 57.867802 54.129287 57.901005 54.240616 57.901005 curveto
54.355849 57.901005 54.467177 57.868778 54.574600 57.804325 curveto
54.621474 57.775029 54.715224 57.702763 54.855850 57.587528 curveto
fill
0.0000000 0.0000000 0.0000000 setrgbcolor
newpath
58.699600 55.917606 moveto
57.990616 55.841434 lineto
58.098035 56.003546 58.151746 56.186163 58.151749 56.389286 curveto
58.151746 56.652959 58.025770 56.863897 57.773819 57.022099 curveto
57.558973 57.156865 57.310927 57.224248 57.029678 57.224247 curveto
56.904677 57.224248 56.772841 57.210576 56.634171 57.183231 curveto
56.372451 57.321904 56.241592 57.445927 56.241592 57.555302 curveto
56.241592 57.680302 56.451553 57.756474 56.871475 57.783817 curveto
57.476942 57.824833 57.866590 57.869755 58.040421 57.918583 curveto
58.460340 58.035771 58.670301 58.267216 58.670303 58.612919 curveto
58.670301 58.911746 58.457410 59.160769 58.031631 59.359989 curveto
57.680067 59.526003 57.334364 59.609011 56.994522 59.609013 curveto
56.730849 59.609011 56.498428 59.574831 56.297256 59.506474 curveto
56.010147 59.406863 55.866592 59.252566 55.866592 59.043583 curveto
55.866592 58.748660 56.079483 58.448856 56.505264 58.144169 curveto
56.497451 58.126591 56.438857 58.103153 56.329483 58.073856 curveto
56.198623 58.040653 56.102920 58.003544 56.042374 57.962528 curveto
55.940811 57.894169 55.890030 57.801396 55.890030 57.684208 curveto
55.890030 57.565068 55.927139 57.474248 56.001358 57.411747 curveto
56.042373 57.376591 56.126358 57.335576 56.253311 57.288700 curveto
56.372451 57.243779 56.458389 57.196904 56.511124 57.148075 curveto
56.122451 57.021123 55.928116 56.756475 55.928116 56.354130 curveto
55.928116 56.072882 56.035538 55.836554 56.250381 55.645145 curveto
56.457412 55.461554 56.703506 55.369758 56.988663 55.369755 curveto
57.328505 55.369758 57.596083 55.459601 57.791397 55.639286 curveto
58.682022 55.580692 lineto
58.683972 55.647101 58.689832 55.759406 58.699600 55.917606 curveto
57.712296 56.377567 moveto
57.712294 56.164679 57.645887 55.973273 57.513077 55.803349 curveto
57.368544 55.619757 57.192763 55.527961 56.985733 55.527958 curveto
56.774795 55.527961 56.613662 55.623664 56.502335 55.815067 curveto
56.410537 55.973273 56.364639 56.165655 56.364639 56.392216 curveto
56.364639 56.843389 56.590224 57.068975 57.041397 57.068974 curveto
57.488661 57.068975 57.712294 56.838506 57.712296 56.377567 curveto
58.274796 58.674442 moveto
58.274793 58.471317 58.141004 58.329716 57.873428 58.249638 curveto
57.732801 58.208622 57.516005 58.181278 57.223038 58.167606 curveto
57.094130 58.155888 56.899794 58.144169 56.640030 58.132450 curveto
56.364639 58.351200 56.226944 58.616825 56.226944 58.929325 curveto
56.226944 59.220340 56.564834 59.365847 57.240616 59.365849 curveto
57.443739 59.365847 57.659559 59.301394 57.888077 59.172489 curveto
58.145887 59.026004 58.274793 58.859988 58.274796 58.674442 curveto
fill
0.0000000 0.0000000 0.0000000 setrgbcolor
newpath
61.307022 57.402958 moveto
61.064832 57.918583 60.681044 58.176395 60.155655 58.176395 curveto
59.817763 58.176395 59.532607 58.028935 59.300186 57.734013 curveto
59.083389 57.458623 58.974991 57.148076 58.974991 56.802372 curveto
58.974991 56.409796 59.086319 56.079718 59.308975 55.812138 curveto
59.547256 55.526984 59.858779 55.384406 60.243546 55.384403 curveto
60.550185 55.384406 60.798231 55.477179 60.987686 55.662724 curveto
61.179090 55.848273 61.274793 56.095343 61.274796 56.403934 curveto
59.382217 56.403934 lineto
59.372451 56.485967 59.367569 56.569952 59.367569 56.655888 curveto
59.367569 56.946904 59.456436 57.214482 59.634171 57.458622 curveto
59.829482 57.730107 60.067763 57.865849 60.349014 57.865849 curveto
60.716200 57.865849 60.995497 57.700810 61.186905 57.370731 curveto
61.210342 57.370731 lineto
61.253309 57.368779 61.285535 57.379521 61.307022 57.402958 curveto
60.826553 56.236942 moveto
60.818739 56.037726 60.749403 55.875616 60.618546 55.750614 curveto
60.487685 55.623664 60.321669 55.560187 60.120499 55.560184 curveto
59.954482 55.560187 59.807021 55.633429 59.678116 55.779911 curveto
59.564834 55.908820 59.487686 56.061163 59.446671 56.236942 curveto
60.826553 56.236942 lineto
fill
grestore
showpage
