%!PS-Adobe-3.0 EPSF-3.0
%%Creator: inkscape 0.44.1
%%Pages: 1
%%Orientation: Portrait
%%BoundingBox: 10 739 167 837
%%HiResBoundingBox: 10.07933 739.36934 166.75857 836.7127
%%DocumentMedia: plain 596 842 0 () ()
%%EndComments
%%Page: 1 1
0 842 translate
0.8 -0.8 scale
gsave [1 0 0 1 0 0] concat
gsave
0.627451 0.627451 0.627451 setrgbcolor
newpath
25.792473 86.024292 moveto
27.910967 86.024292 lineto
27.910967 126.71162 lineto
25.792473 126.71162 lineto
25.792473 86.024292 lineto
closepath
eofill
grestore
0 0 0 setrgbcolor
[] 0 setdash
0.27398124 setlinewidth
0 setlinejoin
1 setlinecap
newpath
25.792473 86.024292 moveto
27.910967 86.024292 lineto
27.910967 126.71162 lineto
25.792473 126.71162 lineto
25.792473 86.024292 lineto
closepath
stroke
gsave
0.627451 0.627451 0.627451 setrgbcolor
newpath
25.792473 6.6082988 moveto
27.910967 6.6082988 lineto
27.910967 47.295627 lineto
25.792473 47.295627 lineto
25.792473 6.6082988 lineto
closepath
eofill
grestore
0 0 0 setrgbcolor
[] 0 setdash
0.27398124 setlinewidth
0 setlinejoin
1 setlinecap
newpath
25.792473 6.6082988 moveto
27.910967 6.6082988 lineto
27.910967 47.295627 lineto
25.792473 47.295627 lineto
25.792473 6.6082988 lineto
closepath
stroke
gsave
0.627451 0.627451 0.627451 setrgbcolor
newpath
25.780291 49.965714 moveto
27.92315 49.965714 lineto
27.92315 83.35421 lineto
25.780291 83.35421 lineto
25.780291 49.965714 lineto
closepath
eofill
grestore
0 0 0 setrgbcolor
[] 0 setdash
0.24961625 setlinewidth
0 setlinejoin
1 setlinecap
newpath
25.780291 49.965714 moveto
27.92315 49.965714 lineto
27.92315 83.35421 lineto
25.780291 83.35421 lineto
25.780291 49.965714 lineto
closepath
stroke
0 0 0 setrgbcolor
[] 0 setdash
0.2 setlinewidth
0 setlinejoin
0 setlinecap
newpath
18.38936 84.398367 moveto
18.38936 48.596074 lineto
stroke
gsave [1.2246064e-17 -0.2 0.2 1.2246064e-17 18.38936 84.398367] concat
1 1 1 setrgbcolor
[] 0 setdash
1.15 setlinewidth
0 setlinejoin
2 setlinecap
newpath
0 0 moveto
2 0 lineto
stroke
gsave
0 0 0 setrgbcolor
newpath
0 0 moveto
13 4 lineto
9 0 lineto
13 -4 lineto
0 0 lineto
closepath
eofill
grestore
0 0 0 setrgbcolor
[] 0 setdash
1 setlinewidth
0 setlinejoin
2 setlinecap
newpath
0 -4 moveto
0 40 lineto
stroke
grestore
gsave [1.2246064e-17 -0.2 0.2 1.2246064e-17 18.38936 48.596074] concat
1 1 1 setrgbcolor
[] 0 setdash
1.15 setlinewidth
0 setlinejoin
2 setlinecap
newpath
0 0 moveto
-2 0 lineto
stroke
gsave
0 0 0 setrgbcolor
newpath
0 0 moveto
-13 4 lineto
-9 0 lineto
-13 -4 lineto
0 0 lineto
closepath
eofill
grestore
0 0 0 setrgbcolor
[] 0 setdash
1 setlinewidth
0 setlinejoin
2 setlinecap
newpath
0 -4 moveto
0 40 lineto
stroke
grestore
gsave
0 0 0 setrgbcolor
newpath
17.643108 68.622513 moveto
17.415239 68.700638 17.185747 68.780391 16.954632 68.861771 curveto
16.690956 68.962682 16.472857 69.065221 16.300335 69.169388 curveto
16.271034 69.188919 16.24011 69.198685 16.207561 69.198685 curveto
16.148964 69.198685 16.111529 69.136836 16.095257 69.013138 curveto
16.082232 68.925247 16.078977 68.803177 16.085491 68.646927 curveto
16.098508 68.432084 16.105019 68.344193 16.105022 68.383255 curveto
15.831582 68.552526 15.558144 68.723425 15.28471 68.89595 curveto
14.985228 69.065221 14.669473 69.149857 14.337444 69.149857 curveto
13.819865 69.149857 13.391805 68.905716 13.053265 68.417435 curveto
12.75053 67.981238 12.599163 67.494585 12.599163 66.957474 curveto
12.599163 66.257607 12.804241 65.694456 13.214397 65.268021 curveto
13.696167 64.769978 14.247924 64.520955 14.869671 64.52095 curveto
15.383991 64.520955 15.795774 64.608845 16.105022 64.784622 curveto
16.105022 62.846146 lineto
16.105019 62.598756 15.924355 62.475059 15.56303 62.475052 curveto
15.559772 62.475059 15.453978 62.479941 15.245647 62.4897 curveto
15.245647 62.318802 lineto
15.750202 62.253705 16.258013 62.086061 16.769085 61.815872 curveto
16.769085 68.158646 lineto
16.769081 68.240027 16.801633 68.316524 16.866741 68.388138 curveto
16.931841 68.456498 17.003455 68.490677 17.081585 68.490677 curveto
17.146684 68.490677 17.241085 68.484167 17.364788 68.471146 curveto
17.488481 68.458125 17.581254 68.451615 17.643108 68.451614 curveto
17.643108 68.622513 lineto
16.105022 68.192825 moveto
16.105022 65.678177 lineto
15.88041 65.35917 15.672077 65.142699 15.480022 65.028763 curveto
15.265176 64.905069 14.972207 64.84322 14.601116 64.843216 curveto
14.13562 64.84322 13.795451 65.092243 13.580608 65.590286 curveto
13.427613 65.948362 13.351115 66.392698 13.351116 66.923294 curveto
13.351115 67.339962 13.479696 67.72896 13.736858 68.090286 curveto
14.02006 68.484167 14.361857 68.681107 14.762249 68.681107 curveto
15.038939 68.681107 15.48653 68.518347 16.105022 68.192825 curveto
fill
grestore
gsave
0.627451 0.627451 0.627451 setrgbcolor
newpath
198.22098 6.6975842 moveto
200.1609 6.6975842 lineto
200.1609 127.92423 lineto
198.22098 127.92423 lineto
198.22098 6.6975842 lineto
closepath
eofill
grestore
0 0 0 setrgbcolor
[] 0 setdash
0.45255244 setlinewidth
0 setlinejoin
1 setlinecap
newpath
198.22098 6.6975842 moveto
200.1609 6.6975842 lineto
200.1609 127.92423 lineto
198.22098 127.92423 lineto
198.22098 6.6975842 lineto
closepath
stroke
0 0 0 setrgbcolor
[] 0 setdash
0.2 setlinewidth
0 setlinejoin
0 setlinecap
newpath
28.641834 111.57556 moveto
197.07535 111.57556 lineto
stroke
gsave [0.080000001 0 0 0.080000001 29.441834 111.57556] concat
gsave
0 0 0 setrgbcolor
newpath
0 0 moveto
5 -5 lineto
-12.5 0 lineto
5 5 lineto
0 0 lineto
closepath
eofill
grestore
0 0 0 setrgbcolor
[] 0 setdash
1.25 setlinewidth
0 setlinejoin
0 setlinecap
newpath
0 0 moveto
5 -5 lineto
-12.5 0 lineto
5 5 lineto
0 0 lineto
closepath
stroke
grestore
gsave [-0.080000001 0 0 -0.080000001 196.27535 111.57556] concat
gsave
0 0 0 setrgbcolor
newpath
0 0 moveto
5 -5 lineto
-12.5 0 lineto
5 5 lineto
0 0 lineto
closepath
eofill
grestore
0 0 0 setrgbcolor
[] 0 setdash
1.25 setlinewidth
0 setlinejoin
0 setlinecap
newpath
0 0 moveto
5 -5 lineto
-12.5 0 lineto
5 5 lineto
0 0 lineto
closepath
stroke
grestore
gsave
0 0 0 setrgbcolor
newpath
107.88615 107.92838 moveto
107.5004 109.62271 lineto
102.00236 109.62271 lineto
102.00236 109.44205 lineto
102.78035 109.43228 103.16935 109.21093 103.16935 108.77798 curveto
103.16935 103.52408 lineto
103.16935 103.22786 103.06193 103.03418 102.84708 102.94302 curveto
102.72339 102.8942 102.48087 102.86979 102.11954 102.86978 curveto
102.11954 102.69888 lineto
105.22013 102.69888 lineto
105.22013 102.85513 lineto
105.14689 102.85025 lineto
104.89623 102.847 104.66512 102.89583 104.45353 102.99673 curveto
104.1866 103.12369 104.05314 103.3011 104.05314 103.52896 curveto
104.05314 108.69009 lineto
104.05314 109.05142 104.19148 109.23209 104.46818 109.23209 curveto
106.53361 109.23209 lineto
106.85261 109.23209 107.11791 109.0856 107.32951 108.79263 curveto
107.50203 108.55826 107.62084 108.26366 107.68595 107.90884 curveto
107.88615 107.92838 lineto
fill
grestore
0 0 0 setrgbcolor
[1.6 0.80000001] 0 setdash
0.2 setlinewidth
0 setlinejoin
0 setlinecap
newpath
28.641834 66.49722 moveto
197.07535 66.49722 lineto
stroke
0 0 0 setrgbcolor
[] 0 setdash
0.5 setlinewidth
0 setlinejoin
0 setlinecap
newpath
27.828146 48.596074 moveto
197.88904 14.095682 lineto
stroke
0 0 0 setrgbcolor
[] 0 setdash
0.5 setlinewidth
0 setlinejoin
0 setlinecap
newpath
27.935078 84.61691 moveto
197.78211 14.202614 lineto
stroke
0 0 0 setrgbcolor
[1.6 0.8] 0 setdash
0.2 setlinewidth
0 setlinejoin
0 setlinecap
newpath
28.479097 66.334483 moveto
197.07535 14.25842 lineto
stroke
0 0 0 setrgbcolor
[] 0 setdash
0.2 setlinewidth
0 setlinejoin
0 setlinecap
newpath
27.990884 48.433336 moveto
40.847162 79.190761 lineto
stroke
0 0 0 setrgbcolor
[] 0 setdash
0.2 setlinewidth
0 setlinejoin
0 setlinecap
newpath
45.241079 60.964139 moveto
45.241079 60.964139 47.031194 63.567942 47.031194 66.334483 curveto
stroke
gsave
0 0 0 setrgbcolor
newpath
54.146854 64.62236 moveto
53.915729 64.951137 53.7725 65.146449 53.717167 65.208298 curveto
53.512084 65.432907 53.308634 65.545212 53.106815 65.545212 curveto
52.751994 65.545212 52.48995 65.131801 52.320683 64.304977 curveto
51.757528 65.148077 51.080446 65.569626 50.289433 65.569626 curveto
49.778364 65.569626 49.377973 65.32223 49.088261 64.827438 curveto
48.847375 64.410773 48.726932 63.927375 48.726933 63.377243 curveto
48.726932 62.677376 48.93201 62.114226 49.342167 61.68779 curveto
49.823937 61.189747 50.375694 60.940724 50.99744 60.94072 curveto
51.941447 60.940724 52.501343 61.518523 52.677128 62.674118 curveto
52.93754 62.052377 53.149129 61.442026 53.311893 60.843063 curveto
53.302123 60.839813 53.29724 60.83493 53.297245 60.828415 curveto
53.29724 60.812144 53.305378 60.805633 53.321659 60.808884 curveto
53.311893 60.843063 lineto
53.590214 61.013962 lineto
53.313516 62.094694 53.028686 62.944303 52.735722 63.56279 curveto
52.748738 63.732063 52.81547 64.015265 52.935917 64.412399 curveto
53.079142 64.871384 53.202839 65.100876 53.307011 65.100876 curveto
53.489297 65.100876 53.720417 64.858363 54.00037 64.373337 curveto
54.146854 64.62236 lineto
52.242558 63.592087 moveto
52.232788 62.862923 52.154663 62.337207 52.008183 62.014938 curveto
51.78357 61.51364 51.357138 61.262989 50.728886 61.262985 curveto
50.263389 61.262989 49.924848 61.508757 49.713261 62.00029 curveto
49.55701 62.361621 49.478885 62.809212 49.478886 63.343063 curveto
49.478885 63.772753 49.576541 64.156867 49.771854 64.495407 curveto
50.002973 64.899054 50.318728 65.100876 50.71912 65.100876 curveto
51.200888 65.100876 51.7087 64.597947 52.242558 63.592087 curveto
fill
grestore
gsave
0 0 0 setrgbcolor
newpath
37.924915 91.714806 moveto
37.924912 91.070277 37.824 90.53154 37.622181 90.098595 curveto
37.351995 89.519172 36.932074 89.229458 36.362415 89.229454 curveto
35.851346 89.229458 35.498156 89.434536 35.302845 89.844688 curveto
35.166125 90.13115 35.097766 90.562465 35.097767 91.138634 curveto
35.097766 91.669235 35.226347 92.144494 35.483509 92.564415 curveto
35.782987 93.055952 36.180122 93.30172 36.674915 93.30172 curveto
37.508245 93.30172 37.924912 92.772749 37.924915 91.714806 curveto
38.808704 91.285118 moveto
38.8087 91.962203 38.592229 92.512333 38.15929 92.935509 curveto
37.726344 93.358686 37.171332 93.570274 36.494251 93.570274 curveto
35.88227 93.570274 35.351672 93.352176 34.902454 92.915977 curveto
34.453235 92.479781 34.228626 91.95732 34.228626 91.348595 curveto
34.228626 90.665004 34.425566 90.106736 34.819447 89.67379 curveto
35.226347 89.224576 35.768338 88.993456 36.445423 88.980431 curveto
36.165473 88.807909 35.883898 88.637011 35.600697 88.467735 curveto
35.245878 88.213834 35.068469 87.968066 35.06847 87.730431 curveto
35.068469 87.391895 35.267037 87.098927 35.664173 86.851524 curveto
36.015734 86.636687 36.372179 86.529266 36.733509 86.529259 curveto
38.006292 86.529266 38.642684 86.877573 38.642689 87.574181 curveto
38.642684 87.71416 38.600367 87.832975 38.515736 87.930626 curveto
38.431096 88.025032 38.320419 88.072233 38.183704 88.072227 curveto
38.092555 88.072233 38.001409 88.042936 37.910267 87.984337 curveto
37.802841 87.919238 37.74913 87.844369 37.749134 87.759727 curveto
37.74913 87.717416 37.755641 87.655567 37.768665 87.574181 curveto
37.781683 87.492806 37.788193 87.430958 37.788197 87.388634 curveto
37.788193 87.245411 37.692164 87.11032 37.500111 86.98336 curveto
37.324326 86.866179 37.161566 86.807586 37.011829 86.807579 curveto
36.757921 86.807586 36.520291 86.880828 36.298939 87.027306 curveto
36.054796 87.193328 35.932726 87.396778 35.932728 87.637657 curveto
35.932726 88.021777 36.180122 88.370084 36.674915 88.682579 curveto
37.553818 89.232714 38.016057 89.528937 38.061634 89.571251 curveto
38.559677 90.013963 38.8087 90.585251 38.808704 91.285118 curveto
fill
grestore
0 0 0 setrgbcolor
[] 0 setdash
0.2 setlinewidth
0 setlinejoin
0 setlinecap
newpath
27.828146 59.336762 moveto
27.828146 59.336762 30.594687 59.174024 31.896588 58.197598 curveto
stroke
gsave
0 0 0 setrgbcolor
newpath
37.059397 54.369884 moveto
36.828272 54.698661 36.685043 54.893973 36.629709 54.955822 curveto
36.424626 55.180431 36.221176 55.292736 36.019358 55.292736 curveto
35.664536 55.292736 35.402492 54.879325 35.233225 54.052502 curveto
34.670071 54.895601 33.992988 55.31715 33.201975 55.31715 curveto
32.690906 55.31715 32.290516 55.069754 32.000803 54.574963 curveto
31.759917 54.158297 31.639475 53.674899 31.639475 53.124767 curveto
31.639475 52.4249 31.844553 51.86175 32.254709 51.435314 curveto
32.736479 50.937272 33.288236 50.688248 33.909983 50.688244 curveto
34.85399 50.688248 35.413885 51.266047 35.58967 52.421642 curveto
35.850083 51.799901 36.061671 51.18955 36.224436 50.590588 curveto
36.214666 50.587337 36.209783 50.582454 36.209787 50.575939 curveto
36.209783 50.559668 36.217921 50.553157 36.234201 50.556408 curveto
36.224436 50.590588 lineto
36.502756 50.761486 lineto
36.226059 51.842219 35.941228 52.691827 35.648264 53.310314 curveto
35.661281 53.479587 35.728012 53.76279 35.848459 54.159924 curveto
35.991684 54.618909 36.115382 54.848401 36.219553 54.8484 curveto
36.40184 54.848401 36.632959 54.605888 36.912912 54.120861 curveto
37.059397 54.369884 lineto
35.1551 53.339611 moveto
35.145331 52.610447 35.067206 52.084731 34.920725 51.762463 curveto
34.696112 51.261165 34.269681 51.010514 33.641428 51.010509 curveto
33.175932 51.010514 32.83739 51.256282 32.625803 51.747814 curveto
32.469552 52.109145 32.391427 52.556736 32.391428 53.090588 curveto
32.391427 53.520277 32.489083 53.904391 32.684397 54.242931 curveto
32.915515 54.646578 33.23127 54.848401 33.631662 54.8484 curveto
34.113431 54.848401 34.621243 54.345471 35.1551 53.339611 curveto
fill
grestore
0 0 0 setrgbcolor
[] 0 setdash
0.2 setlinewidth
0 setlinejoin
0 setlinecap
newpath
39.219785 75.447794 moveto
35.476818 77.237908 lineto
36.941457 80.6554 lineto
stroke
gsave [1 0 0 1 -25.22434 -4.068442] concat
gsave
0.627451 0.627451 0.627451 setrgbcolor
newpath
62.654343 82.09927 moveto
62.665809 81.740128 62.966592 81.457956 63.325733 81.469422 curveto
63.684875 81.480887 63.967047 81.78167 63.955581 82.140812 curveto
63.944116 82.499954 63.643333 82.782126 63.284191 82.77066 curveto
62.932346 82.759427 62.654011 82.472065 62.654011 82.120041 curveto
eofill
grestore
0 0 0 setrgbcolor
[] 0 setdash
0.2 setlinewidth
0 setlinejoin
1 setlinecap
newpath
62.654343 82.09927 moveto
62.665809 81.740128 62.966592 81.457956 63.325733 81.469422 curveto
63.684875 81.480887 63.967047 81.78167 63.955581 82.140812 curveto
63.944116 82.499954 63.643333 82.782126 63.284191 82.77066 curveto
62.932346 82.759427 62.654011 82.472065 62.654011 82.120041 curveto
stroke
grestore
gsave
0 0 0 setrgbcolor
newpath
196.06404 62.978592 moveto
195.84919 63.600338 195.53832 64.113033 195.13142 64.516678 curveto
194.13533 64.676183 193.49568 64.755936 193.21248 64.755936 curveto
192.26196 64.755936 191.45629 64.456457 190.79549 63.857498 curveto
190.11515 63.23901 189.77498 62.459388 189.77498 61.518631 curveto
189.77498 60.476969 190.11189 59.59318 190.78572 58.867264 curveto
191.47908 58.125083 192.34496 57.753989 193.38338 57.753983 curveto
194.06371 57.753989 194.67406 57.879315 195.21443 58.129959 curveto
195.38695 58.208091 195.49763 58.247153 195.54646 58.247147 curveto
195.61156 58.247153 195.66039 58.222739 195.69295 58.173904 curveto
195.84431 58.18367 lineto
195.91267 59.658279 lineto
195.73201 59.658279 lineto
195.59203 59.137452 195.29906 58.727296 194.8531 58.427811 curveto
194.42992 58.141359 193.94001 57.99813 193.38338 57.998123 curveto
192.56306 57.99813 191.899 58.333416 191.39119 59.003983 curveto
190.92895 59.615967 190.69783 60.345133 190.69783 61.191483 curveto
190.69783 62.073647 190.94685 62.835365 191.4449 63.476639 curveto
191.98526 64.173254 192.68513 64.521561 193.54451 64.521561 curveto
194.02302 64.521561 194.48526 64.365311 194.93123 64.052811 curveto
195.36742 63.746822 195.67829 63.369218 195.86385 62.919998 curveto
196.06404 62.978592 lineto
fill
grestore
gsave
0 0 0 setrgbcolor
newpath
190.49661 9.1900606 moveto
190.49661 9.8183203 190.21829 10.347291 189.66165 10.776975 curveto
189.15058 11.170858 188.57115 11.367798 187.92337 11.367795 curveto
187.70201 11.367798 187.40579 11.31897 187.0347 11.221311 curveto
187.02982 13.247678 lineto
187.02981 13.543902 187.14537 13.768512 187.3765 13.921506 curveto
187.57832 14.05497 187.83222 14.113563 188.13821 14.097287 curveto
188.17239 14.234006 lineto
188.16751 14.282834 lineto
185.19876 14.282834 lineto
185.22806 14.06799 lineto
185.28177 14.06799 lineto
185.6138 14.071246 185.84492 14.007769 185.97513 13.877561 curveto
186.10859 13.744098 186.17532 13.51135 186.17532 13.179318 curveto
186.17532 8.1549044 lineto
186.17532 7.7219682 185.85957 7.5071247 185.22806 7.5103731 curveto
185.22806 7.3297091 lineto
185.68053 7.2678671 186.34622 7.2369426 187.22513 7.2369356 curveto
188.20494 7.2369426 188.9276 7.329716 189.3931 7.5152559 curveto
190.12877 7.8082311 190.49661 8.3664988 190.49661 9.1900606 curveto
189.47122 9.1900606 moveto
189.47122 8.7180609 189.32799 8.3176707 189.04153 7.9888887 curveto
188.74205 7.6438433 188.35956 7.4713174 187.89407 7.4713106 curveto
187.78339 7.4713174 187.64016 7.4843382 187.46439 7.5103731 curveto
187.24628 7.5396767 187.10306 7.5575803 187.0347 7.5640841 curveto
187.0347 10.957639 lineto
187.25605 11.019491 187.5832 11.050415 188.01614 11.050412 curveto
188.52721 11.050415 188.90807 10.861613 189.15872 10.484006 curveto
189.36705 10.165 189.47122 9.7336849 189.47122 9.1900606 curveto
fill
grestore
gsave
0 0 0 setrgbcolor
newpath
208.44821 41.272877 moveto
206.25583 41.272877 lineto
206.27536 41.048267 lineto
206.44137 41.022226 206.53903 41.004322 206.56833 40.994556 curveto
206.679 40.952239 206.73434 40.882252 206.73434 40.784595 curveto
206.73434 40.670664 206.56344 40.389089 206.22165 39.939869 curveto
205.99704 39.656667 205.77243 39.371837 205.54782 39.085377 curveto
204.72425 40.032644 204.31247 40.579518 204.31247 40.726002 curveto
204.31247 40.908294 204.55173 41.015716 205.03024 41.048267 curveto
205.03024 41.272877 lineto
203.09665 41.272877 lineto
203.05759 41.111744 lineto
203.47425 41.030364 203.79489 40.854583 204.0195 40.5844 curveto
205.42087 38.919361 lineto
204.3027 37.444752 lineto
204.11716 37.200615 203.80303 37.078545 203.36032 37.078541 curveto
203.34567 36.795338 lineto
205.51852 36.795338 lineto
205.47946 37.000416 lineto
205.14743 37.00042 204.98141 37.063897 204.98141 37.190845 curveto
204.98141 37.281995 205.26462 37.693779 205.83102 38.426197 curveto
206.59763 37.503345 lineto
206.65947 37.42848 206.6904 37.334079 206.6904 37.220142 curveto
206.6904 37.099704 206.51299 37.011813 206.15817 36.95647 curveto
206.13864 36.795338 lineto
208.18454 36.795338 lineto
208.16501 36.936939 lineto
207.77112 36.936944 207.35934 37.137139 206.92966 37.537525 curveto
206.87106 37.589612 206.55205 37.94443 205.97263 38.601978 curveto
206.36976 39.116303 206.87594 39.751068 207.49118 40.506275 curveto
207.77438 40.857838 208.08037 41.031992 208.40915 41.028736 curveto
208.44821 41.272877 lineto
fill
grestore
gsave
0 0 0 setrgbcolor
newpath
95.000092 29.986988 moveto
94.970795 30.206715 lineto
92.86142 30.206715 lineto
92.841888 30.167652 lineto
92.871185 30.016285 lineto
93.076263 30.016285 93.240651 29.933277 93.364349 29.767262 curveto
93.478281 29.617523 93.535247 29.436859 93.535248 29.225269 curveto
93.535248 24.015308 lineto
93.535247 23.898127 93.473398 23.800471 93.349701 23.72234 curveto
93.245534 23.657242 93.129974 23.62469 93.003021 23.624683 curveto
93.003021 23.62469 92.921641 23.640966 92.758881 23.673512 curveto
92.75888 23.657242 92.760508 23.632828 92.763763 23.600269 curveto
92.767018 23.567724 92.768646 23.541682 92.768646 23.522144 curveto
92.768646 23.476578 92.815847 23.437516 92.910248 23.404957 curveto
93.164153 23.326839 93.538502 23.180354 94.033295 22.965504 curveto
94.248138 22.965504 lineto
94.248138 29.464527 lineto
94.248137 29.783538 94.498788 29.957691 95.000092 29.986988 curveto
fill
grestore
gsave
0 0 0 setrgbcolor
newpath
113.5522 58.466087 moveto
113.5229 58.685814 lineto
111.41353 58.685814 lineto
111.394 58.646751 lineto
111.42329 58.495384 lineto
111.62837 58.495384 111.79276 58.412377 111.91646 58.246361 curveto
112.03039 58.096622 112.08736 57.915958 112.08736 57.704369 curveto
112.08736 52.494408 lineto
112.08736 52.377226 112.02551 52.27957 111.90181 52.201439 curveto
111.79764 52.136341 111.68208 52.103789 111.55513 52.103783 curveto
111.55513 52.103789 111.47375 52.120065 111.31099 52.152611 curveto
111.31099 52.136341 111.31262 52.111927 111.31587 52.079369 curveto
111.31913 52.046823 111.32075 52.020782 111.32076 52.001244 curveto
111.32075 51.955677 111.36796 51.916615 111.46236 51.884056 curveto
111.71626 51.805938 112.09061 51.659454 112.5854 51.444603 curveto
112.80025 51.444603 lineto
112.80025 57.943626 lineto
112.80025 58.262637 113.0509 58.436791 113.5522 58.466087 curveto
fill
grestore
gsave
0 0 0 setrgbcolor
newpath
98.208038 32.318398 moveto
95.930695 32.318398 lineto
95.930695 32.181679 lineto
96.482777 32.181679 96.758818 31.959023 96.75882 31.51371 curveto
96.75882 27.38871 lineto
96.618193 27.472048 96.478871 27.555381 96.340851 27.63871 curveto
96.174183 27.732465 96.027048 27.796267 95.899445 27.830116 curveto
95.825226 27.658241 lineto
96.348662 27.39783 96.797881 27.080122 97.172882 26.705116 curveto
97.407257 26.705116 lineto
97.407257 31.51371 lineto
97.407255 31.78194 97.476265 31.964231 97.614288 32.060585 curveto
97.726265 32.141314 97.924182 32.181679 98.208038 32.181679 curveto
98.208038 32.318398 lineto
fill
grestore
gsave
0 0 0 setrgbcolor
newpath
117.84998 60.013596 moveto
117.84998 60.063076 117.7354 60.434169 117.50623 61.126877 curveto
114.2367 61.126877 lineto
114.16248 60.896408 lineto
115.90206 59.492764 116.77186 58.216723 116.77186 57.068283 curveto
116.77186 56.396413 116.46717 56.060476 115.8578 56.060471 curveto
115.18071 56.060476 114.66509 56.379486 114.31092 57.017502 curveto
114.13905 56.943283 lineto
114.27967 56.555267 114.51925 56.228444 114.8578 55.962814 curveto
115.21457 55.68157 115.59217 55.540945 115.99061 55.540939 curveto
116.35779 55.540945 116.66639 55.652924 116.91639 55.876877 curveto
117.1768 56.111257 117.30701 56.409434 117.30701 56.771408 curveto
117.30701 57.930265 116.52186 59.207608 114.95155 60.603439 curveto
117.08826 60.603439 lineto
117.23149 60.60344 117.36821 60.492763 117.49842 60.271408 curveto
117.62863 60.050055 117.68852 59.939378 117.67811 59.939377 curveto
117.69894 59.939378 117.72889 59.951097 117.76795 59.974533 curveto
117.80701 59.995368 117.83435 60.008388 117.84998 60.013596 curveto
fill
grestore
0 0 0 setrgbcolor
[] 0 setdash
0.2 setlinewidth
0 setlinejoin
0 setlinecap
newpath
201.79474 66.49722 moveto
201.79474 13.932945 lineto
stroke
gsave [-4.8984255e-18 0.080000001 -0.080000001 -4.8984255e-18 201.79474 14.732945] concat
gsave
0 0 0 setrgbcolor
newpath
0 0 moveto
5 -5 lineto
-12.5 0 lineto
5 5 lineto
0 0 lineto
closepath
eofill
grestore
0 0 0 setrgbcolor
[] 0 setdash
1.25 setlinewidth
0 setlinejoin
0 setlinecap
newpath
0 0 moveto
5 -5 lineto
-12.5 0 lineto
5 5 lineto
0 0 lineto
closepath
stroke
grestore
grestore
showpage
%%EOF
